[
  {
    "amount": "1 1/3 cups",
    "substitute0": "1 3/4 cups ground blanched almonds plus 1 1/2 cups powdered sugar plus 1 egg white plus 1 teaspoon almond extract plus 1/4 teaspoon salt",
    "ingredient": "Almond",
	"properties": "paste"
  },
  {
    "amount": "1 teaspoon",
    "substitute0": "1/2 teaspoon cinnamon and 1/2 teaspoon ground cloves ",
    "ingredient": "Allspice",
	"properties":""
  },
  {
    "amount": "1 fillet",
    "substitute0": "1/2 teaspoon anchovy paste",
    "ingredient": "Anchovies",
	"properties":""
  },
  {
    "amount": "1 teaspoon",
    "substitute0": "1 teaspoon star anise1 teaspoon cardamom",
	"properties":"Seed",
    "ingredient": "Anise Seed"
  },
  {
    "amount": "1 teaspoon",
    "substitute0": "1 1/2 teaspoon ground anise seed1/2 teaspoon anise powder",
    "ingredient": "Anise",
	"properties":"Extract"
  },
  {
    "amount": "1 teaspoon",
    "substitute0": "1/2 teaspoon cinnamon, 1/4 teaspoon nutmeg, 1/8 teaspoon ground allspice, and either 1/8 teaspoon ground cardamom, ginger or cloves",
    "ingredient": "Apple pie spice ",
	"properties":""
  },
  {
    "amount": "1 tablespoon",
    "substitute0": "1 tablespoon cornstarch2 tablespoons flour (to thicken)2 1/4 teaspoons of either potato starch or rice starch",
    "substitute1": "2 tablespoons flour (to thicken)2 1/4 teaspoons of either potato starch or rice starch",
    "ingredient": "Arrowroot",
	"properties":"starch"
  },
  {
    "substitute7": "1 1/2 teaspoons single-action baking powder",
    "substitute6": "1 1/2 teaspoons phosphate or tartate baking powder",
    "substitute5": "1/4 teaspoon baking soda and 1/4 cup molasses (decrease liquid amount in recipe by 1 to 2 tablespoons) ",
    "substitute4": "1/4 teaspoon baking soda and 1/2 teaspoon lemon juice or vinegar used with sweet milk to make 1/2 cup (decrease liquid amount called for in recipe by 1/2 cup) ",
    "substitute3": "1/4 teaspoon baking soda and 1/2 cup sour milk, buttermilk, or yogurt (decrease liquid amount called for in recipe by 1/2 cup)",
    "substitute2": "1/3 teaspoon baking soda and 1/2 teaspoon cream of tartar ",
    "substitute1": "1/3 teaspoon baking soda and 1/2 teaspoon cream of tarter",
    "substitute0": "1/4 teaspoon baking soda and 5/8 teaspoon cream of tartar",
    "amount": "1 teaspoon",
    "ingredient": "Baking powder",
	"properties":"double actingRule: 1 teaspoon for every 1 cup flour"
  },
  {
    "amount": "1 teaspoon",
    "substitute0": "You need to use 2 to 3 times more double-acting baking powder than baking soda. Replace acidic liquid ingredient in recipe with non-acidic liquid.3/4 teaspoon Ammonium bicarbonate",
    "substitute2": "",
    "substitute1": "3/4 teaspoon Ammonium bicarbonate",
    "ingredient": "Baking Soda",
	"properties":"(Sodium Bicarbonate)Rule: 1/4 teaspoon for every 1 cup flour"
  },
  {
    "amount": "1 whole ",
    "substitute0": "1/4 teaspoon crushed bay leaves",
    "ingredient": "Bay leaf",
	"properties":""
  },
  {
    "substitute3": "see Beau Monde Seasoning Saltrecipe",
    "substitute2": "1/2 teaspoon Mei Yen seasoning",
    "substitute1": "1/2 teaspoon table salt plus dash of garlic salt, onion salt, and celery salt",
    "substitute0": "1 teaspoon seasoning salt ",
    "amount": "1 teaspoon",
    "ingredient": "Beau Monde",
	"properties":"seasoning"
  },
  {
    "amount": "1 cup",
    "substitute0": "1 cup water, white grape juice, apple cider or apple juice, diluted peach or apricot syrups. (Substitute equal amounts of liquid.) ",
    "ingredient": "Beer",
	"properties":""
  },
  {
    "amount": "1/4 cup ",
    "substitute0": "1 tsp brandy extract plus enough water or liquid called for in recipe to make 1/4 cup ",
    "substitute1": "Water, white grape juice, apple cider or apple juice, diluted peach or apricot syrups. (Substitute equal amounts of liquid.) ",
    "ingredient": "Brandy ",
	"properties":""
  },
  {
    "substitute4": "1 cup crushed potato chips",
    "substitute3": "1 cup ground oats",
    "substitute2": "1 cup crushed cornflakes",
    "substitute1": "1 cup matzo meal",
    "substitute0": "1 cup crushed cracker crumbs",
    "amount": "1 cup",
    "ingredient": "Bread Crumbs",
	"properties":"dry"
  },
  {
    "amount": "3/4 cup",
    "substitute0": "1 slice soft or fresh bread",
    "ingredient": "Bread Crumbs",
	"properties":"Soft",
	"properties":""
  },
  {
    "amount": "1 cup ",
    "substitute0": "1 bouillon cube dissolved in 1 cup boiling water ",
    "substitute2": "1 teaspoon powdered broth base dissolved in 1 cup boiling water ",
    "substitute1": "1 cup boiling water",
    "ingredient": "Broth",
	"properties":""
  },
  {
    "amount": "1 cup ",
    "substitute0": "1 bouillon cube dissolved in 1 cup boiling water ",
    "substitute2": "1 teaspoon powdered broth base dissolved in 1 cup boiling water ",
    "substitute1": "1 cup boiling water",
    "ingredient": "beef",
	"properties":""
  },
  {
    "amount": "1 cup ",
    "substitute0": "1 bouillon cube dissolved in 1 cup boiling water ",
    "substitute2": "1 teaspoon powdered broth base dissolved in 1 cup boiling water ",
    "substitute1": "1 cup boiling water",
    "ingredient": "chicken",
	"properties":""
  },
  {
    "substitute5": "To reduce fat and calories - applesauce or prune puree for half of the butter in the recipe",
    "substitute4": "7/8 cup oil",
    "substitute3": "7/8 cup oil plus 1/2 teaspoon salt ",
    "substitute2": "1 cup margarine ",
    "substitute1": "7/8 cup lard plus 1/2 teaspoon salt ",
    "substitute0": "7/8 to 1 cup hydrogenated fat (shortening) and 1/2 teaspoon salt ",
    "amount": "1 cup ",
    "ingredient": "Butter",
	"properties":"low-fat butter in baking"
  },
  {
    "substitute6": "",
    "substitute5": "1 cup water plus 1/4 cup buttermilk powder",
    "substitute4": "1 cup sour cream",
    "substitute3": "1 cup plain or low fat yogurt",
    "substitute2": "1 cup mild-flavored soy milk, plus 1 tablespoons vinegar (white or cider) or lemon juice (let stand 5 minutes before using)",
    "substitute1": "1 cup milk plus 1 1/2 to 1 3/4 teaspoons cream of tartar",
    "substitute0": "1 cup milk plus 1 tablespoons vinegar (white or cider) or lemon juice (let stand 5 minutes before using)",
    "amount": "1 cup",
    "ingredient": "Buttermilk",
	"properties":"sour milk"
  },
  
  {
    "amount": "1 tablespoon",
    "substitute0": "1/2 teaspoon white pepper, 1/2 teaspoon garlic powder, 1/2 teaspoon onion powder, 1/2 teaspoon ground red pepper, 1/2 teaspoon paprika, and 1/2 teaspoon black pepper",
    "ingredient": "Cajun",
	"properties":"Spice"
  },
  {
    "amount": "1 cup",
    "substitute0": "1 cup all-purpose flour minus 2 tablespoons",
    "ingredient": "Cake",
	"properties":"Flour"
  },
  {
    "amount": "1 teaspoon",
    "substitute0": "1 teaspoon ground anise",
    "ingredient": "Cardamon",
	"properties":"ground"
  },
  {
    "amount": "1 cup ",
    "substitute0": "1 cup tomato sauce, 1/2 cup sugar, and 2 tbsp vinegar (for use in cooking)",
    "ingredient": "Catsup ",
	"properties":""
  },
  {
    "amount": "1 tablespoon chopped",
    "substitute0": "1 tablespoon chopped fresh parsley",
    "ingredient": "Chervil",
	"properties":"fresh"
  },
  {
    "amount": "1 teaspoon",
    "substitute0": "1 chicken bouillon cube ",
    "ingredient": "Chicken",
	"properties":"stock base, instant "
  },
  {
    "amount": "1 tbsp dissolved in 1 cup water ",
    "substitute0": "1 cup canned chicken broth ",
    "substitute1": "1 cup homemade chicken broth or chicken stock ",
    "ingredient": "Chicken",
	"properties":"stock base, instant"
  },
  {
    "amount": "1 cup ",
    "substitute0": "1 cup tomato sauce, 1/4 cup brown sugar, 2 tbsp vinegar, 1/4 tsp cinnamon, dash of ground cloves, and dash of allspice ",
    "ingredient": "Chili",
	"properties":"sauce"
  },
  {
    "amount": "2 teaspoons",
    "substitute0": "2 teaspoons finely chopped green onion tops",
    "ingredient": "Chives",
	"properties":"finely chopped"
  },
  {
    "amount": "1 ounce ",
    "substitute0": "1 ounce sweet cooking chocolate ",
    "substitute1": "1 ounce unsweetened chocolate plus 1 tablespoon sugar",
    "ingredient": "Chocolate chips",
	"properties":"semi-sweet Also check out Chocolate Substitution Chart"
  },
  {
    "amount": "6-ounce package ",
    "substitute0": "2 squares unsweetened chocolate, 2 tablespoons shortening, and 1/2 cup sugar",
    "ingredient": "Chocolate chips",
	"properties":"semi-sweet chips, melted "
  },
  {
    "amount": "1 2/3 ounces",
    "substitute0": "1 ounce unsweetened chocolate and 4 teaspoon sugar ",
    "ingredient": "Chocolate",
	"properties":"semi-sweet"
  },
  {
    "amount": "1 square or 1 ounce ",
    "substitute0": "3 tablespoons cocoa powder plus 1 tablespoon butter or margarine",
    "substitute1": "3 tablespoon carob powder plus 2 tablespoons water",
    "ingredient": "Chocolate",
	"properties":"unsweetened"
  },
  {
    "amount": "1 ounce",
    "substitute0": "1 ounce milk chocolate",
    "substitute1": "1 ounce sweet dark chocolate",
    "ingredient": "Chocolate white",
	"properties":""
  },
  {
    "amount": "3 tablespoons",
    "substitute0": "1 ounce (square) chocolate (decrease fat called for in recipe by 1/2 tablespoon) ",
    "substitute2": "3 tablespoons carob powder",
    "substitute1": "3 tablespoon Dutch-processed cocoa plus 1/8 teaspoon cream tartar, lemon juice or white vinegar3 tablespoons carob powder",
    "ingredient": "Cocoa powder",
	"properties":"natural unsweetened"
  },
  {
    "amount": "3 tablespoons",
    "substitute0": "3 tablespoons natural unsweetened cocoa powder plus 1/8 teaspoon baking soda",
    "substitute2": "3 tablespoons carob powder",
    "substitute1": "1 ounce unsweetened chocolate plus 1/8 teaspoon baking soda (reduce fat in recipe by 1 tablespoon)",
    "ingredient": "Cocoa",
	"properties":"Dutch Processed"
  },
  {
    "amount": "1 tablespoon grated, dry ",
    "substitute0": "1 1/2 tablespoons fresh grated coconut ",
    "ingredient": "Coconut",
	"properties":""
  },
  {
    "amount": "1 cup ",
    "substitute0": "1 cup heavy cream or whipping cream ",
    "ingredient": "Coconut cream",
	"properties":"canned"
  },
  {
    "amount": "1 cup ",
    "substitute0": "1 cup whole milk",
    "ingredient": "Coconut milk",
	"properties":"canned"
  },
  {
    "amount": "1/4 cup",
    "substitute0": "2 tablespoons instant espresso powder dissolved in 3 tablespoons hot water",
    "ingredient": "Coffee",
	"properties":"strong brewed"
  },
  {
    "amount": "1 (10.75-ounce can)",
    "substitute0": "1 (10.75 ounce can) condensed cream of celery, cream of chicken, or golden mushroom soup.",
    "ingredient": "mushroom",
	"properties":"Condensed cream,soup"
  },
  {
    "amount": "1 cup ",
    "substitute0": "7/8 cup plain, 1 1/2 tablespoons baking powder, and 1/2 teaspoon salt ",
    "ingredient": "Cornmeal",
	"properties":"self-rising"
  },
  {
    "amount": "1 cup",
    "substitute0": "1 cup regular milled cornmeal, corn grits, polenta, or maize meal",
    "ingredient": "Cornmeal",
	"properties":"stone ground"
  },
  {
    "substitute4": "1 cup maple-flavored syrup",
    "substitute3": "3/4 cup light corn syrup and 1/4 cup molasses ",
    "substitute2": "1 cup light corn syrup",
    "substitute1": "1 cup honey ",
    "substitute0": "1 cup granulated sugar and 1/4 liquid (use whatever liquid is called for in the recipe)",
    "amount": "1 cup ",
    "ingredient": "Corn",
	"properties":"syrup"
  },
  {
    "substitute4": "4 teaspoon. instant tapioca",
    "substitute3": "1 tablespoon arrowroot",
    "substitute2": "1 tablespoon potato or rice starch",
    "substitute1": "2 tablespoon granulated tapioca ",
    "substitute0": "2 tablespoon all-purpose flour ",
    "amount": "1 tablespoon",
    "ingredient": "Cornstarch",
	"properties":"(for thickening)"
  },
  {
    "amount": "1 cup",
    "substitute0": "1 cup farmer's cheese",
    "substitute1": "1 cup ricotta cheese",
    "ingredient": "cheese",
	"properties":"Cottage"
  },
  {
    "amount": "1 cup ",
    "substitute0": "1 cup dry bread crumbs",
    "substitute2": "1 cup matzo meal",
    "substitute1": "1 cup ground oats",
    "ingredient": "Cracker",
	"properties":"crumbs"
  },
  {
    "substitute4": "1/2 cup coffee cream plus 1/2 cup milk ",
    "substitute3": "3 tablespoons oil plus enough milk to equal 1 cup",
    "substitute2": "1 cup evaporated milk, undiluted ",
    "substitute1": "7/8 cup milk and 1/2 tablespoon butter or margarine ",
    "substitute0": "1/2 cup whole milk, plus 1/2 cup light cream",
    "amount": "1 cup ",
    "ingredient": "Cream",
	"properties":"half-and-half"
  },
  {
    "substitute3": "equal parts of part skim milk ricotta cheese and nonfat yogurt beaten until smooth (this mixture cannot be heated because of separation)",
    "substitute2": "1 cup evaporated skim milk",
    "substitute1": "2/3 cup buttermilk plus 1/3 cup oil",
    "substitute0": "3/4 cup milk and 1/3 cup butter or margarine (for use in cooking or baking)",
    "amount": "1 cup ",
    "ingredient": "Cream",
	"properties":"heavy (36 to 40% fat)"
  },
  {
    "amount": "1 cup ",
    "substitute0": "3/4 cup milk and 3 tablespoons butter or margarine (for use in cooking or baking) ",
    "substitute1": "1 cup evaporated milk, undiluted ",
    "ingredient": "Cream",
	"properties":"light (18 to 20% fat)"
  },
  {
    "amount": "any amount",
    "substitute0": "Chill a 13 ounce can of evaporated milk for 12 hours. Add 1 tablespoon lemon juice. Whip until stiff. ",
    "substitute2": "1 cup frozen whipped topping, thawed",
    "substitute1": "Beating until stiff, 1/2 cup ice-cold water and 1/2 cup nonfat dry milk. Slowly add 1/2 cup sugar while beating. Add 2 tablespoons lemon juice (for cooking only)",
    "ingredient": "Cream",
	"properties":"whipped"
  },
  {
    "amount": "1 cup",
    "substitute0": "1 cup pureed cottage cheese",
    "substitute1": "1 cup plain yogurt, strained overnight in a cheesecloth",
    "ingredient": "cheese",
	"properties":"Cream"
  },
  {
    "amount": "1 teaspoon",
    "substitute0": "1 teaspoon lemon juice or vinegar ",
    "ingredient": "Cream",
	"properties":"tartar "
  },
  {
    "substitute3": "1 cup mascarpone cheese",
    "substitute2": "1/2 cup sour cream plus 1/2 cup heavy cream1 cup mascarpone cheese",
    "substitute1": "1 cup sour cream1/2 cup sour cream plus 1/2 cup heavy cream1 cup mascarpone cheese",
    "substitute0": "Combine 1 cup heavy cream and 1 tablespoon plain yogurt. Let stand for 6 hours at room temperature1 cup sour cream1/2 cup sour cream plus 1/2 cup heavy cream1 cup mascarpone cheese",
    "amount": "1 cup",
    "ingredient": "Creme",
	"properties":"fraiche"
  },
  {
    "amount": "1 cup",
    "substitute0": "1 cup raisins",
    "substitute2": "1 cup other dried fruit (cranberries, blueberries, cherries)",
    "substitute1": "1 cup chopped dates",
    "ingredient": "Currants",
	"properties":""
  },
  
  {
    "amount": "3 heads ",
    "substitute0": "1 tablespoons dill seed ",
    "ingredient": "Dill plant",
	"properties":"fresh or dried"
  },
  
  {
    "substitute7": "1/4 cup commercial egg substitute ",
    "substitute6": "Soften 1 tablespoon unflavored gelatin in 3 tablespoons cold water; add 3 teaspoons boiling water; cool and beat until frothy; add to recipe (reduce other liquid by 2 tablespoons) ",
    "substitute5": "1 egg in every 3 can be replaced with 1 tablespoon cornstarch in baking ",
    "substitute4": "1/2 teaspoon baking powder, 1 tablespoon vinegar, and 1 tablespoon liquid (in baking)",
    "substitute3": "2 yolks (in custards, cream fillings, and similar mixtures) ",
    "substitute2": "2 yolks and 1 tablespoon water (in cookies) ",
    "substitute1": "2 1/2 tablespoons sifted, dry whole egg powder and 2 1/2 tablespoons warm water ",
    "substitute0": "3 tablespoons and 1 teaspoon thawed frozen egg ",
    "amount": "1 whole (3 tablespoons or 1.7 ounce) ",
    "ingredient": "Egg",
	"properties":""
  },
  {
    "amount": "1 white (2 tablespoons) ",
    "substitute0": "2 tablespoons thawed frozen egg white ",
    "substitute1": "2 teaspoons sifted, dry egg white powder plus 2 tablespoons lukewarm water",
    "ingredient": "Egg white",
	"properties":""
  },
  {
    "amount": "1 yolk (1 1/2 tablespoons) ",
    "substitute0": "2 tablespoons sifted, dry egg yolk powder and 2 teaspoons water ",
    "substitute1": "1 1/3 tablespoons thawed frozen egg yolk ",
    "ingredient": "Egg yolk",
	"properties":""
  },
  {
    "amount": "1 teaspoon1/4 teaspoon",
    "substitute0": "1/4 teaspoon of oil of similar flavor",
    "substitute1": "2 drops oil of similar flavor",
    "ingredient": "ash lemon",
	"properties":"Extracts"
  },
  {
    "amount": "1 teaspoon1/4 teaspoon",
    "substitute0": "1/4 teaspoon of oil of similar flavor",
    "substitute1": "2 drops oil of similar flavor",
    "ingredient": "mint",
	"properties":"peppermint Extracts"
  },  
  {
    "amount": "1 teaspoon",
    "substitute0": "1 teaspoon Worcestershire sauce",
    "substitute1": "1 teaspoon light soy sauce with salt",
    "ingredient": "Fish",
	"properties":"sauce"
  },
  {
    "substitute5": "1 1/2 teaspoon whole wheat flour and 1/2 teaspoon all purpose flour ",
    "substitute4": "2 tablespoons browned flour ",
    "substitute3": "1 tablespoon waxy corn flour ",
    "substitute2": "1 tablespoon waxy rice flour ",
    "substitute1": "1 tablespoon granular tapioca ",
    "substitute0": "1 1/2 teaspoon cornstarch, arrowroot starch, potato starch, or rice starch ",
    "amount": "1 tablespoon",
    "ingredient": "Flour",
	"properties":"all-purpose (for thickening)"
  },
  {
    "substitute7": "1 cup rye or rice flour ",
    "substitute6": "3/4 cup whole wheat flour or bran flour and 1/4 cup all-purpose flour ",
    "substitute5": "1/2 cup cornmeal, bran, rice flour, rye flour or whole wheat flour and 1/2 cup all-purpose flour ",
    "substitute4": "1/3 cup cornmeal or soybean flour and 2/3 cup all-purpose flour ",
    "substitute3": "1 cup rolled oats ",
    "substitute2": "1 1/2 cup bread crumbs",
    "substitute1": "1 cup minus 2 tablespoons unsifted all-purpose flour",
    "substitute0": "1 cup and 2 tablespoons cake flour ",
    "substitute8": "1/4 cup soybean flour and 3/4 cup all-purpose flour",
    "amount": "1 cup sifted",
    "ingredient": "all-purpose Flour",
	"properties":"Note: Specialty flours added to yeast bread recipes will result in a reduced volume and heavier product. "
  },
  {
    "amount": "1 cup sifted",
    "substitute0": "1 cup sifted all-purpose flour minus 2 tablespoons sifted all-purpose flour ",
    "ingredient": "cake Flour",
	"properties":""
  },
  {
    "amount": "1 cup ",
    "substitute0": "1 cup minus 2 tablespoons all-purpose flour plus 1/1/2 tsp baking powder and 1/2 tsp salt",
    "ingredient": "Flour",
	"properties":"self-rising"
  },
  {
    "amount": "any amount",
    "substitute0": "Substitute whole wheat flour for 1/4 to 1/2 of the white flour called for in a recipe ",
    "ingredient": "whole wheat Flour",
	"properties":""
  },
  
  {
    "substitute3": "1/2 to 1 teaspoon garlic salt (reduce amount salt called for in recipe)",
    "substitute2": "1/2 teaspoon granulated garlic",
    "substitute1": "1/4 teaspoon instant minced garlic ",
    "substitute0": "1/8 teaspoon garlic powder",
    "amount": "1 clove, small",
    "ingredient": "Garlic",
	"properties":""
  },
  {
    "amount": "3/4 teaspoon",
    "substitute0": "1 medium-size clove or 1/2 teaspoon minced fresh garlic",
    "ingredient": "Garlic Salt",
	"properties":""
  },
  {
    "amount": "1 envelope (1/4 ounce), 1 tablespoon granulated",
    "substitute0": "2 teaspoons agar agar",
    "substitute1": "4 sheets gelatin",
    "ingredient": "Gelatin",
	"properties":"powdered"
  },
  {
    "amount": "1 envelope (1/4 ounce), 1 tablespoon granulated",
    "substitute0": "2 teaspoons agar agar",
    "substitute1": "4 sheets gelatin",
    "ingredient": "Gelatin",
	"properties":"plain"
  },
  {
    "amount": "1 envelope (1/4 ounce), 1 tablespoon granulated",
    "substitute0": "2 teaspoons agar agar",
    "substitute1": "4 sheets gelatin",
    "ingredient": "Gelatin",
	"properties":"unflavored"
  },
  {
    "amount": "4 leaves or sheets",
    "substitute0": "1 (1/4 ounce) envelope powdered gelatin",
    "ingredient": "Gelatin",
	"properties":"leaf or sheet"
  },
  {
    "amount": "3-ounce package ",
    "substitute0": "1 tablespoon plain gelatin and 2 cups fruit juice ",
    "ingredient": "Gelatin",
	"properties":"flavored"
  },
  {
    "amount": "1 tablespoon",
    "substitute0": "1 tablespoon butter",
    "substitute1": "1 tablespoon vegetable oil",
    "ingredient": "Ghee",
    "properties": ""
  },
  {
    "amount": "1 teaspoon freshly grated",
    "substitute0": "1/2 teaspoon ground ginger",
    "substitute1": "1 tablespoon candied ginger, rinsed and finely chopped",
    "ingredient": "Ginger",
	"properties":"root, fresh"
  },
  {
    "amount": "1/2 cup chopped",
    "substitute0": "1/2 cup chopped onion",
    "substitute2": "1/2 cup chopped shallots",
    "substitute1": "1/2 cup chopped leek",
    "ingredient": "onions",
	"properties":"green fresh"
  },
 
  {
    "amount": "1 tablespoon finely cut ",
    "substitute0": "1 teaspoon dried ground herbs ",
    "substitute1": "1 teaspoon dried crumbled herbs",
    "ingredient": "Herbs",
	"properties":"fresh"
  },
  {
    "amount": "8 ounces",
    "substitute0": "8 ounces sardines",
    "ingredient": "Herring",
	"properties":""
  },
  {
    "amount": "1 cup ",
    "substitute0": "1 1/4 cup granulated sugar and 1/4 cup liquid (use liquid called for in recipe) ",
    "substitute1": "1 cup light molasses, light or dark corn syrup, light treacle syrup, or maple syrup",
    "ingredient": "Honey",
	"properties":""
  },
  {
    "amount": "1 tablespoon fresh",
    "substitute0": "2 tablespoons bottled ",
    "ingredient": "Horseradish",
	"properties":""
  },
  {
    "amount": "1 teaspoon",
    "substitute0": "3/4 teaspoon cayenne pepper plus 1 teaspoon vinegar",
    "ingredient": "pepper",
	"properties":"Hot sauce"
  },
  
  {
    "amount": "",
    "substitute0": "Combine 1 teaspoon basil, 1 tablespoon fresh or dried parsley, and 1/2 teaspoon oregano ",
    "ingredient": "Italian Seasoning",
	"properties":""
  },
 
  {
    "amount": "1 tablespoon juice",
    "substitute0": "1 tablespoon bottled lemon juice",
    "substitute1": "1 tablespoon fresh lime juice",
    "ingredient": "Lemon",
	"properties":"juice, freshly squeezed"
  },
  {
    "amount": "1 medium",
    "substitute0": "2 tablespoons lemon juice and 2 to 3 teaspoons lemon rind (zest)",
    "ingredient": "Lemon",
	"properties":"whole"
  },
  {
    "amount": "1 teaspoon",
    "substitute0": "1 to 2 teaspoons grated fresh lemon peel (zest)",
    "substitute2": "1/2 teaspoon lemon extract",
    "substitute1": "grated peel of 1 medium lemon ",
    "ingredient": "Lemon",
	"properties":"peel, dried"
  },
  {
    "amount": "1 teaspoon",
    "substitute0": "1/2 teaspoon lemon extract",
    "substitute2": "1 teaspoon lime zest",
    "substitute1": "2 tablespoon lemon juice",
    "ingredient": "Lemon",
	"properties":"zest (peel)"
  },
  {
    "amount": "",
    "substitute0": "Equal amount of grated lemon zest moistened with a bit of fresh lemon juice",
    "ingredient": "Lemon grass",
	"properties":""
  },
  {
    "amount": "1 tablespoon juice",
    "substitute0": "1 tablespoon bottled lime juice",
    "substitute1": "1 tablespoon fresh lemon juice",
    "ingredient": "Lime",
	"properties":"juice, freshly squeezed"
  },
  {
    "amount": "1 teaspoon",
    "substitute0": "1 teaspoon grated fresh lemon peel (zest)",
    "ingredient": "Lime",
	"properties":"zest (peel)"
  },

  {
    "amount": "2 cups uncooked ",
    "substitute0": "2 cups spaghetti, uncooked ",
    "substitute1": "4 cups noodles, uncooked ",
    "ingredient": "pasta",
	"properties":"Macaroni 4 cups cooked"
  },
  {
    "amount": "1/2 cup ",
    "substitute0": "1 cup maple syrup (reduce liquid in recipe by 1/4 cup)",
    "substitute2": "1 cup granulated white sugar",
    "substitute1": "3/4 cup granulated white sugar plus 1 teaspoon pure maple extract",
    "ingredient": "Maple sugar",
	"properties":""
  },
  {
    "amount": "about 2 cups",
    "substitute0": "Combine 2 cups sugar and 1 cup water, bring to clear boil; take off heat; add 1/2 teaspoon maple flavoring ",
    "substitute1": "1 cup honey",
    "ingredient": "Maple Syrup",
	"properties":""
  },
  {
    "amount": "1 cup ",
    "substitute0": "8 to 10 large marshmallows",
    "ingredient": "Marshmallows",
	"properties":"miniature"
  },
  {
    "amount": "1 jar",
    "substitute0": "melt 16 ounces of marshmallows and 3 1/2 tablespoons corn syrup in a double broiler",
    "ingredient": "Marshmallow",
	"properties":"cr"
  },
  {
    "amount": "1 cup",
    "substitute0": "1 cup creme fraiche",
    "substitute1": "1 cup sour cream",
    "ingredient": "Mascarpone",
	"properties":""
  },
  {
    "amount": "1 cup ",
    "substitute0": "1/2 cup yogurt and 1/2 cup mayonnaise ",
    "substitute2": "1 cup cottage cheese pureed in blender",
    "substitute1": "1 cup either yogurt, salad dressing, or sour cream ",
    "ingredient": "Mayonnaise",
	"properties":"salads and salad dressings"
  },
  {
    "amount": "1 teaspoon",
    "substitute0": "1 teaspoon Beau Monde seasoning ",
    "substitute1": "1/2 teaspoon table salt",
    "ingredient": "Me Yen seasoning ",
	"properties":""
  },
  {
    "amount": "1 cup plus ",
    "substitute0": "1 cup liquid whole milk ",
    "substitute1": "1 cup regular cream, whipping, or heavy cream",
    "ingredient": "Milk",
	"properties":" evaporated"
  },
  {
    "amount": "1 cup ",
    "substitute0": "4 to 5 tablespoons non-fat dry milk powder and enough water to make one cup, or follow manufacturer's directions ",
	"substitute1": "4 teaspoons non-fat dry milk powder and enough water to make 1/4 cup, or follow manufacturer's directions ",
    "substitute2": "2 tablespoons evaporated skim milk and 2 tablespoons water",
    "ingredient": "Milk",
	"properties":"skim"
  },
  {
    "amount": "1 can (about 1 1/3 cups) ",
    "substitute0": "Heat the following ingredients until sugar and butter are dissolved: 1/3 cup and 2 tablespoons evaporated milk, 1 cup sugar, 3 tablespoons butter or margarine ",
    "ingredient": "Milk",
	"properties":"sweetened condensed"
  },
  {
    "substitute7": "1 cup water plus 1 1/2 tsp butter in baking ",
    "substitute6": "1 cup soy or almond milk ",
    "substitute5": "1/4 cup non-fat dry milk and 2 tsp butter or margarine and 7/8 cup water",
    "substitute4": "1 cup fruit juice or 1 cup potato water (for use in baking) ",
    "substitute3": "4 tablespoons whole dry milk and 1 cup water, or follow manufacturer's directions ",
    "substitute2": "1/2 cup condensed milk plus 1/2 cup water",
    "substitute1": "1/2 cup evaporated milk and 1/2 cup water ",
    "substitute0": "1 cup reconstituted non-fat dry milk and 2 tsp butter or margarine ",
    "substitute8": "1 cup buttermilk plus 1/2 tsp baking soda (decrease baking powder in recipe by 2 tsp) ",
    "amount": "1 cup ",
    "ingredient": "Milk",
	"properties":"whole"
  },
  {
    "amount": "1/4 cup ",
    "substitute0": "1 tablespoon dried mint leaves ",
    "ingredient": "Mint",
	"properties":"leaves, fresh chopped"
  },
  {
    "amount": "1 cup ",
    "substitute0": "1 cup honey, dark corn syrup, maple syrup, brown rice syrup, or barley malt syrup",
    "substitute1": "3/4 cup sugar, increase liquid by 5 tablespoons, decrease baking soda by 1/2 teaspoon, and add 2 teaspoons baking powder to recipe",
    "ingredient": "Molasses",
	"properties":""
  },
  {
    "amount": "1 pound",
    "substitute0": "3 ounces dried mushrooms plus 1 1/2 cups water ",
    "substitute1": "1 (10-ounce) can ",
    "ingredient": "Mushrooms",
	"properties":"fresh"
  },
  {
    "amount": "1 teaspoon",
    "substitute0": "1 tablespoon prepared mustard ",
    "substitute1": "1/2 teaspoon mustard seeds",
    "ingredient": "Mustard",
	"properties":"dry"
  },
  {
    "amount": "1 tablespoon",
    "substitute0": "1 tablespoon dry mustard mixed with 1 teaspoon water, 1 teaspoon white wine vinegar, 1 tablespoon mayonnaise, and a pinch of sugar",
    "ingredient": "Mustard",
	"properties":"Dijon"
  },
 
  {
    "amount": "1 cup ",
    "substitute0": "1 cup similar nuts (your favorite) prepared in the same way",
    "substitute1": "1 cup rolled oats, browned (in baked products) ",
    "ingredient": "Nuts",
	"properties":"chopped, ground or whole"
  },
  
  {
    "amount": "1/4 cup ",
    "substitute0": "1/4 cup melted margarine, butter, bacon drippings, shortening, or lard",
    "ingredient": "Oil",
	"properties":"sauteing"
  },
  {
    "amount": "",
    "substitute0": "see Old Bay Seasoning Recipe",
    "ingredient": "Old Bay Seasoning",
	"properties":""
  },
  {
    "amount": "1 small ",
    "substitute0": "rehydrate 1 tbsp instant minced onion",
	"substitute1": "2 tablespoons dried minced onion",
    "substitute2": "1 teaspoon onion powder",
    "substitute3": "1 to 2 tablespoons instant minced onion ",
    "substitute4": "1 1/3 teaspoons onion salt ",
    "substitute5": "1/4 cup chopped, fresh green onions ",
    "ingredient": "Onion",
	"properties":"fresh"
  },
  {
    "amount": "1 medium",
    "substitute0": "6 to 8 tablespoons juice and 2 to 3 tablespoon grated rind (zest)",
    "ingredient": "Orange",
	"properties":"whole"
  },
  {
    "amount": "1 cup",
    "substitute0": "1 cup reconstituted frozen orange concentrate",
    "substitute1": "1 cup other citrus juice (of your choice)",
    "ingredient": "Orange",
	"properties":"juice, freshly squeezed"
  },
  {
    "amount": "1 medium",
    "substitute0": "2 to 3 tablespoons grated fresh orange peel (zest) ",
    "substitute2": "1/2 teaspoon orange extract",
    "substitute1": "1 teaspoon lemon juice",
    "ingredient": "Orange",
	"properties":"peel (zest), fresh"
  },

  {
    "amount": "1/2 cup ",
    "substitute0": "1/2 cup grated Asiago cheese or grated Romano cheese",
    "ingredient": "cheese",
	"properties":"Parmesan grated"
  },
  {
    "amount": "1 teaspoon chopped",
    "substitute0": "1 teaspoon dried parsley",
    "substitute1": "1 tablespoon chopped fresh chervil",
    "ingredient": "Parsley",
	"properties":"fresh"
  },
  {
    "amount": "1 cup",
    "substitute0": "1 cup of another nut butter (such as almond or hazelnut butter)",
    "substitute1": "1 cup tahini (sesame paste)",
    "ingredient": "Peanut Butter",
	"properties":""
  },
  {
    "amount": "1 teaspoon",
    "substitute0": "1 teaspoon black pepper",
    "ingredient": "Pepper",
	"properties":"white"
  },
  {
    "amount": "1 tablespoon dried",
    "substitute0": "3 tablespoons fresh green pepper, chopped ",
    "ingredient": "bell Peppers",
	"properties":"green"
  },
  {
    "amount": "1 tablespoon dried",
    "substitute0": "3 tablespoons fresh red bell pepper, chopped ",
    "substitute1": "2 tablespoons chopped pimento",
    "ingredient": "bell Peppers",
	"properties":"red"
  },
  {
    "amount": "1 tablespoon",
    "substitute0": "1/4 cup chopped fresh mint ",
    "ingredient": "Peppermint",
	"properties":"dried"
  },
  {
    "amount": "2 tablespoons, chopped ",
    "substitute0": "rehydrate 1 tablespoon dried red bell peppers",
    "substitute1": "3 tablespoons fresh red bell pepper, chopped ",
    "ingredient": "Pimento ",
	"properties":""
  },
  {
    "amount": "1 cup",
    "substitute0": "1 cup cornmeal",
    "substitute2": "1 cup corn grits",
    "substitute1": "1 cup maize meal",
    "ingredient": "Polenta",
	"properties":"dry"
  },
  {
    "amount": "1 teaspoon",
    "substitute0": "1/2 teaspoon ground sage, 1/2 teaspoon dried thyme, and 1/2 teaspoon dried rosemary",
    "ingredient": "Poultry seasoning",
	"properties":""
  },
  {
    "amount": "1 teaspoon",
    "substitute0": "1/2 teaspoon cinnamon, 1/4 teaspoon ginger, 1/8 teaspoon allspice, and 1/8 teaspoon nutmeg ",
    "ingredient": "Pumpkin pie spice ",
	"properties":""
  },
 
  {
    "amount": "1 cup",
    "substitute0": "1 cup dried currants",
    "substitute2": "1 cup other dried fruit (chopped into small pieces)",
    "substitute1": "1 cup dried blueberries, cranberries, or cherries",
    "ingredient": "Raisins",
	"properties":""
  },
  {
    "amount": "1 tablet",
    "substitute0": "1 tablespoon liquid rennet",
    "ingredient": "Rennet ",
    "properties":""
  },
  {
    "substitute3": "1 cup bulgur or pearl barley, cooked ",
    "substitute2": "1 cup uncooked wild rice ",
    "substitute1": "1 cup uncooked brown rice ",
    "substitute0": "1 cup uncooked converted rice ",
    "amount": "1 cup regular, uncooked ",
    "ingredient": "Rice",
	"properties":"3 cups cooked"
  },
  {
    "amount": "1 cup",
    "substitute0": "1 cup cottage cheese",
    "ingredient": "cheese",
	"properties":"Ricotta"
  },
  {
    "amount": "1/4 cup ",
    "substitute0": "1 tablespoon rum extract plus enough liquid to make 1/4 cup ",
    "ingredient": "Rum",
	"properties":""
  },

  {
    "amount": "",
    "substitute0": "equal amount of Turmeric",
    "ingredient": "Saffron",
	"properties":""
  },
  {
    "amount": "1 cup ",
    "substitute0": "1 cup cooking oil (cooking oil should not be substituted if recipe does not call for melted shortening) ",
    "ingredient": "Shortening",
	"properties":"melted"
  },
  {
    "amount": "1 cup ",
    "substitute0": "1 cup minus 2 tablespoons lard ",
    "substitute2": "1 cup margarine",
    "substitute1": "1 cup butter",
    "ingredient": "Shortening",
	"properties":" solid baking"
  },
  {
    "substitute4": "3/4 cup milk, 3/4 tsp lemon juice, and 1/3 cup butter or margarine ",
    "substitute3": "1 cup plain yogurt",
    "substitute2": "Blend until smooth: 1/3 cup buttermilk, 1 tbsp lemon juice, and 1 cup cottage cheese ",
    "substitute1": "3/4 cup buttermilk and 1/3 cup butter or margarine ",
    "substitute0": "3/4 cup sour milk and 1/3 cup butter or margarine ",
    "amount": "1 cup ",
    "ingredient": "Sour cream",
	"properties":"cultured"
  },
  {
    "amount": "1 tablespoon",
    "substitute0": "1/4 cup chopped fresh mint",
    "ingredient": "Spearmint",
	"properties":"dried"
  },
  {
    "amount": "1 teaspoon",
    "substitute0": "1 teaspoon ground anise seed",
    "substitute1": "1 teaspoon ground fennel seed",
    "ingredient": "Star Anise",
	"properties":"ground"
  },
  {
    "substitute3": "1 cup raw sugar",
    "substitute2": "1/2 cup liquid brown sugar ",
    "substitute1": "1 cup granulated sugar plus 1/4 cup unsulpured molasses",
    "substitute0": "1 cup granulated sugar",
    "amount": "1 cup firmly packed ",
    "ingredient": "Sugar",
	"properties":"brown"
  },
  {
    "amount": "1 cup",
    "substitute0": "1 cup granulated white sugar processed in a food processor or grinder",
    "ingredient": "Sugar",
	"properties":"superfine"
  },
  {
    "substitute6": "",
    "substitute5": "1 cup honey (decrease liquid called for in recipe by 1/4 cup) ",
    "substitute4": "1 cup brown sugar (light or dark), firmly packed ",
    "substitute3": "1 cup powdered (confectioners') sugar",
    "substitute2": "1 cup caster (superfine) sugar",
    "substitute1": "1 1/3 cup molasses (decrease liquid called for in recipe by 1/3 cup) ",
    "substitute0": "1 cup corn syrup, decrease liquid called for in recipe by 1/4 cup (never replace more than 1/2 cup sugar called for in recipe with corn syrup) ",
    "amount": "1 cup ",
    "ingredient": "Sugar",
	"properties":"white"
  },
 
  {
    "amount": "1 tablespoon",
    "substitute0": "1 tablespoon peanut butter",
    "ingredient": "Tahini",
	"properties":""
  },
  {
    "amount": "1 tablespoon",
    "substitute0": "2 tablespoons pear tapioca, soaked",
    "ingredient": "Tapioca",
	"properties":"instant or quick-cooking"
  },
  {
    "amount": "1 tablespoon ",
    "substitute0": "1 tablespoon of flour ",
    "ingredient": "Tapioca",
	"properties":"quick-cooking for thickening"
  },
  {
    "amount": "1 cup ",
    "substitute0": "1 1/3 cups diced fresh tomatoes simmered 10 minutes ",
    "ingredient": "Tomatoes",
	"properties":"canned"
  },
  {
    "amount": "2 cups, chopped ",
    "substitute0": "1 (16-ounce) can tomatoes",
    "ingredient": "Tomatoes",
	"properties":"fresh"
  },
  {
    "amount": "1 cup ",
    "substitute0": "1/2 cup tomato sauce plus 1/2 cup water",
    "ingredient": "Tomatoes",
	"properties":"packed"
  },
  {
    "amount": "1 cup ",
    "substitute0": "1/2 cup tomato sauce and 1/2 cup water ",
    "ingredient": "Tomato",
	"properties":"Juice"
  },
  {
    "amount": "2 cups ",
    "substitute0": "3/4 cup tomato paste plus 1 cup water ",
    "ingredient": "Tomato",
	"properties":"Sauce"
  },
  {
    "amount": "1 (10 3/4 ounce) can ",
    "substitute0": "1 cup tomato sauce plus 1/4 oz. can cup water",
    "ingredient": "Tomato",
	"properties":"Soup"
  },
  {
    "amount": "1 cup",
    "substitute0": "1 cup light or dark brown sugar",
    "ingredient": "Treacle",
	"properties":""
  },
 
  {
    "amount": "1/2 bean",
    "substitute0": "1 tablespoon pure vanilla extract ",
    "ingredient": "Vanilla",
	"properties":"bean"
  },
  {
    "amount": "1 teaspoon",
    "substitute0": "1/2 vanilla bean",
    "substitute1": "1/2 to 1 teaspoon other extract (such as almond, peppermint, lemon, orange, etc.)",
    "ingredient": "Vanilla",
	"properties":"Extract, pure"
  },
  {
    "amount": "1 cup",
    "substitute0": "1 cup butter",
    "substitute2": "1 cup margarine",
    "substitute1": "1 cup lard",
    "ingredient": "Vegetable Shortening",
	"properties":"solid"
  },
  {
    "amount": "1 tablespoon",
    "substitute0": "1 tablespoon sherry vinegar or cider vinegar",
    "ingredient": "Vinegar",
	"properties":"Balsamic"
  },
  {
    "amount": "1 tablespoon",
    "substitute0": "1 tablespoon lemon or lime juice",
    "ingredient": "Vinegar",
	"properties":"regular white cider"
  },
 
  {
    "amount": "1 teaspoon",
    "substitute0": "1 teaspoon bottled steak sauce ",
    "ingredient": "Worcestershire",
	"properties":"sauce"
  },

  {
    "amount": "1 tablespoon",
    "substitute0": "1 yeast cake, compressed ",
    "substitute2": "1 tablespoon instant or fast-rising active yeast",
    "substitute1": "1 package active dry yeast ",
    "ingredient": "Yeast",
	"properties":"active dry"
  },
  {
    "amount": "1 cup ",
    "substitute0": "1 cup buttermilk",
    "substitute2": "1 cup sour cream",
    "substitute1": "1 cup cottage cheese blended until smooth ",
    "ingredient": "Yogurt",
	"properties":"plain"
  }
]