{
    "ingredients": [
        {
            "amount": "4 pounds", 
            "ingredient": "lean steak, cut into 1 inch cubes"
        }, 
        {
            "amount": "2 medium heads", 
            "ingredient": "garlic, peeled"
        }, 
        {
            "amount": "2", 
            "ingredient": "bay leaves"
        }, 
        {
            "amount": "1 large", 
            "ingredient": "onion, sliced into rings"
        }, 
        {
            "amount": "10 large", 
            "ingredient": "black olives"
        }, 
        {
            "amount": "1 (28 ounce) can", 
            "ingredient": "crushed tomatoes"
        }, 
        {
            "amount": "1/3 cup", 
            "ingredient": "olive oil"
        }
    ], 
    "prep_steps": [
        "Preheat oven to 325 degrees F (160 degrees C).", 
        "In a 3 quart glass baking dish with a cover, layer meat, garlic cloves, bay leaves, onion slices, and black olives. Pour the tomatoes evenly over the top, and then do the same with the olive oil.", 
        "Cover and bake for 3 1/2 hours, stirring occasionally."
    ], 
    "prep_time": "3 hrs", 
    "recipe_name": "Garlic Lovers Beef"
}