{
    "ingredients": [
        {
            "amount": "3 cups", 
            "ingredient": "all-purpose flour"
        }, 
        {
            "amount": "2 cups", 
            "ingredient": "white sugar"
        }, 
        {
            "amount": "3/4 cup", 
            "ingredient": "vegetable oil"
        }, 
        {
            "amount": "3", 
            "ingredient": "eggs"
        }, 
        {
            "amount": "1 teaspoon", 
            "ingredient": "salt"
        }, 
        {
            "amount": "1/2 teaspoon", 
            "ingredient": "baking soda"
        }, 
        {
            "amount": "1 teaspoon", 
            "ingredient": "vanilla extract"
        }, 
        {
            "amount": "1 teaspoon", 
            "ingredient": "ground cinnamon"
        }, 
        {
            "amount": "4", 
            "ingredient": "apples - peeled, cored and chopped"
        }
    ], 
    "prep_steps": [
        "Preheat an oven to 350 degrees F (175 degrees C).", 
        "Spray a 9x13-inch baking pan with cooking spray.", 
        "Combine flour, sugar, vegetable oil, eggs, salt, baking soda, vanilla extract, and cinnamon in a large bowl; mix well.", 
        "Stir in the chopped apples until just combined.", 
        "Pour batter into the prepared baking pan.", 
        "Bake in the preheated oven until a toothpick inserted into the center comes out clean, about 1 hour."
    ], 
    "prep_time": "2\u00bd hrs", 
    "recipe_name": "Adam's Apple Cake"
}