{
    "ingredients": [
        {
            "amount": "1 tablespoon", 
            "ingredient": "butter"
        }, 
        {
            "amount": "1/2", 
            "ingredient": "shallot, minced"
        }, 
        {
            "amount": "1 cup", 
            "ingredient": "uncooked jasmine rice"
        }, 
        {
            "amount": "3/4 cup", 
            "ingredient": "coconut milk"
        }, 
        {
            "amount": "1 cup", 
            "ingredient": "water"
        }, 
        {
            "amount": "1 pinch", 
            "ingredient": "ground nutmeg"
        }, 
        {
            "amount": "1 (15 ounce) can", 
            "ingredient": "black beans, rinsed and drained"
        }
    ], 
    "prep_steps": [
        "Melt the butter in a small saucepan over medium heat. Stir in the shallot, and cook until the shallot has softened and turned translucent, about 3 minutes. Add the rice and stir until coated with the butter. Pour in the coconut milk and water; season with nutmeg. Bring to a boil over high heat, then reduce heat to medium-low, cover, and simmer until the liquid has been absorbed and the rice is tender, about 18 minutes. Stir in the black beans, and cook a few minutes until hot."
    ], 
    "prep_time": "30 mins", 
    "recipe_name": "Coconut Rice with Black Beans"
}