{
    "ingredients": [
        {
            "amount": "4 tablespoons", 
            "ingredient": "olive oil"
        }, 
        {
            "amount": "3 pounds", 
            "ingredient": "skinless, boneless chicken breast halves - cut into 1 inch pieces"
        }, 
        {
            "amount": "1 cup", 
            "ingredient": "water"
        }, 
        {
            "amount": "1 cup", 
            "ingredient": "packed light brown sugar"
        }, 
        {
            "amount": "3/4 cup", 
            "ingredient": "apple-grape-cherry juice"
        }, 
        {
            "amount": "2/3 cup", 
            "ingredient": "soy sauce"
        }, 
        {
            "amount": "1/4 cup", 
            "ingredient": "ketchup"
        }, 
        {
            "amount": "1/4 cup", 
            "ingredient": "peach-flavored bourbon liqueur (such as Southern Comfort \u00ae)"
        }, 
        {
            "amount": "2 tablespoons", 
            "ingredient": "apple cider vinegar"
        }, 
        {
            "amount": "2 cloves", 
            "ingredient": "garlic, minced"
        }, 
        {
            "amount": "1 tablespoon", 
            "ingredient": "dried minced onion"
        }, 
        {
            "amount": "3/4 teaspoon", 
            "ingredient": "crushed red pepper flakes, or to taste"
        }, 
        {
            "amount": "1/2 teaspoon", 
            "ingredient": "ground ginger"
        }, 
        {
            "amount": "1/4 cup", 
            "ingredient": "apple-grape-cherry juice"
        }, 
        {
            "amount": "2 tablespoons", 
            "ingredient": "cornstarch"
        }
    ], 
    "prep_steps": [
        "Heat the oil in a large heavy pan or Dutch oven, and brown the chicken pieces until lightly golden on all sides, about 10 minutes. Transfer the chicken to a bowl.", 
        "In the same dutch oven, whisk the water, brown sugar, 3/4 cup of fruit juice cocktail, soy sauce, ketchup, bourbon liqueur, apple cider vinegar, garlic, dried onion, red pepper flakes, and ground ginger into the Dutch oven. Bring the sauce to a boil while scraping the browned bits of food off of the bottom of the pan with a wooden spoon.", 
        "Stir the chicken back into the sauce, and bring to a full boil over medium-high heat. Reduce the heat to medium-low, and simmer until the sauce is reduced and thickened and the chicken pieces are no longer pink in the middle, about 20 minutes.", 
        "Remove the chicken pieces to a bowl with a slotted spoon. Stir together 1/4 cup of fruit juice cocktail with the cornstarch until smooth, and whisk the cornstarch mixture into the sauce, stirring constantly to avoid lumps. Bring the sauce back to a simmer, let thicken for about 1 minute, and return the chicken pieces to the sauce. Stir to combine, and serve."
    ], 
    "prep_time": "1 hr", 
    "recipe_name": "Best Bourbon Chicken"
}