{
    "ingredients": [
        {
            "amount": "1 (16 ounce) package", 
            "ingredient": "penne pasta"
        }, 
        {
            "amount": "2 tablespoons", 
            "ingredient": "butter"
        }, 
        {
            "amount": "2 tablespoons", 
            "ingredient": "olive oil"
        }, 
        {
            "amount": "4", 
            "ingredient": "skinless, boneless chicken breast halves - cut into thin strips"
        }, 
        {
            "amount": "2 cloves", 
            "ingredient": "garlic, minced"
        }, 
        {
            "amount": "1 1/4 cups", 
            "ingredient": "heavy cream"
        }, 
        {
            "amount": "1/4 cup", 
            "ingredient": "pesto"
        }, 
        {
            "amount": "3 tablespoons", 
            "ingredient": "grated Parmesan cheese"
        }
    ], 
    "prep_steps": [
        "Bring a large pot of lightly salted water to a boil. Add pasta and cook for 8 to 10 minutes or until al dente; drain.", 
        "Heat butter and olive oil in a large skillet over medium heat. Saute chicken and garlic until chicken is almost cooked. Reduce heat and stir in salt, pepper, cream, pesto and Parmesan cheese. Cook until chicken is no longer pink inside. Stir in cooked pasta."
    ], 
    "prep_time": "30 mins", 
    "recipe_name": "Penne with Chicken and Pesto"
}