{
    "ingredients": [
        {
            "amount": "1 1/2 cups", 
            "ingredient": "mayonnaise"
        }, 
        {
            "amount": "2/3 cup", 
            "ingredient": "grated Parmesan cheese"
        }, 
        {
            "amount": "2/3 cup", 
            "ingredient": "shredded Swiss cheese"
        }, 
        {
            "amount": "1/3 cup", 
            "ingredient": "chopped onion"
        }, 
        {
            "amount": "2 teaspoons", 
            "ingredient": "Worcestershire sauce"
        }, 
        {
            "amount": "10 drops", 
            "ingredient": "hot pepper sauce"
        }, 
        {
            "amount": "1 (4 ounce) can", 
            "ingredient": "small shrimp, drained"
        }, 
        {
            "amount": "1 (6 ounce) can", 
            "ingredient": "crabmeat, drained and flaked"
        }, 
        {
            "amount": "2 (2.1 ounce) packages", 
            "ingredient": "mini phyllo tart shells"
        }
    ], 
    "prep_steps": [
        "Preheat oven to 400 degrees F (200 degrees C). Lightly grease a medium baking sheet.", 
        "In a medium bowl, mix together mayonnaise, Parmesan cheese, Swiss cheese, onion, Worcestershire sauce and hot pepper sauce. Gently stir in shrimp and crabmeat.", 
        "Form phyllo dough into shells. Fill shells with the mixture.", 
        "Arrange stuffed shells on baking sheet. Bake in the preheated oven 7 to 10 minutes, or until lightly browned. Sprinkle with paprika before serving."
    ], 
    "prep_time": "20 mins", 
    "recipe_name": "Spicy Seafood Shell Appetizers"
}