{
    "ingredients": [
        {
            "amount": "1 (9 ounce) package", 
            "ingredient": "refrigerated small cheese tortellini"
        }, 
        {
            "amount": "1 (14.5 ounce) can", 
            "ingredient": "diced tomatoes"
        }, 
        {
            "amount": "2 medium", 
            "ingredient": "zucchini, diced"
        }, 
        {
            "amount": "1 teaspoon", 
            "ingredient": "dried basil"
        }, 
        {
            "amount": "1/2 cup", 
            "ingredient": "chopped fresh parsley"
        }
    ], 
    "prep_steps": [
        "Prepare Fast Chicken Soup Base. Bring to a simmer.", 
        "Add these, then simmer until tender, 10-20 minutes: 1 9-ounce package refrigerated small cheese tortellini; 1 14.5-ounce can diced tomatoes; 2 medium zucchini, diced; 1 tsp. dried basil.", 
        "Before removing from heat, stir in: 1/2 cup chopped fresh parsley.", 
        "Final touch: Add salt and pepper, to taste."
    ], 
    "recipe_name": "Chicken Tortellini Soup With Zucchini and Tomatoes"
}