{
    "ingredients": [
        {
            "amount": "1 (9 inch)", 
            "ingredient": "refrigerated pie crust"
        }, 
        {
            "amount": "3 tablespoons", 
            "ingredient": "olive oil"
        }, 
        {
            "amount": "1 small", 
            "ingredient": "onion, thinly sliced and quartered"
        }, 
        {
            "amount": "1 cup", 
            "ingredient": "frozen chopped spinach, thawed and drained well"
        }, 
        {
            "amount": "8", 
            "ingredient": "eggs"
        }, 
        {
            "amount": "1 clove", 
            "ingredient": "garlic, minced"
        }, 
        {
            "amount": "1 teaspoon", 
            "ingredient": "dried thyme"
        }, 
        {
            "amount": "1 teaspoon", 
            "ingredient": "dried basil"
        }, 
        {
            "amount": "2 tablespoons", 
            "ingredient": "grated Pecorino Romano cheese"
        }, 
        {
            "amount": "1 cup", 
            "ingredient": "shredded Mozzarella cheese"
        }
    ], 
    "prep_steps": [
        "Preheat oven to 350 degrees F (175 degrees C). Bring the pie crust to room temperature.", 
        "Heat the olive oil in a skillet over medium heat; add the onion and cook until onion becomes transparent, about 5 minutes. Combine the spinach with the onion, cover the skillet; turn off the heat, and set aside.", 
        "Unroll the crust and press to fit into a 9 inch pie plate. Trim the edges.", 
        "Beat the eggs in a large bowl until light colored and frothy. Add the garlic, thyme, basil, cheeses, and spinach mixture, and stir until well blended. Season to taste with salt and pepper. Pour the spinach mixture into the prepared pie crust.", 
        "Bake in preheated oven until the top is golden brown, and an inserted tooth pick comes out clean, about 50 minutes."
    ], 
    "prep_time": "1\u00bd hrs", 
    "recipe_name": "Spinach Quiche with Kid Appeal"
}