{
    "ingredients": [
        {
            "amount": "8 medium", 
            "ingredient": "red potatoes"
        }, 
        {
            "amount": "4", 
            "ingredient": "eggs"
        }, 
        {
            "amount": "8 slices", 
            "ingredient": "bacon"
        }, 
        {
            "amount": "1 (15 ounce) can", 
            "ingredient": "black beans, drained and rinsed"
        }, 
        {
            "amount": "3", 
            "ingredient": "green onions, diced"
        }, 
        {
            "amount": "3", 
            "ingredient": "fresh jalapeno peppers, diced"
        }, 
        {
            "amount": "1/2", 
            "ingredient": "green bell pepper, diced"
        }, 
        {
            "amount": "2 1/2 cups", 
            "ingredient": "mayonnaise"
        }, 
        {
            "amount": "2 tablespoons", 
            "ingredient": "brown mustard"
        }, 
        {
            "amount": "1 teaspoon", 
            "ingredient": "Cajun seasoning"
        }
    ], 
    "prep_steps": [
        "Place potatoes in a pot with enough water to cover. Bring to a boil, and cook until tender. Drain, dice, and cool.", 
        "Place eggs in a pot with enough cold water to cover. Bring to a boil and immediately remove from heat. Cover saucepan, and let eggs stand in hot water for 10 to 12 minutes. Drain, cool, peel and chop.", 
        "Place bacon in a skillet over medium-high heat, and cook until evenly brown. Drain, crumble and set aside.", 
        "In a large bowl, mix chopped eggs, 1/2 the bacon, black beans, green onions, jalapeno peppers, bell pepper, mayonnaise, mustard, and Cajun seasoning. Gently mix in diced, cooled potatoes. Season with salt and pepper, and sprinkle with remaining bacon. Cover, and refrigerate until ready to serve."
    ], 
    "prep_time": "1\u00be hrs", 
    "recipe_name": "Spicy Black Bean Potato Salad"
}