{
    "ingredients": [
        {
            "amount": "5", 
            "ingredient": "red potatoes"
        }, 
        {
            "amount": "5", 
            "ingredient": "Yukon Gold potatoes"
        }, 
        {
            "amount": "2 tablespoons", 
            "ingredient": "butter"
        }, 
        {
            "amount": "1/2 cup", 
            "ingredient": "mayonnaise"
        }, 
        {
            "amount": "1/2 cup", 
            "ingredient": "prepared mustard"
        }, 
        {
            "amount": "1/2 cup", 
            "ingredient": "sour cream"
        }, 
        {
            "amount": "1 stalk", 
            "ingredient": "celery, finely chopped"
        }, 
        {
            "amount": "1", 
            "ingredient": "red onion, finely diced"
        }, 
        {
            "amount": "2 small", 
            "ingredient": "sweet pickles, finely chopped"
        }, 
        {
            "amount": "1", 
            "ingredient": "green bell pepper, chopped"
        }
    ], 
    "prep_steps": [
        "Cube potatoes, if desired you may peel them. Place potatoes in a large saucepan and cover with water. Cook over medium heat until potatoes are tender. Drain and place cooked potatoes in a large bowl.", 
        "Mash potatoes with butter and salt and pepper to taste. Once mashed stir in the mayonnaise, mustard and sour cream, mixing well. Stir in the celery, onion, pickles and green pepper. Serve warm or at room temperature."
    ], 
    "prep_time": "30 mins", 
    "recipe_name": "Mashed Potato Salad"
}