{
    "ingredients": [
        {
            "amount": "1/2 cup", 
            "ingredient": "semisweet chocolate chips"
        }, 
        {
            "amount": "1/2 cup", 
            "ingredient": "milk"
        }, 
        {
            "amount": "1/4 teaspoon", 
            "ingredient": "ground cinnamon"
        }, 
        {
            "amount": "1 dash", 
            "ingredient": "hot chili powder"
        }, 
        {
            "amount": "1 teaspoon", 
            "ingredient": "instant coffee granules"
        }, 
        {
            "amount": "1/2 cup", 
            "ingredient": "cold milk"
        }
    ], 
    "prep_steps": [
        "Combine the chocolate chips and milk in a glass or plastic dish, and microwave on high, stirring every 20 to 30 seconds, until melted and smooth. Mix in the coffee, cinnamon, and hot chili powder until the instant coffee has dissolved. Stir in the cold milk. Strain into 2 mugs. Thin with additional milk, if desired."
    ], 
    "prep_time": "8 mins", 
    "recipe_name": "Drew's World Famous Triple Rush Hot Chocolate"
}