{
    "ingredients": [
        {
            "amount": "6 slices", 
            "ingredient": "bacon"
        }, 
        {
            "amount": "1 cup", 
            "ingredient": "chopped onion"
        }, 
        {
            "amount": "1 clove", 
            "ingredient": "garlic, minced"
        }, 
        {
            "amount": "1 (16 ounce) can", 
            "ingredient": "pinto beans"
        }, 
        {
            "amount": "1 (16 ounce) can", 
            "ingredient": "great Northern beans, drained"
        }, 
        {
            "amount": "1 (16 ounce) can", 
            "ingredient": "baked beans"
        }, 
        {
            "amount": "1 (16 ounce) can", 
            "ingredient": "red kidney beans, drained"
        }, 
        {
            "amount": "1 (15 ounce) can", 
            "ingredient": "garbanzo beans, drained"
        }, 
        {
            "amount": "3/4 cup", 
            "ingredient": "ketchup"
        }, 
        {
            "amount": "1/2 cup", 
            "ingredient": "molasses"
        }, 
        {
            "amount": "1/4 cup", 
            "ingredient": "packed brown sugar"
        }, 
        {
            "amount": "2 tablespoons", 
            "ingredient": "Worcestershire sauce"
        }, 
        {
            "amount": "1 tablespoon", 
            "ingredient": "yellow mustard"
        }, 
        {
            "amount": "1/2 teaspoon", 
            "ingredient": "pepper"
        }
    ], 
    "prep_steps": [
        "Preheat oven to 375 degrees F (190 degrees C).", 
        "Place bacon in a large, deep skillet. Cook over medium high heat until evenly brown. Drain, reserving 2 tablespoons of drippings, crumble and set aside in a large bowl. Cook the onion and garlic in the reserved drippings until onion is tender; drain excess grease and transfer to the bowl with the bacon.", 
        "To the bacon and onions add pinto beans, northern beans, baked beans, kidney beans and garbanzo beans. Stir in ketchup, molasses, brown sugar, Worcestershire sauce, mustard and black pepper. Mix well and transfer to a 9x12 inch casserole dish.", 
        "Cover and bake in preheated oven for 1 hour."
    ], 
    "prep_time": "1\u00bd hrs", 
    "recipe_name": "Pat's Baked Beans"
}