{
    "ingredients": [
        {
            "amount": "1/2 cup", 
            "ingredient": "rice vinegar"
        }, 
        {
            "amount": "1/2 cup", 
            "ingredient": "low-sodium soy sauce"
        }, 
        {
            "amount": "1/2 teaspoon", 
            "ingredient": "crushed red pepper flakes"
        }, 
        {
            "amount": "1", 
            "ingredient": "garlic clove, minced"
        }, 
        {
            "amount": "1/2 teaspoon", 
            "ingredient": "minced fresh ginger root"
        }, 
        {
            "amount": "1/3 cup", 
            "ingredient": "thinly sliced green onions"
        }, 
        {
            "amount": "1 teaspoon", 
            "ingredient": "sesame oil"
        }
    ], 
    "prep_steps": [
        "Whisk together the rice vinegar, soy sauce, red pepper flakes, garlic, ginger, green onions, and sesame oil in a bowl; allow to sit 15 minutes before serving. Store in refrigerator up to 1 week."
    ], 
    "prep_time": "30 mins", 
    "recipe_name": "Gyoza Sauce"
}