{
    "ingredients": [
        {
            "amount": "3 tablespoons", 
            "ingredient": "extra-virgin olive oil"
        }, 
        {
            "amount": "3 pounds", 
            "ingredient": "butternut squash, peeled and cubed"
        }, 
        {
            "amount": "1 large", 
            "ingredient": "onion, sliced"
        }, 
        {
            "amount": "3 tablespoons", 
            "ingredient": "butter"
        }, 
        {
            "amount": "1 tablespoon", 
            "ingredient": "sea salt"
        }, 
        {
            "amount": "1 teaspoon", 
            "ingredient": "freshly-cracked white pepper"
        }, 
        {
            "amount": "4 cups", 
            "ingredient": "chicken broth, or more as needed"
        }, 
        {
            "amount": "1/4 cup", 
            "ingredient": "honey"
        }, 
        {
            "amount": "1/2 cup", 
            "ingredient": "heavy whipping cream"
        }, 
        {
            "amount": "1 pinch", 
            "ingredient": "ground nutmeg, or more to taste"
        }
    ], 
    "prep_steps": [
        "Heat olive oil in a large pot over high heat. Cook and stir squash in hot oil until completely browned, about 10 minutes. Stir onion, butter, sea salt, and cracked white pepper into the squash; cook and stir together until the onions are completely tender and beginning to brown, about 10 minutes.", 
        "Pour chicken broth and honey over the mixture; bring to a boil, reduce heat to medium-low, and cook at a simmer until the squash is tender, about 5 minutes.", 
        "Pour the mixture into a blender no more than half full. Cover and hold lid in place; pulse a few times before leaving on to blend. Puree in batches until smooth.", 
        "Stir cream, nutmeg, salt, and ground white pepper into the soup to serve."
    ], 
    "prep_time": "50 mins", 
    "recipe_name": "Caramelized Butternut Squash Soup"
}