{
    "ingredients": [
        {
            "amount": "2 (9 ounce) packages", 
            "ingredient": "fresh linguine pasta"
        }, 
        {
            "amount": "1/4 cup", 
            "ingredient": "butter"
        }, 
        {
            "amount": "1 clove", 
            "ingredient": "garlic, chopped"
        }, 
        {
            "amount": "1 cup", 
            "ingredient": "heavy cream"
        }, 
        {
            "amount": "1/2 pound", 
            "ingredient": "imitation crabmeat"
        }, 
        {
            "amount": "1/2 pound", 
            "ingredient": "cooked salad shrimp"
        }, 
        {
            "amount": "1 cup", 
            "ingredient": "freshly grated Parmesan cheese"
        }, 
        {
            "amount": "1 tablespoon", 
            "ingredient": "chopped fresh parsley"
        }
    ], 
    "prep_steps": [
        "Bring a large pot of lightly salted water to a boil. Add pasta, and cook for 3 minutes, or until al dente; drain.", 
        "Melt butter in a large skillet over medium heat. Saute garlic until tender. Stir in cream, and cook until thickened, about 5 minutes. Add imitation crab, shrimp, Parmesan cheese, and salt and pepper. Reduce heat to low, and cook for 2 to 3 minutes, until heated through.", 
        "Transfer cooked linguine to a serving platter, and top with seafood sauce. Garnish with parsley."
    ], 
    "prep_time": "30 mins", 
    "recipe_name": "Scrumptious Seafood Linguine"
}