{
    "ingredients": [
        {
            "amount": "3 tablespoons", 
            "ingredient": "vegetable oil"
        }, 
        {
            "amount": "1 cup", 
            "ingredient": "long grain white rice"
        }, 
        {
            "amount": "2 1/2 cups", 
            "ingredient": "chicken broth"
        }, 
        {
            "amount": "1 (4 ounce) can", 
            "ingredient": "tomato sauce"
        }, 
        {
            "amount": "1 (4 ounce) can", 
            "ingredient": "canned chopped green chiles, drained"
        }, 
        {
            "amount": "1 small", 
            "ingredient": "onion, minced"
        }, 
        {
            "amount": "2 cloves", 
            "ingredient": "garlic, minced"
        }, 
        {
            "amount": "1 1/2 teaspoons", 
            "ingredient": "salt"
        }, 
        {
            "amount": "1/2 teaspoon", 
            "ingredient": "ground cumin"
        }, 
        {
            "amount": "1/4 teaspoon", 
            "ingredient": "chili powder"
        }, 
        {
            "amount": "1 1/2 cups", 
            "ingredient": "shredded Monterey Jack cheese"
        }
    ], 
    "prep_steps": [
        "Heat vegetable oil in a large skillet over medium heat. Stir in rice; cook and stir until rice is lightly browned and gives off a toasted fragrance, 5 to 7 minutes. Stir in the chicken broth, tomato sauce, green chiles, onion, garlic, salt, cumin, and chili powder. Bring to a boil, then reduce heat to low. Cover and simmer until rice is tender, about 25 minutes, stirring occasionally. Spread Monterey Jack cheese on top, then replace the lid and allow the cheese to melt, about 5 minutes more."
    ], 
    "prep_time": "50 mins", 
    "recipe_name": "My Favorite Mexican Rice"
}