{
    "ingredients": [
        {
            "amount": "2 (8.5 ounce) packages", 
            "ingredient": "cornbread mix"
        }, 
        {
            "amount": "2 tablespoons", 
            "ingredient": "brown sugar"
        }, 
        {
            "amount": "2", 
            "ingredient": "eggs"
        }, 
        {
            "amount": "1 1/2 cups", 
            "ingredient": "milk"
        }, 
        {
            "amount": "1 cup", 
            "ingredient": "grated Cheddar cheese"
        }, 
        {
            "amount": "9", 
            "ingredient": "hot dogs, cut in half"
        }
    ], 
    "prep_steps": [
        "Preheat oven to 400 degrees F (200 degrees C). Lightly grease muffin tins.", 
        "Stir together the cornbread mix and the brown sugar in a large bowl. Whisk the eggs and milk in a small bowl until smooth. Fold the eggs and cheese into the dry mixture until moistened. Spoon mixture into muffin tins until 2/3 full. Add 1 hot dog half to each muffin.", 
        "Bake in a preheated oven 14 to 18 minutes, or until golden brown."
    ], 
    "prep_time": "24 mins", 
    "recipe_name": "Corn Dog Muffins"
}