{
    "ingredients": [
        {
            "amount": "2 tablespoons", 
            "ingredient": "vegetable oil"
        }, 
        {
            "amount": "1 medium", 
            "ingredient": "onion, chopped"
        }, 
        {
            "amount": "1 teaspoon", 
            "ingredient": "garlic paste"
        }, 
        {
            "amount": "1 teaspoon", 
            "ingredient": "ginger paste"
        }, 
        {
            "amount": "2 teaspoons", 
            "ingredient": "cumin"
        }, 
        {
            "amount": "2 teaspoons", 
            "ingredient": "coriander"
        }, 
        {
            "amount": "1 teaspoon", 
            "ingredient": "cardamom"
        }, 
        {
            "amount": "1/2 teaspoon", 
            "ingredient": "turmeric"
        }, 
        {
            "amount": "1/2 teaspoon", 
            "ingredient": "salt"
        }, 
        {
            "amount": "2", 
            "ingredient": "fresh jalapeno peppers, seeded and diced"
        }, 
        {
            "amount": "1/4 cup", 
            "ingredient": "chopped cilantro"
        }, 
        {
            "amount": "1 tablespoon", 
            "ingredient": "lemon juice"
        }, 
        {
            "amount": "1 (28 ounce) can", 
            "ingredient": "diced tomatoes with juice"
        }, 
        {
            "amount": "1 pound", 
            "ingredient": "cod fillets, cut into chunks"
        }
    ], 
    "prep_steps": [
        "Heat the oil in a skillet over medium heat. Place onion in the skillet. Reduce heat to low, and cook, stirring often, 15 minutes, or until soft and brown.", 
        "Mix the garlic paste and ginger paste into the skillet. Cook 1 minute. Mix in cumin, coriander, cardamom, turmeric, and salt. Stir in the jalapeno, cilantro, lemon juice, and tomatoes with juice, scraping up any brown bits from the bottom of the skillet. Bring to a boil. Reduce heat to low, cover, and simmer 20 minutes. If you like, the sauce may be set aside for a few hours at this point to allow the flavors to blend.", 
        "Return the sauce to a boil, and place cod in the skillet. Reduce heat to low, and cook 15 minutes, or until fish flakes easily with a fork."
    ], 
    "prep_time": "1\u00bc hrs", 
    "recipe_name": "Cod Curry"
}