{
    "ingredients": [
        {
            "amount": "1 (16 ounce) container", 
            "ingredient": "sour cream"
        }, 
        {
            "amount": "1 (16 ounce) jar", 
            "ingredient": "salsa"
        }, 
        {
            "amount": "1 (10.75 ounce) can", 
            "ingredient": "condensed cream of chicken soup"
        }, 
        {
            "amount": "1/4 cup", 
            "ingredient": "diced onion"
        }, 
        {
            "amount": "1 (8 ounce) can", 
            "ingredient": "chili beans, drained"
        }, 
        {
            "amount": "6 (12 inch)", 
            "ingredient": "flour tortillas, cut into strips"
        }, 
        {
            "amount": "6", 
            "ingredient": "skinless, boneless chicken breast halves - cooked and shredded"
        }, 
        {
            "amount": "4 cups", 
            "ingredient": "shredded Cheddar cheese"
        }
    ], 
    "prep_steps": [
        "Preheat oven to 350 degrees F (175 degrees C).", 
        "In a large bowl, mix sour cream, salsa, cream of chicken soup, onion and chili beans.", 
        "Layer the bottom of a 9x13 inch baking dish with 1/3 tortilla strips. Top with 1/3 chicken, 1/3 sour cream mixture and 1/3 Cheddar cheese. Repeat layering with remaining ingredients.", 
        "Bake in the preheated oven 20 to 30 minutes, or until golden and bubbly. Let stand about 10 minutes, or as long as you can stand it!!! You're done!"
    ], 
    "prep_time": "1 hr", 
    "recipe_name": "Chicken Enchilada Casserole II"
}