{
    "ingredients": [
        {
            "amount": "1 cup", 
            "ingredient": "all-purpose flour"
        }, 
        {
            "amount": "1/2 cup", 
            "ingredient": "toasted sesame seeds, divided"
        }, 
        {
            "amount": "1 teaspoon", 
            "ingredient": "black pepper"
        }, 
        {
            "amount": "1 teaspoon", 
            "ingredient": "Chinese five-spice powder"
        }, 
        {
            "amount": "1 teaspoon", 
            "ingredient": "crushed red pepper flakes"
        }, 
        {
            "amount": "5 (6 ounce)", 
            "ingredient": "skinless, boneless chicken breast halves - cut into chunks"
        }, 
        {
            "amount": "5 tablespoons", 
            "ingredient": "vegetable oil"
        }, 
        {
            "amount": "1/2", 
            "ingredient": "yellow onion, cut into wedges"
        }, 
        {
            "amount": "1/2 cup", 
            "ingredient": "green bell pepper, seeded and thinly sliced"
        }, 
        {
            "amount": "2 tablespoons", 
            "ingredient": "teriyaki sauce"
        }, 
        {
            "amount": "2 tablespoons", 
            "ingredient": "honey"
        }
    ], 
    "prep_steps": [
        "In a large resealable plastic bag, combine flour, 1/4 cup sesame seeds, black pepper, five-spice powder, and red pepper flakes. Place a few pieces of chicken at a time into the bag, and shake to coat. Remove to a platter.", 
        "Heat oil in a large skillet or wok over medium-high heat. Place chicken into skillet, and brown on both sides, about 5 minutes. Remove chicken, and set aside. Stir onion wedges and bell pepper slices into skillet; cook until slightly browned, about 2 minutes. Remove, and set aside.", 
        "Return chicken to skillet, and reduce heat to low. Mix in teriyaki marinade, 1/4 cup sesame seeds, and honey; stir until sauce thickens. Return onion and bell pepper to the skillet. Warm through, and serve."
    ], 
    "prep_time": "30 mins", 
    "recipe_name": "Amber's Sesame Chicken"
}