{
    "ingredients": [
        {
            "amount": "2 pounds", 
            "ingredient": "ground pork"
        }, 
        {
            "amount": "2 stalks", 
            "ingredient": "celery"
        }, 
        {
            "amount": "2", 
            "ingredient": "carrots"
        }, 
        {
            "amount": "2 cloves", 
            "ingredient": "garlic"
        }, 
        {
            "amount": "1 small", 
            "ingredient": "onion"
        }, 
        {
            "amount": "1 (8 ounce) can", 
            "ingredient": "water chestnuts"
        }, 
        {
            "amount": "1/2 cup", 
            "ingredient": "prepared Thai peanut sauce"
        }, 
        {
            "amount": "1 (14 ounce) package", 
            "ingredient": "round wonton wrappers"
        }
    ], 
    "prep_steps": [
        "In a food processor, finely chop the celery, carrots, garlic, onion, and water chestnuts. The pieces should be small and fairly uniform, but not liquid.", 
        "In a large skillet, combine the ground pork and chopped vegetables. Cook over medium heat until the vegetables are soft, and the pork is no longer pink. Increase the heat to high, and let the moisture evaporate, then stir in peanut sauce and cook for 5 more minutes before removing from heat.", 
        "While the pork mixture is cooking, preheat the oven to 350 degrees F (175 degrees C). Press one wonton wrap into each cup of a mini muffin pan, with the edges flared out to the sides. Place one scoop of the meat mixture into each cup.", 
        "Bake for about 12 minutes in the preheated oven, or until the outer wrappers are crisp and golden. Allow to cool slightly in the pan before removing to a serving tray."
    ], 
    "prep_time": "32 mins", 
    "recipe_name": "Won Ton Snacks"
}