{
    "ingredients": [
        {
            "amount": "1 cup", 
            "ingredient": "pitted, chopped plums"
        }, 
        {
            "amount": "1 tablespoon", 
            "ingredient": "all-purpose flour"
        }, 
        {
            "amount": "1/2 cup", 
            "ingredient": "margarine"
        }, 
        {
            "amount": "1 cup", 
            "ingredient": "white sugar"
        }, 
        {
            "amount": "1/2 teaspoon", 
            "ingredient": "vanilla extract"
        }, 
        {
            "amount": "2", 
            "ingredient": "eggs"
        }, 
        {
            "amount": "1 1/2 cups", 
            "ingredient": "all-purpose flour"
        }, 
        {
            "amount": "1/2 teaspoon", 
            "ingredient": "salt"
        }, 
        {
            "amount": "1/4 teaspoon", 
            "ingredient": "baking soda"
        }, 
        {
            "amount": "1/3 cup", 
            "ingredient": "plain yogurt"
        }, 
        {
            "amount": "1/4 cup", 
            "ingredient": "brown sugar"
        }
    ], 
    "prep_steps": [
        "Preheat oven to 350 degrees F (175 degrees C). Spray a 9x5-inch loaf pan with cooking spray, or line with parchment paper.", 
        "Sprinkle chopped plums with 1 tablespoon of flour in a bowl, and toss to coat. Set aside. In a large bowl, beat the margarine, white sugar, and vanilla extract with an electric mixer until light and fluffy. Beat in the eggs. In another bowl, sift together 1 1/2 cup of flour with salt and baking soda. Stir the dry ingredients into the egg mixture, alternating with yogurt until the mixture forms a smooth batter. Lightly stir in the flour-coated plums, and pour the batter into the prepared loaf pan. Sprinkle the top of the batter with brown sugar.", 
        "Bake in the preheated oven until a toothpick inserted into the center of the loaf comes out clean, 45 to 50 minutes. Remove from oven, and let cool in the pan 10 to 15 minutes before removing from pan for slicing."
    ], 
    "prep_time": "1\u00bc hrs", 
    "recipe_name": "My Mother-in-Law's Plum Bread"
}