{
    "ingredients": [
        {
            "amount": "2", 
            "ingredient": "mangos, peeled, seeded and chopped"
        }, 
        {
            "amount": "2 small", 
            "ingredient": "peaches, halved, pitted, and cut into 1/2-inch dice"
        }, 
        {
            "amount": "4", 
            "ingredient": "tomatoes, chopped"
        }, 
        {
            "amount": "1", 
            "ingredient": "white onion, diced"
        }, 
        {
            "amount": "1", 
            "ingredient": "red bell pepper, diced"
        }, 
        {
            "amount": "1", 
            "ingredient": "yellow bell pepper, diced"
        }, 
        {
            "amount": "1 cup", 
            "ingredient": "diced fresh pineapple"
        }, 
        {
            "amount": "1 cup", 
            "ingredient": "chopped fresh cilantro"
        }, 
        {
            "amount": "1 clove", 
            "ingredient": "garlic, minced"
        }, 
        {
            "amount": "2 tablespoons", 
            "ingredient": "lime juice"
        }, 
        {
            "amount": "1 teaspoon", 
            "ingredient": "salt"
        }, 
        {
            "amount": "2 tablespoons", 
            "ingredient": "white sugar, or to taste"
        }, 
        {
            "amount": "3/4 cup", 
            "ingredient": "water"
        }
    ], 
    "prep_steps": [
        "Place the mango, peach, tomato, onion, red pepper, yellow pepper, pineapple, and cilantro in a mixing bowl. Stir in the garlic, lime juice, salt, sugar, and water. Cover and refrigerate at least 1 hour before serving."
    ], 
    "prep_time": "2 hr", 
    "recipe_name": "Mango, Peach and Pineapple Salsa"
}