{
    "ingredients": [
        {
            "amount": "1 (16 ounce) package", 
            "ingredient": "uncooked orzo pasta"
        }, 
        {
            "amount": "1 (10 ounce) package", 
            "ingredient": "baby spinach leaves, finely chopped"
        }, 
        {
            "amount": "1/2 pound", 
            "ingredient": "crumbled feta cheese"
        }, 
        {
            "amount": "1/2", 
            "ingredient": "red onion, finely chopped"
        }, 
        {
            "amount": "3/4 cup", 
            "ingredient": "pine nuts"
        }, 
        {
            "amount": "1/2 teaspoon", 
            "ingredient": "dried basil"
        }, 
        {
            "amount": "1/4 teaspoon", 
            "ingredient": "ground white pepper"
        }, 
        {
            "amount": "1/2 cup", 
            "ingredient": "olive oil"
        }, 
        {
            "amount": "1/2 cup", 
            "ingredient": "balsamic vinegar"
        }
    ], 
    "prep_steps": [
        "Bring a large pot of lightly salted water to a boil. Add orzo and cook for 8 to 10 minutes or until al dente; drain and rinse with cold water. Transfer to a large bowl and stir in spinach, feta, onion, pine nuts, basil and white pepper. Toss with olive oil and balsamic vinegar. Refrigerate and serve cold."
    ], 
    "prep_time": "1\u00bd hrs", 
    "recipe_name": "Spinach and Orzo Salad"
}