{
    "ingredients": [
        {
            "amount": "1", 
            "ingredient": "skinless, boneless chicken breast half - cut into bite-size pieces"
        }, 
        {
            "amount": "1/2", 
            "ingredient": "onion, chopped"
        }, 
        {
            "amount": "1", 
            "ingredient": "potato, peeled and cubed"
        }, 
        {
            "amount": "1/2", 
            "ingredient": "green bell pepper, chopped"
        }, 
        {
            "amount": "2 tablespoons", 
            "ingredient": "barbecue sauce"
        }
    ], 
    "prep_steps": [
        "Preheat an outdoor grill for medium high to high heat and lightly oil grate.", 
        "Take two pieces of aluminum foil about 12 to 15 inches each and lay them down in a cross pattern, one over the other. Place the chicken breast, onion, potato, green bell pepper and barbecue sauce in the center of the foil. Bring up all eight corners of the foil and twist the top together to resemble a \"kiss\".", 
        "Grill each package over medium high heat for 30 minutes, or until internal chicken temperature reaches 180 degrees F (80 degrees C)."
    ], 
    "prep_time": "45 mins", 
    "recipe_name": "Chicken Kisses"
}