{
    "ingredients": [
        {
            "amount": "1 pound", 
            "ingredient": "salmon filet without skin"
        }, 
        {
            "amount": "1/4 cup", 
            "ingredient": "soy sauce"
        }, 
        {
            "amount": "1/4 cup", 
            "ingredient": "honey"
        }, 
        {
            "amount": "1 tablespoon", 
            "ingredient": "rice vinegar"
        }, 
        {
            "amount": "1 teaspoon", 
            "ingredient": "minced fresh ginger root"
        }, 
        {
            "amount": "1 clove", 
            "ingredient": "fresh garlic, minced"
        }, 
        {
            "amount": "12", 
            "ingredient": "fresh lemon wedges"
        }, 
        {
            "amount": "12", 
            "ingredient": "skewers"
        }
    ], 
    "prep_steps": [
        "Slice salmon lengthwise into 12 long strips, and thread each onto a soaked wooden skewer. Place in a shallow dish.", 
        "In a bowl, whisk together the soy sauce, honey, vinegar, ginger, garlic, and pepper. Pour over skewers, turning to coat. Let stand at room temperature for 30 minutes. When finished marinating, transfer marinade to a small saucepan, and simmer for several minutes.", 
        "Preheat an outdoor grill for medium-high heat.", 
        "Lightly oil grill grate. Thread 1 lemon wedge onto the end of each skewer. Cook skewers on the preheated grill for 4 minutes per side, brushing often with marinade, or until fish flakes easily with a fork."
    ], 
    "prep_time": "53 mins", 
    "recipe_name": "Grilled Salmon Skewers"
}