{
    "ingredients": [
        {
            "amount": "3", 
            "ingredient": "delicata squash, halved lengthwise and seeded"
        }, 
        {
            "amount": "1", 
            "ingredient": "onion, chopped"
        }, 
        {
            "amount": "3 cups", 
            "ingredient": "vegetable broth"
        }, 
        {
            "amount": "1 1/2 cups", 
            "ingredient": "heavy whipping cream"
        }, 
        {
            "amount": "2 tablespoons", 
            "ingredient": "butter"
        }
    ], 
    "prep_steps": [
        "Preheat oven to 325 degrees F (165 degrees C). Place the squash, cut sides down, in a baking dish. Add 1/8 inch water in baking dish, cover with foil and bake 35-40 minutes or until tender. Cool.", 
        "In a large saucepan, melt butter. Add onion and cook over low heat, stirring occasionally until onion is softened but not brown.", 
        "Scrape the squash out of the flesh and add to onions. Add the stock and heavy cream. Cook over moderate heat, stirring occasionally, about 25 minutes.", 
        "Puree the soup in a blender or food processor. Season with salt and pepper to taste and serve."
    ], 
    "prep_time": "1\u00be hrs", 
    "recipe_name": "Delicata Creamy Squash Soup"
}