{
    "ingredients": [
        {
            "amount": "4", 
            "ingredient": "apples - peeled, cored and cut into thin wedges"
        }, 
        {
            "amount": "1/2 cup", 
            "ingredient": "margarine, divided"
        }, 
        {
            "amount": "1/4 cup", 
            "ingredient": "honey"
        }, 
        {
            "amount": "1/4 cup", 
            "ingredient": "all-purpose flour"
        }, 
        {
            "amount": "1/4 teaspoon", 
            "ingredient": "salt"
        }, 
        {
            "amount": "1/4 teaspoon", 
            "ingredient": "ground black pepper"
        }, 
        {
            "amount": "2 cups", 
            "ingredient": "dried bread crumbs"
        }, 
        {
            "amount": "1", 
            "ingredient": "egg, beaten"
        }, 
        {
            "amount": "4 (6 ounce) fillets", 
            "ingredient": "sea bass"
        }
    ], 
    "prep_steps": [
        "Melt 1/4 cup of the margarine in a large skillet over medium-high heat. Fry the apples in margarine until tender. Stir in honey, reduce heat, and keep warm.", 
        "In a shallow bowl, mix together flour, salt, and pepper. Place bread crumbs in another shallow bowl, and egg in a third bowl.", 
        "Melt the remaining 1/4 cup margarine in a large skillet over medium heat. Dredge the fish in the seasoned flour, dip in egg, then coat with bread crumbs. Place the coated fillets in the hot skillet, and cook for about 3 to 4 minutes per side. The fillets should be nicely browned, and they should flake easily with a fork. Place fish on a serving dish, and spoon the apples with honey over the top of each fillet."
    ], 
    "prep_time": "35 mins", 
    "recipe_name": "Sea Bass with Honeyed Apples"
}