{
    "ingredients": [
        {
            "amount": "1 3/4 cups", 
            "ingredient": "cake flour"
        }, 
        {
            "amount": "2 1/2 teaspoons", 
            "ingredient": "baking powder"
        }, 
        {
            "amount": "1/2 teaspoon", 
            "ingredient": "salt"
        }, 
        {
            "amount": "1 1/2 cups", 
            "ingredient": "heavy cream"
        }, 
        {
            "amount": "1 1/3 cups", 
            "ingredient": "white sugar"
        }, 
        {
            "amount": "2", 
            "ingredient": "eggs"
        }, 
        {
            "amount": "1 teaspoon", 
            "ingredient": "vanilla extract"
        }
    ], 
    "prep_steps": [
        "Preheat oven to 375 degrees F (190 degrees C). Grease and flour two 8 inch pans. Sift together the cake flour, baking powder and salt. Set aside.", 
        "Using an electric mixer, whip the cream with the sugar until stiff peaks form. Beat in the eggs, then stir in the vanilla. Fold in the flour mixture, mixing just until incorporated.", 
        "Pour batter into prepared pans. Bake in the preheated oven for 25 minutes, or until a toothpick inserted into the center of the cake comes out clean. Allow to cool."
    ], 
    "prep_time": "55 mins", 
    "recipe_name": "Whipped Cream Cake II"
}