{
    "ingredients": [
        {
            "amount": "1 (14 ounce) can", 
            "ingredient": "sweetened condensed milk"
        }, 
        {
            "amount": "1/2 cup", 
            "ingredient": "lemon juice"
        }, 
        {
            "amount": "1 (8 ounce) container", 
            "ingredient": "frozen whipped topping, thawed"
        }, 
        {
            "amount": "1 (9 inch)", 
            "ingredient": "prepared graham cracker crust"
        }
    ], 
    "prep_steps": [
        "In a bowl, combine milk and lemon juice; mix until smooth (mixture will begin to thicken). Fold in whipped topping; spoon into crust. Chil until ready to serve."
    ], 
    "recipe_name": "Lemon Pie I"
}