{
    "ingredients": [
        {
            "amount": "1 cup", 
            "ingredient": "butter, softened"
        }, 
        {
            "amount": "2 cups", 
            "ingredient": "white sugar"
        }, 
        {
            "amount": "3", 
            "ingredient": "eggs"
        }, 
        {
            "amount": "1/2 cup", 
            "ingredient": "water"
        }, 
        {
            "amount": "1 tablespoon", 
            "ingredient": "vanilla extract"
        }, 
        {
            "amount": "2 1/2 cups", 
            "ingredient": "all-purpose flour"
        }, 
        {
            "amount": "2 tablespoons", 
            "ingredient": "unsweetened cocoa powder"
        }, 
        {
            "amount": "1 teaspoon", 
            "ingredient": "baking soda"
        }, 
        {
            "amount": "1 teaspoon", 
            "ingredient": "ground cinnamon"
        }, 
        {
            "amount": "1 teaspoon", 
            "ingredient": "ground nutmeg"
        }, 
        {
            "amount": "2 cups", 
            "ingredient": "apples - peeled, cored and finely diced"
        }, 
        {
            "amount": "1 cup", 
            "ingredient": "semisweet chocolate chips"
        }
    ], 
    "prep_steps": [
        "Preheat the oven to 325 degrees F (165 degrees C). Grease and flour one 9 or 10 inch tube pan.", 
        "In a large bowl cream the butter or margarine with the sugar. Beat in the eggs then add the water and the vanilla.", 
        "Stir the flour, cocoa, baking soda, ground cinnamon and ground nutmeg together. Beat this mixture into the creamed mixture. Stir in the chopped apples and the semisweet chocolate chips. Pour the batter into the prepared pan.", 
        "Bake at 325 degrees F (165 degrees C) for 1 hour and 15 minutes or until the cake tests done when a toothpick is inserted near the center. Transfer to a rack to cool. Makes about 16 servings."
    ], 
    "recipe_name": "Chocolate Chip Apple Cake"
}