{
    "ingredients": [
        {
            "amount": "1 pound", 
            "ingredient": "breakfast sausage"
        }, 
        {
            "amount": "3/4 cup", 
            "ingredient": "margarine, melted"
        }, 
        {
            "amount": "3/4 cup", 
            "ingredient": "finely diced onion"
        }, 
        {
            "amount": "1 1/2 cups", 
            "ingredient": "chopped celery"
        }, 
        {
            "amount": "8 cups", 
            "ingredient": "soft bread cubes, divided"
        }, 
        {
            "amount": "3 teaspoons", 
            "ingredient": "poultry seasoning"
        }, 
        {
            "amount": "1/4 teaspoon", 
            "ingredient": "ground black pepper"
        }
    ], 
    "prep_steps": [
        "Place sausage in a large, deep skillet; cook over medium-high heat until evenly brown, about 10 minutes. Remove sausage from the skillet and let drain on paper towels. Combine melted margarine with the sausage drippings until there is 1 cup of drippings and margarine combined.", 
        "Cook and stir onion and celery in the margarine-dripping mixture in the same skillet over medium heat until onion is tender but not browned, about 10 minutes . Stir in about 1/3 of the bread cubes. Pour onion mixture into a large bowl and stir in remaining bread cubes, sausage, poultry seasoning, and pepper. Watch your hands, it's hot. Mix well. This stuffing is ready for baking."
    ], 
    "prep_time": "35 mins", 
    "recipe_name": "Sausage Stuffing"
}