{
    "ingredients": [
        {
            "amount": "6 slices", 
            "ingredient": "bacon"
        }, 
        {
            "amount": "4 cups", 
            "ingredient": "broccoli florets"
        }, 
        {
            "amount": "1 cup", 
            "ingredient": "chopped celery"
        }, 
        {
            "amount": "1 (10 ounce) package", 
            "ingredient": "frozen green peas, thawed"
        }, 
        {
            "amount": "1 cup", 
            "ingredient": "sweetened dried cranberries"
        }, 
        {
            "amount": "1/2 cup", 
            "ingredient": "chopped green onions"
        }, 
        {
            "amount": "1 cup", 
            "ingredient": "seedless green grapes"
        }, 
        {
            "amount": "1 cup", 
            "ingredient": "seedless red grapes"
        }, 
        {
            "amount": "1/2 cup", 
            "ingredient": "slivered almonds"
        }, 
        {
            "amount": "1/4 cup", 
            "ingredient": "white sugar"
        }, 
        {
            "amount": "1 teaspoon", 
            "ingredient": "salt"
        }, 
        {
            "amount": "1/4 cup", 
            "ingredient": "white wine vinegar"
        }, 
        {
            "amount": "2 tablespoons", 
            "ingredient": "grated onion"
        }, 
        {
            "amount": "1/4 cup", 
            "ingredient": "grated Parmesan cheese"
        }, 
        {
            "amount": "1 1/2 cups", 
            "ingredient": "mayonnaise"
        }
    ], 
    "prep_steps": [
        "Place bacon in a skillet over medium high-heat, and cook until evenly brown. Drain, crumble and set aside.", 
        "In a large bowl, toss together the bacon, broccoli, celery, peas, cranberries, green onions, green grapes, red grapes, and almonds. In a separate bowl, whisk together the sugar, salt, vinegar, grated onion, Parmesan cheese, and mayonnaise. Pour dressing over the salad. Gently toss to coat."
    ], 
    "prep_time": "30 mins", 
    "recipe_name": "Raw Veggie Picnic Salad"
}