{
    "ingredients": [
        {
            "amount": "2 cups", 
            "ingredient": "macaroni"
        }, 
        {
            "amount": "2 cups", 
            "ingredient": "cucumber - peeled, seeded and chopped"
        }, 
        {
            "amount": "1 cup", 
            "ingredient": "chopped tomatoes"
        }, 
        {
            "amount": "1 cup", 
            "ingredient": "low-fat sour cream"
        }, 
        {
            "amount": "1/2 cup", 
            "ingredient": "skim milk"
        }, 
        {
            "amount": "1 tablespoon", 
            "ingredient": "chopped fresh dill weed"
        }, 
        {
            "amount": "1/2 teaspoon", 
            "ingredient": "coarse ground black pepper"
        }, 
        {
            "amount": "1/2 teaspoon", 
            "ingredient": "salt"
        }, 
        {
            "amount": "1 tablespoon", 
            "ingredient": "distilled white vinegar"
        }
    ], 
    "prep_steps": [
        "Cook pasta in boiling salted water until al dente. Drain, and rinse in cold water. Transfer noodles to a large bowl.", 
        "In a separate bowl, mix together sour cream, milk, dill, vinegar, and salt and pepper. Set dressing aside.", 
        "Mix cucumbers and tomatoes into the pasta. Pour in dressing, and mix thoroughly. Cover, and refrigerate at least 1 hour and preferably overnight. Stir just before serving."
    ], 
    "prep_time": "30 mins", 
    "recipe_name": "Cucumber and Dill Pasta Salad"
}