{
    "ingredients": [
        {
            "amount": "2 tablespoons", 
            "ingredient": "olive oil"
        }, 
        {
            "amount": "1/2 cup", 
            "ingredient": "minced onion"
        }, 
        {
            "amount": "1 clove", 
            "ingredient": "garlic, minced"
        }, 
        {
            "amount": "1/2 cup", 
            "ingredient": "minced celery"
        }, 
        {
            "amount": "2 tablespoons", 
            "ingredient": "butter"
        }, 
        {
            "amount": "1 pound", 
            "ingredient": "lean ground beef"
        }, 
        {
            "amount": "1/2 teaspoon", 
            "ingredient": "white sugar"
        }, 
        {
            "amount": "1 teaspoon", 
            "ingredient": "salt"
        }, 
        {
            "amount": "1/2 teaspoon", 
            "ingredient": "dried mint"
        }, 
        {
            "amount": "6 ounces", 
            "ingredient": "fresh chopped mushrooms"
        }, 
        {
            "amount": "1 (6 ounce) can", 
            "ingredient": "tomato paste"
        }, 
        {
            "amount": "2 (10.5 ounce) cans", 
            "ingredient": "beef broth"
        }, 
        {
            "amount": "2 teaspoons", 
            "ingredient": "dried basil"
        }, 
        {
            "amount": "1 pound", 
            "ingredient": "spaghetti"
        }, 
        {
            "amount": "1 teaspoon", 
            "ingredient": "olive oil"
        }, 
        {
            "amount": "3 tablespoons", 
            "ingredient": "salt"
        }, 
        {
            "amount": "1 tablespoon", 
            "ingredient": "chopped fresh parsley, for garnish"
        }, 
        {
            "amount": "1/4 cup", 
            "ingredient": "grated Romano cheese"
        }
    ], 
    "prep_steps": [
        "In a large skillet, warm olive oil over low heat; saute onion, garlic and celery until onion is transparent.", 
        "Stir in butter and increase heat to medium; brown beef until no longer pink. Mix in sugar, 1 teaspoon salt, mint and mushrooms; lower heat and stir for about 3 minutes.", 
        "In a large bowl, combine tomato paste and broth; pour liquid and basil to pot. Simmer over very low heat for about 2 hours, stirring occasionally.", 
        "Bring a large pot of water to a vigorous boil with 3 tablespoons salt and 1 teaspoon olive oil. Slip spaghetti into water holding on to ends until strands soften a bit. Cook over high heat for 7 to 8 minutes only. When properly cooked, raw taste should be gone but still have a firm texture.", 
        "When ready to serve, combine pasta with meat sauce; serve on a warmed platter or bowl topped with parsley and Romano cheese."
    ], 
    "prep_time": "2\u00be hrs", 
    "recipe_name": "Mariu's Spaghetti with Meat Sauce"
}