{
    "ingredients": [
        {
            "amount": "1", 
            "ingredient": "pastry for a 9 inch double crust pie"
        }, 
        {
            "amount": "2 1/2 cups", 
            "ingredient": "pitted sour cherries"
        }, 
        {
            "amount": "3/4 cup", 
            "ingredient": "white sugar"
        }, 
        {
            "amount": "3 tablespoons", 
            "ingredient": "all-purpose flour"
        }, 
        {
            "amount": "1 tablespoon", 
            "ingredient": "butter"
        }, 
        {
            "amount": "1 pinch", 
            "ingredient": "salt"
        }
    ], 
    "prep_steps": [
        "Preheat oven to 400 degrees F (200 degrees C). Line a 9-inch pie plate with pastry.", 
        "Mix the sugar, flour, and salt; toss with the cherries, mixing well. Pour the cherry filling into the pie shell, and dot with butter.", 
        "Weave strips of pastry into a lattice top. Place the pie on a baking sheet.", 
        "Bake in the preheated oven until the filling is bubbling and the crust is golden brown, about 40 minutes. Cool on a wire rack."
    ], 
    "prep_time": "2\u00bd hrs", 
    "recipe_name": "Cherry Pie II"
}