{
    "ingredients": [
        {
            "amount": "2 (10 ounce) packages", 
            "ingredient": "pretzels"
        }, 
        {
            "amount": "1 tablespoon", 
            "ingredient": "heavy whipping cream"
        }, 
        {
            "amount": "2 cups", 
            "ingredient": "semisweet chocolate chips"
        }
    ], 
    "prep_steps": [
        "Melt chocolate and cream in double boiler over low heat, stirring constantly.", 
        "Dip pretzels one at a time quickly to coat while mixture is still very warm. Place pretzels on wax paper to set and cool."
    ], 
    "recipe_name": "Chocolate Covered Pretzels"
}