{
    "ingredients": [
        {
            "amount": "3/4 cup", 
            "ingredient": "butter flavored shortening"
        }, 
        {
            "amount": "1 cup", 
            "ingredient": "packed brown sugar"
        }, 
        {
            "amount": "1", 
            "ingredient": "egg"
        }, 
        {
            "amount": "1/4 cup", 
            "ingredient": "molasses"
        }, 
        {
            "amount": "2 cups", 
            "ingredient": "all-purpose flour"
        }, 
        {
            "amount": "1/4 teaspoon", 
            "ingredient": "salt"
        }, 
        {
            "amount": "2 teaspoons", 
            "ingredient": "baking soda"
        }, 
        {
            "amount": "1 teaspoon", 
            "ingredient": "ground cinnamon"
        }, 
        {
            "amount": "1 teaspoon", 
            "ingredient": "ground cloves"
        }, 
        {
            "amount": "1 teaspoon", 
            "ingredient": "ground ginger"
        }
    ], 
    "prep_steps": [
        "Cream together until light and fluffy butter flavored shortening and brown sugar. Add egg and molasses and beat well. Sift together flour, salt, baking soda, cinnamon, ground cloves and ginger. Add to creamed mixture and mix well.", 
        "Chill at least 1 hour or overnight.", 
        "Preheat oven to 375 degrees F (190 degrees C).", 
        "Roll into 1-inch balls, roll in sugar. Place balls 2 inches apart on ungreased cookie sheet. Bake for 10 minutes. Cool slightly before removing from pan."
    ], 
    "recipe_name": "Molasses Sugar Cookies I"
}