{
    "ingredients": [
        {
            "amount": "1/2 cup", 
            "ingredient": "butter, softened"
        }, 
        {
            "amount": "1/3 cup", 
            "ingredient": "chocolate syrup"
        }, 
        {
            "amount": "1 cup", 
            "ingredient": "packed brown sugar"
        }, 
        {
            "amount": "1/2 cup", 
            "ingredient": "white sugar"
        }, 
        {
            "amount": "2", 
            "ingredient": "eggs"
        }, 
        {
            "amount": "2 tablespoons", 
            "ingredient": "corn syrup"
        }, 
        {
            "amount": "2 teaspoons", 
            "ingredient": "vanilla extract"
        }, 
        {
            "amount": "2 1/2 cups", 
            "ingredient": "all-purpose flour"
        }, 
        {
            "amount": "1 teaspoon", 
            "ingredient": "baking soda"
        }, 
        {
            "amount": "1/2 teaspoon", 
            "ingredient": "salt"
        }, 
        {
            "amount": "1 (11.5 ounce) package", 
            "ingredient": "semi-sweet chocolate chunks"
        }
    ], 
    "prep_steps": [
        "Preheat the oven to 375 degrees F (190 degrees C).", 
        "In a medium bowl, cream together the butter, chocolate syrup, brown sugar and white sugar until smooth. Beat in the eggs, one at a time, then stir in the corn syrup and vanilla. Combine the flour, baking soda and salt; stir into the creamed mixture until just blended. Mix in the chocolate chunks by hand. Drop cookies by 1/4 cupfuls onto ungreased cookie sheets.", 
        "Bake for 12 to 14 minutes in the preheated oven. Allow cookies to cool on baking sheet for 5 minutes before removing to a wire rack to cool completely."
    ], 
    "prep_time": "30 mins", 
    "recipe_name": "Best Ever Chewy Chocolate Chocolate Chunk Cookies"
}