{
    "ingredients": [
        {
            "amount": "1 tablespoon", 
            "ingredient": "olive oil"
        }, 
        {
            "amount": "1 clove", 
            "ingredient": "garlic, minced"
        }, 
        {
            "amount": "1", 
            "ingredient": "chayote squash, cut into 1/2-inch strips"
        }, 
        {
            "amount": "1/2 teaspoon", 
            "ingredient": "salt"
        }, 
        {
            "amount": "1/2 teaspoon", 
            "ingredient": "white sugar"
        }, 
        {
            "amount": "1/4 teaspoon", 
            "ingredient": "red pepper flakes"
        }, 
        {
            "amount": "1 tablespoon", 
            "ingredient": "red wine vinegar"
        }
    ], 
    "prep_steps": [
        "Heat olive oil in medium skillet over medium-high heat. When oil is hot, add garlic, squash, salt, pepper, sugar, and red pepper flakes. Stir together and cook 2 to 3 minutes.", 
        "Add vinegar to the squash mixture and cook 2 to 3 minutes longer, until the squash is slightly wilted, but still firm and crunchy. Taste, and add more salt or sugar if needed."
    ], 
    "prep_time": "25 mins", 
    "recipe_name": "Chayote Squash Side Dish"
}