{
    "ingredients": [
        {
            "amount": "1 (16 ounce) package", 
            "ingredient": "spaghetti"
        }, 
        {
            "amount": "1/4 cup", 
            "ingredient": "olive oil"
        }, 
        {
            "amount": "8 slices", 
            "ingredient": "bacon, cut into 1/4 inch pieces"
        }, 
        {
            "amount": "4 cloves", 
            "ingredient": "garlic, minced"
        }, 
        {
            "amount": "1/2 cup", 
            "ingredient": "chopped fresh flat-leaf parsley"
        }
    ], 
    "prep_steps": [
        "Fill a large pot with lightly salted water and bring to a rolling boil over high heat. Once the water is boiling, stir in the spaghetti, and return to a boil. Cook the pasta uncovered, stirring occasionally, until the pasta has cooked through, but is still firm to the bite, about 12 minutes. Drain well in a colander set in the sink.", 
        "Meanwhile, heat the olive oil in a large skillet over medium heat. Stir in the bacon, and cook until the bacon has begun to shrink, about 3 minutes. Add the garlic, and continue cooking and stirring until the garlic has softened, and the bacon is crisp, about 5 minutes. Toss the drained pasta with the bacon, oil, and parsley to serve."
    ], 
    "prep_time": "25 mins", 
    "recipe_name": "Spaghetti with Bacon"
}