{
    "ingredients": [
        {
            "amount": "1 (1 pound) loaf", 
            "ingredient": "sandwich bread"
        }, 
        {
            "amount": "2 (8 ounce) packages", 
            "ingredient": "cream cheese, softened"
        }, 
        {
            "amount": "1 teaspoon", 
            "ingredient": "garlic powder"
        }, 
        {
            "amount": "1 teaspoon", 
            "ingredient": "dried parsley"
        }, 
        {
            "amount": "1 pound", 
            "ingredient": "bacon, cut in half"
        }
    ], 
    "prep_steps": [
        "Preheat oven to 375 degrees F (190 degrees C). Grease a baking sheet.", 
        "Cut the crusts off of the bread slices, then cut each piece of bread into three equal rectangles.", 
        "In a small bowl, combine cream cheese, garlic powder, and parsley. Spread a layer of the cream cheese mixture on each bread rectangle, and roll it up. Wrap a slice of bacon around each of the bread rolls and secure them with toothpicks. Arrange the roll ups on the prepared baking sheet.", 
        "Bake until the bacon is crisp, approximately 10 minutes."
    ], 
    "prep_time": "35 mins", 
    "recipe_name": "Bacon Roll Ups I"
}