{
    "ingredients": [
        {
            "amount": "4 ounces", 
            "ingredient": "herb-seasoned dry bread stuffing mix"
        }, 
        {
            "amount": "1/3 cup", 
            "ingredient": "melted butter"
        }, 
        {
            "amount": "4 cups", 
            "ingredient": "cubed zucchini"
        }, 
        {
            "amount": "2", 
            "ingredient": "carrots, grated"
        }, 
        {
            "amount": "1 small", 
            "ingredient": "onion, chopped"
        }, 
        {
            "amount": "1 (10.5 ounce) can", 
            "ingredient": "condensed cream of chicken soup"
        }, 
        {
            "amount": "1/2 cup", 
            "ingredient": "sour cream"
        }
    ], 
    "prep_steps": [
        "Preheat oven to 350 degrees F (175 degrees C).", 
        "In a small bowl combine stuffing and butter. In a separate bowl combine zucchini, carrots, onion, soup and sour cream. Mix in 1/2 of the stuffing mixture, then spread into a 9x12 inch casserole dish and sprinkle the remaining stuffing on top.", 
        "Cover the dish with aluminum foil and bake in preheated oven for 60 minutes."
    ], 
    "prep_time": "1\u00bc hrs", 
    "recipe_name": "Zucchini Casserole I"
}