{
    "ingredients": [
        {
            "amount": "1 (16 ounce) package", 
            "ingredient": "egg noodles"
        }, 
        {
            "amount": "1 pound", 
            "ingredient": "lean ground beef"
        }, 
        {
            "amount": "1 (.75 ounce) packet", 
            "ingredient": "dry brown gravy mix"
        }, 
        {
            "amount": "1 (8 ounce) package", 
            "ingredient": "cream cheese"
        }, 
        {
            "amount": "1 (6 ounce) can", 
            "ingredient": "chopped mushrooms, with liquid"
        }, 
        {
            "amount": "1/2 cup", 
            "ingredient": "milk"
        }, 
        {
            "amount": "1 (8 ounce) container", 
            "ingredient": "sour cream"
        }, 
        {
            "amount": "2 (10.75 ounce) cans", 
            "ingredient": "condensed cream of mushroom soup"
        }
    ], 
    "prep_steps": [
        "Bring a large pot of lightly salted water to a boil. Add egg noodles and cook for 8 to 10 minutes or until al dente; drain.", 
        "In a skillet over medium heat, brown the ground beef until no pink shows, about 5 minutes; drain fat.", 
        "Mix brown gravy, cream cheese, and mushrooms with hamburger, stirring until cream cheese melts. Add milk, sour cream, and mushroom soup to cooked pasta. Blend hamburger mixture with pasta."
    ], 
    "prep_time": "30 mins", 
    "recipe_name": "Simple Hamburger Stroganoff"
}