{
    "ingredients": [
        {
            "amount": "1 1/2 cups", 
            "ingredient": "smoked sausage, sliced"
        }, 
        {
            "amount": "1/4 cup", 
            "ingredient": "diced onion"
        }, 
        {
            "amount": "6", 
            "ingredient": "eggs"
        }, 
        {
            "amount": "1/2 cup", 
            "ingredient": "milk"
        }, 
        {
            "amount": "1/4 cup", 
            "ingredient": "sour cream"
        }, 
        {
            "amount": "1 1/2 cups", 
            "ingredient": "shredded Cheddar cheese, divided"
        }
    ], 
    "prep_steps": [
        "Preheat an oven to 400 degrees F (200 degrees C).", 
        "Cook the sausage and onion in an oven-proof skillet over medium heat until the sausage has browned, about 10 minutes. Drain excess grease from the skillet. Whisk together the eggs, milk, sour cream, salt, and pepper. Sprinkle the sausage with 1 cup of the Cheddar cheese, then pour the egg mixture overtop.", 
        "Bake in the preheated oven until a knife inserted into the center comes out clean, about 18 minutes. Sprinkle with the remaining Cheddar cheese, and return to the oven until the cheese has melted. Cut into wedges to serve."
    ], 
    "prep_time": "45 mins", 
    "recipe_name": "Colette's Smoked Sausage Fritatta"
}