{
    "ingredients": [
        {
            "amount": "2 cups", 
            "ingredient": "chopped, cooked chicken"
        }, 
        {
            "amount": "1/2 (4 ounce) can", 
            "ingredient": "chopped green chilies"
        }, 
        {
            "amount": "1 (7 ounce) can", 
            "ingredient": "prepared green chile salsa"
        }, 
        {
            "amount": "1/2 teaspoon", 
            "ingredient": "salt"
        }, 
        {
            "amount": "2 cups", 
            "ingredient": "whipping cream"
        }, 
        {
            "amount": "12", 
            "ingredient": "corn tortillas"
        }, 
        {
            "amount": "1 1/2 cups", 
            "ingredient": "shredded Monterey Jack cheese"
        }
    ], 
    "prep_steps": [
        "Preheat oven to 350 degrees F (175 degrees C).", 
        "In a bowl, mix together chicken, chilies, and salsa.", 
        "In a wide, shallow dish stir together salt and whipping cream.", 
        "Heat oil in a large, heavy skillet over medium-high heat. Fry each tortilla for a few seconds, until it blisters, and immediately dip into cream and salt.", 
        "Fill fried tortillas with chicken mixture. Roll and place flap side down in a baking dish. Pour remaining cream over tortillas, and sprinkle with cheese.", 
        "Bake, uncovered, in a preheated oven until cheese has melted, about 15 to 20 minutes."
    ], 
    "prep_time": "50 mins", 
    "recipe_name": "Swiss Enchiladas"
}