{
    "ingredients": [
        {
            "amount": "2 cups", 
            "ingredient": "confectioners' sugar"
        }, 
        {
            "amount": "1/2 teaspoon", 
            "ingredient": "vanilla extract"
        }, 
        {
            "amount": "1", 
            "ingredient": "egg white"
        }, 
        {
            "amount": "1/2 tablespoon", 
            "ingredient": "water"
        }, 
        {
            "amount": "3 tablespoons", 
            "ingredient": "butter, softened"
        }
    ], 
    "prep_steps": [
        "Combine all ingredients in bowl. Beat at low speed to mix. Beat at high speed until smooth and fluffy, approximately 5-10 minutes. If too stiff, beat in a few drops of water."
    ], 
    "recipe_name": "Fluffy Buttercream Frosting"
}