{
    "ingredients": [
        {
            "amount": "5", 
            "ingredient": "sweet potatoes, peeled and cubed"
        }, 
        {
            "amount": "1 ounce", 
            "ingredient": "raisins"
        }, 
        {
            "amount": "1 ounce", 
            "ingredient": "chopped pecans"
        }, 
        {
            "amount": "1/4 cup", 
            "ingredient": "butter, melted"
        }, 
        {
            "amount": "1/2 cup", 
            "ingredient": "maple syrup"
        }, 
        {
            "amount": "1/2 cup", 
            "ingredient": "water"
        }
    ], 
    "prep_steps": [
        "Preheat oven to 400 degrees F (200 degrees C).", 
        "Spread sweet potatoes in a single layer in a 9x13 inch baking dish. Sprinkle with raisins and chopped pecans.", 
        "In a small bowl, mix the butter, syrup and water. Pour the mixture over potatoes.", 
        "Cover the baking dish with aluminum foil. Bake in the preheated oven 50 to 60 minutes, until sweet potatoes are tender."
    ], 
    "prep_time": "1\u00bc hrs", 
    "recipe_name": "Baked Sweet Potatoes with Raisins and Pecans"
}