{
    "ingredients": [
        {
            "amount": "1 recipe", 
            "ingredient": "pastry for a 9 inch single crust pie"
        }, 
        {
            "amount": "2 1/2 cups", 
            "ingredient": "raspberries"
        }, 
        {
            "amount": "1/2 cup", 
            "ingredient": "packed brown sugar"
        }, 
        {
            "amount": "1 teaspoon", 
            "ingredient": "cornstarch"
        }, 
        {
            "amount": "1 tablespoon", 
            "ingredient": "butter"
        }, 
        {
            "amount": "1", 
            "ingredient": "egg white"
        }
    ], 
    "prep_steps": [
        "Preheat oven to 450 degrees F (230 degrees C).", 
        "Line a 9 inch pie plate with pastry, and brush with egg white. Arrange berries in crust. Combine sugar and cornstarch; sprinkle mixture over the berries. Dot with butter. Cover with upper crust, and seal the edges.", 
        "Bake for 10 minutes. Reduce oven temperature to 400 degrees F (205 degrees C), and continue baking for 30 minutes."
    ], 
    "recipe_name": "Raspberry Pie II"
}