{
    "ingredients": [
        {
            "amount": "1 pound", 
            "ingredient": "ground beef"
        }, 
        {
            "amount": "2 cloves", 
            "ingredient": "garlic, minced"
        }, 
        {
            "amount": "1 small", 
            "ingredient": "onion, diced"
        }, 
        {
            "amount": "1", 
            "ingredient": "green bell pepper, diced"
        }, 
        {
            "amount": "3 stalks", 
            "ingredient": "celery, diced"
        }, 
        {
            "amount": "1 (29 ounce) can", 
            "ingredient": "Italian-style stewed tomatoes, drained"
        }, 
        {
            "amount": "1 (15 ounce) can", 
            "ingredient": "mixed vegetables, drained"
        }, 
        {
            "amount": "2 quarts", 
            "ingredient": "beef broth"
        }, 
        {
            "amount": "3 tablespoons", 
            "ingredient": "soy sauce"
        }, 
        {
            "amount": "2 tablespoons", 
            "ingredient": "Worcestershire sauce"
        }, 
        {
            "amount": "3/4 teaspoon", 
            "ingredient": "paprika"
        }, 
        {
            "amount": "6 ounces", 
            "ingredient": "dry fusilli pasta"
        }
    ], 
    "prep_steps": [
        "Place the beef in a skillet over medium heat. Mix in garlic, onion, and green bell pepper. Cook and stir until beef is evenly brown and vegetables are tender. Drain grease, and transfer to a slow cooker.", 
        "Mix celery, Italian-style stewed tomatoes, and mixed vegetables into the slow cooker. Pour in beef broth, soy sauce, and Worcestershire sauce. Season with paprika, salt, and pepper.", 
        "Cover, and cook 7 hours on High. Mix pasta into the slow cooker during the last 15 minutes of cook time."
    ], 
    "prep_time": "7 hrs", 
    "recipe_name": "Slow Cooker Vegetable Beef Soup"
}