{
    "ingredients": [
        {
            "amount": "2 pounds", 
            "ingredient": "sweet potatoes, peeled and diced"
        }, 
        {
            "amount": "1/2 cup", 
            "ingredient": "butter"
        }, 
        {
            "amount": "1/2 cup", 
            "ingredient": "packed brown sugar"
        }, 
        {
            "amount": "1/2 cup", 
            "ingredient": "brandy"
        }, 
        {
            "amount": "1/2 teaspoon", 
            "ingredient": "salt"
        }
    ], 
    "prep_steps": [
        "Place sweet potatoes in a large saucepan with enough water to cover. Bring to a boil. Cook 15 minutes, or until tender but firm. Drain, and set aside.", 
        "In a large skillet over low heat, melt the butter. Stir in the brown sugar, brandy, and salt. Add the sweet potatoes, and stir to coat. Cook, stirring gently, until sweet potatoes are heated through and well glazed."
    ], 
    "prep_time": "45 mins", 
    "recipe_name": "Brandied Candied Sweet Potatoes"
}