{
    "ingredients": [
        {
            "amount": "1/4 cup", 
            "ingredient": "dried apricots, finely chopped"
        }, 
        {
            "amount": "1/2 cup", 
            "ingredient": "brown sugar"
        }, 
        {
            "amount": "1/2 cup", 
            "ingredient": "raisins"
        }, 
        {
            "amount": "1 cup", 
            "ingredient": "water"
        }, 
        {
            "amount": "3 cups", 
            "ingredient": "fresh cranberries"
        }, 
        {
            "amount": "1", 
            "ingredient": "Granny Smith apple - peeled, cored and chopped"
        }, 
        {
            "amount": "1 teaspoon", 
            "ingredient": "grated lemon zest"
        }, 
        {
            "amount": "1/4 cup", 
            "ingredient": "fresh lemon juice"
        }, 
        {
            "amount": "1/4 cup", 
            "ingredient": "chopped crystallized ginger"
        }, 
        {
            "amount": "1/2 teaspoon", 
            "ingredient": "red pepper flakes"
        }
    ], 
    "prep_steps": [
        "In a saucepan, combine apricots, brown sugar, raisins and water; bring to a boil. Reduce heat to simmer and stir while simmering for 5 minutes. Stir in cranberries, apple and lemon zest; simmer for 10 minutes more.", 
        "Stir lemon juice, ginger and pepper flakes into the mixture before removing from heat. Serve chilled or at room temperature."
    ], 
    "prep_time": "50 mins", 
    "recipe_name": "Spicy Cranberry Chutney"
}