{
    "ingredients": [
        {
            "amount": "2", 
            "ingredient": "cucumbers, sliced"
        }, 
        {
            "amount": "1/4 cup", 
            "ingredient": "white wine vinegar"
        }, 
        {
            "amount": "2 tablespoons", 
            "ingredient": "white sugar"
        }, 
        {
            "amount": "2 teaspoons", 
            "ingredient": "celery seed"
        }, 
        {
            "amount": "1/8 teaspoon", 
            "ingredient": "ground black pepper"
        }, 
        {
            "amount": "3/4 teaspoon", 
            "ingredient": "salt"
        }, 
        {
            "amount": "2 tablespoons", 
            "ingredient": "chopped onion"
        }, 
        {
            "amount": "1 tablespoon", 
            "ingredient": "lemon juice"
        }
    ], 
    "prep_steps": [
        "In a mixing bowl, combine the cucumbers, vinegar, sugar, celery seed, pepper, salt, chopped onion and lemon juice. Toss, cover and chill for 4 hours."
    ], 
    "prep_time": "4 hrs", 
    "recipe_name": "Lemony Cucumbers"
}