{
    "ingredients": [
        {
            "amount": "4 teaspoons", 
            "ingredient": "chopped fresh rosemary leaves"
        }, 
        {
            "amount": "4 teaspoons", 
            "ingredient": "chopped fresh thyme"
        }, 
        {
            "amount": "4 teaspoons", 
            "ingredient": "minced onion"
        }, 
        {
            "amount": "4 teaspoons", 
            "ingredient": "minced garlic"
        }, 
        {
            "amount": "1/4 cup", 
            "ingredient": "white wine Worcestershire sauce"
        }, 
        {
            "amount": "2 teaspoons", 
            "ingredient": "coarse kosher salt"
        }, 
        {
            "amount": "1/2 teaspoon", 
            "ingredient": "ground black pepper"
        }, 
        {
            "amount": "1/4 cup", 
            "ingredient": "olive oil"
        }
    ], 
    "prep_steps": [
        "In a blender or food processor, mix rosemary, thyme, onion, garlic, white wine Worcestershire sauce, coarse salt, pepper, and olive oil. Pulse until well blended. Cover, and chill in the refrigerator at least 10 minutes before rubbing under turkey skin or injecting into meat as desired."
    ], 
    "prep_time": "20 mins", 
    "recipe_name": "Herb Turkey Rub"
}