{
    "ingredients": [
        {
            "amount": "1 (18.25 ounce) package", 
            "ingredient": "white cake mix"
        }, 
        {
            "amount": "1 (3 ounce) package", 
            "ingredient": "strawberry flavored Jell-O\u00ae mix"
        }, 
        {
            "amount": "1 cup", 
            "ingredient": "mashed fresh strawberries"
        }, 
        {
            "amount": "1 cup", 
            "ingredient": "vegetable oil"
        }, 
        {
            "amount": "1/2 cup", 
            "ingredient": "milk"
        }, 
        {
            "amount": "4", 
            "ingredient": "eggs"
        }, 
        {
            "amount": "1 cup", 
            "ingredient": "flaked coconut"
        }, 
        {
            "amount": "1/2 cup", 
            "ingredient": "chopped pecans"
        }, 
        {
            "amount": "1 (8 ounce) package", 
            "ingredient": "cream cheese, room temperature"
        }, 
        {
            "amount": "1/2 cup", 
            "ingredient": "butter, room temperature"
        }, 
        {
            "amount": "3 1/2 cups", 
            "ingredient": "confectioners' sugar"
        }, 
        {
            "amount": "3/4 cup", 
            "ingredient": "fresh strawberries"
        }, 
        {
            "amount": "1/2 cup", 
            "ingredient": "flaked coconut"
        }, 
        {
            "amount": "1/2 cup", 
            "ingredient": "chopped pecans"
        }
    ], 
    "prep_steps": [
        "Preheat oven to 350 degrees F (175 degrees C). Grease and flour three 9-inch round pans.", 
        "In a large bowl, stir together cake mix and gelatin mix. Make a well in the center and pour in 1 cup mashed strawberries, oil, milk and eggs. Beat on low speed until blended. Scrape bowl, and beat 4 minutes on medium speed. Fold in the coconut and pecans. Pour cake batter into the prepared pans.", 
        "Bake in the preheated oven for 25 to 30 minutes, or until a toothpick inserted into the center of the cake comes out clean. Let cool in pan for 10 minutes, then turn out onto a wire rack and cool completely.", 
        "To make the Strawberry Cream Cheese Frosting: Mash the 3/4 cup strawberries to make 1/2 cup, then drain well; set aside. In a medium bowl, beat cream cheese and butter until smooth. Blend in the confectioners' sugar and drained strawberries. Beat on medium speed until the frosting lightens and is well combined. Fold in the coconut and pecans.", 
        "Frost cake between layers, on top and sides. Chill uncovered 30 minutes or until frosting sets, then cover and chill 4 to 6 hours before serving."
    ], 
    "prep_time": "6 hr", 
    "recipe_name": "Strawberry Dream Cake II"
}