{
    "ingredients": [
        {
            "amount": "2 cups", 
            "ingredient": "butter, softened"
        }, 
        {
            "amount": "1 1/2 cups", 
            "ingredient": "white sugar"
        }, 
        {
            "amount": "4", 
            "ingredient": "egg yolks"
        }, 
        {
            "amount": "1 1/2 teaspoons", 
            "ingredient": "vanilla extract"
        }, 
        {
            "amount": "4 1/2 cups", 
            "ingredient": "all-purpose flour"
        }, 
        {
            "amount": "1/2 teaspoon", 
            "ingredient": "salt"
        }
    ], 
    "prep_steps": [
        "In a large bowl, cream together the butter and sugar. Beat in the yolks one at a time, then stir in the vanilla. Combine the flour and salt; stir into the creamed mixture. Shape dough into logs about 2 inches in diameter. Wrap in waxed paper and refrigerate or freeze until firm.", 
        "Preheat oven to 350 degrees F (175 degrees C). Unwrap rolls. You can roll the logs in nuts or sprinkles before slicing. Slice into 3/8 inch wide slices. Place slices 2 inches apart onto ungreased cookie sheets.", 
        "Bake for 8 to 10 minutes in the preheated oven. Do not brown. Remove to a wire rack to cool completely."
    ], 
    "prep_time": "2\u00bc hrs", 
    "recipe_name": "Butter Cookies V"
}