{
    "ingredients": [
        {
            "amount": "2 cups", 
            "ingredient": "rolled oats"
        }, 
        {
            "amount": "3/4 cup", 
            "ingredient": "white sugar"
        }, 
        {
            "amount": "3 tablespoons", 
            "ingredient": "unsweetened cocoa powder"
        }, 
        {
            "amount": "1 tablespoon", 
            "ingredient": "water"
        }, 
        {
            "amount": "1/2 teaspoon", 
            "ingredient": "vanilla"
        }, 
        {
            "amount": "2/3 cup", 
            "ingredient": "butter, softened"
        }, 
        {
            "amount": "1 cup", 
            "ingredient": "confectioners' sugar"
        }
    ], 
    "prep_steps": [
        "In a large bowl, combine the oats, sugar and cocoa. With clean hands, mix in the water, vanilla and butter to form a dough. Wash hands, then roll the dough into balls 1 to 2 inches in diameter. Roll balls in confectioners' sugar until thickly coated (or they will become crusty). Chill 20 minutes before serving."
    ], 
    "prep_time": "30 mins", 
    "recipe_name": "No Bake Oatmeal Cookies"
}