{
    "ingredients": [
        {
            "amount": "1 cup", 
            "ingredient": "peeled and cubed horseradish root"
        }, 
        {
            "amount": "3/4 cup", 
            "ingredient": "white vinegar"
        }, 
        {
            "amount": "2 teaspoons", 
            "ingredient": "white sugar"
        }, 
        {
            "amount": "1/4 teaspoon", 
            "ingredient": "salt"
        }
    ], 
    "prep_steps": [
        "In an electric food processor or blender, process horseradish root, vinegar, sugar and salt. Carefully remove the cover of the processor or blender, keeping your face away from the container. Cover and store the horseradish in the refrigerator."
    ], 
    "prep_time": "5 mins", 
    "recipe_name": "Homemade Horseradish"
}