{
    "ingredients": [
        {
            "amount": "6", 
            "ingredient": "Yukon Gold potatoes, peeled and cubed"
        }, 
        {
            "amount": "2", 
            "ingredient": "sweet potatoes, peeled and cubed"
        }, 
        {
            "amount": "2 tablespoons", 
            "ingredient": "butter"
        }, 
        {
            "amount": "1/2 cup", 
            "ingredient": "heavy cream"
        }, 
        {
            "amount": "1 tablespoon", 
            "ingredient": "chicken bouillon granules"
        }, 
        {
            "amount": "1 2/3 tablespoons", 
            "ingredient": "brown sugar"
        }, 
        {
            "amount": "2 teaspoons", 
            "ingredient": "black pepper"
        }, 
        {
            "amount": "2 cups", 
            "ingredient": "shredded Monterey Jack cheese"
        }
    ], 
    "prep_steps": [
        "Place the potatoes and sweet potatoes in a large pot with enough water to cover. Bring to a boil. Cook about 15 minutes, until tender but firm. Remove from heat, and drain.", 
        "Preheat the oven broiler.", 
        "In a large bowl, mash the potatoes. Gradually mix in butter, heavy cream, chicken bouillon, brown sugar, and pepper. Transfer the mixture to a medium baking dish, and top with Monterey Jack cheese.", 
        "Broil uncovered in the preheated oven 10 minutes, or until the cheese is melted and lightly browned."
    ], 
    "prep_time": "1 hr", 
    "recipe_name": "Cheesy Sweet and Savory Spuds"
}