{
    "ingredients": [
        {
            "amount": "6", 
            "ingredient": "skinless, boneless chicken breast halves"
        }, 
        {
            "amount": "1 (10.75 ounce) can", 
            "ingredient": "condensed cream of chicken soup"
        }, 
        {
            "amount": "1 (10.75 ounce) can", 
            "ingredient": "condensed cream of mushroom soup"
        }, 
        {
            "amount": "1/2 cup", 
            "ingredient": "cooking sherry"
        }, 
        {
            "amount": "1 teaspoon", 
            "ingredient": "minced garlic"
        }, 
        {
            "amount": "1 teaspoon", 
            "ingredient": "celery flakes"
        }, 
        {
            "amount": "1/2 teaspoon", 
            "ingredient": "paprika"
        }, 
        {
            "amount": "1/2 cup", 
            "ingredient": "grated Parmesan cheese"
        }, 
        {
            "amount": "1 (8 ounce) can", 
            "ingredient": "mushroom pieces, drained"
        }
    ], 
    "prep_steps": [
        "Place the chicken breasts into a slow cooker. Whisk the cream of chicken soup, cream of mushroom soup, sherry, garlic, celery flakes, and paprika in a mixing bowl. Stir in the Parmesan cheese and mushroom pieces; pour over the chicken.", 
        "Cook on Low for 8 hours until the chicken is tender, and the sauce has reduced slightly."
    ], 
    "prep_time": "8 hrs", 
    "recipe_name": "Crock Pot Cheesy Mushroom Chicken"
}