{
    "ingredients": [
        {
            "amount": "1 tablespoon", 
            "ingredient": "reduced-fat mayonnaise"
        }, 
        {
            "amount": "2 slices", 
            "ingredient": "bread, toasted"
        }, 
        {
            "amount": "1 slice", 
            "ingredient": "provolone cheese"
        }, 
        {
            "amount": "4 thin slices", 
            "ingredient": "deli turkey breast"
        }, 
        {
            "amount": "4 slices", 
            "ingredient": "precooked bacon, microwaved according to package directions"
        }, 
        {
            "amount": "1/2", 
            "ingredient": "avocado - peeled, pitted, and thinly sliced"
        }, 
        {
            "amount": "1 slice", 
            "ingredient": "ripe tomato"
        }, 
        {
            "amount": "1 leaf", 
            "ingredient": "lettuce"
        }
    ], 
    "prep_steps": [
        "Spread mayonnaise on one side of both slices of toasted bread. Top a bread slice with provolone cheese, turkey, bacon, avocado, tomato, and lettuce. Place the remaining bread slice on top, slice in half, and serve."
    ], 
    "prep_time": "15 mins", 
    "recipe_name": "Turkey Bacon Avocado Sandwich"
}