{
    "ingredients": [
        {
            "amount": "5 fluid ounces", 
            "ingredient": "tequila"
        }, 
        {
            "amount": "3 fluid ounces", 
            "ingredient": "fresh lime juice"
        }, 
        {
            "amount": "1 fluid ounce", 
            "ingredient": "sweetened lime juice"
        }, 
        {
            "amount": "3 fluid ounces", 
            "ingredient": "triple sec (orange-flavored liqueur)"
        }, 
        {
            "amount": "1", 
            "ingredient": "lime, cut into wedges"
        }
    ], 
    "prep_steps": [
        "Measure the tequila, lime juice, sweetened lime juice and triple sec into a cocktail shaker and add a generous scoop of ice. Cover and shake until the shaker is frosty, about 30 seconds.", 
        "Rub a lime wedge around the rim of a margarita glass and dip in salt. Fill each glass with ice. Strain equal amounts of the cocktail into the glasses to serve. Garnish with a lime wedge."
    ], 
    "prep_time": "5 mins", 
    "recipe_name": "Parker's Famous Margaritas"
}