{
    "ingredients": [
        {
            "amount": "1 cup", 
            "ingredient": "instant tea powder"
        }, 
        {
            "amount": "2 cups", 
            "ingredient": "orange-flavored drink mix (e.g. Tang)"
        }, 
        {
            "amount": "1 (3 ounce) package", 
            "ingredient": "powdered lemonade mix"
        }, 
        {
            "amount": "2 cups", 
            "ingredient": "white sugar"
        }, 
        {
            "amount": "2 teaspoons", 
            "ingredient": "ground cinnamon"
        }, 
        {
            "amount": "1/2 teaspoon", 
            "ingredient": "ground cloves"
        }
    ], 
    "prep_steps": [
        "In a large bowl, combine instant tea powder, orange drink mix, lemonade powder, sugar, cinnamon and cloves. Mix thoroughly. Store in a sealed jar.", 
        "To use, mix 3 to 4 tablespoons of mix with 1 cup hot or cold water. Adjust to taste."
    ], 
    "prep_time": "10 mins", 
    "recipe_name": "Russian Tea"
}