{
    "ingredients": [
        {
            "amount": "3 pounds", 
            "ingredient": "ground beef"
        }, 
        {
            "amount": "17", 
            "ingredient": "saltine crackers, finely crushed"
        }, 
        {
            "amount": "1/2 cup", 
            "ingredient": "milk"
        }, 
        {
            "amount": "1 1/2 teaspoons", 
            "ingredient": "garlic powder"
        }, 
        {
            "amount": "1 1/2 teaspoons", 
            "ingredient": "onion powder"
        }, 
        {
            "amount": "1/4 teaspoon", 
            "ingredient": "ground black pepper"
        }, 
        {
            "amount": "1 pinch", 
            "ingredient": "salt, or to taste"
        }, 
        {
            "amount": "1/2 cup", 
            "ingredient": "all-purpose flour"
        }, 
        {
            "amount": "1 tablespoon", 
            "ingredient": "vegetable oil"
        }, 
        {
            "amount": "1 1/2 cups", 
            "ingredient": "water"
        }, 
        {
            "amount": "1 (10.75 ounce) can", 
            "ingredient": "condensed beef and mushroom soup"
        }, 
        {
            "amount": "1 (.75 ounce) packet", 
            "ingredient": "dry brown gravy mix"
        }
    ], 
    "prep_steps": [
        "In a large bowl, mix together the ground beef, saltine crackers and milk. Season with garlic powder, onion powder, salt and pepper, and mix until well blended. Line a 10x15 inch jellyroll pan with waxed paper. Press the beef mixture firmly into the pan. Cover with plastic wrap, and refrigerate 8 to 10 hours, or overnight.", 
        "Preheat the oven to 350 degrees F (175 degrees C). Remove plastic wrap from meat, and rub flour over the top side of the beef. Flip out of the pan onto waxed paper, and rub flour on the other side as well. Cut into pieces (I use a pizza cutter).", 
        "Heat oil in a large heavy skillet over medium-high heat. Fry the meat until browned on each side, turning only once. Remove to a 9x13 inch baking dish. In a medium bowl, mix together the water, condensed soup, and gravy mix. Pour over the meat in the dish. Cover the dish loosely with aluminum foil.", 
        "Bake for 1 hour in the preheated oven. Serve fake steak and gravy with potatoes, rice, or noodles."
    ], 
    "prep_time": "12 hrs", 
    "recipe_name": "Baked Fake Steak with Gravy"
}