{
    "ingredients": [
        {
            "amount": "4 medium", 
            "ingredient": "potatoes, cubed"
        }, 
        {
            "amount": "2 tablespoons", 
            "ingredient": "canola oil"
        }, 
        {
            "amount": "1 medium", 
            "ingredient": "yellow onion, diced"
        }, 
        {
            "amount": "1 teaspoon", 
            "ingredient": "minced garlic"
        }, 
        {
            "amount": "2 teaspoons", 
            "ingredient": "curry powder"
        }, 
        {
            "amount": "2 teaspoons", 
            "ingredient": "garam masala"
        }, 
        {
            "amount": "1 teaspoon", 
            "ingredient": "ground ginger"
        }, 
        {
            "amount": "1 teaspoon", 
            "ingredient": "cumin"
        }, 
        {
            "amount": "1 teaspoon", 
            "ingredient": "salt"
        }, 
        {
            "amount": "1 (10.75 ounce) can", 
            "ingredient": "condensed tomato soup"
        }, 
        {
            "amount": "1/2 cup", 
            "ingredient": "cream or milk"
        }, 
        {
            "amount": "1 (12 ounce) can", 
            "ingredient": "chickpeas, rinsed and drained"
        }
    ], 
    "prep_steps": [
        "Place potatoes in a saucepan, cover with water, and bring to a boil over high heat; simmer until the potatoes are tender. Drain, and set aside.", 
        "Warm oil in a skillet over medium heat. Stir in onion and garlic, and cook until the onions are soft and translucent. Stir in curry powder, garam masala, ginger, cumin, and salt. Cook for 1 or 2 minutes, stirring. Pour in soup, cream, and chickpeas. Stir in potatoes. Simmer 5 minutes."
    ], 
    "prep_time": "50 mins", 
    "recipe_name": "Butter Chickpea Curry"
}