{
    "ingredients": [
        {
            "amount": "1 (8 ounce) container", 
            "ingredient": "frozen whipped topping, thawed"
        }, 
        {
            "amount": "1 (8 ounce) container", 
            "ingredient": "yogurt"
        }
    ], 
    "prep_steps": [
        "In a medium bowl, blend the whipped topping and yogurt. Chill in the refrigerator 30 minutes before serving."
    ], 
    "prep_time": "35 mins", 
    "recipe_name": "Super Easy Fruit Dip"
}