{
    "ingredients": [
        {
            "amount": "1/2 cup", 
            "ingredient": "sliced syrup-packed peaches, drained, syrup reserved"
        }, 
        {
            "amount": "3 tablespoons", 
            "ingredient": "peach jam"
        }, 
        {
            "amount": "2 tablespoons", 
            "ingredient": "Dijon mustard"
        }, 
        {
            "amount": "2 teaspoons", 
            "ingredient": "curry powder"
        }, 
        {
            "amount": "1 teaspoon", 
            "ingredient": "honey"
        }, 
        {
            "amount": "1 tablespoon", 
            "ingredient": "vegetable oil"
        }, 
        {
            "amount": "4", 
            "ingredient": "boneless pork chops"
        }, 
        {
            "amount": "2", 
            "ingredient": "green onions, chopped"
        }, 
        {
            "amount": "2 tablespoons", 
            "ingredient": "chopped fresh cilantro"
        }
    ], 
    "prep_steps": [
        "In a bowl, mix the reserved peach syrup, peach jam, Dijon mustard, curry powder, and honey.", 
        "Heat the vegetable oil in a skillet over medium heat, and cook the pork chops 8 minutes, or to desired doneness.", 
        "Mix the green onions into the skillet, and cook 1 minute, until tender. Spoon the syrup mixture and peaches over the pork chops. Continue cooking until heated through. Sprinkle with cilantro to serve."
    ], 
    "prep_time": "30 mins", 
    "recipe_name": "Peach Curry Glazed Pork Chops"
}