{
    "ingredients": [
        {
            "amount": "1 tablespoon", 
            "ingredient": "vegetable oil"
        }, 
        {
            "amount": "1/2 cup", 
            "ingredient": "chopped onion"
        }, 
        {
            "amount": "2", 
            "ingredient": "carrots, chopped"
        }, 
        {
            "amount": "1 cup", 
            "ingredient": "quinoa, rinsed"
        }, 
        {
            "amount": "2 cups", 
            "ingredient": "vegetable broth"
        }, 
        {
            "amount": "3/4 cup", 
            "ingredient": "chopped walnuts"
        }, 
        {
            "amount": "1/4 cup", 
            "ingredient": "chopped fresh parsley"
        }
    ], 
    "prep_steps": [
        "Heat oil in a saucepan over medium-high heat. Cook onion in oil for 5 minutes, or until translucent. Add carrot, and cook 3 minutes more. Stir in quinoa and vegetable broth, and bring to a boil. Reduce to a simmer, cover, and cook 15 to 20 minutes, or until quinoa is tender and fluffy.", 
        "In a bowl, toss quinoa together with walnuts and parsley. Serve hot or at room temperature."
    ], 
    "prep_time": "35 mins", 
    "recipe_name": "Quinoa Pilaf"
}