{
    "ingredients": [
        {
            "amount": "3 tablespoons", 
            "ingredient": "olive oil"
        }, 
        {
            "amount": "4", 
            "ingredient": "skinless, boneless chicken breast halves"
        }, 
        {
            "amount": "1/8 teaspoon", 
            "ingredient": "ground thyme"
        }, 
        {
            "amount": "1", 
            "ingredient": "lemon, juiced"
        }, 
        {
            "amount": "1 cup", 
            "ingredient": "orange juice"
        }, 
        {
            "amount": "1", 
            "ingredient": "mango - peeled, seeded and sliced"
        }, 
        {
            "amount": "1/4 teaspoon", 
            "ingredient": "ground ginger"
        }, 
        {
            "amount": "1/8 teaspoon", 
            "ingredient": "ground cinnamon"
        }
    ], 
    "prep_steps": [
        "Heat the olive oil in a medium skillet over medium heat. Place chicken breast halves in the skillet, and cook 5 to 10 minutes on each side, until no longer pink and juices run clear. Season both sides with thyme, salt, and pepper. Remove from heat, and set aside.", 
        "Heat the lemon juice in the skillet over medium heat, and scrape up browned bits. Mix in orange juice, mango, ginger, and cinnamon. Over high heat, cook and continuously stir 4 to 5 minutes, until thickened. Spoon over the cooked chicken breast halves to serve."
    ], 
    "prep_time": "40 mins", 
    "recipe_name": "Orange Mango Chicken"
}