{
    "ingredients": [
        {
            "amount": "2 cups", 
            "ingredient": "flour"
        }, 
        {
            "amount": "2 teaspoons", 
            "ingredient": "MAGIC Baking Powder"
        }, 
        {
            "amount": "1 teaspoon", 
            "ingredient": "baking soda"
        }, 
        {
            "amount": "1 tablespoon", 
            "ingredient": "ground cinnamon"
        }, 
        {
            "amount": "1/4 teaspoon", 
            "ingredient": "ground nutmeg"
        }, 
        {
            "amount": "1/2 teaspoon", 
            "ingredient": "salt"
        }, 
        {
            "amount": "4", 
            "ingredient": "eggs"
        }, 
        {
            "amount": "1 1/4 cups", 
            "ingredient": "oil"
        }, 
        {
            "amount": "2 cups", 
            "ingredient": "granulated sugar"
        }, 
        {
            "amount": "2 cups", 
            "ingredient": "grated carrots"
        }, 
        {
            "amount": "1 (19 ounce) can", 
            "ingredient": "crushed pineapple, well drained"
        }, 
        {
            "amount": "1/2 cup", 
            "ingredient": "chopped walnuts or pecans"
        }, 
        {
            "amount": "1 (250 g) package", 
            "ingredient": "PHILADELPHIA Brick Cream Cheese, softened"
        }, 
        {
            "amount": "1/4 cup", 
            "ingredient": "butter, melted"
        }, 
        {
            "amount": "2 cups", 
            "ingredient": "icing sugar"
        }, 
        {
            "amount": "1 teaspoon", 
            "ingredient": "lemon juice"
        }, 
        {
            "amount": "1/2 teaspoon", 
            "ingredient": "grated lemon peel"
        }
    ], 
    "prep_steps": [
        "Cake: Heat oven to 350 degrees F. Sift together flour, baking powder, baking soda, spices and salt in medium bowl; set aside. Beat eggs and oil in large bowl with wire whisk until well blended. Gradually add granulated sugar, mixing until blended. Add flour mixture, carrots, pineapple and walnuts; mix well. Pour into greased and floured 12-cup fluted tube pan or 10-inch (3-L) tube pan.", 
        "Bake 50 min. to 1 hour or until wooden toothpick inserted in centre comes out clean. Cool 10 min.; loosen from sides of pan with spatula or knife and gently remove cake. Cool completely on wire rack.", 
        "Icing: Beat cream cheese and butter in large bowl with electric mixer until well blended. Gradually add icing sugar, juice and peel, beating until well blended after each addition. Spread on top of cake. Store leftover cake in refrigerator."
    ], 
    "prep_time": "2 hr", 
    "recipe_name": "Carrot Cake with PHILLY Cream Cheese Icing"
}