{
    "ingredients": [
        {
            "amount": "2 cups", 
            "ingredient": "all-purpose flour"
        }, 
        {
            "amount": "2 1/2 teaspoons", 
            "ingredient": "baking powder"
        }, 
        {
            "amount": "1/2 teaspoon", 
            "ingredient": "baking soda"
        }, 
        {
            "amount": "1 dash", 
            "ingredient": "salt"
        }, 
        {
            "amount": "1 tablespoon", 
            "ingredient": "white sugar"
        }, 
        {
            "amount": "1/2 cup", 
            "ingredient": "butter"
        }, 
        {
            "amount": "3/4 cup", 
            "ingredient": "buttermilk"
        }
    ], 
    "prep_steps": [
        "Preheat oven to 400 degrees F (200 degrees C).", 
        "In a bowl, mix the flour, baking powder, baking soda, salt, and sugar. Cut in 1/2 cup butter until the mixture resembles coarse crumbs. Mix in the buttermilk. Turn out onto a lightly floured surface, and knead 2 minutes. Transfer to an ungreased baking sheet, roll into a 6x6 inch square, and cut into 12 even sections. Do not separate.", 
        "Bake 15 minutes in the preheated oven, until a knife inserted in the center of the square comes out clean. Separate into biscuits, and serve hot."
    ], 
    "prep_time": "30 mins", 
    "recipe_name": "Kentucky Biscuits"
}