{
    "ingredients": [
        {
            "amount": "2 cups", 
            "ingredient": "crushed fresh strawberries"
        }, 
        {
            "amount": "1 (6 ounce) package", 
            "ingredient": "strawberry flavored Jell-O\u00ae mix"
        }, 
        {
            "amount": "3 cups", 
            "ingredient": "miniature marshmallows"
        }, 
        {
            "amount": "1 (18 ounce) package", 
            "ingredient": "yellow cake mix, batter prepared as directed on package"
        }
    ], 
    "prep_steps": [
        "Preheat an oven to 350 degrees F (175 degrees C).", 
        "Spread crushed strawberries on the bottom of a 9x13 inch baking pan. Evenly sprinkle strawberries with the dry gelatin powder, and top with mini marshmallows.", 
        "Prepare the cake mix as directed on the package, and pour on top of the marshmallows. Bake in the preheated oven until a toothpick inserted into the center comes out clean, about 40 to 50 minutes. Cool in the pan for 15 minutes. Run a knife around the pan to loosen the sides, and turn the cake out onto a serving tray. Store cake in the refrigerator."
    ], 
    "prep_time": "1\u00bd hrs", 
    "recipe_name": "Fresh Strawberry Upside Down Cake"
}