{
    "ingredients": [
        {
            "amount": "2 slices", 
            "ingredient": "bread"
        }, 
        {
            "amount": "2 tablespoons", 
            "ingredient": "peanut butter"
        }, 
        {
            "amount": "1 slice", 
            "ingredient": "Cheddar cheese"
        }, 
        {
            "amount": "2 teaspoons", 
            "ingredient": "butter or margarine"
        }
    ], 
    "prep_steps": [
        "Heat a skillet over medium heat. Spread peanut butter on one slice of bread, lay a slice of cheese over the peanut butter, and top with the remaining slice of bread. Spread butter on the outer sides of the sandwich, and place in the hot skillet. Fry on each side until golden brown and cheese is melted, 3 to 5 minutes."
    ], 
    "prep_time": "10 mins", 
    "recipe_name": "Grilled Cheese and Peanut Butter Sandwich"
}