{
    "ingredients": [
        {
            "amount": "1 individual package", 
            "ingredient": "chocolate graham crackers, crushed"
        }, 
        {
            "amount": "1/2 cup", 
            "ingredient": "melted butter"
        }, 
        {
            "amount": "2 tablespoons", 
            "ingredient": "white sugar"
        }, 
        {
            "amount": "2 (8 ounce) packages", 
            "ingredient": "cream cheese, softened"
        }, 
        {
            "amount": "1/2 cup", 
            "ingredient": "brown sugar"
        }, 
        {
            "amount": "2", 
            "ingredient": "eggs"
        }, 
        {
            "amount": "1", 
            "ingredient": "egg yolk"
        }, 
        {
            "amount": "1 teaspoon", 
            "ingredient": "vanilla extract"
        }, 
        {
            "amount": "1 cup", 
            "ingredient": "semisweet chocolate chips"
        }
    ], 
    "prep_steps": [
        "Preheat oven to 350 degrees F (175 degrees C.) Mix cracker crumbs, melted butter and sugar. Press into the bottom and sides of a 9 inch pie plate. Refrigerate crust while making filling.", 
        "In a large bowl, beat cream cheese and brown sugar until smooth. Beat in the eggs and egg yolk. Stir in vanilla. Fold in the chocolate chips. Pour filling into pie crust.", 
        "Bake in the preheated oven for 50 minutes, or until filling is set."
    ], 
    "prep_time": "1\u00bc hrs", 
    "recipe_name": "Chocolate Chip Cheesecake"
}