{
    "ingredients": [
        {
            "amount": "1 tablespoon", 
            "ingredient": "vegetable oil"
        }, 
        {
            "amount": "1/2 cup", 
            "ingredient": "chopped onion"
        }, 
        {
            "amount": "1 clove", 
            "ingredient": "garlic, minced"
        }, 
        {
            "amount": "1 medium", 
            "ingredient": "potato, peeled and chopped"
        }, 
        {
            "amount": "1/2 cup", 
            "ingredient": "chopped broccoli"
        }, 
        {
            "amount": "1/2 cup", 
            "ingredient": "frozen corn"
        }, 
        {
            "amount": "1/2 cup", 
            "ingredient": "torn spinach"
        }, 
        {
            "amount": "1/2 cup", 
            "ingredient": "chopped fresh mushrooms"
        }, 
        {
            "amount": "1/2 cup", 
            "ingredient": "chopped carrots"
        }, 
        {
            "amount": "1/4 cup", 
            "ingredient": "chopped cabbage"
        }, 
        {
            "amount": "2 (32 fluid ounce) containers", 
            "ingredient": "chicken broth"
        }, 
        {
            "amount": "6 ounces", 
            "ingredient": "egg noodles"
        }, 
        {
            "amount": "1 cup", 
            "ingredient": "canned white beans"
        }
    ], 
    "prep_steps": [
        "Heat the oil in a large pot over medium heat, and cook the onion and garlic until tender. Mix in potato, broccoli, corn, spinach, mushrooms, carrots, and cabbage. Pour in chicken broth and bring to a boil. Reduce heat to low. Simmer 20 minutes, until potato is tender.", 
        "Stir egg noodles and white beans into the pot, and continue cooking 7 minutes, or until noodles are tender and beans are heated through."
    ], 
    "prep_time": "1 hr", 
    "recipe_name": "Spring Vegetable Soup"
}