{
    "ingredients": [
        {
            "amount": "8", 
            "ingredient": "boneless, skinless chicken breast halves"
        }, 
        {
            "amount": "3 tablespoons", 
            "ingredient": "brown sugar"
        }, 
        {
            "amount": "1 tablespoon", 
            "ingredient": "ground paprika"
        }, 
        {
            "amount": "1 teaspoon", 
            "ingredient": "salt"
        }, 
        {
            "amount": "1 teaspoon", 
            "ingredient": "dry mustard"
        }, 
        {
            "amount": "1/2 teaspoon", 
            "ingredient": "chili powder"
        }, 
        {
            "amount": "1/4 cup", 
            "ingredient": "distilled white vinegar"
        }, 
        {
            "amount": "1/8 teaspoon", 
            "ingredient": "cayenne pepper"
        }, 
        {
            "amount": "2 tablespoons", 
            "ingredient": "Worcestershire sauce"
        }, 
        {
            "amount": "1 1/2 cups", 
            "ingredient": "tomato-vegetable juice cocktail"
        }, 
        {
            "amount": "1/2 cup", 
            "ingredient": "ketchup"
        }, 
        {
            "amount": "1/4 cup", 
            "ingredient": "water"
        }, 
        {
            "amount": "2 cloves", 
            "ingredient": "garlic, minced"
        }
    ], 
    "prep_steps": [
        "Preheat the oven to 350 degrees F (175 degrees C).", 
        "Place the chicken breasts in a single layer in a 9x13 inch baking dish. In a medium bowl, mix together the brown sugar, paprika, salt, dry mustard, chili powder, vinegar, cayenne pepper, Worcestershire sauce, vegetable juice cocktail, ketchup, water and garlic. Pour the sauce evenly over the chicken breasts.", 
        "Bake uncovered, for 35 minutes in the preheated oven. Remove chicken breasts, shred with a fork, and return to the sauce. Bake in the oven for an additional 10 minutes so the chicken can soak up more flavor. Serve on a bed of rice with freshly ground black pepper."
    ], 
    "prep_time": "50 mins", 
    "recipe_name": "Texas BBQ Chicken"
}