{
    "ingredients": [
        {
            "amount": "1 tablespoon", 
            "ingredient": "olive oil"
        }, 
        {
            "amount": "4", 
            "ingredient": "skinless, boneless chicken breast halves - cubed"
        }, 
        {
            "amount": "1 large", 
            "ingredient": "onion, chopped"
        }, 
        {
            "amount": "6 cloves", 
            "ingredient": "garlic, minced"
        }, 
        {
            "amount": "3", 
            "ingredient": "green chile peppers, seeded and minced"
        }, 
        {
            "amount": "1", 
            "ingredient": "green bell pepper, chopped"
        }, 
        {
            "amount": "1", 
            "ingredient": "red bell pepper, chopped"
        }, 
        {
            "amount": "1 (8 ounce) package", 
            "ingredient": "mushrooms, sliced"
        }, 
        {
            "amount": "3 (15 ounce) cans", 
            "ingredient": "pinto beans"
        }, 
        {
            "amount": "4", 
            "ingredient": "green onions, chopped"
        }, 
        {
            "amount": "1 bunch", 
            "ingredient": "fresh parsley, chopped"
        }, 
        {
            "amount": "1 cup", 
            "ingredient": "white wine"
        }, 
        {
            "amount": "2 (14.5 ounce) cans", 
            "ingredient": "chicken broth"
        }, 
        {
            "amount": "2 cubes", 
            "ingredient": "chicken bouillon"
        }, 
        {
            "amount": "1 teaspoon", 
            "ingredient": "dried rosemary"
        }, 
        {
            "amount": "1 teaspoon", 
            "ingredient": "dried thyme"
        }, 
        {
            "amount": "1 tablespoon", 
            "ingredient": "dried oregano"
        }, 
        {
            "amount": "1 1/2 tablespoons", 
            "ingredient": "ground cumin"
        }, 
        {
            "amount": "2", 
            "ingredient": "bay leaves"
        }
    ], 
    "prep_steps": [
        "In a large pot over medium-high heat, cook chicken in olive oil with black pepper until brown. Stir in onion, garlic and chiles and cook until onion begins to soften.", 
        "Stir in bell peppers, mushrooms, beans, green onions and parsley. Pour in wine and chicken broth. Season with bouillon, rosemary, thyme, oregano and cumin. Place bay leaves in pot, cover, reduce heat and simmer 90 minutes."
    ], 
    "prep_time": "2\u00bd hrs", 
    "recipe_name": "White Chili IV"
}