{
    "ingredients": [
        {
            "amount": "1/4 cup", 
            "ingredient": "vegetable oil"
        }, 
        {
            "amount": "1/2 cup", 
            "ingredient": "white wine"
        }, 
        {
            "amount": "2 tablespoons", 
            "ingredient": "Cajun seasoning"
        }, 
        {
            "amount": "6", 
            "ingredient": "skinless, boneless chicken breast halves"
        }
    ], 
    "prep_steps": [
        "In a bowl, mix the oil, white wine, and Cajun seasoning. Place chicken in the bowl, and coat with the mixture. Cover, and refrigerate for at least 3 hours.", 
        "Preheat the grill for high heat.", 
        "Lightly oil the grill grate. Discard marinade, and place chicken on the grill. Cook for 6 to 8 minutes on each side, until juices run clear."
    ], 
    "prep_time": "4 hrs", 
    "recipe_name": "Cajun Barbecued Chicken"
}