{
    "ingredients": [
        {
            "amount": "1/2 cup", 
            "ingredient": "butter"
        }, 
        {
            "amount": "1 cup", 
            "ingredient": "white sugar"
        }, 
        {
            "amount": "2", 
            "ingredient": "eggs"
        }, 
        {
            "amount": "1 teaspoon", 
            "ingredient": "baking powder"
        }, 
        {
            "amount": "1 teaspoon", 
            "ingredient": "baking soda"
        }, 
        {
            "amount": "2 cups", 
            "ingredient": "all-purpose flour"
        }, 
        {
            "amount": "1/2 teaspoon", 
            "ingredient": "salt"
        }, 
        {
            "amount": "1 cup", 
            "ingredient": "sour cream"
        }, 
        {
            "amount": "1 teaspoon", 
            "ingredient": "almond extract"
        }, 
        {
            "amount": "1 (8 ounce) can", 
            "ingredient": "whole cranberry sauce"
        }
    ], 
    "prep_steps": [
        "Preheat oven to 350 degrees F (175 degrees C) grease and flour one 9 or 10 inch tube pan.", 
        "Cream the together the butter and the sugar until light. Add the eggs and stir well.", 
        "Combine the flour, baking powder, baking soda and salt. Add the flour mixture alternately with the sour cream or yogurt to the butter mixture. Stir in the almond extract and mix only until just combined. Pour 1/3 of the batter into the prepared pan. Swirl 1/2 of the cranberry sauce into the batter. Repeat, ending with the batter on top.", 
        "Bake at 350 degrees F (175 degrees C) for 55 minutes."
    ], 
    "recipe_name": "Cranberry Swirl Coffee Cake"
}