{
    "ingredients": [
        {
            "amount": "1/2 cup", 
            "ingredient": "soy sauce"
        }, 
        {
            "amount": "1/4 cup", 
            "ingredient": "packed brown sugar"
        }, 
        {
            "amount": "1/2 cup", 
            "ingredient": "orange juice"
        }, 
        {
            "amount": "1 clove", 
            "ingredient": "garlic, minced"
        }, 
        {
            "amount": "1 teaspoon", 
            "ingredient": "ground black pepper"
        }
    ], 
    "prep_steps": [
        "In a small bowl, stir together soy sauce, brown sugar, orange juice, garlic, and pepper. Pour over beef, pork, or chicken. Cover, and marinate in the refrigerator for 4 hours, or overnight. The longer the meat is marinated, the stronger the flavor will be."
    ], 
    "prep_time": "10 mins", 
    "recipe_name": "Teriyaki Marinade III"
}