{
    "ingredients": [
        {
            "amount": "2", 
            "ingredient": "sweet potatoes, peeled and thinly sliced"
        }, 
        {
            "amount": "1 tablespoon", 
            "ingredient": "melted butter"
        }, 
        {
            "amount": "1/2 teaspoon", 
            "ingredient": "salt"
        }, 
        {
            "amount": "2 teaspoons", 
            "ingredient": "brown sugar"
        }, 
        {
            "amount": "1/2 teaspoon", 
            "ingredient": "ground cinnamon"
        }
    ], 
    "prep_steps": [
        "Preheat oven to 400 degrees F (200 degrees C). Grease two baking sheets.", 
        "Arrange sweet potato slices in a single layer onto baking sheets. Stir together butter, salt, brown sugar, and cinnamon in a small bowl; brush onto sweet potato slices.", 
        "Bake in preheated oven until edges curl upwards, about 20 to 25 minutes."
    ], 
    "prep_time": "35 mins", 
    "recipe_name": "Cinnamon Sweet Potato Chips"
}