{
    "ingredients": [
        {
            "amount": "3/4 cup", 
            "ingredient": "orange juice"
        }, 
        {
            "amount": "2 tablespoons", 
            "ingredient": "fresh lemon juice"
        }, 
        {
            "amount": "1/4 cup", 
            "ingredient": "olive oil"
        }, 
        {
            "amount": "1/2 cup", 
            "ingredient": "honey"
        }, 
        {
            "amount": "1 teaspoon", 
            "ingredient": "salt"
        }, 
        {
            "amount": "1/2 teaspoon", 
            "ingredient": "ground black pepper"
        }, 
        {
            "amount": "1 teaspoon", 
            "ingredient": "curry powder"
        }, 
        {
            "amount": "1/2 teaspoon", 
            "ingredient": "paprika"
        }, 
        {
            "amount": "4", 
            "ingredient": "skinless, boneless chicken breast halves"
        }
    ], 
    "prep_steps": [
        "To Marinate: In a nonporous glass dish or bowl, combine the orange juice, lemon juice, oil, honey, salt, pepper, curry powder and paprika. Mix well, then add chicken breasts and toss to coat. Cover dish and refrigerate to marinate overnight.", 
        "Preheat oven to 350 degrees F (175 degrees C).", 
        "Remove chicken from marinade, discarding of any remaining marinade, and place in a lightly greased 9x13 inch baking dish.", 
        "Bake at 350 degrees F (175 degrees C) for about 20 to 25 minutes, or until chicken is cooked through and juices run clear."
    ], 
    "prep_time": "8 hrs", 
    "recipe_name": "Honey Chicken"
}