{
    "ingredients": [
        {
            "amount": "1 (12 fluid ounce) can", 
            "ingredient": "frozen orange juice concentrate"
        }, 
        {
            "amount": "1 (46 fluid ounce) can", 
            "ingredient": "sweetened pineapple juice"
        }, 
        {
            "amount": "1 3/4 cups", 
            "ingredient": "lemon juice"
        }, 
        {
            "amount": "2 cups", 
            "ingredient": "white sugar"
        }, 
        {
            "amount": "1 gallon", 
            "ingredient": "water"
        }
    ], 
    "prep_steps": [
        "In a 2 gallon punch bowl, combine orange juice concentrate, pineapple juice, lemon juice and sugar. Stir in water."
    ], 
    "prep_time": "20 mins", 
    "recipe_name": "Golden Wedding Punch"
}