{
    "ingredients": [
        {
            "amount": "3 (3.5 ounce) packages", 
            "ingredient": "microwave popcorn, popped"
        }, 
        {
            "amount": "2 1/4 cups", 
            "ingredient": "packed brown sugar"
        }, 
        {
            "amount": "1 cup", 
            "ingredient": "corn syrup"
        }, 
        {
            "amount": "1 cup", 
            "ingredient": "butter"
        }, 
        {
            "amount": "1 (5 ounce) can", 
            "ingredient": "sweetened condensed milk"
        }
    ], 
    "prep_steps": [
        "Place the popcorn in a large bowl. Shake and toss the bowl to make the unpopped kernels go to the bottom; discard.", 
        "In a sauce pan over medium-high heat, cook the brown sugar, corn syrup, and butter, stirring constantly. Heat to 270 to 290 degrees F (132 to 143 degrees C), or until a small amount of syrup dropped into cold water forms hard but pliable threads. Remove from the heat, and carefully pour in the can of condensed milk; stir until smooth.", 
        "Pour 1/4 of the caramel at a time over the popcorn, stirring until all of the popcorn is covered. Cool at least 10 minutes before serving."
    ], 
    "prep_time": "30 mins", 
    "recipe_name": "Soft Caramel Corn"
}