{
    "ingredients": [
        {
            "amount": "2 pounds", 
            "ingredient": "ground beef"
        }, 
        {
            "amount": "1/2", 
            "ingredient": "onion, chopped"
        }, 
        {
            "amount": "1 teaspoon", 
            "ingredient": "ground black pepper"
        }, 
        {
            "amount": "1/2 teaspoon", 
            "ingredient": "garlic salt"
        }, 
        {
            "amount": "2 1/2 cups", 
            "ingredient": "tomato sauce"
        }, 
        {
            "amount": "1 (8 ounce) jar", 
            "ingredient": "salsa"
        }, 
        {
            "amount": "4 tablespoons", 
            "ingredient": "chili seasoning mix"
        }, 
        {
            "amount": "1 (15 ounce) can", 
            "ingredient": "light red kidney beans"
        }, 
        {
            "amount": "1 (15 ounce) can", 
            "ingredient": "dark red kidney beans"
        }
    ], 
    "prep_steps": [
        "In a large saucepan over medium heat, combine the ground beef and the onion and saute for 10 minutes, or until meat is browned and onion is tender. Drain grease, if desired.", 
        "Add the ground black pepper, garlic salt, tomato sauce, salsa, chili seasoning mix and kidney beans. Mix well, reduce heat to low and simmer for at least an hour."
    ], 
    "prep_time": "1\u00bc hrs", 
    "recipe_name": "Debdoozie's Blue Ribbon Chili"
}