{
    "ingredients": [
        {
            "amount": "1 large head", 
            "ingredient": "cabbage, shredded"
        }, 
        {
            "amount": "1/4 pound", 
            "ingredient": "bacon, chopped"
        }, 
        {
            "amount": "1 tablespoon", 
            "ingredient": "vegetable oil"
        }, 
        {
            "amount": "1 small", 
            "ingredient": "onion, chopped"
        }, 
        {
            "amount": "1 stalk", 
            "ingredient": "celery, chopped"
        }, 
        {
            "amount": "1/4 cup", 
            "ingredient": "chopped green bell pepper"
        }, 
        {
            "amount": "3 tablespoons", 
            "ingredient": "white vinegar"
        }, 
        {
            "amount": "1/2 teaspoon", 
            "ingredient": "salt"
        }, 
        {
            "amount": "1 teaspoon", 
            "ingredient": "black pepper"
        }
    ], 
    "prep_steps": [
        "Bring a large pot of lightly salted water to a boil. Blanche cabbage briefly in boiling water, remove and drain immediately.", 
        "In a large skillet, brown bacon over medium heat until opaque; remove and drain on paper toweling.", 
        "Remove all but 1 tablespoon of bacon grease from the skillet; add the 1 tablespoon vegetable oil and heat over medium heat. Add onion, celery and bell pepper and saute until crisp-tender.", 
        "In a large bowl combine the prepared cabbage, bacon, sauteed vegetable mix (with oil), vinegar, salt and pepper. Mix well and serve warm, or chill and serve later."
    ], 
    "prep_time": "30 mins", 
    "recipe_name": "Czech Cabbage Dish"
}