{
    "ingredients": [
        {
            "amount": "1 tablespoon", 
            "ingredient": "olive oil"
        }, 
        {
            "amount": "1/2 pound", 
            "ingredient": "sweet Italian sausage, sliced"
        }, 
        {
            "amount": "1 (8 ounce)", 
            "ingredient": "boneless, skinless chicken breast, cubed"
        }, 
        {
            "amount": "1 medium", 
            "ingredient": "onion, chopped"
        }, 
        {
            "amount": "1 medium", 
            "ingredient": "green bell pepper, chopped"
        }, 
        {
            "amount": "2 cubes", 
            "ingredient": "chicken bouillon"
        }, 
        {
            "amount": "1 2/3 cups", 
            "ingredient": "hot water"
        }, 
        {
            "amount": "1/2 teaspoon", 
            "ingredient": "salt"
        }, 
        {
            "amount": "1/2 teaspoon", 
            "ingredient": "ground thyme"
        }, 
        {
            "amount": "1/4 teaspoon", 
            "ingredient": "garlic powder"
        }, 
        {
            "amount": "1 cup", 
            "ingredient": "frozen green peas"
        }, 
        {
            "amount": "1 1/2 cups", 
            "ingredient": "instant rice"
        }, 
        {
            "amount": "2 medium", 
            "ingredient": "tomatoes, diced"
        }
    ], 
    "prep_steps": [
        "Heat oil in a large skillet over medium heat. Stir in sausage, and brown well, about 5 minutes. Remove, and drain fat. Stir chicken, onion, and green pepper into skillet, and cook 5 minutes.", 
        "Meanwhile, in a small bowl, stir bouillon cubes into hot water to dissolve. Stir in salt, thyme, and garlic powder. Pour into skillet.", 
        "Stir peas into skillet, and bring to a boil. Cover, reduce heat to medium low, and simmer about 5 minutes. Stir in rice and tomatoes; cover, remove from heat, and let stand 5 minutes."
    ], 
    "prep_time": "55 mins", 
    "recipe_name": "Spanish-Style Chicken and Sausage"
}