{
    "ingredients": [
        {
            "amount": "6", 
            "ingredient": "skinless, boneless chicken breasts"
        }, 
        {
            "amount": "1 (6 ounce) package", 
            "ingredient": "unseasoned dry bread stuffing mix"
        }, 
        {
            "amount": "1 (10.75 ounce) can", 
            "ingredient": "condensed cream of chicken soup"
        }, 
        {
            "amount": "1 (10.75 ounce) can", 
            "ingredient": "condensed cream of celery soup"
        }, 
        {
            "amount": "1/2 cup", 
            "ingredient": "sour cream"
        }, 
        {
            "amount": "1 teaspoon", 
            "ingredient": "curry powder"
        }, 
        {
            "amount": "1 teaspoon", 
            "ingredient": "lemon juice"
        }
    ], 
    "prep_steps": [
        "Preheat oven to 350 degrees F (175 degrees C).", 
        "Line bottom of a 9x13 inch baking dish with chicken breasts. Spoon prepared stuffing mix over chicken. Mix the cream of chicken soup, cream of celery soup, sour cream, curry powder, and lemon juice. Pour mixture over top of stuffing.", 
        "Bake uncovered in the preheated oven for approximately 1 hour, until chicken juices run clear."
    ], 
    "recipe_name": "Sour Cream Chicken and Stuffing"
}