{
    "ingredients": [
        {
            "amount": "2 cups", 
            "ingredient": "all-purpose flour"
        }, 
        {
            "amount": "1 teaspoon", 
            "ingredient": "baking soda"
        }, 
        {
            "amount": "1/2 teaspoon", 
            "ingredient": "salt"
        }, 
        {
            "amount": "3 tablespoons", 
            "ingredient": "margarine"
        }, 
        {
            "amount": "1/2 cup", 
            "ingredient": "unsweetened cocoa powder"
        }, 
        {
            "amount": "3/4 cup", 
            "ingredient": "butter, softened"
        }, 
        {
            "amount": "1 cup", 
            "ingredient": "white sugar"
        }, 
        {
            "amount": "1/2 cup", 
            "ingredient": "packed brown sugar"
        }, 
        {
            "amount": "2", 
            "ingredient": "eggs"
        }, 
        {
            "amount": "1 teaspoon", 
            "ingredient": "vanilla extract"
        }, 
        {
            "amount": "1/2 cup", 
            "ingredient": "white sugar"
        }
    ], 
    "prep_steps": [
        "Sift together the flour, baking soda and salt; set aside. In a medium saucepan over medium heat, melt margarine. Stir in cocoa, remove from heat and set aside to cool. In a large bowl, cream together the butter, 1 cup white sugar and brown sugar until fluffy. Beat in the eggs one at a time, then stir in the cocoa mixture and the vanilla. Blend in the sifted ingredients to form a soft dough. Cover dough and refrigerate for at least an hour or two.", 
        "Preheat oven to 350 degrees F (175 degrees C). Roll chilled dough into 1 inch balls, roll them in the remaining sugar and place them 2 to 3 inches apart onto ungreased cookie sheets.", 
        "Bake for 8 to 10 minutes in the preheated oven. Allow cookies to cool on baking sheet for 5 minutes before removing to a wire rack to cool completely."
    ], 
    "prep_time": "32 mins", 
    "recipe_name": "Chocolate Snaps Sugar Cookie"
}