{
    "ingredients": [
        {
            "amount": "1/2 cup", 
            "ingredient": "butter"
        }, 
        {
            "amount": "3/4 cup", 
            "ingredient": "white sugar"
        }, 
        {
            "amount": "2 tablespoons", 
            "ingredient": "grated orange zest"
        }, 
        {
            "amount": "2", 
            "ingredient": "egg yolks"
        }, 
        {
            "amount": "1 cup", 
            "ingredient": "self-rising flour"
        }, 
        {
            "amount": "1/2 cup", 
            "ingredient": "fresh orange juice"
        }, 
        {
            "amount": "2", 
            "ingredient": "egg whites"
        }, 
        {
            "amount": "1 pinch", 
            "ingredient": "salt"
        }
    ], 
    "prep_steps": [
        "Preheat oven to 350 degrees F (175 degrees C).Grease one 8 inch round cake pan. Sift flour and set aside.", 
        "Cream butter, sugar and grated orange zest until light and fluffy. Beat in the egg yolks one at a time. Fold in sifted flour, alternating with orange juice.", 
        "In another bowl, whisk egg whites until stiff and add a pinch of salt. Fold whisked egg whites into the mixture. Spoon batter into prepared pan.", 
        "Bake in preheated oven for 35 to 40 minutes, or until a toothpick inserted into cake comes out clean."
    ], 
    "prep_time": "1\u00bc hrs", 
    "recipe_name": "Bee Lian's Rich Orange Cake"
}