{
    "ingredients": [
        {
            "amount": "1 (12 ounce) can", 
            "ingredient": "frozen limeade concentrate"
        }, 
        {
            "amount": "12 ounces", 
            "ingredient": "water"
        }, 
        {
            "amount": "1 (12 ounce) bottle", 
            "ingredient": "light beer"
        }, 
        {
            "amount": "12 ounces", 
            "ingredient": "Sauza\u00ae Blue Tequila"
        }
    ], 
    "prep_steps": [
        "Pour limeade can and water into pitcher. Then add a bottle of light beer (trust us, its really good). Fill limeade can with Sauza Blanco Tequila and pour into pitcher. Stir and serve over ice. Makes 9 delicious drinks, perfect for any ladies night in."
    ], 
    "recipe_name": "Sauza\u00ae-Rita"
}