{
    "ingredients": [
        {
            "amount": "1 (16 ounce) package", 
            "ingredient": "bulk hot pork sausage (such as Jimmy Dean\u00ae)"
        }, 
        {
            "amount": "1 (8 ounce) package", 
            "ingredient": "cream cheese, softened"
        }, 
        {
            "amount": "1 (10 ounce) can", 
            "ingredient": "diced tomatoes with green chile peppers (such as RO*TEL\u00ae)"
        }, 
        {
            "amount": "1 cup", 
            "ingredient": "chopped fresh chives"
        }, 
        {
            "amount": "1/4 cup", 
            "ingredient": "chopped onion"
        }
    ], 
    "prep_steps": [
        "Stir the sausage and onions together in a large skillet over medium-high heat until browned and crumbly, about 8 minutes. Drain the grease off of the sausage in a mesh strainer, then return to the skillet. Stir in the cream cheese and diced tomatoes until the cheese has melted and the mixture begins to bubble. Stir in chives before serving."
    ], 
    "prep_time": "25 mins", 
    "recipe_name": "The Best Frikin' Party Dip Ever!"
}