{
    "ingredients": [
        {
            "amount": "1/3 cup", 
            "ingredient": "couscous"
        }, 
        {
            "amount": "1/3 cup", 
            "ingredient": "dried cranberries"
        }, 
        {
            "amount": "2/3 cup", 
            "ingredient": "boiling water"
        }, 
        {
            "amount": "1/2", 
            "ingredient": "cucumber, diced"
        }, 
        {
            "amount": "2 tablespoons", 
            "ingredient": "crumbled feta cheese"
        }, 
        {
            "amount": "2 teaspoons", 
            "ingredient": "balsamic vinaigrette salad dressing, or to taste"
        }
    ], 
    "prep_steps": [
        "Place the couscous and cranberries in a heatproof bowl. Pour in the boiling water, and stir with a fork. Cover the bowl with plastic wrap, and set aside 5 to 10 minutes.", 
        "Fluff the couscous with a fork, and fold in the cucumber and feta cheese. Season to taste with balsamic vinaigrette and salt."
    ], 
    "prep_time": "15 mins", 
    "recipe_name": "Couscous, Cranberry, and Feta Salad"
}