{
    "ingredients": [
        {
            "amount": "16", 
            "ingredient": "ladyfingers"
        }, 
        {
            "amount": "2/3 cup", 
            "ingredient": "strong brewed coffee, room temperature"
        }, 
        {
            "amount": "1/3 cup", 
            "ingredient": "maple syrup"
        }, 
        {
            "amount": "1 (3 ounce) package", 
            "ingredient": "cream cheese, softened"
        }, 
        {
            "amount": "1/2 cup", 
            "ingredient": "sour cream"
        }, 
        {
            "amount": "1/2 cup", 
            "ingredient": "maple syrup"
        }, 
        {
            "amount": "1 (12 ounce) container", 
            "ingredient": "frozen whipped topping, thawed"
        }, 
        {
            "amount": "1 tablespoon", 
            "ingredient": "unsweetened cocoa powder, for dusting"
        }
    ], 
    "prep_steps": [
        "Split ladyfingers lengthwise and use them to line the bottom and sides of an 8x8 inch dish. Stir together coffee and 1/3 cup maple syrup until smooth. Spoon mixture over ladyfingers.", 
        "In a large bowl, beat together cream cheese, sour cream and 1/2 cup maple syrup until smooth. Fold in whipped topping. Spread mixture over soaked ladyfingers. Cover and chill 15 minutes.", 
        "Dust with sifted cocoa just before serving."
    ], 
    "prep_time": "30 mins", 
    "recipe_name": "Simple Tiramisu"
}