{
    "ingredients": [
        {
            "amount": "2 (12 ounce) packages", 
            "ingredient": "fresh cranberries"
        }, 
        {
            "amount": "1 cup", 
            "ingredient": "white sugar"
        }, 
        {
            "amount": "1 (20 ounce) can", 
            "ingredient": "crushed pineapple, drained"
        }, 
        {
            "amount": "1 cup", 
            "ingredient": "chopped pecans"
        }, 
        {
            "amount": "1 pint", 
            "ingredient": "heavy whipping cream"
        }, 
        {
            "amount": "7 ounces", 
            "ingredient": "miniature marshmallows"
        }
    ], 
    "prep_steps": [
        "Coarsely chop the cranberries in a food processor; put in a large, non-metal bowl and mix in the sugar. Cover and refrigerate for 12 hours.", 
        "Whip the cream until stiff. Add the pineapple and nuts to the cranberries, mix well. Fold in whipped cream and marshmallows; refrigerate until ready to serve."
    ], 
    "prep_time": "12 hrs", 
    "recipe_name": "Cranberry Salad I"
}