{
    "ingredients": [
        {
            "amount": "2 (9 inch)", 
            "ingredient": "unbaked pie crusts"
        }, 
        {
            "amount": "6 small", 
            "ingredient": "red potatoes"
        }, 
        {
            "amount": "3 tablespoons", 
            "ingredient": "olive oil"
        }, 
        {
            "amount": "1 cup", 
            "ingredient": "sliced onion"
        }, 
        {
            "amount": "1 cup", 
            "ingredient": "thinly sliced fresh shiitake mushrooms"
        }, 
        {
            "amount": "3 1/2 cups", 
            "ingredient": "water"
        }, 
        {
            "amount": "1/4 cup", 
            "ingredient": "tamari or soy sauce"
        }, 
        {
            "amount": "5 tablespoons", 
            "ingredient": "rice flour"
        }, 
        {
            "amount": "2", 
            "ingredient": "portobello mushroom caps, cut into bite size pieces"
        }, 
        {
            "amount": "1 teaspoon", 
            "ingredient": "dried thyme"
        }, 
        {
            "amount": "2 teaspoons", 
            "ingredient": "dried sage"
        }, 
        {
            "amount": "2 stalks", 
            "ingredient": "celery, chopped"
        }, 
        {
            "amount": "1", 
            "ingredient": "carrot, cubed"
        }
    ], 
    "prep_steps": [
        "Preheat the oven to 350 degrees F (175 degrees C). Press one of the pie crusts into and up the sides of a 9 inch pie plate.", 
        "Bring a saucepan of water to a boil. Add potatoes, and cook until tender, 10 to15 minutes. Drain, and cut into cubes. Set aside.", 
        "Heat 1 tablespoon of olive oil in a large saucepan over low heat. Add onion and shiitake mushrooms, cover, and let the mushrooms sweat for about 7 minutes, stirring occasionally. Pour in the water and tamari, and bring to a boil. Whisk in rice flour, stirring until there are no lumps. Allow to simmer.", 
        "Heat remaining olive oil in a large skillet over medium-high heat. Add portobello pieces, and saute briefly until mushrooms are browned on the outside. Add mushrooms to the gravy mixture along with the carrots, celery and potatoes. Simmer for about 10 minutes, stirring occasionally. Season with thyme and sage. Pour the mixture into the prepared crust. Cover with the other pie crust, and crimp edges to seal. Make a few slits in the top crust to vent steam.", 
        "Bake for 40 minutes in the preheated oven, until crust is golden brown."
    ], 
    "prep_time": "1\u00bd hrs", 
    "recipe_name": "Portobello Pot Pie"
}