{
    "ingredients": [
        {
            "amount": "2 cups", 
            "ingredient": "water"
        }, 
        {
            "amount": "1 cup", 
            "ingredient": "long grain white rice"
        }, 
        {
            "amount": "3 tablespoons", 
            "ingredient": "olive oil"
        }, 
        {
            "amount": "1 large", 
            "ingredient": "onion, chopped"
        }, 
        {
            "amount": "1 large", 
            "ingredient": "red bell pepper, chopped"
        }, 
        {
            "amount": "3 cloves", 
            "ingredient": "garlic, crushed"
        }, 
        {
            "amount": "1 (14.5 ounce) can", 
            "ingredient": "whole peeled tomatoes, chopped"
        }, 
        {
            "amount": "3 cups", 
            "ingredient": "finely chopped zucchini"
        }, 
        {
            "amount": "1/2 teaspoon", 
            "ingredient": "dried oregano"
        }, 
        {
            "amount": "1 (15 ounce) can", 
            "ingredient": "cannellini beans, drained"
        }
    ], 
    "prep_steps": [
        "Bring water to a boil in a medium saucepan, and stir in the rice. Reduce heat, cover, and simmer for 20 minutes.", 
        "Heat oil in a separate medium saucepan over medium heat. Stir in onion, red bell pepper, and garlic, and cook until tender. Mix in tomatoes and zucchini, and season with oregano, salt, and pepper. Reduce heat, cover, and simmer 20 minutes, stirring occasionally.", 
        "Stir cannellini beans into the tomato and zucchini mixture, and continue cooking about 10 minutes. Serve over the cooked rice."
    ], 
    "prep_time": "1 hr", 
    "recipe_name": "Zucchini Mediterranean Style"
}