{
    "ingredients": [
        {
            "amount": "2 tablespoons", 
            "ingredient": "thinly sliced green onion"
        }, 
        {
            "amount": "2 tablespoons", 
            "ingredient": "butter"
        }, 
        {
            "amount": "1 large", 
            "ingredient": "carrot, julienned"
        }, 
        {
            "amount": "2 tablespoons", 
            "ingredient": "minced fresh ginger root"
        }, 
        {
            "amount": "1/2 cup", 
            "ingredient": "white wine"
        }, 
        {
            "amount": "1/2 cup", 
            "ingredient": "heavy whipping cream"
        }, 
        {
            "amount": "1 1/4 pounds", 
            "ingredient": "scallops"
        }, 
        {
            "amount": "2 tablespoons", 
            "ingredient": "butter"
        }
    ], 
    "prep_steps": [
        "In a medium skillet saute the green onions in 2 tablespoons of the butter. Stir in the carrots and cook for 30 seconds. Stir in the ginger and the wine. Once hot add the cream, salt and pepper. Cook, stirring frequently, over high heat until the sauce is reduced by half.", 
        "Stir in the scallops and cook for 1 minute. Add the remaining butter and stir until melted. Serve."
    ], 
    "prep_time": "30 mins", 
    "recipe_name": "Ginger Scallops"
}