{
    "ingredients": [
        {
            "amount": "1/2 cup", 
            "ingredient": "shortening"
        }, 
        {
            "amount": "1 cup", 
            "ingredient": "packed brown sugar"
        }, 
        {
            "amount": "1", 
            "ingredient": "egg"
        }, 
        {
            "amount": "1/2 cup", 
            "ingredient": "real maple syrup"
        }, 
        {
            "amount": "1/2 teaspoon", 
            "ingredient": "vanilla extract"
        }, 
        {
            "amount": "1 1/2 cups", 
            "ingredient": "all-purpose flour"
        }, 
        {
            "amount": "2 teaspoons", 
            "ingredient": "baking powder"
        }, 
        {
            "amount": "1/2 teaspoon", 
            "ingredient": "salt"
        }, 
        {
            "amount": "1 cup", 
            "ingredient": "flaked coconut"
        }
    ], 
    "prep_steps": [
        "Preheat oven to 375 degrees F (190 degrees C). Grease cookie sheets.", 
        "In a mixing bowl, cream shortening and brown sugar until fluffy. Beat in the egg, syrup, and vanilla until well mixed.", 
        "Combine flour, baking powder and salt. Add flour mixture to the creamed mixture. Stir in coconut. Drop by tablespoonfuls 2-inches apart onto greased baking sheets.", 
        "Bake at 375 degrees F (190 degrees C) for 10-12 minutes."
    ], 
    "recipe_name": "Chewy Maple Cookies"
}