{
    "ingredients": [
        {
            "amount": "6", 
            "ingredient": "skinless, boneless chicken breast halves"
        }, 
        {
            "amount": "1 1/2 tablespoons", 
            "ingredient": "minced onion"
        }, 
        {
            "amount": "2 tablespoons", 
            "ingredient": "crushed garlic"
        }, 
        {
            "amount": "1 1/2 teaspoons", 
            "ingredient": "poultry seasoning"
        }, 
        {
            "amount": "1/4 cup", 
            "ingredient": "soy sauce"
        }, 
        {
            "amount": "2 teaspoons", 
            "ingredient": "artificial sweetener"
        }
    ], 
    "prep_steps": [
        "Preheat oven to 425 degrees F (220 degrees C).", 
        "Place chicken in a 9x13 inch baking dish; sprinkle with onion, garlic, seasoning, soy sauce and sweetener.", 
        "Place foil over pan and bake for one hour at 425 degrees F (220 degrees C). It's ready to serve!"
    ], 
    "recipe_name": "Low-Cal Chicken"
}