{
    "ingredients": [
        {
            "amount": "2 tablespoons", 
            "ingredient": "butter"
        }, 
        {
            "amount": "1 medium head", 
            "ingredient": "cabbage, cored and sliced thin"
        }, 
        {
            "amount": "1 large", 
            "ingredient": "onion, chopped"
        }, 
        {
            "amount": "1 1/2 cups", 
            "ingredient": "milk"
        }, 
        {
            "amount": "4", 
            "ingredient": "eggs, lightly beaten"
        }, 
        {
            "amount": "1 cup", 
            "ingredient": "crushed saltine crackers"
        }, 
        {
            "amount": "1 teaspoon", 
            "ingredient": "salt"
        }, 
        {
            "amount": "1/2 teaspoon", 
            "ingredient": "ground black pepper"
        }
    ], 
    "prep_steps": [
        "Preheat oven to 350 degrees F (175 degrees C). Grease a 9x12 inch casserole dish.", 
        "Melt 1 tablespoon of butter in a large pot over medium heat. Add cabbage and onion and cook for about 20 minutes, or until tender, stirring often. Add milk and bring to a boil. Reduce heat to low and simmer for 5 minutes. Gently pour in eggs, stirring constantly. Stir in 3/4 of the cracker crumbs, and the salt and pepper; mix well. Pour into casserole dish and top with remaining cracker crumbs. Dot with butter.", 
        "Bake in preheated oven for 30 minutes, or until golden brown and heated through."
    ], 
    "prep_time": "1\u00bc hrs", 
    "recipe_name": "Scalloped Cabbage"
}