{
    "ingredients": [
        {
            "amount": "1 quart", 
            "ingredient": "milk"
        }, 
        {
            "amount": "1/2 cup", 
            "ingredient": "butter"
        }, 
        {
            "amount": "1 cup", 
            "ingredient": "uncooked grits"
        }, 
        {
            "amount": "1 teaspoon", 
            "ingredient": "salt"
        }, 
        {
            "amount": "1/2 teaspoon", 
            "ingredient": "white pepper"
        }, 
        {
            "amount": "1 cup", 
            "ingredient": "shredded Cheddar cheese"
        }, 
        {
            "amount": "1/3 cup", 
            "ingredient": "butter"
        }, 
        {
            "amount": "1/2 cup", 
            "ingredient": "grated Parmesan cheese"
        }
    ], 
    "prep_steps": [
        "Preheat oven to 350 degrees F (175 degrees C). Lightly grease a medium baking dish.", 
        "Bring the milk to a boil in a pot over medium heat. Melt 1/2 cup butter in the boiling milk. Gradually mix in the grits, and cook 5 minutes, stirring constantly. Remove from heat, and season with salt and pepper. Beat with a whisk or electric mixer until smooth. Mix in the Cheddar cheese and 1/3 cup butter. Transfer to the prepared baking dish, and sprinkle with Parmesan cheese.", 
        "Bake 1 hour in the preheated oven, until firm."
    ], 
    "prep_time": "1\u00bd hrs", 
    "recipe_name": "Cheesy Baked Grits"
}