{
    "ingredients": [
        {
            "amount": "2 tablespoons", 
            "ingredient": "olive oil"
        }, 
        {
            "amount": "1", 
            "ingredient": "lime, juiced and grated"
        }, 
        {
            "amount": "1 teaspoon", 
            "ingredient": "cumin"
        }, 
        {
            "amount": "1 pound", 
            "ingredient": "large shrimp, peeled and deveined"
        }, 
        {
            "amount": "6 (8 inch)", 
            "ingredient": "flour tortillas, heated according to package directions"
        }, 
        {
            "amount": "1 (12 ounce) package", 
            "ingredient": "DOLE\u00ae All Natural Southwest Salad Kit"
        }
    ], 
    "prep_steps": [
        "Combine olive oil, lime juice, peel, and cumin in small bowl. Thread shrimp onto skewers; season with salt and pepper. Brush shrimp with lime mixture. Grill until shrimp are cooked through, about 3 minutes per side, brushing occasionally with lime mixture. Roughly chop shrimp.", 
        "Combine taco ranch dressing, sour cream and shredded cheese included in the kit. Spread mixture over each tortilla; top with shrimp, salad greens and chips. Serve with favorite toppings, such as diced tomatoes, salsa, sliced olives and/or guacamole."
    ], 
    "prep_time": "25 mins", 
    "recipe_name": "Grilled Shrimp Tacos"
}