{
    "ingredients": [
        {
            "amount": "2 tablespoons", 
            "ingredient": "oyster sauce"
        }, 
        {
            "amount": "1 tablespoon", 
            "ingredient": "soy sauce"
        }, 
        {
            "amount": "2 teaspoons", 
            "ingredient": "brown sugar"
        }, 
        {
            "amount": "1 teaspoon", 
            "ingredient": "potato starch"
        }, 
        {
            "amount": "1 tablespoon", 
            "ingredient": "water"
        }, 
        {
            "amount": "2 pinches", 
            "ingredient": "salt"
        }, 
        {
            "amount": "1/4 teaspoon", 
            "ingredient": "vegetable oil"
        }, 
        {
            "amount": "4 heads", 
            "ingredient": "baby bok choy"
        }, 
        {
            "amount": "3 tablespoons", 
            "ingredient": "olive oil"
        }, 
        {
            "amount": "2 tablespoons", 
            "ingredient": "minced green onion"
        }, 
        {
            "amount": "1 tablespoon", 
            "ingredient": "minced garlic"
        }, 
        {
            "amount": "1 (8 ounce) package", 
            "ingredient": "sliced portobello mushrooms"
        }
    ], 
    "prep_steps": [
        "In a bowl, mix together the oyster sauce, soy sauce, and brown sugar until the sugar has dissolved. Mix the potato starch and water in a small bowl, and stir it into the oyster sauce mixture until smooth.", 
        "Fill a pot with water, bring to a boil, and stir in salt and vegetable oil. Place the bok choy into the boiling water, and cook until tender, shiny, and bright green, 2 to 3 minutes. Drain the bok choy, and arrange attractively on a serving platter.", 
        "Heat the olive oil in a large skillet or wok until the oil shimmers, then toss the green onion and garlic in the hot oil until fragrant, about 20 seconds; stir in the mushrooms. Cook and stir until the mushrooms begin to shrink slightly. Sprinkle the mushrooms lightly with salt. Continue to cook the mushrooms, stirring often, until they are tender, about 5 minutes. Pour in the oyster sauce mixture, then stir until the sauce is thickened and coats the mushrooms, 30 seconds to 1 minute. Pour the thickened mushroom sauce over the bok choy; serve immediately."
    ], 
    "prep_time": "35 mins", 
    "recipe_name": "Chinese-Style Baby Bok Choy with Mushroom Sauce"
}