{
    "ingredients": [
        {
            "amount": "1 teaspoon", 
            "ingredient": "ground cumin"
        }, 
        {
            "amount": "1 teaspoon", 
            "ingredient": "ground coriander seed"
        }, 
        {
            "amount": "1 teaspoon", 
            "ingredient": "ground ginger"
        }, 
        {
            "amount": "1 teaspoon", 
            "ingredient": "ground cinnamon"
        }, 
        {
            "amount": "1 teaspoon", 
            "ingredient": "fresh ground black pepper"
        }, 
        {
            "amount": "1/4 teaspoon", 
            "ingredient": "kosher salt"
        }, 
        {
            "amount": "1 pound", 
            "ingredient": "ground turkey"
        }
    ], 
    "prep_steps": [
        "Preheat oven to 450 degrees F (230 degrees C). Spray baking sheet with nonstick cooking spray.", 
        "In a small bowl, mix together cumin, coriander, ginger, cinnamon, pepper, and salt. In a large bowl, crumble the ground turkey; slowly work in seasoning mixture with your hands, distributing seasoning as evenly as possible. Divide into 8 equal balls. On a flat surface, roll out each turkey ball into a tube shape.", 
        "Spray a large skillet with nonstick cooking spray, and set it over medium heat. Place turkey tubes into the skillet; cook, turning frequently, until golden brown on all sides. Transfer to a baking sheet.", 
        "Bake in preheated oven about 6 minutes."
    ], 
    "prep_time": "20 mins", 
    "recipe_name": "Middle Eastern Turkey Dogs"
}