{
    "ingredients": [
        {
            "amount": "6 (3.5 ounce) links", 
            "ingredient": "hot Italian sausage"
        }, 
        {
            "amount": "1 large", 
            "ingredient": "onion, chopped"
        }, 
        {
            "amount": "1", 
            "ingredient": "red bell peppers, seeded and diced"
        }, 
        {
            "amount": "1", 
            "ingredient": "green bell pepper, seeded and diced"
        }, 
        {
            "amount": "1 (4 ounce) can", 
            "ingredient": "mushrooms, drained"
        }, 
        {
            "amount": "1 (16 ounce) package", 
            "ingredient": "penne pasta"
        }, 
        {
            "amount": "1/2 cup", 
            "ingredient": "Italian salad dressing"
        }, 
        {
            "amount": "1/4 cup", 
            "ingredient": "grated Parmesan cheese for topping"
        }
    ], 
    "prep_steps": [
        "Bring a large pot of water to a boil. Add penne pasta, and cook until tender, about 10 minutes. Drain.", 
        "Place the Italian sausage links in a small skillet over medium heat. Cook, turning occasionally until firm and cooked through.", 
        "In a separate larger skillet, combine the red and green bell peppers, mushrooms, and Italian dressing. Cook and stir until the vegetables are tender, about 5 minutes. Slice the Italian sausages into rounds, and stir into the vegetables. Continue to cook and stir for another 5 minutes.", 
        "To serve, place servings of pasta onto plates. Top with the sausage and vegetable mixture. Sprinkle liberally with Parmesan cheese."
    ], 
    "prep_time": "1 hr", 
    "recipe_name": "Italian Sausage Delight!"
}