{
    "ingredients": [
        {
            "amount": "1/3 cup", 
            "ingredient": "lemon juice"
        }, 
        {
            "amount": "1 cup", 
            "ingredient": "water"
        }, 
        {
            "amount": "1 cup", 
            "ingredient": "frozen strawberries, thawed, with juice"
        }, 
        {
            "amount": "1/4 cup", 
            "ingredient": "sugar"
        }, 
        {
            "amount": "1 tray", 
            "ingredient": "ice cubes"
        }
    ], 
    "prep_steps": [
        "In a blender, blend the lemon juice, water, strawberries with juice, sugar, and ice cubes until slushy. Serve in a tall glass with a straw."
    ], 
    "prep_time": "15 mins", 
    "recipe_name": "Lemon Berry Slushy"
}