{
    "ingredients": [
        {
            "amount": "1 tablespoon", 
            "ingredient": "vegetable oil"
        }, 
        {
            "amount": "1/2 cup", 
            "ingredient": "apple juice"
        }, 
        {
            "amount": "1 tablespoon", 
            "ingredient": "lemon juice"
        }, 
        {
            "amount": "1 teaspoon", 
            "ingredient": "minced garlic"
        }, 
        {
            "amount": "2 tablespoons", 
            "ingredient": "Dijon mustard"
        }, 
        {
            "amount": "2 tablespoons", 
            "ingredient": "honey"
        }, 
        {
            "amount": "1 tablespoon", 
            "ingredient": "dried parsley"
        }, 
        {
            "amount": "1 teaspoon", 
            "ingredient": "celery seed"
        }, 
        {
            "amount": "2 pounds", 
            "ingredient": "boneless pork chops"
        }, 
        {
            "amount": "1/3 cup", 
            "ingredient": "all-purpose flour"
        }, 
        {
            "amount": "1/3 cup", 
            "ingredient": "milk"
        }
    ], 
    "prep_steps": [
        "Heat the oil in a large skillet over medium heat. Stir in apple juice and lemon juice. Mix in garlic, mustard, and honey. Season with parsley, celery seed, and pepper. Cook and stir until thoroughly blended.", 
        "Place pork chops in the skillet, coating them with the apple juice mixture. Cook 20 minutes, or to an internal temperature of 145 degrees F (63 degrees C). Remove chops from heat, and set aside.", 
        "In a small bowl, thoroughly mix the milk and flour. Stir into the skillet, blending with the remaining apple juice mixture. Simmer, stirring occasionally, until thickened. Serve over the pork chops."
    ], 
    "prep_time": "45 mins", 
    "recipe_name": "Sweet Pork Chops"
}