{
    "ingredients": [
        {
            "amount": "1 (8 ounce) package", 
            "ingredient": "cream cheese, softened"
        }, 
        {
            "amount": "2 ounces", 
            "ingredient": "flaked or chopped smoked salmon"
        }, 
        {
            "amount": "1 teaspoon", 
            "ingredient": "lemon juice"
        }, 
        {
            "amount": "1/2 teaspoon", 
            "ingredient": "Worcestershire sauce"
        }, 
        {
            "amount": "1/2 teaspoon", 
            "ingredient": "minced garlic"
        }, 
        {
            "amount": "1/4 teaspoon", 
            "ingredient": "onion powder"
        }, 
        {
            "amount": "1/4 teaspoon", 
            "ingredient": "seafood seasoning"
        }, 
        {
            "amount": "1 dash", 
            "ingredient": "ground black pepper"
        }
    ], 
    "prep_steps": [
        "In a medium bowl, mix together cream cheese, salmon, lemon juice, Worcestershire sauce, garlic, onion powder, seafood seasoning and ground black pepper. Chill in the refrigerator until serving."
    ], 
    "prep_time": "5 mins", 
    "recipe_name": "Salmon Spread I"
}