{
    "ingredients": [
        {
            "amount": "2", 
            "ingredient": "Vidalia onions"
        }, 
        {
            "amount": "2 tablespoons", 
            "ingredient": "butter"
        }, 
        {
            "amount": "2 cubes", 
            "ingredient": "beef bouillon"
        }, 
        {
            "amount": "2 dashes", 
            "ingredient": "salt"
        }, 
        {
            "amount": "2 dashes", 
            "ingredient": "pepper"
        }, 
        {
            "amount": "2 dashes", 
            "ingredient": "ground paprika"
        }
    ], 
    "prep_steps": [
        "Preheat oven to 400 degrees F (200 degrees C).", 
        "Peel and core onions, then slice halfway through. Place onions on sections of aluminum foil large enough to wrap them completely. Place a bouillon cube in the center of each onion; place pat of butter on top. Season with salt, pepper, and paprika. Wrap the onions in foil.", 
        "Roast in preheated oven for 15 minutes."
    ], 
    "prep_time": "20 mins", 
    "recipe_name": "Roasted Vidalia Onions"
}