{
    "ingredients": [
        {
            "amount": "1 1/2 pounds", 
            "ingredient": "ground turkey"
        }, 
        {
            "amount": "1 (1 ounce) package", 
            "ingredient": "dry onion soup mix"
        }, 
        {
            "amount": "1/2 teaspoon", 
            "ingredient": "ground black pepper"
        }, 
        {
            "amount": "1/2 teaspoon", 
            "ingredient": "garlic powder"
        }, 
        {
            "amount": "1 1/2 tablespoons", 
            "ingredient": "soy sauce"
        }, 
        {
            "amount": "1", 
            "ingredient": "egg, lightly beaten"
        }, 
        {
            "amount": "6", 
            "ingredient": "hamburger buns, split"
        }
    ], 
    "prep_steps": [
        "In a large bowl, mix the turkey with the onion soup mix, pepper, garlic powder, soy sauce, and egg. Refrigerate the mixture about 10 minutes, then form into 6 patties.", 
        "Preheat the grill for medium-high heat.", 
        "Lightly oil the grill grate. Place the patties on the grill. Cook for 20 minutes, turning once, or until well done. The inside of the burgers will look whitish in color when cooked through. Serve on buns."
    ], 
    "prep_time": "40 mins", 
    "recipe_name": "Seasoned Turkey Burgers"
}