{
    "ingredients": [
        {
            "amount": "2 cups", 
            "ingredient": "water"
        }, 
        {
            "amount": "2 cups", 
            "ingredient": "uncooked instant rice"
        }, 
        {
            "amount": "2 (10 ounce) cans", 
            "ingredient": "chunk chicken, drained"
        }, 
        {
            "amount": "1 (10.75 ounce) can", 
            "ingredient": "condensed cream of mushroom soup"
        }, 
        {
            "amount": "1 (10.75 ounce) can", 
            "ingredient": "condensed cream of chicken soup"
        }, 
        {
            "amount": "1/4 cup", 
            "ingredient": "butter"
        }, 
        {
            "amount": "1 cup", 
            "ingredient": "milk"
        }, 
        {
            "amount": "1 (16 ounce) package", 
            "ingredient": "frozen chopped broccoli"
        }, 
        {
            "amount": "1 small", 
            "ingredient": "white onion, chopped"
        }, 
        {
            "amount": "1 pound", 
            "ingredient": "processed cheese food"
        }
    ], 
    "prep_steps": [
        "Preheat oven to 350 degrees F (175 degrees C).", 
        "In a medium saucepan, bring the water to a boil. Mix in the instant rice, cover, and remove from heat. Let stand 5 minutes.", 
        "In a 9x13 inch baking dish, mix the prepared rice, chicken, cream of mushroom soup, cream of chicken soup, butter, milk, broccoli, onion, and processed cheese.", 
        "Bake in the preheated oven for 30 to 35 minutes, or until cheese is melted. Stir halfway through cooking to help cheese melt evenly."
    ], 
    "prep_time": "45 mins", 
    "recipe_name": "Broccoli, Rice, Cheese, and Chicken Casserole"
}