{
    "ingredients": [
        {
            "amount": "2 tablespoons", 
            "ingredient": "olive oil"
        }, 
        {
            "amount": "1 cup", 
            "ingredient": "diced onion"
        }, 
        {
            "amount": "3 cloves", 
            "ingredient": "garlic, minced"
        }, 
        {
            "amount": "2 tablespoons", 
            "ingredient": "chili powder, or to taste"
        }, 
        {
            "amount": "1 teaspoon", 
            "ingredient": "ground cumin"
        }, 
        {
            "amount": "1/4 cup", 
            "ingredient": "water"
        }, 
        {
            "amount": "4 cups", 
            "ingredient": "chopped fresh tomatoes"
        }, 
        {
            "amount": "1 (15 ounce) can", 
            "ingredient": "kidney beans, drained and rinsed"
        }, 
        {
            "amount": "1 (10 ounce) package", 
            "ingredient": "frozen chopped spinach, thawed and drained"
        }, 
        {
            "amount": "4 (10 inch)", 
            "ingredient": "flour tortillas"
        }, 
        {
            "amount": "1", 
            "ingredient": "ripe avocado, sliced"
        }, 
        {
            "amount": "4 tablespoons", 
            "ingredient": "sour cream"
        }, 
        {
            "amount": "4 tablespoons", 
            "ingredient": "salsa"
        }
    ], 
    "prep_steps": [
        "Heat oil in a large skillet on medium-high heat. Saute onion and garlic for 5 minutes. Stir in chili powder and cumin, and cook 1 minute. Stir in water, tomato, kidney beans and salt. Bring to a boil, then reduce heat and simmer for 20 minutes.", 
        "Stir in spinach and cook 5 minutes more. Spoon 1/4 of the bean mixture into the middle of a warm tortilla. Wrap and garnish with avocado, sour cream and salsa."
    ], 
    "prep_time": "35 mins", 
    "recipe_name": "Tomato Spinach and Bean Burrito"
}