{
    "ingredients": [
        {
            "amount": "1/4 cup", 
            "ingredient": "olive oil"
        }, 
        {
            "amount": "1 medium", 
            "ingredient": "onion, chopped"
        }, 
        {
            "amount": "1 stalk", 
            "ingredient": "celery, chopped"
        }, 
        {
            "amount": "2", 
            "ingredient": "carrots, chopped"
        }, 
        {
            "amount": "3/4 cup", 
            "ingredient": "pearl barley"
        }, 
        {
            "amount": "3/4 cup", 
            "ingredient": "dry brown lentils"
        }, 
        {
            "amount": "1/3 cup", 
            "ingredient": "dried porcini mushrooms, rinsed"
        }, 
        {
            "amount": "2 quarts", 
            "ingredient": "low-sodium beef broth"
        }, 
        {
            "amount": "1/4 teaspoon", 
            "ingredient": "dried thyme"
        }, 
        {
            "amount": "1 teaspoon", 
            "ingredient": "dried parsley"
        }, 
        {
            "amount": "1/4 teaspoon", 
            "ingredient": "freshly ground black pepper"
        }, 
        {
            "amount": "1", 
            "ingredient": "bay leaf"
        }, 
        {
            "amount": "4 cups", 
            "ingredient": "sliced button mushrooms"
        }, 
        {
            "amount": "1 tablespoon", 
            "ingredient": "dry sherry"
        }
    ], 
    "prep_steps": [
        "Heat the olive oil in a large pot over medium heat. Add the onion; cook and stir until onions are limp, but not brown, about 5 minutes. Mix in the celery and carrot; cook for another 5 minutes. Stir in the barley and lentils so they are coated with oil, continue to cook and stir until lightly toasted.", 
        "Pour in the beef broth and season with thyme, parsley, pepper and the bay leaf. Bring to a boil. Add the porcini mushrooms, cover and simmer for 25 minutes over low heat. Add the button mushroom, cover and continue cooking for another 30 minutes, stirring occasionally. Mix in sherry during the last 5 minutes. Taste and adjust seasoning if needed before serving."
    ], 
    "prep_time": "1\u00bd hrs", 
    "recipe_name": "Barley, Lentil and Mushroom Soup"
}