{
    "ingredients": [
        {
            "amount": "1/2 pound", 
            "ingredient": "ground pork breakfast sausage"
        }, 
        {
            "amount": "2 tablespoons", 
            "ingredient": "butter"
        }, 
        {
            "amount": "1/2 cup", 
            "ingredient": "chopped celery"
        }, 
        {
            "amount": "1/4 cup", 
            "ingredient": "chopped onion"
        }, 
        {
            "amount": "1 (4 ounce) can", 
            "ingredient": "water chestnuts, drained and chopped"
        }, 
        {
            "amount": "1 (12 ounce) package", 
            "ingredient": "herb-seasoned dry bread stuffing mix"
        }, 
        {
            "amount": "3", 
            "ingredient": "apples - peeled, cored and cubed"
        }, 
        {
            "amount": "1 tablespoon", 
            "ingredient": "chicken broth"
        }
    ], 
    "prep_steps": [
        "Place ground pork breakfast sausage in a large, deep skillet. Cook over medium high heat until evenly brown. Drain and set aside.", 
        "Melt butter in a medium saucepan over medium heat. Stir in celery, onion and water chestnuts. Cook and stir until tender. Remove from heat.", 
        "Preheat oven to 325 degrees F (165 degrees C).", 
        "Prepare herb-seasoned dry bread stuffing mix according to package directions. Mix in sausage, celery mixture, apples and chicken broth.", 
        "Transfer mixture to a medium baking dish. Bake in the preheated oven 30 minutes, or until lightly browned."
    ], 
    "prep_time": "1 hr", 
    "recipe_name": "Sausage and Apple Stuffing"
}