{
    "ingredients": [
        {
            "amount": "3 cubes", 
            "ingredient": "chicken bouillon"
        }, 
        {
            "amount": "5 medium", 
            "ingredient": "potatoes, cubed"
        }, 
        {
            "amount": "1 (16 ounce) package", 
            "ingredient": "kielbasa sausage, sliced"
        }, 
        {
            "amount": "1", 
            "ingredient": "onion, diced"
        }, 
        {
            "amount": "1 small head", 
            "ingredient": "cabbage, cored and sliced"
        }, 
        {
            "amount": "1 (12 fluid ounce) can", 
            "ingredient": "evaporated milk"
        }, 
        {
            "amount": "1 pound", 
            "ingredient": "Swiss cheese, shredded"
        }, 
        {
            "amount": "1 pinch", 
            "ingredient": "salt and pepper to taste"
        }
    ], 
    "prep_steps": [
        "Place the bouillon cubes, onion, potatoes, and cabbage into a large soup pot. Pour in enough water to cover the vegetables by about 1 inch. Bring to a boil, then simmer over medium heat for 15 minutes. Add the sausage, and cook for an additional 20 minutes. Reduce heat to low, and stir in cheese and evaporated milk. Cook just until heated through and cheese is melted - do not allow the soup to boil. Remove from heat, and serve immediately."
    ], 
    "prep_time": "1 hr", 
    "recipe_name": "German Sausage Chowder"
}