{
    "ingredients": [
        {
            "amount": "3 cups", 
            "ingredient": "crushed saltine crackers"
        }, 
        {
            "amount": "2 cups", 
            "ingredient": "grated Parmesan cheese"
        }, 
        {
            "amount": "1 tablespoon", 
            "ingredient": "Italian-style seasoning"
        }, 
        {
            "amount": "1/4 teaspoon", 
            "ingredient": "garlic powder"
        }, 
        {
            "amount": "1 cup", 
            "ingredient": "butter, melted"
        }, 
        {
            "amount": "6", 
            "ingredient": "pork chops"
        }
    ], 
    "prep_steps": [
        "Preheat oven to 425 degrees F (220 degrees C).", 
        "In a medium bowl, combine the crushed saltines, Parmesan cheese, Italian-style seasoning and garlic powder and mix together well.", 
        "Dip the chops in the melted butter and then dredge each chop in the cracker mixture, coating all sides thoroughly. Place the chops in a 9x13 inch baking dish.", 
        "Bake at 425 degrees F (220 degrees C) for 30 to 40 minutes, or until internal pork temperature reaches 145 degrees F (63 degrees C)."
    ], 
    "prep_time": "1 hr", 
    "recipe_name": "Italian Style Pork Chops"
}