{
    "ingredients": [
        {
            "amount": "4 ounces", 
            "ingredient": "dry Chinese egg noodles"
        }, 
        {
            "amount": "6 cups", 
            "ingredient": "chicken stock"
        }, 
        {
            "amount": "2 tablespoons", 
            "ingredient": "fish sauce"
        }, 
        {
            "amount": "4 cloves", 
            "ingredient": "garlic, minced"
        }, 
        {
            "amount": "2 teaspoons", 
            "ingredient": "minced fresh ginger root"
        }, 
        {
            "amount": "1 tablespoon", 
            "ingredient": "minced lemon grass"
        }, 
        {
            "amount": "5", 
            "ingredient": "green onions, chopped"
        }, 
        {
            "amount": "2 cups", 
            "ingredient": "cubed cooked chicken"
        }, 
        {
            "amount": "1 cup", 
            "ingredient": "bean sprouts"
        }, 
        {
            "amount": "1 cup", 
            "ingredient": "chopped bok choy"
        }
    ], 
    "prep_steps": [
        "Bring a large saucepan of water to a boil over high heat. Add noodles and return water to boil. Boil until soft, about 8 minutes. Drain and reserve noodles.", 
        "Bring chicken stock, fish sauce, garlic, ginger, lemon grass, and green onions to a boil in a large pot. Reduce to a simmer; cook for 10 minutes. Stir in the chicken, bean sprouts, and bok choy. Cook pho until heated through, about 5 minutes.", 
        "Divide the cooked noodles between 2 large bowls. Pour pho over noodles; serve immediately."
    ], 
    "prep_time": "40 mins", 
    "recipe_name": "My Chicken Pho Recipe"
}