{
    "ingredients": [
        {
            "amount": "1/4 pound", 
            "ingredient": "fresh asparagus"
        }, 
        {
            "amount": "2", 
            "ingredient": "red bell pepper, sliced"
        }, 
        {
            "amount": "1/4 pound", 
            "ingredient": "crimini mushrooms, sliced"
        }, 
        {
            "amount": "10 cloves", 
            "ingredient": "roasted garlic, chopped"
        }, 
        {
            "amount": "1/2", 
            "ingredient": "tomato, quartered"
        }, 
        {
            "amount": "1/2 teaspoon", 
            "ingredient": "chopped fresh rosemary"
        }, 
        {
            "amount": "1/2 teaspoon", 
            "ingredient": "chopped fresh oregano"
        }, 
        {
            "amount": "2 tablespoons", 
            "ingredient": "olive oil"
        }, 
        {
            "amount": "8 ounces", 
            "ingredient": "dry fettuccini noodles"
        }, 
        {
            "amount": "1/4 cup", 
            "ingredient": "grated Parmesan cheese"
        }, 
        {
            "amount": "2 tablespoons", 
            "ingredient": "tapenade"
        }
    ], 
    "prep_steps": [
        "Preheat oven to 350 degrees F (175 degrees C). Prepare asparagus by trimming woody base and cutting diagonally into 4 inch pieces.", 
        "In a roasting pan, combine asparagus, bell pepper, mushrooms, roasted garlic and tomato. Sprinkle with rosemary and oregano, then drizzle with olive oil. Bake in preheated oven for 15 minutes.", 
        "Bring a large pot of lightly salted water to a boil. Add pasta and cook for 8 to 10 minutes or until al dente; drain. Toss with Parmesan cheese, tapenade and roasted vegetables."
    ], 
    "prep_time": "30 mins", 
    "recipe_name": "Roasted Veggie Pasta"
}