{
    "ingredients": [
        {
            "amount": "1 (12 ounce) package", 
            "ingredient": "semi-sweet chocolate chips"
        }, 
        {
            "amount": "1 (12 ounce) package", 
            "ingredient": "peanut butter chips"
        }, 
        {
            "amount": "12 ounces", 
            "ingredient": "raw Spanish peanuts"
        }
    ], 
    "prep_steps": [
        "Combine chocolate chips and peanut butter chips in top of double boiler. Stir frequently over low to medium heat until melted; add peanuts and stir.", 
        "Drop by teaspoon full on wax paper. Allow to cool."
    ], 
    "prep_time": "20 mins", 
    "recipe_name": "Peanut Clusters"
}