{
    "ingredients": [
        {
            "amount": "1 1/4 cups", 
            "ingredient": "white sugar"
        }, 
        {
            "amount": "3/4 cup", 
            "ingredient": "packed brown sugar"
        }, 
        {
            "amount": "2 cups", 
            "ingredient": "all-purpose flour"
        }, 
        {
            "amount": "1/2 cup", 
            "ingredient": "butter, softened"
        }, 
        {
            "amount": "1/2 cup", 
            "ingredient": "shredded coconut"
        }, 
        {
            "amount": "1/2 cup", 
            "ingredient": "chopped walnuts"
        }, 
        {
            "amount": "1 teaspoon", 
            "ingredient": "baking soda"
        }, 
        {
            "amount": "1/2 teaspoon", 
            "ingredient": "salt"
        }, 
        {
            "amount": "1 teaspoon", 
            "ingredient": "ground cinnamon"
        }, 
        {
            "amount": "1", 
            "ingredient": "egg"
        }, 
        {
            "amount": "1 cup", 
            "ingredient": "buttermilk"
        }, 
        {
            "amount": "1 teaspoon", 
            "ingredient": "vanilla extract"
        }, 
        {
            "amount": "1 cup", 
            "ingredient": "confectioners' sugar"
        }, 
        {
            "amount": "1 tablespoon", 
            "ingredient": "milk"
        }
    ], 
    "prep_steps": [
        "Preheat the oven to 350 degrees F (175 degrees C). Grease a 9x13 inch pan.", 
        "In a medium bowl, combine the sugar, brown sugar, flour, and butter; blend with a pastry blender until the mixture is in coarse crumbs. Remove 2 cups of the mixture to another bowl, and reserve the rest.", 
        "Stir the coconut and walnuts into the 2 cups of the sugar mixture. Pat firmly into the greased pan. Stir the baking soda, salt, and cinnamon into the reserved mixture. Then mix in the egg, buttermilk and vanilla until well blended. Spread this over the crust in the pan.", 
        "Bake for 35 to 45 minutes in the preheated oven, or until firm. Allow to cool. Make a glaze using confectioners' sugar and enough of the milk to give it a drizzling consistency. Drizzle over bars before cutting into squares."
    ], 
    "prep_time": "1\u00bc hrs", 
    "recipe_name": "Buttermilk Coconut Bars"
}