{
    "ingredients": [
        {
            "amount": "2 pounds", 
            "ingredient": "extra lean ground beef"
        }, 
        {
            "amount": "2 cups", 
            "ingredient": "dry bread crumbs"
        }, 
        {
            "amount": "2", 
            "ingredient": "eggs"
        }, 
        {
            "amount": "1/2 cup", 
            "ingredient": "minced onion"
        }, 
        {
            "amount": "2 tablespoons", 
            "ingredient": "chopped fresh parsley"
        }, 
        {
            "amount": "2 teaspoons", 
            "ingredient": "salt"
        }, 
        {
            "amount": "1 cup", 
            "ingredient": "barbecue sauce"
        }, 
        {
            "amount": "1 1/2 (16 ounce) jars", 
            "ingredient": "pineapple preserves"
        }
    ], 
    "prep_steps": [
        "Preheat oven to 350 degrees F (175 degrees C).", 
        "In a medium-size mixing bowl, mix barbecue sauce and pineapple preserves together.", 
        "In a medium-size mixing bowl, combine meat, breadcrumbs, eggs, onions, salt, and parsley. Mix well and form into bite-size balls. Arrange the balls in a single layer in a 9x13 inch baking dish. Pour the barbecue sauce mixture evenly over the meatballs.", 
        "Bake for 30 to 45 minutes, until the meat is cooked."
    ], 
    "prep_time": "50 mins", 
    "recipe_name": "Manhattan Meatballs"
}