{
    "ingredients": [
        {
            "amount": "2/3 cup", 
            "ingredient": "Caesar-style salad dressing"
        }, 
        {
            "amount": "1/3 cup", 
            "ingredient": "mayonnaise"
        }, 
        {
            "amount": "1/3 cup", 
            "ingredient": "sour cream"
        }, 
        {
            "amount": "1/3 cup", 
            "ingredient": "grated Parmesan cheese"
        }, 
        {
            "amount": "2/3 cup", 
            "ingredient": "shredded Swiss cheese"
        }, 
        {
            "amount": "1 (14 ounce) can", 
            "ingredient": "artichoke hearts, drained and chopped"
        }, 
        {
            "amount": "1 cup", 
            "ingredient": "chopped tomatoes"
        }, 
        {
            "amount": "1/4 teaspoon", 
            "ingredient": "hot pepper sauce"
        }
    ], 
    "prep_steps": [
        "Preheat oven to 350 degrees F (175 degrees C).", 
        "In a medium mixing bowl, combine Caesar dressing, mayonnaise, sour cream and Parmesan cheese; blend well. Stir in Swiss cheese, artichoke hearts, tomatoes and hot pepper sauce. Pour mixture into an 8x8 inch baking dish.", 
        "Bake 40 to 45 minutes in the preheated oven. Serve hot."
    ], 
    "prep_time": "50 mins", 
    "recipe_name": "Caesar Hot Artichoke Dip"
}