{
    "ingredients": [
        {
            "amount": "6 cloves", 
            "ingredient": "garlic, coarsely chopped"
        }, 
        {
            "amount": "1/2 cup", 
            "ingredient": "minced yellow onion"
        }, 
        {
            "amount": "1 cup", 
            "ingredient": "freshly squeezed orange juice"
        }, 
        {
            "amount": "1/2 cup", 
            "ingredient": "freshly squeezed lime juice"
        }, 
        {
            "amount": "1/2 teaspoon", 
            "ingredient": "ground cumin"
        }, 
        {
            "amount": "1 teaspoon", 
            "ingredient": "dried oregano flakes"
        }, 
        {
            "amount": "1/2 teaspoon", 
            "ingredient": "lemon-pepper seasoning"
        }, 
        {
            "amount": "1/2 teaspoon", 
            "ingredient": "freshly ground black pepper"
        }, 
        {
            "amount": "1 teaspoon", 
            "ingredient": "kosher salt"
        }, 
        {
            "amount": "1/4 cup", 
            "ingredient": "chopped cilantro"
        }, 
        {
            "amount": "1 teaspoon", 
            "ingredient": "hot pepper sauce (e.g. Tabasco\u2122)"
        }, 
        {
            "amount": "1 cup", 
            "ingredient": "olive oil"
        }
    ], 
    "prep_steps": [
        "Pulse the garlic and onion in a blender until very finely chopped. Pour in orange juice, lime juice; season with cumin, oregano, lemon-pepper, black pepper, salt, cilantro, and hot pepper sauce. Blend until thoroughly incorporated. Pour in the olive oil, and blend until smooth."
    ], 
    "prep_time": "15 mins", 
    "recipe_name": "Mojo Grilling Marinade"
}