{
    "ingredients": [
        {
            "amount": "2 1/2 cups", 
            "ingredient": "crushed vanilla wafers"
        }, 
        {
            "amount": "1 cup", 
            "ingredient": "confectioners' sugar"
        }, 
        {
            "amount": "2 tablespoons", 
            "ingredient": "cocoa powder"
        }, 
        {
            "amount": "1 cup", 
            "ingredient": "chopped walnuts"
        }, 
        {
            "amount": "3 tablespoons", 
            "ingredient": "dark corn syrup"
        }, 
        {
            "amount": "1/4 cup", 
            "ingredient": "rum"
        }
    ], 
    "prep_steps": [
        "In a medium sized bowl, mix together the vanilla wafers, cocoa and sugar. Stir in the chopped walnuts, corn syrup and rum. Mix until well blended.", 
        "Form dough into 2 inch balls and roll in confectioners' sugar. Store in covered tin."
    ], 
    "recipe_name": "No Bake Rum Balls"
}