{
    "ingredients": [
        {
            "amount": "2 tablespoons", 
            "ingredient": "vegetable oil"
        }, 
        {
            "amount": "1 1/2 tablespoons", 
            "ingredient": "chopped garlic"
        }, 
        {
            "amount": "2 tablespoons", 
            "ingredient": "ground pork"
        }, 
        {
            "amount": "4 cups", 
            "ingredient": "cooked white rice"
        }, 
        {
            "amount": "1 1/2 teaspoons", 
            "ingredient": "garlic salt"
        }
    ], 
    "prep_steps": [
        "Heat the oil in a large skillet over medium-high heat. When the oil is hot, add the garlic and ground pork. Cook and stir until the garlic is golden brown. This is the color you want for maximum flavor, do not allow it to burn, or the flavor will be bitter.", 
        "Stir in the cooked white rice, and season with garlic salt and pepper. Cook and stir until heated through and well blended, about 3 minutes. Serve and enjoy."
    ], 
    "prep_time": "10 mins", 
    "recipe_name": "Garlic Rice"
}