{
    "ingredients": [
        {
            "amount": "1 clove", 
            "ingredient": "garlic, chopped"
        }, 
        {
            "amount": "1 3/4 cups", 
            "ingredient": "whole, pitted kalamata olives"
        }, 
        {
            "amount": "1 (2 ounce) can", 
            "ingredient": "anchovy fillets, rinsed"
        }, 
        {
            "amount": "2 tablespoons", 
            "ingredient": "capers"
        }, 
        {
            "amount": "1 teaspoon", 
            "ingredient": "chopped fresh thyme"
        }, 
        {
            "amount": "1 teaspoon", 
            "ingredient": "chopped fresh rosemary"
        }, 
        {
            "amount": "3 tablespoons", 
            "ingredient": "lemon juice"
        }, 
        {
            "amount": "4 tablespoons", 
            "ingredient": "olive oil"
        }
    ], 
    "prep_steps": [
        "Combine garlic, olives, anchovies, capers, thyme, rosemary and lemon juice in an electric blender. Slowly drip the olive oil into the blender while you are blending the ingredients together. Blend until a paste is formed."
    ], 
    "prep_time": "10 mins", 
    "recipe_name": "Tapenade"
}