{
    "ingredients": [
        {
            "amount": "2 slices", 
            "ingredient": "bacon"
        }, 
        {
            "amount": "8 cups", 
            "ingredient": "water"
        }, 
        {
            "amount": "2 cups", 
            "ingredient": "dry pinto beans"
        }, 
        {
            "amount": "1/2 pound", 
            "ingredient": "kielbasa sausage, cut into bite-size pieces"
        }, 
        {
            "amount": "1 (15 ounce) can", 
            "ingredient": "ranch-style beans"
        }, 
        {
            "amount": "1 (6 ounce) can", 
            "ingredient": "tomato paste"
        }, 
        {
            "amount": "1/2 cup", 
            "ingredient": "dried minced onion"
        }, 
        {
            "amount": "2 tablespoons", 
            "ingredient": "apple cider vinegar"
        }, 
        {
            "amount": "2 tablespoons", 
            "ingredient": "pickled jalapeno peppers"
        }, 
        {
            "amount": "2 tablespoons", 
            "ingredient": "white sugar"
        }, 
        {
            "amount": "1 tablespoon", 
            "ingredient": "salt"
        }, 
        {
            "amount": "2 teaspoons", 
            "ingredient": "garlic powder"
        }, 
        {
            "amount": "2 teaspoons", 
            "ingredient": "onion powder"
        }, 
        {
            "amount": "2 teaspoons", 
            "ingredient": "ground paprika"
        }, 
        {
            "amount": "1", 
            "ingredient": "green bell pepper, chopped"
        }, 
        {
            "amount": "1/2 cup", 
            "ingredient": "chopped green onion"
        }
    ], 
    "prep_steps": [
        "Place the bacon in a large, deep skillet, and cook over medium-high heat, turning occasionally, until evenly browned, about 10 minutes. Remove from heat; crumble bacon when cool.", 
        "Bring water to a boil in a large saucepan, and stir in pinto beans. Simmer over medium-low heat until the beans soften, about 30 minutes; pour beans and water into a slow cooker. Stir in the bacon and bacon drippings, kielbasa, ranch-style beans, tomato paste, dried onion, apple cider vinegar, pickled jalapeno, sugar, salt, garlic powder, onion powder, and paprika. Set the cooker to Low, and cook until pinto beans are very tender, 9 to 10 hours.", 
        "About 5 minutes before serving, stir in chopped green pepper. Serve topped with chopped green onion."
    ], 
    "prep_time": "10 hrs", 
    "recipe_name": "Slow Cooker Pinto Bean Bonanza"
}