{
    "ingredients": [
        {
            "amount": "3 cloves", 
            "ingredient": "garlic, minced"
        }, 
        {
            "amount": "2", 
            "ingredient": "chipotle peppers in adobo sauce, chopped"
        }, 
        {
            "amount": "1", 
            "ingredient": "lemon, juiced"
        }, 
        {
            "amount": "1 tablespoon", 
            "ingredient": "olive oil"
        }, 
        {
            "amount": "1 tablespoon", 
            "ingredient": "paprika"
        }, 
        {
            "amount": "1 teaspoon", 
            "ingredient": "chopped fresh cilantro"
        }, 
        {
            "amount": "1 teaspoon", 
            "ingredient": "kosher salt"
        }, 
        {
            "amount": "1/2 teaspoon", 
            "ingredient": "cracked black pepper"
        }, 
        {
            "amount": "1/2 teaspoon", 
            "ingredient": "crushed red pepper flakes"
        }, 
        {
            "amount": "1/4 teaspoon", 
            "ingredient": "cayenne pepper"
        }, 
        {
            "amount": "2 pounds", 
            "ingredient": "uncooked medium shrimp, peeled and deveined"
        }
    ], 
    "prep_steps": [
        "Mix together the garlic, chipotle peppers, lemon juice, olive oil, paprika, cilantro, kosher salt, black pepper, red pepper flakes, and cayenne pepper in a bowl. Stir in the shrimp, and mix well to thoroughly coat. Marinate for 30 minutes in refrigerator.", 
        "Preheat an outdoor grill for medium-high heat, and lightly oil the grate.", 
        "Remove the shrimp from the marinade, and discard excess marinade. Thread about 5 shrimp per skewer, and grill on the preheated grill until the shrimp turn pink and opaque in the center, about 2 minutes per side."
    ], 
    "prep_time": "50 mins", 
    "recipe_name": "Spicy Chipotle Grilled Shrimp"
}