{
    "ingredients": [
        {
            "amount": "2 tablespoons", 
            "ingredient": "soy sauce"
        }, 
        {
            "amount": "1 tablespoon", 
            "ingredient": "cornstarch"
        }, 
        {
            "amount": "1 tablespoon", 
            "ingredient": "water"
        }, 
        {
            "amount": "1 pound", 
            "ingredient": "pork tenderloin, cubed"
        }, 
        {
            "amount": "1", 
            "ingredient": "lime, juiced"
        }, 
        {
            "amount": "1 tablespoon", 
            "ingredient": "soy sauce"
        }, 
        {
            "amount": "2 tablespoons", 
            "ingredient": "rice vinegar"
        }, 
        {
            "amount": "1 teaspoon", 
            "ingredient": "cornstarch"
        }, 
        {
            "amount": "3 teaspoons", 
            "ingredient": "dark sesame oil"
        }, 
        {
            "amount": "1 tablespoon", 
            "ingredient": "peanut oil"
        }, 
        {
            "amount": "3 teaspoons", 
            "ingredient": "minced fresh ginger root"
        }, 
        {
            "amount": "2", 
            "ingredient": "green chile peppers, chopped"
        }, 
        {
            "amount": "1/2 cup", 
            "ingredient": "julienned carrots"
        }, 
        {
            "amount": "1/2 cup", 
            "ingredient": "sugar snap peas, julienned"
        }, 
        {
            "amount": "2 teaspoons", 
            "ingredient": "chili oil"
        }, 
        {
            "amount": "1/4 cup", 
            "ingredient": "chopped green onions"
        }, 
        {
            "amount": "1/4 cup", 
            "ingredient": "finely chopped peanuts"
        }
    ], 
    "prep_steps": [
        "In a medium bowl, combine 2 tablespoons soy sauce, 1 tablespoon cornstarch and water. Mix all together until smooth and stir in the pork cubes. Cover and refrigerate for 30 to 45 minutes.", 
        "In a small bowl combine the lime juice, 1 tablespoon soy sauce, vinegar, 1 teaspoon cornstarch and sesame oil. Mix together and set aside.", 
        "Remove pork and marinade from refrigerator. In a large skillet or wok heat peanut oil until hot. Stir in ginger and chile pepper and saute for 1 minute. Then stir in pork with marinade, carrots, and sugar peas and stir-fry for 6 to 8 minutes or until pork is tender.", 
        "Pour in lime mixture, reduce heat and simmer until sauce thickens, about 6 to 8 minutes. Remove from heat and stir in hot chile oil, green onions and peanuts. Serve!"
    ], 
    "prep_time": "1 hr", 
    "recipe_name": "Spicy Pork Stir-Fry"
}