{
    "ingredients": [
        {
            "amount": "3 cups", 
            "ingredient": "semisweet chocolate chips"
        }, 
        {
            "amount": "1 (14 ounce) can", 
            "ingredient": "sweetened condensed milk"
        }, 
        {
            "amount": "1/2 cup", 
            "ingredient": "coarsely chopped walnuts"
        }, 
        {
            "amount": "1 1/2 teaspoons", 
            "ingredient": "vanilla extract"
        }
    ], 
    "prep_steps": [
        "Line one 8 or 9 inch square pan with wax paper.", 
        "In a heavy saucepan, over low heat, melt the chocolate chips with the condensed milk. Remove from heat and stir in the chopped nuts and vanilla extract. Spread mixture evenly into the prepared pan and chill for 2 hours or until firm. Once firm, turn fudge onto cutting board, peel off waxed paper and cut into small squares."
    ], 
    "recipe_name": "Foolproof Chocolate Fudge"
}