{
    "ingredients": [
        {
            "amount": "1 1/2 cups", 
            "ingredient": "buttermilk"
        }, 
        {
            "amount": "1 cup", 
            "ingredient": "rolled oats"
        }, 
        {
            "amount": "2 tablespoons", 
            "ingredient": "honey"
        }, 
        {
            "amount": "2 tablespoons", 
            "ingredient": "vegetable oil"
        }, 
        {
            "amount": "1 cup", 
            "ingredient": "whole wheat flour"
        }, 
        {
            "amount": "1 teaspoon", 
            "ingredient": "baking powder"
        }, 
        {
            "amount": "1/2 teaspoon", 
            "ingredient": "baking soda"
        }, 
        {
            "amount": "1/4 teaspoon", 
            "ingredient": "salt"
        }
    ], 
    "prep_steps": [
        "Preheat oven to 350 degrees F (175 degrees C). Combine buttermilk and oats in a small saucepan; heat just until warm; set aside. Grease muffin cups or line with paper muffin liners.", 
        "In a large bowl, combine honey and vegetable oil with oat mixture. Combine flour, baking powder, baking soda and salt; stir into wet mixture. Pour batter into prepared muffin cups.", 
        "Bake in preheated oven until lightly browned, about 30 minutes. Serve warm."
    ], 
    "prep_time": "45 mins", 
    "recipe_name": "Honey Wheat Muffins"
}