{
    "ingredients": [
        {
            "amount": "3", 
            "ingredient": "eggs"
        }, 
        {
            "amount": "2 cups", 
            "ingredient": "white sugar"
        }, 
        {
            "amount": "1 cup", 
            "ingredient": "vegetable oil"
        }, 
        {
            "amount": "1 tablespoon", 
            "ingredient": "vanilla extract"
        }, 
        {
            "amount": "2 cups", 
            "ingredient": "grated zucchini"
        }, 
        {
            "amount": "2 cups", 
            "ingredient": "all-purpose flour"
        }, 
        {
            "amount": "1 1/2 teaspoons", 
            "ingredient": "ground cinnamon"
        }, 
        {
            "amount": "1 teaspoon", 
            "ingredient": "baking soda"
        }, 
        {
            "amount": "1/4 teaspoon", 
            "ingredient": "baking powder"
        }, 
        {
            "amount": "1 teaspoon", 
            "ingredient": "salt"
        }, 
        {
            "amount": "1/2 cup", 
            "ingredient": "chopped walnuts"
        }
    ], 
    "prep_steps": [
        "Preheat an oven to 350 degrees F (175 degrees C). Prepare 2 8x4-inch loaf pans with cooking spray.", 
        "Beat the eggs in a mixing bowl with an electric mixer until frothy. Slowly add the sugar while continually beating. Stir the vegetable oil and vanilla into the egg mixture; continue beating until the mixture is thick. Add the zucchini to the mixture and stir.", 
        "Mix the flour, cinnamon, baking soda, baking powder, and salt together in a separate bowl; pour into the wet mixture and stir until just combined. Add the chopped walnuts and stir. Divide the batter between the two prepared loaf pans.", 
        "Bake in the preheated oven until a toothpick inserted into the center comes out clean, about 1 hour. Cool in the pans for 10 minutes before loosening the edges with a knife and removing to cool completely on a wire rack."
    ], 
    "prep_time": "1\u00bd hrs", 
    "recipe_name": "Caley's Classic Zucchini Bread"
}