{
    "ingredients": [
        {
            "amount": "1 pound", 
            "ingredient": "ground beef"
        }, 
        {
            "amount": "4", 
            "ingredient": "soft sun-dried tomatoes, chopped"
        }, 
        {
            "amount": "2", 
            "ingredient": "green onions, finely chopped"
        }, 
        {
            "amount": "2 cloves", 
            "ingredient": "garlic, minced"
        }, 
        {
            "amount": "1/2", 
            "ingredient": "green bell pepper, chopped"
        }, 
        {
            "amount": "1", 
            "ingredient": "egg"
        }, 
        {
            "amount": "3 tablespoons", 
            "ingredient": "bread crumbs"
        }, 
        {
            "amount": "1 dash", 
            "ingredient": "Worcestershire sauce"
        }, 
        {
            "amount": "1 dash", 
            "ingredient": "hot pepper sauce (such as Tabasco\u00ae)"
        }, 
        {
            "amount": "1 teaspoon", 
            "ingredient": "vegetable oil"
        }, 
        {
            "amount": "8", 
            "ingredient": "English muffins, split and toasted"
        }
    ], 
    "prep_steps": [
        "Mix the beef, sun-dried tomato, green onions, garlic, bell pepper, egg, bread crumbs, Worcestershire sauce, salt, and pepper together in a bowl using your hands to assure the ingredients are equally integrated. Form into 8 1/2-inch thick patties.", 
        "Heat the vegetable oil in a skillet over medium-high heat. Cook the burgers in the hot skillet until cooked to your desired degree of doneness, 5 to 6 minutes per side for well done. An instant-read thermometer inserted into the center should read 160 degrees F (70 degrees C). Serve on the toasted English muffins."
    ], 
    "prep_time": "35 mins", 
    "recipe_name": "Inwood Hamburgers"
}