{
    "ingredients": [
        {
            "amount": "1 tablespoon", 
            "ingredient": "olive oil"
        }, 
        {
            "amount": "1 tablespoon", 
            "ingredient": "sesame seeds"
        }, 
        {
            "amount": "1 pound", 
            "ingredient": "fresh green beans, cut into 2 inch pieces"
        }, 
        {
            "amount": "1/4 cup", 
            "ingredient": "chicken broth"
        }, 
        {
            "amount": "1/4 teaspoon", 
            "ingredient": "salt"
        }
    ], 
    "prep_steps": [
        "Heat oil in a large skillet or wok over medium heat. Add sesame seeds. When seeds start to darken, stir in green beans. Cook, stirring, until the beans turn bright green.", 
        "Pour in chicken broth, salt and pepper. Cover and cook until beans are tender-crisp, about 10 minutes. Uncover and cook until liquid evaporates."
    ], 
    "prep_time": "30 mins", 
    "recipe_name": "Sesame Green Beans"
}