{
    "ingredients": [
        {
            "amount": "2 cups", 
            "ingredient": "white sugar"
        }, 
        {
            "amount": "9 cups", 
            "ingredient": "water"
        }, 
        {
            "amount": "2 cups", 
            "ingredient": "fresh lemon juice"
        }, 
        {
            "amount": "1 cup", 
            "ingredient": "cranberry juice, chilled"
        }
    ], 
    "prep_steps": [
        "In large pitcher combine sugar, water, lemon juice and cranberry juice. Stir to dissolve sugar. Serve over ice."
    ], 
    "prep_time": "10 mins", 
    "recipe_name": "Old-Fashioned Pink Lemonade"
}