{
    "ingredients": [
        {
            "amount": "1 cup", 
            "ingredient": "water"
        }, 
        {
            "amount": "1/2 cup", 
            "ingredient": "margarine"
        }, 
        {
            "amount": "1 cup", 
            "ingredient": "all-purpose flour"
        }, 
        {
            "amount": "4", 
            "ingredient": "eggs"
        }, 
        {
            "amount": "2 (3.4 ounce) packages", 
            "ingredient": "instant vanilla pudding mix"
        }, 
        {
            "amount": "3 cups", 
            "ingredient": "milk"
        }, 
        {
            "amount": "1 (8 ounce) package", 
            "ingredient": "cream cheese"
        }, 
        {
            "amount": "1 (8 ounce) container", 
            "ingredient": "frozen whipped topping, thawed"
        }, 
        {
            "amount": "1/4 cup", 
            "ingredient": "chocolate syrup"
        }
    ], 
    "prep_steps": [
        "Preheat oven to 400 degrees F (200 degrees C) and lightly grease a jelly roll pan.", 
        "In a large saucepan, bring water and margarine to a boil. Remove from heat, and mix in flour with electric mixer. Add eggs, one at a time, beating well after each. Spread evenly in prepared pan .", 
        "Bake at 400 degrees F (200 degrees C) for 20 to 25 minutes. Set aside to cool completely", 
        "In large bowl, combine pudding mix, milk and cream cheese. Mix with electric mixer until smooth. Spread evenly over cooled crust. Top with whipped topping and drizzle with chocolate syrup. Chill in refrigerator and serve cold."
    ], 
    "prep_time": "1\u00bd hrs", 
    "recipe_name": "Moon Cake"
}