{
    "ingredients": [
        {
            "amount": "3 1/4 cups", 
            "ingredient": "peeled, cubed pumpkin"
        }, 
        {
            "amount": "1 tablespoon", 
            "ingredient": "olive oil"
        }, 
        {
            "amount": "4 cups", 
            "ingredient": "vegetable broth"
        }, 
        {
            "amount": "1/2 teaspoon", 
            "ingredient": "chopped fresh garlic"
        }, 
        {
            "amount": "1", 
            "ingredient": "onion, diced"
        }, 
        {
            "amount": "1 cup", 
            "ingredient": "baby spinach leaves"
        }, 
        {
            "amount": "6 ounces", 
            "ingredient": "feta cheese, cubed"
        }, 
        {
            "amount": "2 cups", 
            "ingredient": "Arborio rice"
        }
    ], 
    "prep_steps": [
        "Preheat oven to 400 degrees F (200 degrees C). Brush a baking dish with olive oil.", 
        "Place pumpkin in a steamer over 1 inch of boiling water, and cover. Cook until tender but still firm. Transfer pumpkin to baking dish, and brush with oil. Season with salt and pepper. Bake in preheated oven until golden brown.", 
        "Meanwhile, heat olive oil in a saucepan. Cook onion and garlic until tender. Stir in rice, and cook for 1 to 2 minutes. Slowly add vegetable broth 1/2 cup at a time, stirring frequently and allowing all the liquid to be absorbed before adding more broth. Continue cooking until the rice is tender to the tooth, and then season with salt and pepper to taste.", 
        "When the pumpkin is almost done, place feta on a baking sheet, and bake in preheated oven until the cheese is hot, and is beginning to melt along the edges.", 
        "Mash 1/2 of the pumpkin, and stir into the risotto with the spinach. Ladle risotto into bowls, and top with remaining pumpkin cubes and heated feta."
    ], 
    "prep_time": "1\u00bc hrs", 
    "recipe_name": "Roast Pumpkin and Feta Risotto"
}