{
    "ingredients": [
        {
            "amount": "3 (11.5 ounce) cans", 
            "ingredient": "peach nectar"
        }, 
        {
            "amount": "1 (6 ounce) can", 
            "ingredient": "frozen orange juice concentrate"
        }, 
        {
            "amount": "1/4 cup", 
            "ingredient": "lemon juice"
        }, 
        {
            "amount": "1/2 cup", 
            "ingredient": "peach brandy"
        }, 
        {
            "amount": "1/4 cup", 
            "ingredient": "grenadine syrup"
        }, 
        {
            "amount": "1 (32 fluid ounce) bottle", 
            "ingredient": "carbonated water"
        }, 
        {
            "amount": "3 (750 milliliter) bottles", 
            "ingredient": "champagne"
        }
    ], 
    "prep_steps": [
        "Chill all ingredients. In a large punch bowl combine peach nectar, concentrated orange juice, lemon juice, brandy and grenadine. Mix well and pour in the carbonated water and champagne."
    ], 
    "prep_time": "10 mins", 
    "recipe_name": "Champagne Peach Punch"
}