{
    "ingredients": [
        {
            "amount": "1 pound", 
            "ingredient": "bulk hot Italian sausage"
        }, 
        {
            "amount": "2 pounds", 
            "ingredient": "ground beef"
        }, 
        {
            "amount": "5 tablespoons", 
            "ingredient": "chili powder"
        }, 
        {
            "amount": "1 tablespoon", 
            "ingredient": "ground cumin"
        }, 
        {
            "amount": "1 teaspoon", 
            "ingredient": "ground coriander"
        }, 
        {
            "amount": "2 cloves", 
            "ingredient": "garlic, minced"
        }, 
        {
            "amount": "1 large", 
            "ingredient": "onion, diced"
        }, 
        {
            "amount": "1 (28 ounce) can", 
            "ingredient": "diced tomatoes"
        }, 
        {
            "amount": "1 (15 ounce) can", 
            "ingredient": "tomato sauce"
        }, 
        {
            "amount": "1 (14 ounce) can", 
            "ingredient": "kidney beans"
        }, 
        {
            "amount": "2 teaspoons", 
            "ingredient": "minced chipotle peppers in adobo sauce"
        }, 
        {
            "amount": "1 teaspoon", 
            "ingredient": "salt"
        }, 
        {
            "amount": "1 (6 ounce) can", 
            "ingredient": "tomato paste"
        }
    ], 
    "prep_steps": [
        "Cook sausage and ground beef in a large pot over medium-high heat until lightly browned and crumbly. When the meat has released its grease, and has begun to brown, drain off accumulated grease, and season with chili powder, cumin, and coriander. Cook and stir for 1 minute until fragrant, then stir in the garlic and onion. Cook until the onion has softened and turned translucent, about 4 minutes.", 
        "Stir in the diced tomatoes, tomato sauce, kidney beans, chipotle peppers, salt, and pepper. Bring to a simmer, then pour the chili into a slow cooker. Cover, and cook on Low for 8 to 10 hours. Stir in tomato paste an hour before the chili is done."
    ], 
    "prep_time": "8 hrs", 
    "recipe_name": "Emily's Chipotle Chili"
}