{
    "ingredients": [
        {
            "amount": "1", 
            "ingredient": "onion, sliced"
        }, 
        {
            "amount": "3 pounds", 
            "ingredient": "pork tenderloin"
        }, 
        {
            "amount": "3 tablespoons", 
            "ingredient": "minced garlic"
        }, 
        {
            "amount": "1/2 cup", 
            "ingredient": "orange juice"
        }, 
        {
            "amount": "3 tablespoons", 
            "ingredient": "red wine vinegar"
        }, 
        {
            "amount": "1", 
            "ingredient": "lemon, juiced"
        }, 
        {
            "amount": "1 tablespoon", 
            "ingredient": "ground cumin"
        }, 
        {
            "amount": "1 tablespoon", 
            "ingredient": "grill seasoning (such as Montreal Steak Seasoning\u00ae)"
        }, 
        {
            "amount": "1 teaspoon", 
            "ingredient": "salt"
        }, 
        {
            "amount": "1 teaspoon", 
            "ingredient": "ground red pepper"
        }, 
        {
            "amount": "3", 
            "ingredient": "bay leaves"
        }, 
        {
            "amount": "2 tablespoons", 
            "ingredient": "grated lemon peel"
        }
    ], 
    "prep_steps": [
        "Arrange onion slices in the bottom of a slow cooker; top with pork tenderloin. Sprinkle garlic evenly over onion and pork. Pour orange juice, vinegar, and lemon juice over pork. Sprinkle cumin, grill seasoning, salt, red pepper, bay leaves, and lemon zest over pork.", 
        "Cover and cook on Low until pork is very tender, 6 to 7 hours. To serve, slice tenderloin into 1 1/2-inch slices, arrange on a platter, and drizzle juices over top."
    ], 
    "prep_time": "6 hrs", 
    "recipe_name": "Havana Slow Cooker Pork Tenderloin"
}