{
    "ingredients": [
        {
            "amount": "1 1/2 teaspoons", 
            "ingredient": "active dry yeast"
        }, 
        {
            "amount": "1 1/2 teaspoons", 
            "ingredient": "ground cinnamon"
        }, 
        {
            "amount": "3 1/4 cups", 
            "ingredient": "bread flour"
        }, 
        {
            "amount": "1 1/2 teaspoons", 
            "ingredient": "salt"
        }, 
        {
            "amount": "3 tablespoons", 
            "ingredient": "powdered buttermilk"
        }, 
        {
            "amount": "1 1/4 cups", 
            "ingredient": "apple pie filling"
        }, 
        {
            "amount": "1 1/2 tablespoons", 
            "ingredient": "butter, softened"
        }, 
        {
            "amount": "1/2 cup", 
            "ingredient": "water"
        }
    ], 
    "prep_steps": [
        "Place all ingredients into the pan of the bread machine in the order suggested by the manufacturer. Press Start."
    ], 
    "prep_time": "3 hrs", 
    "recipe_name": "Apple Pie Bread"
}