{
    "ingredients": [
        {
            "amount": "8", 
            "ingredient": "potatoes"
        }, 
        {
            "amount": "1/4 cup", 
            "ingredient": "butter"
        }, 
        {
            "amount": "2/3 cup", 
            "ingredient": "milk"
        }, 
        {
            "amount": "1 medium head", 
            "ingredient": "roasted garlic"
        }, 
        {
            "amount": "1 pound", 
            "ingredient": "cooked, shredded chicken breast meat"
        }, 
        {
            "amount": "1/2 teaspoon", 
            "ingredient": "salt"
        }, 
        {
            "amount": "1/2 teaspoon", 
            "ingredient": "freshly ground black pepper"
        }, 
        {
            "amount": "1 tablespoon", 
            "ingredient": "chopped fresh thyme"
        }, 
        {
            "amount": "1 tablespoon", 
            "ingredient": "chopped fresh rosemary"
        }, 
        {
            "amount": "1/2 cup", 
            "ingredient": "red bell pepper, diced"
        }, 
        {
            "amount": "1 cup", 
            "ingredient": "fresh corn kernels"
        }, 
        {
            "amount": "1 cup", 
            "ingredient": "shredded Cheddar cheese"
        }
    ], 
    "prep_steps": [
        "To prepare roasted garlic: Cut head of garlic in half and drizzle with olive oil. Wrap in foil and bake at 400 degrees F (200 degrees C) for 45 minutes.", 
        "Reduce oven temperature to 350 degrees F (175 degrees C).", 
        "Peel, chop and boil potatoes until tender. Drain, then mash potatoes. Add butter, milk and roasted garlic and mix in. Set aside.", 
        "Arrange chicken evenly in the bottom of a casserole dish, then sprinkle with spices, then layer peppers, corn and all but 1/4 cup cheese. Spread mashed potatoes on top, sealing everything in. Sprinkle with remaining cheese.", 
        "Bake at 350 degrees F (175 degrees C) for 25 minutes or until brown around edges."
    ], 
    "recipe_name": "Chicken Shepherd's Pie"
}