{
    "ingredients": [
        {
            "amount": "1 cup", 
            "ingredient": "all-purpose flour"
        }, 
        {
            "amount": "2/3 cup", 
            "ingredient": "butter"
        }, 
        {
            "amount": "1 cup", 
            "ingredient": "chopped walnuts"
        }, 
        {
            "amount": "1 (8 ounce) package", 
            "ingredient": "cream cheese"
        }, 
        {
            "amount": "1 cup", 
            "ingredient": "white sugar"
        }, 
        {
            "amount": "2 (8 ounce) containers", 
            "ingredient": "frozen whipped topping, thawed"
        }, 
        {
            "amount": "1 (5.9 ounce) package", 
            "ingredient": "instant chocolate pudding mix"
        }, 
        {
            "amount": "1 (5.1 ounce) package", 
            "ingredient": "instant vanilla pudding mix"
        }, 
        {
            "amount": "3 cups", 
            "ingredient": "milk"
        }, 
        {
            "amount": "1/8 cup", 
            "ingredient": "grated semisweet chocolate"
        }
    ], 
    "prep_steps": [
        "Combine flour, butter, and chopped nuts. Press into the bottom of a 9 x 13 x 2 inch pan. Bake at 350 degrees F (175 degrees C) for 25 minutes, or until golden brown.", 
        "Combine cream cheese, sugar, and 1 container of whipped topping until well mixed. Spread evenly over the cooled crust.", 
        "Mix pudding mixes and milk well until thick. Spread evenly over the cream cheese filling. Spread remaining container of whipped topping over the pudding layer. Sprinkle grated chocolate over the top.", 
        "Refrigerate for 6 to 8 hours before serving."
    ], 
    "recipe_name": "Next-Best-Thing-To-Robert-Redford Pie"
}