{
    "ingredients": [
        {
            "amount": "1/2 cup", 
            "ingredient": "hot red pepper sauce"
        }, 
        {
            "amount": "1/2 cup", 
            "ingredient": "brown sugar, or to taste"
        }, 
        {
            "amount": "2 tablespoons", 
            "ingredient": "butter"
        }, 
        {
            "amount": "1 tablespoon", 
            "ingredient": "honey"
        }, 
        {
            "amount": "2 tablespoons", 
            "ingredient": "fresh lemon juice"
        }, 
        {
            "amount": "1 tablespoon", 
            "ingredient": "olive oil"
        }, 
        {
            "amount": "1 (2 pound)", 
            "ingredient": "boneless salmon fillet"
        }, 
        {
            "amount": "1/4 cup", 
            "ingredient": "chopped green onions"
        }, 
        {
            "amount": "1 pinch", 
            "ingredient": "salt"
        }, 
        {
            "amount": "1 pinch", 
            "ingredient": "freshly ground black pepper"
        }
    ], 
    "prep_steps": [
        "Stir together the hot sauce, brown sugar, butter, honey, and lemon juice in a saucepan over medium heat. Stir continuously for 3 to 4 minutes, until the sugar has dissolved and the mixture is well blended. Remove from heat, and set aside.", 
        "Coat a casserole dish with olive oil. Poke holes in the salmon with a fork, then place into the dish. Pour reserved sauce over the fish, top with green onions, and season with salt and pepper. Marinate for 30 minutes.", 
        "Preheat oven to 425 degrees F (220 C).", 
        "Bake salmon in preheated oven, uncovered, until the fish flakes easily with a fork, about 25 minutes."
    ], 
    "prep_time": "1\u00bc hrs", 
    "recipe_name": "Yin-Yang Salmon"
}