{
    "ingredients": [
        {
            "amount": "2 cups", 
            "ingredient": "semisweet chocolate chips"
        }, 
        {
            "amount": "2 cups", 
            "ingredient": "butterscotch chips"
        }, 
        {
            "amount": "12 ounces", 
            "ingredient": "peanuts"
        }, 
        {
            "amount": "5 (5 ounce) cans", 
            "ingredient": "chow mein noodles"
        }
    ], 
    "prep_steps": [
        "Melt the chips in a saucepan on low heat. Stir in the nuts and the noodles.", 
        "Then drop by teaspoonfuls onto waxed paper-lined cookie sheet. Cool and then store covered in the refrigerator."
    ], 
    "recipe_name": "Haystacks II"
}