{
    "ingredients": [
        {
            "amount": "3 cups", 
            "ingredient": "all-purpose flour"
        }, 
        {
            "amount": "2 cups", 
            "ingredient": "white sugar"
        }, 
        {
            "amount": "1/2 cup", 
            "ingredient": "unsweetened cocoa powder"
        }, 
        {
            "amount": "2 teaspoons", 
            "ingredient": "salt"
        }, 
        {
            "amount": "1 tablespoon", 
            "ingredient": "baking soda"
        }, 
        {
            "amount": "1/2 cup", 
            "ingredient": "vegetable oil"
        }, 
        {
            "amount": "2 tablespoons", 
            "ingredient": "distilled white vinegar"
        }, 
        {
            "amount": "1 1/2 teaspoons", 
            "ingredient": "vanilla extract"
        }, 
        {
            "amount": "2 cups", 
            "ingredient": "water"
        }
    ], 
    "prep_steps": [
        "Preheat oven to 350 degrees F (175 degrees C). Grease and flour a 9x13 inch pan.", 
        "In a large bowl, combine flour, sugar, cocoa, salt and baking soda. Make a well in the center, and pour in the oil, vinegar, water and vanilla.", 
        "Mix well, then pour into a 9x13 inch pan. Bake at 350 degrees F (175 degrees C) for 40 minutes, or until a toothpick inserted into the center comes out clean."
    ], 
    "recipe_name": "Welfare Cake"
}