{
    "ingredients": [
        {
            "amount": "1 cup", 
            "ingredient": "dried navy beans"
        }, 
        {
            "amount": "4 cups", 
            "ingredient": "water"
        }, 
        {
            "amount": "1/4 cup", 
            "ingredient": "ketchup"
        }, 
        {
            "amount": "1/4 cup", 
            "ingredient": "maple syrup"
        }, 
        {
            "amount": "2 tablespoons", 
            "ingredient": "brown sugar"
        }, 
        {
            "amount": "2 tablespoons", 
            "ingredient": "molasses"
        }, 
        {
            "amount": "1 teaspoon", 
            "ingredient": "Worcestershire sauce"
        }, 
        {
            "amount": "1/2 teaspoon", 
            "ingredient": "salt"
        }, 
        {
            "amount": "1/8 teaspoon", 
            "ingredient": "ground black pepper"
        }, 
        {
            "amount": "1/8 teaspoon", 
            "ingredient": "chili powder"
        }, 
        {
            "amount": "1 small", 
            "ingredient": "onion, chopped"
        }
    ], 
    "prep_steps": [
        "Place the navy beans into a large container and cover with several inches of cool water; let stand 8 hours to overnight. Or, bring the beans and water to a boil in a large pot over high heat. Once boiling, turn off the heat, cover, and let stand 1 hour. Drain and rinse before using.", 
        "Place the beans in a large saucepan with 4 cups of water. Bring to a boil over high heat, then reduce heat to medium-low, cover, and simmer 1 hour.", 
        "Preheat an oven to 375 degrees F (190 degrees C). Stir the ketchup, maple syrup, brown sugar, molasses, Worcestershire sauce, salt, pepper, and chili powder together in a small bowl; set aside.", 
        "Once the beans have simmered for 1 hour, drain, and reserve the cooking liquid. Pour the beans into a 1 1/2 quart casserole dish and stir in the chopped onion and the molasses sauce. Stir in enough of the reserved cooking liquid so the sauce covers the beans by 1/4 inch.", 
        "Cover, and bake in the preheated oven for 10 minutes, then reduce the heat to 200 degrees F (95 degrees C), and cook 6 hours longer. Stir the beans after they have cooked for 3 hours. Once the beans are tender and the sauce has reduced and is sticky, remove from the oven, stir, recover, and allow to stand 15 minutes before serving."
    ], 
    "prep_time": "15 hrs", 
    "recipe_name": "Baked Beans from Scratch"
}