{
    "ingredients": [
        {
            "amount": "1 (16 ounce) package", 
            "ingredient": "dried lima beans"
        }, 
        {
            "amount": "2 (16 ounce) cans", 
            "ingredient": "chopped tomatoes with juice"
        }, 
        {
            "amount": "1 cup", 
            "ingredient": "olive oil"
        }, 
        {
            "amount": "3 cloves", 
            "ingredient": "garlic, chopped"
        }, 
        {
            "amount": "1 teaspoon", 
            "ingredient": "chopped fresh dill"
        }
    ], 
    "prep_steps": [
        "Place the lima beans in a large saucepan. Pour enough water to fill to 2 inches above top of the beans. Allow to soak overnight.", 
        "Preheat oven to 375 degrees F (190 degrees C).", 
        "Place the saucepan over medium heat; bring to a boil; reduce heat to medium-low and simmer 20 minutes; drain. Pour the beans into a 9 x 13 baking dish. Add the tomatoes, olive oil, garlic, salt, and dill; stir.", 
        "Bake in preheated oven for 1 1/2 to 2 hours, stirring occasionally and adding water if the mixture appears dry."
    ], 
    "prep_time": "10 hr", 
    "recipe_name": "Gigantes (Greek Lima Beans)"
}