{
    "ingredients": [
        {
            "amount": "11 ounces", 
            "ingredient": "cream cheese, at room temperature"
        }, 
        {
            "amount": "1 cup", 
            "ingredient": "golden raisins"
        }, 
        {
            "amount": "1 (2.1 ounce) package", 
            "ingredient": "cooked bacon, diced"
        }, 
        {
            "amount": "1 bunch", 
            "ingredient": "green onions, chopped"
        }, 
        {
            "amount": "3 tablespoons", 
            "ingredient": "sour cream"
        }, 
        {
            "amount": "1 (9 ounce) jar", 
            "ingredient": "mango chutney"
        }
    ], 
    "prep_steps": [
        "In a medium bowl, stir together the cream cheese, raisins, bacon, green onions and sour cream. Form into a ball, and wrap in plastic wrap. Refrigerate for at least 3 hours or overnight before serving.", 
        "To serve, place the cheese ball on a serving tray, and pour the mango chutney over it. Surround with crackers for dipping."
    ], 
    "prep_time": "3 hrs", 
    "recipe_name": "Mango Chutney Cheese Ball"
}