{
    "ingredients": [
        {
            "amount": "1/2 cup", 
            "ingredient": "soy sauce"
        }, 
        {
            "amount": "3 tablespoons", 
            "ingredient": "white sugar"
        }, 
        {
            "amount": "2 tablespoons", 
            "ingredient": "minced onion"
        }, 
        {
            "amount": "2 cloves", 
            "ingredient": "garlic, minced"
        }, 
        {
            "amount": "2 teaspoons", 
            "ingredient": "ground ginger"
        }, 
        {
            "amount": "1/4 cup", 
            "ingredient": "sesame seeds"
        }, 
        {
            "amount": "2 tablespoons", 
            "ingredient": "vegetable oil"
        }, 
        {
            "amount": "1 pound", 
            "ingredient": "pork tenderloin"
        }
    ], 
    "prep_steps": [
        "In a medium dish or bowl, mix together soy sauce, sugar, onion, garlic, ginger, sesame seeds, and oil. Add pork, and turn to coat. Cover, and refrigerate for 3 hours, turning and basting often.", 
        "Preheat oven to 375 degrees F (190 degrees C).", 
        "Remove pork from marinade, reserving marinade, and transfer to a lightly greased 9x13 inch baking dish. Bake for 45 minutes. Cut into 1/4 inch thick slices.", 
        "While the meat is roasting, boil reserved marinade for 3 to 5 minutes. Serve with pork strips."
    ], 
    "prep_time": "4 hrs", 
    "recipe_name": "Marinated Pork Strips"
}