{
    "ingredients": [
        {
            "amount": "1/4 cup", 
            "ingredient": "all-purpose flour"
        }, 
        {
            "amount": "1/4 teaspoon", 
            "ingredient": "baking powder"
        }, 
        {
            "amount": "1/4 teaspoon", 
            "ingredient": "salt"
        }, 
        {
            "amount": "1 1/2 cups", 
            "ingredient": "Ghirardelli 60% Cacao Baking Chips, for melting into the cookie dough"
        }, 
        {
            "amount": "2 tablespoons", 
            "ingredient": "unsalted butter"
        }, 
        {
            "amount": "2", 
            "ingredient": "eggs"
        }, 
        {
            "amount": "1/2 cup", 
            "ingredient": "granulated sugar"
        }, 
        {
            "amount": "1 teaspoon", 
            "ingredient": "vanilla extract"
        }, 
        {
            "amount": "1/3 cup", 
            "ingredient": "Ghirardelli 60% Cacao Baking Chips, for mixing into the prepared cookie dough"
        }, 
        {
            "amount": "2 tablespoons", 
            "ingredient": "coarse sea salt, or as needed"
        }
    ], 
    "prep_steps": [
        "In a heatproof bowl over a double boiler, melt chocolate and butter until smooth. Turn off the stove and let chocolate sit over warm water.", 
        "Combine flour, baking powder and salt and mix to combine. In another bowl, mix together sugar and eggs, combine thoroughly with a whisk and slowly add the warm chocolate mixture. Stir to combine. Add vanilla extract and mix. Stir in flour mixture. Cool for a few minutes (if batter is warm, chocolate chips will melt). Stir in chocolate chips. Chill for 10-15 minutes.", 
        "Pre-heat oven to 350 degrees. Scoop rounded tablespoons of batter and place on baking tray. Sprinkle each cookie lightly with a pinch of sea salt. Bake at 350 degrees for approximately 7-8 minutes until the outside looks slightly cracked. Be very careful not to over bake cookies because they will continue to bake as they cool once removed from the oven. Cookies should be soft and gooey in the center."
    ], 
    "prep_time": "42 mins", 
    "recipe_name": "Chocolate Truffle Cookies with Sea Salt"
}