{
    "ingredients": [
        {
            "amount": "2", 
            "ingredient": "ripe tomatoes, diced"
        }, 
        {
            "amount": "2", 
            "ingredient": "green bell peppers, diced"
        }, 
        {
            "amount": "1", 
            "ingredient": "white onion, diced"
        }, 
        {
            "amount": "1/2 bunch", 
            "ingredient": "fresh cilantro, for garnish"
        }, 
        {
            "amount": "1 tablespoon", 
            "ingredient": "fresh lemon juice"
        }, 
        {
            "amount": "1", 
            "ingredient": "jalapeno chile pepper, diced"
        }
    ], 
    "prep_steps": [
        "In a medium bowl, mix tomatoes, green bell peppers, white onion, cilantro, lemon juice and jalapeno chile pepper. Cover and chill in the refrigerator until serving."
    ], 
    "prep_time": "20 mins", 
    "recipe_name": "Fresh Salsa II"
}