{
    "ingredients": [
        {
            "amount": "3 cups", 
            "ingredient": "heavy cream"
        }, 
        {
            "amount": "1 1/4 cups", 
            "ingredient": "white sugar"
        }, 
        {
            "amount": "3", 
            "ingredient": "lemons, juiced"
        }, 
        {
            "amount": "3 tablespoons", 
            "ingredient": "additional heavy cream for topping"
        }
    ], 
    "prep_steps": [
        "In a saucepan, stir together 3 cups of cream and sugar. Bring to a boil, and cook for 2 to 3 minutes. Stir in the lemon juice. Pour into serving glasses, and refrigerate until set, about 5 hours. Pour a little more cream over the tops just before serving."
    ], 
    "prep_time": "5 hrs", 
    "recipe_name": "Lemon Posset"
}