{
    "ingredients": [
        {
            "amount": "3/4 cup", 
            "ingredient": "milk"
        }, 
        {
            "amount": "2 tablespoons", 
            "ingredient": "butter, melted"
        }, 
        {
            "amount": "1/4 cup", 
            "ingredient": "egg substitute"
        }, 
        {
            "amount": "1 tablespoon", 
            "ingredient": "white sugar"
        }, 
        {
            "amount": "1 cup", 
            "ingredient": "all-purpose flour"
        }, 
        {
            "amount": "2 teaspoons", 
            "ingredient": "baking powder"
        }, 
        {
            "amount": "1/4 teaspoon", 
            "ingredient": "salt"
        }
    ], 
    "prep_steps": [
        "Preheat oven to 350 degrees F (175 degrees C). Lightly grease an 8x8 inch baking dish.", 
        "In a large mixing bowl, beat together milk, butter and egg substitute. Add the sugar, then gradually beat the flour in. Carefully stir in the baking powder and salt. Pour batter into prepared pan.", 
        "Bake in preheated oven for 30 minutes. Cut into 16 square servings."
    ], 
    "prep_time": "40 mins", 
    "recipe_name": "Baked Pancake Squares"
}