{
    "ingredients": [
        {
            "amount": "3/4 cup", 
            "ingredient": "sour cream"
        }, 
        {
            "amount": "1 1/3 cups", 
            "ingredient": "mayonnaise"
        }, 
        {
            "amount": "1 teaspoon", 
            "ingredient": "Worcestershire sauce"
        }, 
        {
            "amount": "1/2 teaspoon", 
            "ingredient": "dry mustard"
        }, 
        {
            "amount": "1/2 teaspoon", 
            "ingredient": "garlic powder"
        }, 
        {
            "amount": "1/2 teaspoon", 
            "ingredient": "salt"
        }, 
        {
            "amount": "1/2 teaspoon", 
            "ingredient": "ground black pepper"
        }, 
        {
            "amount": "4 ounces", 
            "ingredient": "blue cheese, crumbled"
        }
    ], 
    "prep_steps": [
        "In a large bowl, whisk together the sour cream, mayonnaise and Worcestershire sauce. Season with mustard, garlic powder, salt and pepper. Stir in blue cheese. Cover, and refrigerate for 24 hours before serving."
    ], 
    "prep_time": "15 mins", 
    "recipe_name": "Bill's Blue Cheese Dressing"
}