{
    "ingredients": [
        {
            "amount": "1 cup", 
            "ingredient": "butter"
        }, 
        {
            "amount": "2 cups", 
            "ingredient": "white sugar"
        }, 
        {
            "amount": "3", 
            "ingredient": "eggs"
        }, 
        {
            "amount": "1 teaspoon", 
            "ingredient": "baking soda"
        }, 
        {
            "amount": "3 cups", 
            "ingredient": "all-purpose flour"
        }, 
        {
            "amount": "1 teaspoon", 
            "ingredient": "salt"
        }, 
        {
            "amount": "1 teaspoon", 
            "ingredient": "vanilla extract"
        }
    ], 
    "prep_steps": [
        "Cream the butter and then gradually add the sugar. Cream thoroughly.", 
        "Add the eggs one at a time to the sugar and butter. Add the baking soda next. Lastly, add the flour, salt, and flavoring.", 
        "Cover and chill for several hours or freeze.", 
        "Preheat oven to 350 degrees F (175 degrees C).", 
        "Roll out on a lightly floured surface and cut in fancy shapes. Bake until golden brown, 8 to 10 minutes."
    ], 
    "recipe_name": "Sugar Cookies VII"
}