{
    "ingredients": [
        {
            "amount": "1", 
            "ingredient": "unbaked pizza crust"
        }, 
        {
            "amount": "1 1/2 cups", 
            "ingredient": "Ranch-style salad dressing"
        }, 
        {
            "amount": "2 cups", 
            "ingredient": "shredded Cheddar cheese"
        }, 
        {
            "amount": "1/2 cup", 
            "ingredient": "shredded carrots"
        }, 
        {
            "amount": "1/2 cup", 
            "ingredient": "chopped cauliflower"
        }, 
        {
            "amount": "1/2 cup", 
            "ingredient": "chopped fresh broccoli"
        }, 
        {
            "amount": "1/2 cup", 
            "ingredient": "chopped onion"
        }, 
        {
            "amount": "1/2 cup", 
            "ingredient": "chopped red bell pepper"
        }, 
        {
            "amount": "1/2 cup", 
            "ingredient": "sliced fresh mushrooms"
        }, 
        {
            "amount": "1 pound", 
            "ingredient": "mozzarella cheese, shredded"
        }
    ], 
    "prep_steps": [
        "Preheat oven to 350 degrees F (175 degrees C).", 
        "Place pizza crust on a pizza pan or baking sheet, and spread dressing evenly over the top. Sprinkle with Cheddar cheese, followed by carrots, cauliflower, broccoli, onion, red pepper, and mushrooms. Top with mozzarella cheese.", 
        "Bake in preheated oven for 15 to 20 minutes, until vegetables are tender, and cheese is melted and lightly browned."
    ], 
    "prep_time": "30 mins", 
    "recipe_name": "Veggie Ranch Pizza"
}