{
    "ingredients": [
        {
            "amount": "1 1/2 pounds", 
            "ingredient": "fresh green beans, trimmed and snapped"
        }, 
        {
            "amount": "3 tablespoons", 
            "ingredient": "olive oil"
        }
    ], 
    "prep_steps": [
        "In a stainless steel pot over medium-high heat, combine green beans, garlic powder, onion powder, salt and pepper. Cook, covered, until the beans begin to sweat. Remove lid and stir occasionally until beans are tender.", 
        "When the beans and spices have begun to 'burn' on the bottom of the pan, which will lend a grilled flavor, stir in the olive oil and turn off heat. Cover, and let stand a few minutes. Scrape the bottom of the pan to incorporate the 'burnt' spices. Beans should have a dark, caramel color, but not black."
    ], 
    "prep_time": "30 mins", 
    "recipe_name": "Pan Fried Green Beans"
}