{
    "ingredients": [
        {
            "amount": "1 1/4 cups", 
            "ingredient": "white sugar"
        }, 
        {
            "amount": "1 cup", 
            "ingredient": "sour cream"
        }, 
        {
            "amount": "3", 
            "ingredient": "eggs"
        }, 
        {
            "amount": "2 tablespoons", 
            "ingredient": "all-purpose flour"
        }, 
        {
            "amount": "1/2 teaspoon", 
            "ingredient": "vanilla extract"
        }, 
        {
            "amount": "1/4 teaspoon", 
            "ingredient": "salt"
        }, 
        {
            "amount": "3 cups", 
            "ingredient": "chopped fresh rhubarb"
        }, 
        {
            "amount": "1 (9 inch)", 
            "ingredient": "unbaked pie shell"
        }, 
        {
            "amount": "1/3 cup", 
            "ingredient": "white sugar"
        }, 
        {
            "amount": "1/3 cup", 
            "ingredient": "all-purpose flour"
        }, 
        {
            "amount": "1 teaspoon", 
            "ingredient": "ground cinnamon"
        }, 
        {
            "amount": "1/4 cup", 
            "ingredient": "butter, softened"
        }
    ], 
    "prep_steps": [
        "Preheat oven to 375 degrees F (190 degrees C).", 
        "Beat 1 1/4 cups sugar, sour cream, eggs and 2 tablespoons flour in a large mixing bowl until smooth. Stir in vanilla and salt. Fold in rhubarb. Pour rhubarb mixture into pie shell.", 
        "Bake for 30 minutes in the preheated oven. Meanwhile, combine 1/3 cup sugar, 1/3 cup flour, and cinnamon in a small bowl. Cut in butter with fork or pastry blender until mixture resembles coarse crumbs. Set aside.", 
        "Remove pie from oven. Reduce oven temperature to 350 degrees F (175 degrees C). Sprinkle topping mixture evenly over pie. Return pie to oven and bake until filling is set and crust and topping are golden brown, about 30 minutes."
    ], 
    "prep_time": "1\u00bd hrs", 
    "recipe_name": "Sour Cream Rhubarb Pie"
}