{
    "ingredients": [
        {
            "amount": "2 tablespoons", 
            "ingredient": "butter"
        }, 
        {
            "amount": "1/4 cup", 
            "ingredient": "shallots, minced"
        }, 
        {
            "amount": "3/4 cup", 
            "ingredient": "dry white wine"
        }, 
        {
            "amount": "3 pounds", 
            "ingredient": "mussels, cleaned and debearded"
        }, 
        {
            "amount": "1/2 cup", 
            "ingredient": "chopped fresh parsley"
        }
    ], 
    "prep_steps": [
        "In a medium stock pot, heat butter over medium heat. Add shallots and saute until translucent.", 
        "Pour in wine and mussels. Raise heat to medium/high and steam mussels until shells open, about 5 minutes.", 
        "Pour mussels and cooking liquid into a serving bowl, sprinkle with parsley and freshly ground black pepper to taste. Serve immediately."
    ], 
    "prep_time": "25 mins", 
    "recipe_name": "Steamed Mussels II"
}