{
    "ingredients": [
        {
            "amount": "2 cups", 
            "ingredient": "red bell pepper, chopped"
        }, 
        {
            "amount": "1/2 cup", 
            "ingredient": "chicken broth"
        }, 
        {
            "amount": "1 tablespoon", 
            "ingredient": "chopped fresh oregano"
        }, 
        {
            "amount": "1/4 teaspoon", 
            "ingredient": "salt"
        }, 
        {
            "amount": "1/4 teaspoon", 
            "ingredient": "ground black pepper"
        }, 
        {
            "amount": "1 tablespoon", 
            "ingredient": "tomato paste"
        }, 
        {
            "amount": "1 tablespoon", 
            "ingredient": "balsamic vinegar"
        }, 
        {
            "amount": "1 teaspoon", 
            "ingredient": "honey"
        }, 
        {
            "amount": "2 cups", 
            "ingredient": "bow tie pasta"
        }, 
        {
            "amount": "1 cup", 
            "ingredient": "blanched green peas"
        }, 
        {
            "amount": "2 tablespoons", 
            "ingredient": "chopped fresh parsley"
        }
    ], 
    "prep_steps": [
        "Combine bell pepper, broth, oregano, salt, and pepper in 2 quart saucepan. Cover. Cook over medium low heat for 20 minutes, stirring occasionally, until bell pepper is tender.", 
        "Stir in tomato paste, vinegar, and honey; remove from heat. Puree mixture in a blender or food processor.", 
        "Meanwhile, cook pasta as directed on package. Drain.", 
        "Mix together pasta, red pepper sauce, peas, and parsley."
    ], 
    "recipe_name": "Bow-Tie Pasta With Red Pepper Sauce"
}