{
    "ingredients": [
        {
            "amount": "12 ounces", 
            "ingredient": "sliced bacon"
        }, 
        {
            "amount": "1 1/3 cups", 
            "ingredient": "water"
        }, 
        {
            "amount": "4", 
            "ingredient": "eggs"
        }, 
        {
            "amount": "3 cups", 
            "ingredient": "all-purpose flour"
        }, 
        {
            "amount": "1 teaspoon", 
            "ingredient": "salt"
        }, 
        {
            "amount": "1 medium head", 
            "ingredient": "cabbage, cored and sliced"
        }, 
        {
            "amount": "2 tablespoons", 
            "ingredient": "minced pickled ginger"
        }, 
        {
            "amount": "1/4 cup", 
            "ingredient": "tonkatsu sauce or barbeque sauce"
        }
    ], 
    "prep_steps": [
        "Fry the bacon in a large skillet over medium heat until slightly crispy. Remove to paper towels to drain and set aside.", 
        "In a large bowl, stir together the water and eggs. Gradually stir in the flour and salt until smooth. Add the cabbage and ginger; stir until evenly distributed.", 
        "Heat a skillet over medium heat and coat with cooking spray. Pour about 1/4 of the batter into the center of the skillet. Place 4 slices of cooked bacon in the center. Use a spatula to shape the pancake into a circle. Fry for about 5 minutes or until the edges are dry. Flip and cook on the other side until the center is stable and it is browned on both sides. Remove from the pan and drizzle with tonkatsu sauce to serve. Continue with remaining batter and bacon."
    ], 
    "prep_time": "45 mins", 
    "recipe_name": "Japanese Okonomiyaki"
}