{
    "ingredients": [
        {
            "amount": "2", 
            "ingredient": "zucchinis, peeled"
        }, 
        {
            "amount": "1 tablespoon", 
            "ingredient": "olive oil"
        }, 
        {
            "amount": "1/4 cup", 
            "ingredient": "water"
        }
    ], 
    "prep_steps": [
        "Cut lengthwise slices from zucchini using a vegetable peeler, stopping when the seeds are reached. Turn zucchini over and continue 'peeling' until all the zucchini is in long strips; discard seeds. Slice the zucchini into thinner strips resembling spaghetti.", 
        "Heat olive oil in a skillet over medium heat; cook and stir zucchini in the hot oil for 1 minute. Add water and cook until zucchini is softened, 5 to 7 minutes. Season with salt and pepper."
    ], 
    "prep_time": "15 mins", 
    "recipe_name": "Low Carb Zucchini Pasta"
}