{
    "ingredients": [
        {
            "amount": "1 tablespoon", 
            "ingredient": "Goya Extra Virgin Olive Oil"
        }, 
        {
            "amount": "1/2 pound", 
            "ingredient": "ground beef"
        }, 
        {
            "amount": "1/2 medium", 
            "ingredient": "yellow onion, finely chopped"
        }, 
        {
            "amount": "1/4 cup", 
            "ingredient": "Goya Tomato Sauce"
        }, 
        {
            "amount": "6", 
            "ingredient": "Goya Spanish Olives Stuffed with Minced Pimientos, thinly sliced"
        }, 
        {
            "amount": "2 tablespoons", 
            "ingredient": "Goya Sofrito"
        }, 
        {
            "amount": "1 packet", 
            "ingredient": "Sazon Goya with Coriander and Annatto"
        }, 
        {
            "amount": "1 teaspoon", 
            "ingredient": "Goya Minced Garlic"
        }, 
        {
            "amount": "1/2 teaspoon", 
            "ingredient": "Goya Dried Oregano"
        }, 
        {
            "amount": "1 (14 ounce) package", 
            "ingredient": "Goya Discos (yellow or white), thawed"
        }
    ], 
    "prep_steps": [
        "Heat oil in a large skillet over medium heat. Add ground beef and cook until browned, breaking up meat with a wooden spoon, about 10 minutes. Add onions and cook until soft, about 5 minutes more. Stir in tomato sauce, olives, Sofrito, Sazon, garlic, oregano and black pepper. Lower heat to medium-low and simmer until mixture thickens, about 15 minutes.", 
        "On a lightly floured work surface, using a rolling pin, roll out discos until 1/2-inch larger in diameter. Spoon about 1 tbsp. meat mixture into middle, fold in half to form a half moon; moisten edges with water and pinch to seal closed, or seal with a fork.", 
        "Fill a deep saucepan with oil to a depth of 2 1/2-inches. Heat oil over medium-high heat until hot but not smoking (350 degrees F on deep-fry thermometer). Cook Empanadas in batches until crisp and golden brown, flipping once, 4 - 6 minutes. Transfer to paper towels to drain."
    ], 
    "prep_time": "1\u00bd hrs", 
    "recipe_name": "Empanadas (Beef Turnovers)"
}