{
    "ingredients": [
        {
            "amount": "2 1/2 cups", 
            "ingredient": "pumpkin puree"
        }, 
        {
            "amount": "2 large", 
            "ingredient": "carrots, cooked and pureed"
        }, 
        {
            "amount": "2", 
            "ingredient": "onions, diced"
        }, 
        {
            "amount": "1 clove", 
            "ingredient": "garlic, minced"
        }, 
        {
            "amount": "2 teaspoons", 
            "ingredient": "ground coriander seed"
        }, 
        {
            "amount": "1/2 teaspoon", 
            "ingredient": "ground mace"
        }, 
        {
            "amount": "1/2 teaspoon", 
            "ingredient": "ground allspice"
        }, 
        {
            "amount": "1 pinch", 
            "ingredient": "ground cardamom"
        }, 
        {
            "amount": "1 cup", 
            "ingredient": "unsalted butter"
        }, 
        {
            "amount": "1/3 pound", 
            "ingredient": "grated Parmesan cheese"
        }, 
        {
            "amount": "2 tablespoons", 
            "ingredient": "real maple syrup"
        }, 
        {
            "amount": "1", 
            "ingredient": "egg, beaten"
        }, 
        {
            "amount": "2 1/2 pounds", 
            "ingredient": "fresh pasta sheets"
        }, 
        {
            "amount": "1 cup", 
            "ingredient": "hazelnuts"
        }, 
        {
            "amount": "3 cups", 
            "ingredient": "heavy whipping cream"
        }, 
        {
            "amount": "3 cloves", 
            "ingredient": "garlic, minced"
        }, 
        {
            "amount": "1 pinch", 
            "ingredient": "cayenne pepper"
        }, 
        {
            "amount": "1 pinch", 
            "ingredient": "white pepper"
        }, 
        {
            "amount": "2 cups", 
            "ingredient": "shredded sorrel, stems removed"
        }
    ], 
    "prep_steps": [
        "Saute the onions, garlic, and spices in butter or margarine until the onions are soft. Stir together with the pureed vegetables. Add cheese, maple syrup, egg, salt, and black pepper. Adjust seasoning. Set the filling aside.", 
        "Preheat the oven to 400 degrees F (205 degrees C). Toast the hazelnuts in a shallow pan on the middle rack for 10 to 12 minutes, or until brown and fragrant. When they are cool enough to handle, wrap the nuts tightly in a lint-free towel, and vigorously rub nuts against the towel. Continue rubbing until the nuts are almost blond.", 
        "Cook the cream, garlic, cayenne, and white pepper over high heat; stir often, and adjust heat to keep the cream from boiling over. When the cream is thick enough to coat the back of a spoon, add a pinch salt. Adjust seasoning. Remove sauce from heat until you're ready to use it.", 
        "Lay one sheet of Fresh Pasta out on a flat surface. Spray with water to prevent drying, and to make it more flexible. Place half tablespoons of filling along the bottom edge of the pasta about 1/2 inch apart. For larger ravioli, use 1 tablespoon of filling, and leave 1 inch between dollops. Fold the pasta sheet over the filling, and cut apart with a ravioli cutter. Set the finished ravioli aside, and cover with a damp cloth. Repeat until filling and/or pasta is completely used.", 
        "Cook the ravioli in salted boiling water until al dente. Drain.", 
        "Meanwhile, reheat the sauce. Add the shredded sorrel to the sauce; cook just until it wilts -- about 30 seconds. Add half the hazelnuts, turn the heat off, and add the cooked ravioli. Stir gently, and serve immediately. Garnish with remaining hazelnuts."
    ], 
    "recipe_name": "Pumpkin Ravioli with Hazelnut Cream Sauce"
}