{
    "ingredients": [
        {
            "amount": "1 (16 ounce) package", 
            "ingredient": "lasagna noodles"
        }, 
        {
            "amount": "1 1/2 tablespoons", 
            "ingredient": "olive oil"
        }, 
        {
            "amount": "1", 
            "ingredient": "onion, chopped"
        }, 
        {
            "amount": "1", 
            "ingredient": "carrot, finely chopped"
        }, 
        {
            "amount": "1 stalk", 
            "ingredient": "celery, finely chopped"
        }, 
        {
            "amount": "3/4 pound", 
            "ingredient": "mushrooms, chopped"
        }, 
        {
            "amount": "2 cloves", 
            "ingredient": "garlic, minced"
        }, 
        {
            "amount": "1/2 cup", 
            "ingredient": "dry white wine"
        }, 
        {
            "amount": "1 (28 ounce) can", 
            "ingredient": "diced tomatoes with juice"
        }, 
        {
            "amount": "2", 
            "ingredient": "sun-dried tomatoes, chopped"
        }, 
        {
            "amount": "1 teaspoon", 
            "ingredient": "dried thyme"
        }, 
        {
            "amount": "1/3 cup", 
            "ingredient": "all-purpose flour"
        }, 
        {
            "amount": "3 cups", 
            "ingredient": "heavy whipping cream"
        }, 
        {
            "amount": "1/4 teaspoon", 
            "ingredient": "ground nutmeg"
        }, 
        {
            "amount": "1 pinch", 
            "ingredient": "salt"
        }, 
        {
            "amount": "8 cups", 
            "ingredient": "spinach, rinsed"
        }, 
        {
            "amount": "1 cup", 
            "ingredient": "grated Parmesan cheese"
        }
    ], 
    "prep_steps": [
        "Cook lasagna in boiling salted water in a large pot until al dente. Drain.", 
        "Meanwhile, heat one half tablespoon of olive oil in a Dutch oven over medium heat. Add the chopped onion, celery, and carrots, stir and cook until onions have softened. Add mushrooms and garlic and continue to cook until the mushrooms have released their liquid, 2 or 3 minutes. Add wine and cook until most of the liquid has evaporated. Stir in chopped tomatoes(include liquid), sun-dried tomatoes, and thyme. Bring to a simmer, then reduce heat to low and simmer until thick. Season with salt and pepper.", 
        "To make the white sauce, heat remaining oil in a heavy pan over low heat. Add flour, whisk constantly until the flour begins to turn a light brown. Remove pan from heat and whisk in cream. Season with nutmeg and a pinch of salt. Remove from heat and set aside.", 
        "To assemble, spread 1/2 cup of the mushroom sauce in the bottom of a casserole dish, add one layer of noodles, then another 1/2 cup of mushroom sauce. Arrange a single layer of the fresh spinach leaves over the sauce and drizzle them with 1/3 cup of the white sauce. Sprinkle 2 tablespoons of the grated Parmesan cheese over the spinach and top with another layer of the noodles. Repeat 5 times.", 
        "In a preheated 375 degree F (190 degrees C) oven bake for 40 minutes. Let stand for 10 to 15 minutes. Serve warm."
    ], 
    "recipe_name": "Fresh Spinach and Sun-Dried Tomato Lasagna"
}