{
    "ingredients": [
        {
            "amount": "3 tablespoons", 
            "ingredient": "butter"
        }, 
        {
            "amount": "1/4 cup", 
            "ingredient": "chopped fresh mushrooms"
        }, 
        {
            "amount": "2 tablespoons", 
            "ingredient": "chopped onion"
        }, 
        {
            "amount": "2 tablespoons", 
            "ingredient": "chopped celery"
        }, 
        {
            "amount": "2 tablespoons", 
            "ingredient": "chopped carrot"
        }, 
        {
            "amount": "1 (14.5 ounce) can", 
            "ingredient": "chicken broth"
        }, 
        {
            "amount": "1/8 teaspoon", 
            "ingredient": "salt"
        }, 
        {
            "amount": "1/8 teaspoon", 
            "ingredient": "cayenne pepper"
        }, 
        {
            "amount": "1 1/2 cups", 
            "ingredient": "half-and-half"
        }, 
        {
            "amount": "1/2 cup", 
            "ingredient": "dry white wine"
        }, 
        {
            "amount": "1/2 pound", 
            "ingredient": "cooked lump lobster meat"
        }
    ], 
    "prep_steps": [
        "Melt the butter in a large saucepan over medium-low heat. Add the mushrooms, onion, celery, and carrot. Cook and stir until tender, about 10 minutes. Stir in the chicken broth, and season with salt and cayenne pepper. Bring to a boil, then simmer for 10 minutes.", 
        "Pour the vegetable and broth mixture into the container of a blender, and add 1/4 cup of the lobster meat. Cover, and process until smooth. Return to the saucepan, and stir in the half-and-half, white wine, and remaining lobster meat. Cook over low heat, stirring frequently until thickened, about 30 minutes."
    ], 
    "prep_time": "40 mins", 
    "recipe_name": "Perfect Lobster Bisque"
}