{
    "ingredients": [
        {
            "amount": "1 tablespoon", 
            "ingredient": "butter"
        }, 
        {
            "amount": "1 tablespoon", 
            "ingredient": "olive oil"
        }, 
        {
            "amount": "4", 
            "ingredient": "skinless, boneless chicken breast halves"
        }, 
        {
            "amount": "1/2 cup", 
            "ingredient": "heavy cream"
        }, 
        {
            "amount": "1 tablespoon", 
            "ingredient": "Dijon mustard"
        }, 
        {
            "amount": "2 teaspoons", 
            "ingredient": "chopped fresh tarragon"
        }
    ], 
    "prep_steps": [
        "Melt the butter and heat the oil in a skillet over medium-high heat. Season chicken with salt and pepper, and place in the skillet. Brown on both sides. Reduce heat to medium, cover, and continue cooking 15 minutes, or until chicken juices run clear. Set aside and keep warm.", 
        "Stir cream into the pan, scraping up brown bits. Mix in mustard and tarragon. Cook and stir 5 minutes, or until thickened. Return chicken to skillet to coat with sauce. Drizzle chicken with remaining sauce to serve."
    ], 
    "prep_time": "45 mins", 
    "recipe_name": "Dijon-Tarragon Cream Chicken"
}