{
    "ingredients": [
        {
            "amount": "10 medium", 
            "ingredient": "red potatoes, diced"
        }, 
        {
            "amount": "1 small", 
            "ingredient": "onion, chopped"
        }, 
        {
            "amount": "1/2 cup", 
            "ingredient": "diced roasted red peppers"
        }, 
        {
            "amount": "1 (4 ounce) can", 
            "ingredient": "sliced black olives, drained"
        }, 
        {
            "amount": "1 (10 ounce) can", 
            "ingredient": "quartered artichoke hearts, drained"
        }, 
        {
            "amount": "1/2 cup", 
            "ingredient": "balsamic vinegar"
        }, 
        {
            "amount": "3 teaspoons", 
            "ingredient": "olive oil"
        }, 
        {
            "amount": "1 teaspoon", 
            "ingredient": "dried oregano"
        }, 
        {
            "amount": "1 teaspoon", 
            "ingredient": "dried basil"
        }, 
        {
            "amount": "1/2 teaspoon", 
            "ingredient": "mustard powder"
        }, 
        {
            "amount": "2 tablespoons", 
            "ingredient": "chopped fresh parsley"
        }
    ], 
    "prep_steps": [
        "Place potatoes in a saucepan with enough water to cover. Bring to a boil, then cook for 5 to 10 minutes, until tender. Drain, and transfer to a large bowl.", 
        "Add the onion, red peppers, olives, and artichokes to the bowl with the potatoes. In a separate bowl, whisk together the balsamic vinegar, olive oil, oregano, basil, mustard powder and parsley. Pour over the vegetables, and stir to coat. Chill for at least 4 hours or overnight before serving."
    ], 
    "prep_time": "4 hrs", 
    "recipe_name": "Balsamic Vinegar Potato Salad"
}