{
    "ingredients": [
        {
            "amount": "1 cup", 
            "ingredient": "water"
        }, 
        {
            "amount": "2 tablespoons", 
            "ingredient": "extra virgin olive oil"
        }, 
        {
            "amount": "1 teaspoon", 
            "ingredient": "lemon juice"
        }, 
        {
            "amount": "2 tablespoons", 
            "ingredient": "white sugar"
        }, 
        {
            "amount": "2 tablespoons", 
            "ingredient": "instant powdered milk"
        }, 
        {
            "amount": "1 teaspoon", 
            "ingredient": "salt"
        }, 
        {
            "amount": "2 1/2 cups", 
            "ingredient": "bread flour"
        }, 
        {
            "amount": "1/2 cup", 
            "ingredient": "amaranth flour"
        }, 
        {
            "amount": "2 tablespoons", 
            "ingredient": "chopped sun-dried tomatoes"
        }, 
        {
            "amount": "1/4 cup", 
            "ingredient": "grated Asiago cheese"
        }, 
        {
            "amount": "1 teaspoon", 
            "ingredient": "dried basil"
        }, 
        {
            "amount": "1/2 teaspoon", 
            "ingredient": "freshly ground black pepper"
        }, 
        {
            "amount": "1 teaspoon", 
            "ingredient": "active dry yeast"
        }
    ], 
    "prep_steps": [
        "Place all ingredients into bread machine in order given.", 
        "Bake according to bread machine directions for regular bake."
    ], 
    "recipe_name": "Sun Dried Tomato and Asiago Cheese Bread"
}