{
    "ingredients": [
        {
            "amount": "6", 
            "ingredient": "skinless, boneless chicken breast halves"
        }, 
        {
            "amount": "1 (10.75 ounce) can", 
            "ingredient": "condensed cream of celery soup"
        }, 
        {
            "amount": "8 ounces", 
            "ingredient": "shredded Cheddar cheese"
        }, 
        {
            "amount": "1 cup", 
            "ingredient": "croutons"
        }
    ], 
    "prep_steps": [
        "Preheat oven to 350 degrees F (175 degrees C).", 
        "Place chicken breasts in a 9x13 inch baking dish. Spread soup over chicken, sprinkle cheese over soup and top with croutons.", 
        "Bake at 350 degrees F (175 degrees C) for 45 to 50 minutes or until chicken is cooked through and no longer pink inside."
    ], 
    "recipe_name": "Cheesy Chicken"
}