{
    "ingredients": [
        {
            "amount": "2 1/2 cups", 
            "ingredient": "sifted whole wheat flour"
        }, 
        {
            "amount": "1/2 cup", 
            "ingredient": "dry milk powder"
        }, 
        {
            "amount": "1 cube", 
            "ingredient": "beef bouillon, crumbled"
        }, 
        {
            "amount": "1/2 teaspoon", 
            "ingredient": "salt"
        }, 
        {
            "amount": "1 cup", 
            "ingredient": "cooked ground pork"
        }, 
        {
            "amount": "1 cup", 
            "ingredient": "grated carrot"
        }, 
        {
            "amount": "6 tablespoons", 
            "ingredient": "shortening"
        }, 
        {
            "amount": "1", 
            "ingredient": "egg"
        }, 
        {
            "amount": "1/2 cup", 
            "ingredient": "cold water"
        }
    ], 
    "prep_steps": [
        "Preheat the oven to 350 degrees F (175 degrees C). Lightly oil two cookie sheets.", 
        "In a medium bowl, stir together the whole wheat flour, milk powder, beef bouillon, and salt. Add the ground pork, carrot, shortening and egg; mix in to the flour mixture while gradually adding water to form a stiff ball of dough.", 
        "On a lightly floured surface, roll the dough out to 1/4 inch thickness. Cut into desired shapes using cookie cutters, and reroll scraps until no dough is left. Place cookies 2 inches apart onto the prepared cookie sheets.", 
        "Bake for 25 to 30 minutes in the preheated oven, or until the bottoms of the cookies are browned. Allow cookies to set for a few minutes on the cookie sheet before removing to wire racks to cool completely."
    ], 
    "prep_time": "55 mins", 
    "recipe_name": "Dog Biscuits II"
}