{
    "ingredients": [
        {
            "amount": "1 tablespoon", 
            "ingredient": "olive oil"
        }, 
        {
            "amount": "1 large", 
            "ingredient": "onion, sliced"
        }, 
        {
            "amount": "2 (14.5 ounce) cans", 
            "ingredient": "stewed tomatoes"
        }, 
        {
            "amount": "1/2 (6 ounce) can", 
            "ingredient": "tomato paste"
        }, 
        {
            "amount": "1 teaspoon", 
            "ingredient": "salt"
        }, 
        {
            "amount": "1/4 teaspoon", 
            "ingredient": "black pepper"
        }, 
        {
            "amount": "1/4 teaspoon", 
            "ingredient": "cayenne pepper"
        }, 
        {
            "amount": "1/2 teaspoon", 
            "ingredient": "red pepper flakes"
        }, 
        {
            "amount": "1 tablespoon", 
            "ingredient": "Worcestershire sauce"
        }, 
        {
            "amount": "1 teaspoon", 
            "ingredient": "chopped fresh rosemary"
        }, 
        {
            "amount": "2 cups", 
            "ingredient": "water"
        }, 
        {
            "amount": "1 (3 pound)", 
            "ingredient": "whole chicken, cut into 8 pieces"
        }, 
        {
            "amount": "1 cup", 
            "ingredient": "uncooked white rice"
        }, 
        {
            "amount": "1 cup", 
            "ingredient": "diced carrots"
        }, 
        {
            "amount": "1/2 pound", 
            "ingredient": "fresh green beans, trimmed and snapped into 1 to 2 inch pieces"
        }, 
        {
            "amount": "1/4 teaspoon", 
            "ingredient": "ground nutmeg"
        }
    ], 
    "prep_steps": [
        "Pour oil into large saucepan. Cook onion in oil over medium-low heat until translucent.", 
        "Stir in stewed tomatoes and tomato paste, and season with salt, black pepper, cayenne pepper, red pepper flakes, Worcestershire sauce and rosemary. Cover, and bring to a boil. Reduce heat, stir in water, and add chicken pieces. Simmer for 30 minutes.", 
        "Stir in rice, carrots, and green beans, and season with nutmeg. Bring to a boil, then reduce heat to low. Cover, and simmer until the chicken is fork-tender and the rice is cooked, 25 to 30 minutes."
    ], 
    "prep_time": "1\u00bd hrs", 
    "recipe_name": "Jollof Rice"
}