{
    "ingredients": [
        {
            "amount": "1 cup", 
            "ingredient": "soy sauce"
        }, 
        {
            "amount": "1/2 cup", 
            "ingredient": "brown sugar"
        }, 
        {
            "amount": "2 cloves", 
            "ingredient": "garlic, crushed"
        }, 
        {
            "amount": "1 tablespoon", 
            "ingredient": "ground ginger"
        }, 
        {
            "amount": "1 tablespoon", 
            "ingredient": "ground cumin"
        }, 
        {
            "amount": "1 tablespoon", 
            "ingredient": "roasted red chili paste"
        }, 
        {
            "amount": "6 (1-inch thick)", 
            "ingredient": "pork chops"
        }
    ], 
    "prep_steps": [
        "Place the soy sauce, brown sugar, garlic, ginger, cumin, and chili paste in a large, heavy plastic zipper bag. Smush the bag a few times with your fingers to mix all the ingredients thoroughly and dissolve the brown sugar; place the pork chops into the marinade, and seal the bag. Allow to marinate for 30 to 45 minutes.", 
        "Preheat an outdoor grill for medium heat, and lightly oil the grate.", 
        "Remove the pork chops from the marinade, and discard the marinade. Shake off excess marinade, and grill the pork chops until browned, the meat is no longer pink inside, and the chops show good grill marks, 5 to 7 minutes per side. An instant-read meat thermometer inserted into the thickest part of a chop should read at least 145 degrees F (63 degrees C)."
    ], 
    "prep_time": "55 mins", 
    "recipe_name": "Asian Marinated Pork Chops"
}