{
    "ingredients": [
        {
            "amount": "4", 
            "ingredient": "skinless, boneless chicken breast halves - pounded to 1/2 inch thickness"
        }, 
        {
            "amount": "2 teaspoons", 
            "ingredient": "seasoning salt"
        }, 
        {
            "amount": "6 slices", 
            "ingredient": "bacon, cut in half"
        }, 
        {
            "amount": "1/2 cup", 
            "ingredient": "prepared yellow mustard"
        }, 
        {
            "amount": "1/2 cup", 
            "ingredient": "honey"
        }, 
        {
            "amount": "1/4 cup", 
            "ingredient": "light corn syrup"
        }, 
        {
            "amount": "1/4 cup", 
            "ingredient": "mayonnaise"
        }, 
        {
            "amount": "1 tablespoon", 
            "ingredient": "dried onion flakes"
        }, 
        {
            "amount": "1 tablespoon", 
            "ingredient": "vegetable oil"
        }, 
        {
            "amount": "1 cup", 
            "ingredient": "sliced fresh mushrooms"
        }, 
        {
            "amount": "2 cups", 
            "ingredient": "shredded Colby-Monterey Jack cheese"
        }, 
        {
            "amount": "2 tablespoons", 
            "ingredient": "chopped fresh parsley"
        }
    ], 
    "prep_steps": [
        "Rub the chicken breasts with the seasoning salt, cover and refrigerate for 30 minutes.", 
        "Preheat oven to 350 degrees F (175 degrees C). Place bacon in a large, deep skillet. Cook over medium high heat until crisp. Set aside.", 
        "In a medium bowl, combine the mustard, honey, corn syrup, mayonnaise and dried onion flakes. Remove half of sauce, cover and refrigerate to serve later.", 
        "Heat oil in a large skillet over medium heat. Place the breasts in the skillet and saute for 3 to 5 minutes per side, or until browned. Remove from skillet and place the breasts into a 9x13 inch baking dish. Apply the honey mustard sauce to each breast, then layer each breast with mushrooms and bacon. Sprinkle top with shredded cheese.", 
        "Bake in preheated oven for 15 minutes, or until cheese is melted and chicken juices run clear. Garnish with parsley and serve with the reserved honey mustard sauce."
    ], 
    "prep_time": "1\u00bd hrs", 
    "recipe_name": "Aussie Chicken"
}