{
    "ingredients": [
        {
            "amount": "1 tablespoon", 
            "ingredient": "vegetable oil"
        }, 
        {
            "amount": "6", 
            "ingredient": "boneless pork chops"
        }, 
        {
            "amount": "1 (16 ounce) package", 
            "ingredient": "tater tots"
        }, 
        {
            "amount": "1 (15.5 ounce) can", 
            "ingredient": "French-style green beans, drained"
        }, 
        {
            "amount": "1 (10.75 ounce) can", 
            "ingredient": "condensed cream of celery soup"
        }, 
        {
            "amount": "3/4 cup", 
            "ingredient": "sour cream"
        }
    ], 
    "prep_steps": [
        "Preheat oven to 350 degrees F (175 degrees C). Lightly grease a 9x13 inch baking dish.", 
        "Heat the oil in a skillet over medium heat, and brown pork chops on both sides. Remove chops, reserving pan dripping.", 
        "Arrange tater tots in a single layer in the prepared baking dish. Layer green beans over the tater tots. Place browned chops over the beans. In a bowl, mix reserved pan drippings, cream of celery soup, sour cream, salt, and pepper. Pour evenly over chops.", 
        "Cover dish with foil, and bake casserole 30 minutes in the preheated oven, or until pork chops are done."
    ], 
    "prep_time": "1 hr", 
    "recipe_name": "Another Pork Chop Casserole"
}