{
    "ingredients": [
        {
            "amount": "2 tablespoons", 
            "ingredient": "butter"
        }, 
        {
            "amount": "4 pounds", 
            "ingredient": "chuck roast"
        }, 
        {
            "amount": "1 tablespoon", 
            "ingredient": "butter"
        }, 
        {
            "amount": "1", 
            "ingredient": "onion, chopped"
        }, 
        {
            "amount": "6 cups", 
            "ingredient": "brewed coffee"
        }, 
        {
            "amount": "2 cups", 
            "ingredient": "canned mushrooms"
        }, 
        {
            "amount": "3 tablespoons", 
            "ingredient": "cornstarch"
        }
    ], 
    "prep_steps": [
        "Melt 2 tablespoons of butter in a large saucepan over medium high heat. Add the roast and sear on all sides until well browned; set aside.", 
        "In the same saucepan, melt the remaining butter, add the salt and onions and saute for 5 minutes. Return the meat to the saucepan and pour in the coffee and the mushrooms.", 
        "Bring to a boil, reduce heat to low and simmer for 5 hours, turning meat over halfway through cooking time.", 
        "To make gravy: Remove a cup of the coffee mixture from the saucepan, combine with the cornstarch, stirring until smooth, and return to the simmering pan. Mix well, remove from heat and serve."
    ], 
    "prep_time": "5 hrs", 
    "recipe_name": "Coffee Roast"
}