{
    "ingredients": [
        {
            "amount": "1 pound", 
            "ingredient": "fresh green beans, trimmed"
        }, 
        {
            "amount": "2 tablespoons", 
            "ingredient": "chopped shallots"
        }, 
        {
            "amount": "2 tablespoons", 
            "ingredient": "chopped garlic"
        }, 
        {
            "amount": "1/4 cup", 
            "ingredient": "balsamic vinegar"
        }, 
        {
            "amount": "1/4 cup", 
            "ingredient": "olive oil"
        }
    ], 
    "prep_steps": [
        "Place green beans in a large saucepan. Fill with enough water to cover green beans, and bring to a boil over high heat. Reduce heat to medium low, and simmer 10 minutes. Drain, and let cool.", 
        "In a bowl, stir together shallots, garlic, balsamic vinegar, and oil. Pour over green beans. Cover, and refrigerate at least 1 hour. Serve cold."
    ], 
    "prep_time": "25 mins", 
    "recipe_name": "Balsamic Green Bean Salad"
}