{
    "ingredients": [
        {
            "amount": "1 (14.5 ounce) can", 
            "ingredient": "French-style green beans, drained"
        }, 
        {
            "amount": "1 (11 ounce) can", 
            "ingredient": "white corn, drained"
        }, 
        {
            "amount": "1 small", 
            "ingredient": "onion, chopped"
        }, 
        {
            "amount": "1/2", 
            "ingredient": "green bell pepper, chopped"
        }, 
        {
            "amount": "1 (8 ounce) container", 
            "ingredient": "sour cream"
        }, 
        {
            "amount": "1 (10.75 ounce) can", 
            "ingredient": "condensed cream of celery soup"
        }, 
        {
            "amount": "1/2 cup", 
            "ingredient": "shredded sharp Cheddar cheese"
        }, 
        {
            "amount": "1/2 (16 ounce) package", 
            "ingredient": "cheese flavored crackers, crushed"
        }, 
        {
            "amount": "1/4 cup", 
            "ingredient": "butter, melted"
        }
    ], 
    "prep_steps": [
        "Preheat oven to 350 degrees F (175 degrees C).", 
        "In a large bowl, combine green beans, corn, onion, and green bell pepper. Stir in sour cream, condensed soup, and shredded cheese. Season with salt and pepper. Mix well, and spread into a 2 quart casserole dish. In a separate bowl, mix together the crushed crackers and melted butter. Sprinkle over vegetable mixture.", 
        "Bake in preheated oven, for 25 minutes, or until the top is golden brown."
    ], 
    "prep_time": "35 mins", 
    "recipe_name": "Veggie Casserole"
}