{
    "ingredients": [
        {
            "amount": "10", 
            "ingredient": "whole wheat flour tortillas"
        }, 
        {
            "amount": "10 slices", 
            "ingredient": "smoked turkey, cut into thin strips"
        }, 
        {
            "amount": "1", 
            "ingredient": "avocado - peeled, pitted and sliced"
        }, 
        {
            "amount": "1/2 cup", 
            "ingredient": "sour cream, for topping"
        }, 
        {
            "amount": "1/2 cup", 
            "ingredient": "Cheddar cheese"
        }
    ], 
    "prep_steps": [
        "Heat flour tortillas in a large skillet over medium heat until slightly browned. Divide turkey strips, avocado, sour cream, and cheese among the warmed tortillas. Fold in half and serve."
    ], 
    "prep_time": "20 mins", 
    "recipe_name": "Smoked Turkey Tortilla Wraps"
}