{
    "ingredients": [
        {
            "amount": "1 quart", 
            "ingredient": "water"
        }, 
        {
            "amount": "2 cups", 
            "ingredient": "uncooked long-grain white rice"
        }, 
        {
            "amount": "2 tablespoons", 
            "ingredient": "chicken broth"
        }, 
        {
            "amount": "1 tablespoon", 
            "ingredient": "minced garlic"
        }, 
        {
            "amount": "1", 
            "ingredient": "green bell pepper, chopped"
        }, 
        {
            "amount": "1 small", 
            "ingredient": "yellow onion, chopped"
        }, 
        {
            "amount": "1 (15 ounce) can", 
            "ingredient": "cream-style corn"
        }, 
        {
            "amount": "1 (11 ounce) can", 
            "ingredient": "Mexican-style corn, drained"
        }, 
        {
            "amount": "1 (11 ounce) can", 
            "ingredient": "whole kernel corn, drained"
        }, 
        {
            "amount": "1 (10 ounce) can", 
            "ingredient": "diced tomatoes with green chile peppers, with liquid"
        }, 
        {
            "amount": "1 (4 ounce) can", 
            "ingredient": "chopped green chile peppers, drained"
        }, 
        {
            "amount": "1 (8 ounce) package", 
            "ingredient": "Mexican-style processed cheese food, cubed"
        }, 
        {
            "amount": "1/2 teaspoon", 
            "ingredient": "salt"
        }, 
        {
            "amount": "1/4 teaspoon", 
            "ingredient": "black pepper"
        }, 
        {
            "amount": "1/2 teaspoon", 
            "ingredient": "chili powder"
        }, 
        {
            "amount": "3/4 cup", 
            "ingredient": "shredded reduced-fat Cheddar cheese"
        }
    ], 
    "prep_steps": [
        "Preheat oven to 350 degrees F (175 degrees C). Grease a 3 1/2 quart casserole dish.", 
        "In a saucepan, bring water to a boil. Stir in rice, reduce heat, and cover. Simmer for 20 minutes.", 
        "In a wok or large skillet, heat the broth and saute the garlic, bell pepper and onion until tender, about 5 minutes. Stir in cooked rice, cream-style corn, Mexican-style corn, whole kernel corn, diced tomatoes with chiles, green chiles, Mexican-style processed cheese, salt, pepper and chili powder. Spoon into prepared casserole dish.", 
        "Bake in preheated oven for 30 minutes, or until bubbly. Top with shredded Cheddar, cover and bake 5 minutes more. Remove from oven, uncover and let stand 10 minutes."
    ], 
    "prep_time": "1\u00bc hrs", 
    "recipe_name": "Cheesy Mexi-Rice Casserole"
}