{
    "ingredients": [
        {
            "amount": "2 cups", 
            "ingredient": "white sugar"
        }, 
        {
            "amount": "1 cup", 
            "ingredient": "butter"
        }, 
        {
            "amount": "5", 
            "ingredient": "eggs"
        }, 
        {
            "amount": "2 cups", 
            "ingredient": "all-purpose flour"
        }, 
        {
            "amount": "1 1/2 teaspoons", 
            "ingredient": "baking powder"
        }, 
        {
            "amount": "1/2 cup", 
            "ingredient": "milk"
        }, 
        {
            "amount": "3 1/2 ounces", 
            "ingredient": "flaked coconut"
        }, 
        {
            "amount": "1 teaspoon", 
            "ingredient": "coconut extract"
        }, 
        {
            "amount": "1 cup", 
            "ingredient": "white sugar"
        }, 
        {
            "amount": "1/4 cup", 
            "ingredient": "water"
        }, 
        {
            "amount": "1 teaspoon", 
            "ingredient": "coconut extract"
        }, 
        {
            "amount": "1/2 cup", 
            "ingredient": "chopped walnuts"
        }
    ], 
    "prep_steps": [
        "Preheat oven to 350 degrees F (175 degrees C). Grease and flour a 10 inch tube pan.", 
        "In a large bowl, cream together 2 cups sugar and the butter. Fold in the eggs one at a time, fully incorporating each one before adding another.", 
        "In separate bowl, mix the flour, baking powder, milk, flaked coconut, and 1 teaspoon coconut extract. Beat into the creamed mixture. Pour the batter into the prepared pan.", 
        "Bake 1 hour in the preheated oven, or until a knife inserted in the center comes out clean. Cool on a wire rack for just a few minutes, then place on cake platter.", 
        "To make the glaze, mix together in a small saucepan 1 cup sugar, water, 1 teaspoon coconut extract, and walnuts. Boil for 1 minute, and pour over still warm cake."
    ], 
    "prep_time": "1\u00bd hrs", 
    "recipe_name": "Coconut Pound Cake"
}