{
    "ingredients": [
        {
            "amount": "1 pound", 
            "ingredient": "cooked, chopped turkey meat"
        }, 
        {
            "amount": "3 cups", 
            "ingredient": "water"
        }, 
        {
            "amount": "3 tablespoons", 
            "ingredient": "all-purpose flour"
        }, 
        {
            "amount": "1 (12 ounce) package", 
            "ingredient": "refrigerated biscuit dough"
        }
    ], 
    "prep_steps": [
        "Place the turkey, water, salt and pepper in a medium saucepan and bring to a boil. Reduce heat and simmer 30 to 40 minutes, or until a broth has formed.", 
        "Spread flour on a medium cutting board or other flat surface. Roll out biscuit dough and cut it into 1x2 inch pieces. Drop the pieces into the broth and cook over low heat approximately 15 minutes."
    ], 
    "prep_time": "1\u00bc hrs", 
    "recipe_name": "Turkey Dumplings"
}