{
    "ingredients": [
        {
            "amount": "3 tablespoons", 
            "ingredient": "butter"
        }, 
        {
            "amount": "2 tablespoons", 
            "ingredient": "chopped green onion"
        }, 
        {
            "amount": "3 tablespoons", 
            "ingredient": "chopped red bell pepper"
        }, 
        {
            "amount": "1 cup", 
            "ingredient": "crabmeat, drained and flaked"
        }, 
        {
            "amount": "2 tablespoons", 
            "ingredient": "white wine"
        }, 
        {
            "amount": "3", 
            "ingredient": "eggs, beaten"
        }, 
        {
            "amount": "1 cup", 
            "ingredient": "half-and-half cream"
        }, 
        {
            "amount": "1 (9 inch)", 
            "ingredient": "pie shell, partially baked"
        }, 
        {
            "amount": "1/2 cup", 
            "ingredient": "shredded Swiss cheese"
        }
    ], 
    "prep_steps": [
        "Preheat oven to 375 degrees F (190 degrees C).", 
        "Heat butter in a large skillet over medium heat. Saute green onion and red bell pepper until soft. Stir in crabmeat, and season with salt and pepper. Add wine, and cook for 1 minute. Remove from heat, and allow to cool.", 
        "In a large bowl, beat eggs until light. Whisk in half-and-half, and crab mixture. Pour into pie crust, and sprinkle with Swiss cheese.", 
        "Bake in preheated oven for 25 to 30 minutes, or until puffed and golden brown."
    ], 
    "prep_time": "50 mins", 
    "recipe_name": "Crabmeat Quiche"
}