{
    "ingredients": [
        {
            "amount": "1 fluid ounce", 
            "ingredient": "vodka"
        }, 
        {
            "amount": "1 fluid ounce", 
            "ingredient": "gold tequila"
        }, 
        {
            "amount": "1 fluid ounce", 
            "ingredient": "rum"
        }, 
        {
            "amount": "1 fluid ounce", 
            "ingredient": "gin"
        }, 
        {
            "amount": "1 fluid ounce", 
            "ingredient": "Cointreau or triple sec"
        }, 
        {
            "amount": "5 fluid ounces", 
            "ingredient": "sweet and sour mix"
        }, 
        {
            "amount": "2 fluid ounces", 
            "ingredient": "cola"
        }, 
        {
            "amount": "1", 
            "ingredient": "lime wedge"
        }
    ], 
    "prep_steps": [
        "Fill a cocktail shaker with ice; pour in vodka, tequila, rum, gin, Cointreau, and sweet and sour mix. Cover and shake until the outside of the shaker is frosty. Place a few cubes of ice into a highball glass, and strain in the iced tea. Top with the cola, and garnish with a wedge of lime."
    ], 
    "prep_time": "10 mins", 
    "recipe_name": "Mrs. Baxton's Long Island Iced Tea"
}