{
    "ingredients": [
        {
            "amount": "1 1/2 cups", 
            "ingredient": "all-purpose flour"
        }, 
        {
            "amount": "3 1/2 teaspoons", 
            "ingredient": "baking powder"
        }, 
        {
            "amount": "1 teaspoon", 
            "ingredient": "salt"
        }, 
        {
            "amount": "1 tablespoon", 
            "ingredient": "white sugar"
        }, 
        {
            "amount": "3 tablespoons", 
            "ingredient": "butter, melted"
        }, 
        {
            "amount": "1", 
            "ingredient": "egg"
        }, 
        {
            "amount": "1 1/4 cups", 
            "ingredient": "milk"
        }
    ], 
    "prep_steps": [
        "Sift together flour, baking powder, salt, and sugar in a large bowl.", 
        "Whisk in melted butter, egg, and milk until combined. Let batter rest for 5 minutes.", 
        "Preheat a large skillet over medium-high heat. Spray with cooking spray. Pour batter into the hot skillet, about 1/4 cup of batter for each pancake. Cook for 2 to 3 minutes, until bubbles appear on the sides and center of each pancake. Flip and cook until golden, about 1 to 2 minutes."
    ], 
    "prep_time": "25 mins", 
    "recipe_name": "Old-Fashioned Pancakes"
}