{
    "ingredients": [
        {
            "amount": "1/4 cup", 
            "ingredient": "olive oil"
        }, 
        {
            "amount": "5 cloves", 
            "ingredient": "garlic, chopped"
        }, 
        {
            "amount": "1/4", 
            "ingredient": "onion, chopped"
        }, 
        {
            "amount": "1 teaspoon", 
            "ingredient": "crushed red pepper"
        }, 
        {
            "amount": "6", 
            "ingredient": "sun-dried tomatoes, softened and chopped"
        }, 
        {
            "amount": "1 tablespoon", 
            "ingredient": "capers"
        }, 
        {
            "amount": "1 pinch", 
            "ingredient": "dried oregano"
        }, 
        {
            "amount": "2", 
            "ingredient": "ripe tomatoes, diced"
        }, 
        {
            "amount": "12", 
            "ingredient": "kalamata olives, pitted and quartered"
        }
    ], 
    "prep_steps": [
        "In a small saucepan, saute garlic, onions and red pepper. Stir in sun dried tomatoes, capers and oregano. Add fresh ripe tomatoes and kalamata olives. Cook covered for about 5 minutes."
    ], 
    "prep_time": "20 mins", 
    "recipe_name": "Puttanesca or Kalamata Kwik Sauce"
}