{
    "ingredients": [
        {
            "amount": "6 ounces", 
            "ingredient": "spaghetti"
        }, 
        {
            "amount": "2 1/2 quarts", 
            "ingredient": "boiling water"
        }, 
        {
            "amount": "1 tablespoon", 
            "ingredient": "vegetable oil"
        }, 
        {
            "amount": "2 teaspoons", 
            "ingredient": "salt"
        }, 
        {
            "amount": "2", 
            "ingredient": "eggs"
        }, 
        {
            "amount": "1/3 cup", 
            "ingredient": "grated Parmesan cheese"
        }, 
        {
            "amount": "2 tablespoons", 
            "ingredient": "butter, softened"
        }, 
        {
            "amount": "1 cup", 
            "ingredient": "cottage cheese"
        }, 
        {
            "amount": "1 tablespoon", 
            "ingredient": "vegetable oil"
        }, 
        {
            "amount": "1 pound", 
            "ingredient": "lean ground beef"
        }, 
        {
            "amount": "1", 
            "ingredient": "onion, chopped"
        }, 
        {
            "amount": "1/4 cup", 
            "ingredient": "chopped green bell pepper"
        }, 
        {
            "amount": "1 cup", 
            "ingredient": "chopped tomatoes"
        }, 
        {
            "amount": "6 ounces", 
            "ingredient": "tomato paste"
        }, 
        {
            "amount": "1 teaspoon", 
            "ingredient": "white sugar"
        }, 
        {
            "amount": "1 teaspoon", 
            "ingredient": "dried oregano"
        }, 
        {
            "amount": "1/2 teaspoon", 
            "ingredient": "salt"
        }, 
        {
            "amount": "1/4 teaspoon", 
            "ingredient": "garlic powder"
        }, 
        {
            "amount": "2 ounces", 
            "ingredient": "shredded mozzarella cheese"
        }
    ], 
    "prep_steps": [
        "Cook spaghetti in water with 2 teaspoons salt and 1 tablespoon oil until tender but still firm. Drain. Add eggs, Parmesan cheese, and butter. Mix and shape into a crust in a greased 10-inch pie plate or springform pan.", 
        "Spread cottage cheese over crust. Preheat oven to 350 degrees F (175 degrees C).", 
        "Heat 1 tablespoon vegetable oil in a large skillet over medium-high heat. Cook and stir the beef, onion, and green pepper until beef is thoroughly browned. Mix in tomatoes, tomato paste, sugar, oregano, 1/2 teaspoon salt, and garlic powder. Spread mixture over cottage cheese.", 
        "Bake uncovered in preheated oven for 30 minutes.", 
        "Sprinkle with mozzarella cheese and bake 5 to 10 minutes more, until cheese is bubbly and beginning to brown."
    ], 
    "prep_time": "1 hr", 
    "recipe_name": "Spaghetti Pie I"
}