{
    "ingredients": [
        {
            "amount": "1/2 cup", 
            "ingredient": "white sugar"
        }, 
        {
            "amount": "1/4 cup", 
            "ingredient": "margarine"
        }, 
        {
            "amount": "1", 
            "ingredient": "egg"
        }, 
        {
            "amount": "1 cup", 
            "ingredient": "sour cream"
        }, 
        {
            "amount": "1 teaspoon", 
            "ingredient": "rum flavored extract"
        }, 
        {
            "amount": "1 1/2 cups", 
            "ingredient": "all-purpose flour"
        }, 
        {
            "amount": "1 teaspoon", 
            "ingredient": "baking powder"
        }, 
        {
            "amount": "1/2 teaspoon", 
            "ingredient": "baking soda"
        }, 
        {
            "amount": "1/2 teaspoon", 
            "ingredient": "salt"
        }, 
        {
            "amount": "1 (15 ounce) can", 
            "ingredient": "crushed pineapple, drained"
        }, 
        {
            "amount": "1/2 cup", 
            "ingredient": "flaked coconut"
        }
    ], 
    "prep_steps": [
        "Preheat oven to 375 degrees F (190 degrees C). Lightly grease a muffin pan, or use paper liners.", 
        "In a large bowl, combine sugar, margarine, egg, sour cream and rum extract. Beat together until smooth. In a medium bowl, mix together flour, baking powder, baking soda and salt. Blend into egg mixture. Stir in pineapple and coconut. Divide batter into 12 muffin cups.", 
        "Bake in preheated oven for 20 to 25 minutes, or until the tops spring back when lightly tapped."
    ], 
    "prep_time": "30 mins", 
    "recipe_name": "Pina Colada Muffins"
}