{
    "ingredients": [
        {
            "amount": "4 cups", 
            "ingredient": "fresh serviceberries"
        }, 
        {
            "amount": "1/4 cup", 
            "ingredient": "water"
        }, 
        {
            "amount": "2 tablespoons", 
            "ingredient": "lemon juice"
        }, 
        {
            "amount": "3/4 cup", 
            "ingredient": "white sugar"
        }, 
        {
            "amount": "3 tablespoons", 
            "ingredient": "all-purpose flour"
        }, 
        {
            "amount": "1 recipe", 
            "ingredient": "pastry for a 9 inch double crust pie"
        }, 
        {
            "amount": "1 tablespoon", 
            "ingredient": "butter"
        }
    ], 
    "prep_steps": [
        "Preheat oven to 425 degrees F (220 degrees C).", 
        "In a large saucepan, simmer berries in 1/4 cup water for 10 minutes. Stir in lemon juice with berries. Combine sugar and flour together in a medium bowl, then stir into berry mixture. Pour mixture into a pastry lined 9 inch pie pan. Dot with butter. Place second crust on top of pie; seal and flute edges.", 
        "Bake in preheated oven for 15 minutes. Then reduce oven temperature to 350 degrees F (175 degrees C) and bake for an additional 35 to 45 minutes, or until golden brown."
    ], 
    "prep_time": "1\u00bc hrs", 
    "recipe_name": "Saskatoon Pie"
}