{
    "ingredients": [
        {
            "amount": "3 cups", 
            "ingredient": "chopped cooked chicken breast"
        }, 
        {
            "amount": "2", 
            "ingredient": "eggs"
        }, 
        {
            "amount": "4 3/4 cups", 
            "ingredient": "chicken broth, divided"
        }, 
        {
            "amount": "1 cup", 
            "ingredient": "all-purpose flour"
        }, 
        {
            "amount": "1/4 cup", 
            "ingredient": "chopped fresh parsley"
        }, 
        {
            "amount": "2 teaspoons", 
            "ingredient": "salt"
        }, 
        {
            "amount": "1/8 teaspoon", 
            "ingredient": "black pepper"
        }, 
        {
            "amount": "1/2 teaspoon", 
            "ingredient": "dried tarragon"
        }, 
        {
            "amount": "1/4 cup", 
            "ingredient": "butter"
        }, 
        {
            "amount": "2 cups", 
            "ingredient": "chopped onion"
        }, 
        {
            "amount": "1 1/2 cups", 
            "ingredient": "thinly sliced celery"
        }, 
        {
            "amount": "2 cloves", 
            "ingredient": "garlic, minced"
        }, 
        {
            "amount": "1/2 cup", 
            "ingredient": "all-purpose flour"
        }, 
        {
            "amount": "2 quarts", 
            "ingredient": "chicken broth"
        }, 
        {
            "amount": "1 1/2 teaspoons", 
            "ingredient": "salt"
        }, 
        {
            "amount": "1 1/2 cups", 
            "ingredient": "chopped carrots"
        }, 
        {
            "amount": "3 cups", 
            "ingredient": "chopped cooked chicken breast"
        }
    ], 
    "prep_steps": [
        "In a blender or food processor, combine 3 cups cooked chicken, eggs, 3/4 cup chicken broth, 1 cup flour, parsley, 2 teaspoons salt, pepper and tarragon. Process until smooth.", 
        "In a large pot, bring 4 cups chicken broth to a boil. Drop dumpling mixture by rounded spoonfuls into boiling broth. Simmer, uncovered, 5 to 8 minutes, until well formed and slightly browned. Remove with a slotted spoon and drain on paper towels. Reserve dumpling cooking liquid.", 
        "In a large pot melt butter over medium heat. Cook onion, celery and garlic in butter until onion is translucent. Stir in 1/2 cup flour until fully incorporated. Pour in 2 quarts chicken broth, stirring constantly. Bring to a boil. Introduce 1 1/2 teaspoons salt and carrots. Cover, reduce heat, and simmer 15 minutes.", 
        "Stir in dumplings, reserved liquid and 3 cups cooked chicken. Simmer 15 minutes more before serving."
    ], 
    "prep_time": "1\u00be hrs", 
    "recipe_name": "Chicken Dumpling Soup"
}