{
    "ingredients": [
        {
            "amount": "2 pounds", 
            "ingredient": "beef stew meat, diced into 1 inch pieces"
        }, 
        {
            "amount": "4 tablespoons", 
            "ingredient": "vegetable oil"
        }, 
        {
            "amount": "1 cup", 
            "ingredient": "chopped onion"
        }, 
        {
            "amount": "1 cup", 
            "ingredient": "sliced carrots"
        }, 
        {
            "amount": "1/2 cup", 
            "ingredient": "fresh sliced mushrooms"
        }, 
        {
            "amount": "1/2 teaspoon", 
            "ingredient": "minced garlic"
        }, 
        {
            "amount": "1/4 teaspoon", 
            "ingredient": "dried thyme"
        }, 
        {
            "amount": "1 (14.5 ounce) can", 
            "ingredient": "chicken broth"
        }, 
        {
            "amount": "3 cups", 
            "ingredient": "water"
        }, 
        {
            "amount": "1 (16 ounce) package", 
            "ingredient": "frozen mixed vegetables"
        }, 
        {
            "amount": "4 small", 
            "ingredient": "red potatoes, cut into chunks"
        }, 
        {
            "amount": "1/2 cup", 
            "ingredient": "barley"
        }
    ], 
    "prep_steps": [
        "Season beef stew chunks with salt and pepper to taste. Place seasoned beef in a large soup pot. Add 2 tablespoons of oil and saute for 5 minutes on high heat. Remove meat. Add 2 more tablespoons of oil to pot and add onions, carrots and mushrooms. Saute for 5 minutes, stirring often. Add garlic and thyme to pot and saute for 3 more minutes.", 
        "Add the chicken broth and 3 cups of water to pot. Add the frozen mixed vegetables, potatoes and barley. Season with salt and pepper to taste. Stir all together and bring to a boil. Cover pot, reduce heat to low and simmer for 1 to 1 1/2 hours."
    ], 
    "recipe_name": "Melanie's Beef Barley Soup"
}