{
    "ingredients": [
        {
            "amount": "2 cups", 
            "ingredient": "all-purpose flour"
        }, 
        {
            "amount": "1/4 teaspoon", 
            "ingredient": "salt"
        }, 
        {
            "amount": "1/4 teaspoon", 
            "ingredient": "baking powder"
        }, 
        {
            "amount": "4", 
            "ingredient": "egg yolks"
        }
    ], 
    "prep_steps": [
        "Sift together the flour, salt and baking powder. Add egg yolks and mix until dry ingredients are moistened.", 
        "Press into a ball and cut in quarters. Roll out on floured surface 1/8 to 1/4 inch thick; cut to desired width and length. Lay on linen dish towel or wooden dowel to dry.", 
        "Add to broth such as chicken or turkey and cook until done."
    ], 
    "recipe_name": "Homemade Egg Noodles"
}