{
    "ingredients": [
        {
            "amount": "3 (11 ounce) cans", 
            "ingredient": "whole kernel corn"
        }, 
        {
            "amount": "2 large", 
            "ingredient": "tomatoes, diced"
        }, 
        {
            "amount": "1 large", 
            "ingredient": "sweet onions, cut into thin strips"
        }, 
        {
            "amount": "4", 
            "ingredient": "green onions, chopped"
        }, 
        {
            "amount": "1 bunch", 
            "ingredient": "cilantro leaves, minced into tiny strips"
        }, 
        {
            "amount": "2", 
            "ingredient": "limes, juiced"
        }, 
        {
            "amount": "1/3 cup", 
            "ingredient": "rice vinegar"
        }
    ], 
    "prep_steps": [
        "In a large bowl, combine the corn, tomatoes, sweet onion, green onion, and cilantro. Squeeze lime juice over mixture, and mix in. Stir in rice vinegar to taste; the amount you use will depend on the sweetness of the corn, and the acidity of the lime. Season with kosher salt.", 
        "Cover, and chill for 45 minutes to an hour. Stir before serving."
    ], 
    "prep_time": "1\u00bd hrs", 
    "recipe_name": "Corn, Sweet Onion, and Tomato Salad"
}