{
    "ingredients": [
        {
            "amount": "2", 
            "ingredient": "eggs"
        }, 
        {
            "amount": "1 cup", 
            "ingredient": "milk"
        }, 
        {
            "amount": "1 cup", 
            "ingredient": "all-purpose flour"
        }, 
        {
            "amount": "1 teaspoon", 
            "ingredient": "salt"
        }, 
        {
            "amount": "1 cup", 
            "ingredient": "beef drippings"
        }
    ], 
    "prep_steps": [
        "Preheat the oven to 450 degrees F (220 degrees C). Place about a tablespoon of beef drippings into each cup of a 6 cup muffin tin.", 
        "In a medium bowl, whisk eggs until well blended. Stir in the milk, flour and salt. Fill the muffin cups about half way.", 
        "Bake for 15 minutes in the preheated oven, then reduce the oven temperature to 350 degrees F (175 degrees C) and bake for an additional 15 minutes."
    ], 
    "prep_time": "40 mins", 
    "recipe_name": "Grandma's Yorkshire Pudding"
}