{
    "ingredients": [
        {
            "amount": "1 1/4 cups", 
            "ingredient": "sourdough starter"
        }, 
        {
            "amount": "1/3 cup", 
            "ingredient": "water"
        }, 
        {
            "amount": "3 cups", 
            "ingredient": "all-purpose flour"
        }, 
        {
            "amount": "1 tablespoon", 
            "ingredient": "white sugar"
        }, 
        {
            "amount": "1 tablespoon", 
            "ingredient": "vegetable oil"
        }, 
        {
            "amount": "1 teaspoon", 
            "ingredient": "salt"
        }, 
        {
            "amount": "2 teaspoons", 
            "ingredient": "bread machine yeast"
        }
    ], 
    "prep_steps": [
        "Allow starter to come to room temperature.", 
        "Place all ingredients in the bread machine in the order suggested by the manufacturer.", 
        "Select Basic or White Bread cycle, and Medium crust setting. Start."
    ], 
    "recipe_name": "Basic Sourdough Bread"
}