{
    "ingredients": [
        {
            "amount": "4 cups", 
            "ingredient": "warm water (110 degrees F/45 degrees C)"
        }, 
        {
            "amount": "1/4 cup", 
            "ingredient": "white sugar"
        }, 
        {
            "amount": "3 (.25 ounce) packages", 
            "ingredient": "active dry yeast"
        }, 
        {
            "amount": "2 teaspoons", 
            "ingredient": "salt"
        }, 
        {
            "amount": "11 cups", 
            "ingredient": "all-purpose flour"
        }, 
        {
            "amount": "1 teaspoon", 
            "ingredient": "garlic powder"
        }, 
        {
            "amount": "1 teaspoon", 
            "ingredient": "dried oregano"
        }, 
        {
            "amount": "6 tablespoons", 
            "ingredient": "margarine"
        }, 
        {
            "amount": "1 tablespoon", 
            "ingredient": "cornmeal"
        }, 
        {
            "amount": "1 tablespoon", 
            "ingredient": "olive oil"
        }, 
        {
            "amount": "1/2 cup", 
            "ingredient": "grated Parmigiano Reggiano cheese"
        }
    ], 
    "prep_steps": [
        "Dissolve yeast and sugar in 1 1/2 cups warm water. Let stand 5 to 6 minutes, until mixture is foamy.", 
        "In a large bowl, mix together half the flour, remaining water, garlic powder, salt, oregano, and margarine. Add yeast mixture, and stir to combine. Work in remaining flour 1/2 cup at a time until a soft dough forms.", 
        "Transfer dough to a lightly floured surface, and knead for 10 minutes. Put dough in large plastic bag, and place in refrigerator. Let rise until tripled in bulk.", 
        "For a round pizza, break off about 2 cups of the dough. Grease a 15 inch round pan, and sprinkle lightly with corn meal. Roll out the dough to fit the pan, stretching it to fit. Brush crust with olive oil, and sprinkle with cheese. Add desired toppings.", 
        "Bake at 450 degrees F (230 degrees C) for 18 to 20 minutes."
    ], 
    "recipe_name": "Pizza Crust II"
}