{
    "ingredients": [
        {
            "amount": "2 pounds", 
            "ingredient": "boneless skinless chicken breasts, cut into 1/2-inch chunks"
        }, 
        {
            "amount": "1 teaspoon", 
            "ingredient": "salt and pepper, or to taste"
        }, 
        {
            "amount": "1 1/2 tablespoons", 
            "ingredient": "vegetable oil"
        }, 
        {
            "amount": "2 tablespoons", 
            "ingredient": "curry powder"
        }, 
        {
            "amount": "1/2", 
            "ingredient": "onion, thinly sliced"
        }, 
        {
            "amount": "2 cloves", 
            "ingredient": "garlic, crushed"
        }, 
        {
            "amount": "1 (14 ounce) can", 
            "ingredient": "coconut milk"
        }, 
        {
            "amount": "1 (14.5 ounce) can", 
            "ingredient": "stewed, diced tomatoes"
        }, 
        {
            "amount": "1 (8 ounce) can", 
            "ingredient": "tomato sauce"
        }, 
        {
            "amount": "3 tablespoons", 
            "ingredient": "sugar"
        }
    ], 
    "prep_steps": [
        "Season chicken pieces with salt and pepper.", 
        "Heat oil and curry powder in a large skillet over medium-high heat for two minutes. Stir in onions and garlic, and cook 1 minute more. Add chicken, tossing lightly to coat with curry oil. Reduce heat to medium, and cook for 7 to 10 minutes, or until chicken is no longer pink in center and juices run clear.", 
        "Pour coconut milk, tomatoes, tomato sauce, and sugar into the pan, and stir to combine. Cover and simmer, stirring occasionally, approximately 30 to 40 minutes."
    ], 
    "prep_time": "1\u00bc hrs", 
    "recipe_name": "Curried Coconut Chicken"
}