{
    "ingredients": [
        {
            "amount": "5 ounces", 
            "ingredient": "dried beef, chopped"
        }, 
        {
            "amount": "2 (8 ounce) packages", 
            "ingredient": "cream cheese, softened"
        }, 
        {
            "amount": "6", 
            "ingredient": "green onions, chopped"
        }, 
        {
            "amount": "1 tablespoon", 
            "ingredient": "Worcestershire sauce"
        }, 
        {
            "amount": "1/2 teaspoon", 
            "ingredient": "seasoned salt"
        }
    ], 
    "prep_steps": [
        "Reserve about a half cup of chopped dried beef.", 
        "In a separate medium bowl, combine the remaining beef, cream cheese, green onions, Worcestershire sauce and seasoned salt. Mix well and roll into a ball.", 
        "Roll the ball in the reserved beef, coating the entire outside of the ball."
    ], 
    "prep_time": "10 mins", 
    "recipe_name": "Dried Beef Ball"
}