{
    "ingredients": [
        {
            "amount": "2 tablespoons", 
            "ingredient": "vegetable oil"
        }, 
        {
            "amount": "5 pounds", 
            "ingredient": "lean beef short ribs, cut into 3-inch pieces"
        }, 
        {
            "amount": "1 teaspoon", 
            "ingredient": "salt"
        }, 
        {
            "amount": "1/2 teaspoon", 
            "ingredient": "fresh ground black pepper"
        }, 
        {
            "amount": "1 large", 
            "ingredient": "onion, cut into thick slices and separated into rings"
        }, 
        {
            "amount": "5", 
            "ingredient": "carrots, peeled and cut into chunks"
        }, 
        {
            "amount": "4 cloves", 
            "ingredient": "garlic, coarsely chopped"
        }, 
        {
            "amount": "1 (16 ounce) can", 
            "ingredient": "tomato sauce"
        }, 
        {
            "amount": "1 cup", 
            "ingredient": "barbeque sauce"
        }, 
        {
            "amount": "1 cup", 
            "ingredient": "beef broth"
        }
    ], 
    "prep_steps": [
        "Preheat oven to 325 degrees F (165 degrees C).", 
        "Heat oil over medium heat in a large, heavy, oven-safe pot or Dutch oven, and brown the ribs on all sides, about 5 minutes, working in batches if necessary. Sprinkle ribs with salt and black pepper as they brown. Transfer cooked ribs to paper towels to blot up extra oil.", 
        "Stir the onion rings and carrots into the same pot, and cook and stir until the onions turn translucent and start to brown, about 8 minutes. Stir in the garlic, and cook until fragrant, about 1 more minute. Mix in tomato sauce, barbeque sauce, and beef broth; bring the sauce to a boil, and simmer for 1 minute to blend flavors. Stir in the browned ribs.", 
        "Cover the pot, and bake in the preheated oven until the rib meat is very tender, about 2 1/2 hours. Turn the ribs occasionally while cooking. Season to taste with salt and black pepper before serving hot."
    ], 
    "prep_time": "3 hrs", 
    "recipe_name": "Barbeque Style Braised Short Ribs"
}