{
    "ingredients": [
        {
            "amount": "6 cups", 
            "ingredient": "cauliflower florets"
        }, 
        {
            "amount": "1/2 cup", 
            "ingredient": "all-purpose flour"
        }, 
        {
            "amount": "3 extra large", 
            "ingredient": "eggs"
        }, 
        {
            "amount": "1 teaspoon", 
            "ingredient": "baking powder"
        }, 
        {
            "amount": "1 (.7 ounce) package", 
            "ingredient": "dry Italian-style salad dressing mix"
        }, 
        {
            "amount": "1/2 cup", 
            "ingredient": "olive oil for frying, or as needed"
        }
    ], 
    "prep_steps": [
        "Process cauliflower in a food processor finely minced; transfer to a large bowl.", 
        "Stir flour, eggs, baking powder, and Italian dressing mix into cauliflower.", 
        "Heat enough olive oil to cover the bottom of a frying pan over medium heat.", 
        "Drop heaping tablespoons of cauliflower mixture into the hot oil; fry until golden brown, about 3 minutes per side."
    ], 
    "prep_time": "20 mins", 
    "recipe_name": "Cauliflower Fritters"
}