{
    "ingredients": [
        {
            "amount": "3 cups", 
            "ingredient": "green leaf lettuce, rinsed and torn"
        }, 
        {
            "amount": "1", 
            "ingredient": "Bartlett or Anjou pear"
        }, 
        {
            "amount": "1/3 cup", 
            "ingredient": "pomegranate seeds"
        }, 
        {
            "amount": "1 tablespoon", 
            "ingredient": "vegetable oil"
        }, 
        {
            "amount": "2 tablespoons", 
            "ingredient": "pomegranate juice"
        }, 
        {
            "amount": "1 tablespoon", 
            "ingredient": "lemon juice"
        }, 
        {
            "amount": "1 teaspoon", 
            "ingredient": "prepared Dijon-style mustard"
        }, 
        {
            "amount": "1/2 tablespoon", 
            "ingredient": "honey"
        }
    ], 
    "prep_steps": [
        "Divide the lettuce between two bowls. Halve and core the pear, then cut each half in slices. Divide the pear slices and pomegranate seeds among the two bowls and mix gently.", 
        "Combine the vegetable oil, pomegranate juice, lemon juice, mustard, honey, and pepper in a saucepan. Bring to a boil over high heat; reduce heat and simmer, stirring frequently, until the dressing thickens slightly, about 2 minutes. Pour the warm dressing over the salads and serve."
    ], 
    "prep_time": "12 mins", 
    "recipe_name": "Pear and Pomegranate Salad"
}