{
    "ingredients": [
        {
            "amount": "1 (14 ounce) can", 
            "ingredient": "sweetened condensed milk"
        }, 
        {
            "amount": "1 (12 fluid ounce) can", 
            "ingredient": "evaporated milk"
        }, 
        {
            "amount": "2 tablespoons", 
            "ingredient": "vanilla extract"
        }, 
        {
            "amount": "1 pinch", 
            "ingredient": "salt"
        }, 
        {
            "amount": "1 cup", 
            "ingredient": "white sugar"
        }, 
        {
            "amount": "6 cups", 
            "ingredient": "milk, or as needed"
        }
    ], 
    "prep_steps": [
        "Combine condensed milk, evaporated milk, vanilla, salt and sugar in freezer canister of ice cream maker, and stir well. Add enough milk to bring mixture to the fill line on canister. Freeze according to manufacturer's directions."
    ], 
    "prep_time": "1\u00be hrs", 
    "recipe_name": "Vanilla Ice Cream III"
}