{
    "ingredients": [
        {
            "amount": "8", 
            "ingredient": "lean pork chops"
        }, 
        {
            "amount": "1/2 cup", 
            "ingredient": "ketchup"
        }, 
        {
            "amount": "1 teaspoon", 
            "ingredient": "salt"
        }, 
        {
            "amount": "1 teaspoon", 
            "ingredient": "celery seed"
        }, 
        {
            "amount": "1/2 teaspoon", 
            "ingredient": "ground nutmeg"
        }, 
        {
            "amount": "1/3 cup", 
            "ingredient": "distilled white vinegar"
        }, 
        {
            "amount": "1 cup", 
            "ingredient": "water"
        }, 
        {
            "amount": "1", 
            "ingredient": "bay leaf"
        }
    ], 
    "prep_steps": [
        "Preheat oven to 325 degrees F (165 degrees C).", 
        "In a skillet, heat a small amount of oil and brown both sides of the pork chops.", 
        "In a bowl combine ketchup, salt, celery seed, nutmeg, vinegar, water, and bay leaf; Pour over chops.", 
        "Bake in oven for 90 minutes. Turn chops once during baking."
    ], 
    "prep_time": "1\u00be hrs", 
    "recipe_name": "Barbecued Pork Chops"
}