{
    "ingredients": [
        {
            "amount": "1 (10.75 ounce) can", 
            "ingredient": "condensed tomato soup"
        }, 
        {
            "amount": "1 pound", 
            "ingredient": "ground beef"
        }, 
        {
            "amount": "1 cup", 
            "ingredient": "uncooked instant rice"
        }, 
        {
            "amount": "1", 
            "ingredient": "egg, slightly beaten"
        }, 
        {
            "amount": "1/4 cup", 
            "ingredient": "minced onion"
        }, 
        {
            "amount": "1 teaspoon", 
            "ingredient": "salt"
        }, 
        {
            "amount": "2 tablespoons", 
            "ingredient": "shortening"
        }, 
        {
            "amount": "1 clove", 
            "ingredient": "garlic, minced"
        }, 
        {
            "amount": "1 teaspoon", 
            "ingredient": "prepared mustard"
        }
    ], 
    "prep_steps": [
        "In a large bowl, thoroughly mix 1/4 cup of the tomato soup with the ground beef, rice, egg, onion and salt. Firmly shape into 16 meatballs.", 
        "In a small bowl, mix remaining tomato soup with a half soup can of water and the mustard.", 
        "Melt the shortening in a large skillet over medium heat. Place garlic and meatballs in the skillet. Cook, gently stirring, until evenly browned; drain. Pour tomato soup and mustard mixture over the meatballs and simmer, stirring occasionally, for 20 minutes, or until meatballs are cooked through."
    ], 
    "prep_time": "1 hr", 
    "recipe_name": "Porcupine Meatballs III"
}