{
    "ingredients": [
        {
            "amount": "2 cups", 
            "ingredient": "dry black beans, soaked overnight"
        }, 
        {
            "amount": "1 quart", 
            "ingredient": "cold water, or as needed"
        }, 
        {
            "amount": "1", 
            "ingredient": "onion, chopped"
        }, 
        {
            "amount": "1", 
            "ingredient": "green bell pepper, chopped"
        }, 
        {
            "amount": "5 cloves", 
            "ingredient": "garlic, chopped"
        }, 
        {
            "amount": "2", 
            "ingredient": "bay leaves"
        }, 
        {
            "amount": "1 tablespoon", 
            "ingredient": "salt"
        }, 
        {
            "amount": "1 tablespoon", 
            "ingredient": "ground cumin"
        }, 
        {
            "amount": "1 tablespoon", 
            "ingredient": "dried oregano"
        }, 
        {
            "amount": "1/2 cup", 
            "ingredient": "white cooking wine"
        }, 
        {
            "amount": "1/4 cup", 
            "ingredient": "distilled white vinegar"
        }, 
        {
            "amount": "1/4 cup", 
            "ingredient": "olive oil"
        }
    ], 
    "prep_steps": [
        "In a medium stockpot, combine soaked beans (see Editor's Note), water, onion, green pepper, garlic, bay leaves, salt, cumin and oregano. Bring to a boil over medium-high heat; reduce heat to low. Simmer, covered, until beans are tender, about 1 hour. Stir occasionally and add water as necessary so that the beans don't dry out or scorch.", 
        "When beans are tender, stir in wine, vinegar, and olive oil."
    ], 
    "prep_time": "1 days", 
    "recipe_name": "Black Beans"
}