{
    "ingredients": [
        {
            "amount": "3 cups", 
            "ingredient": "cooked rice"
        }, 
        {
            "amount": "1 1/4 cups", 
            "ingredient": "shredded Monterey Jack cheese, divided"
        }, 
        {
            "amount": "1 cup", 
            "ingredient": "canned or frozen corn"
        }, 
        {
            "amount": "1/2 cup", 
            "ingredient": "milk"
        }, 
        {
            "amount": "1/3 cup", 
            "ingredient": "sour cream"
        }, 
        {
            "amount": "1/2 cup", 
            "ingredient": "chopped green onions"
        }
    ], 
    "prep_steps": [
        "Preheat the oven to 350 degrees F (175 degrees C).", 
        "In a medium bowl, mix together the rice, 1 cup of the cheese, corn, milk, sour cream and green onions. Transfer to a 1 quart casserole dish, and sprinkle the remaining cheese over the top.", 
        "Bake for 25 to 30 minutes in the preheated oven, or until cheese is melted and the dish is heated through."
    ], 
    "prep_time": "45 mins", 
    "recipe_name": "Rice Casserole"
}