{
    "ingredients": [
        {
            "amount": "2 cups", 
            "ingredient": "diced yellow squash"
        }, 
        {
            "amount": "2 cups", 
            "ingredient": "crumbled cornbread"
        }, 
        {
            "amount": "1/2 cup", 
            "ingredient": "margarine, melted"
        }, 
        {
            "amount": "2 teaspoons", 
            "ingredient": "dried sage"
        }, 
        {
            "amount": "1 (10.75 ounce) can", 
            "ingredient": "cream of mushroom soup"
        }, 
        {
            "amount": "1", 
            "ingredient": "egg, beaten"
        }, 
        {
            "amount": "1 large", 
            "ingredient": "onion, chopped"
        }, 
        {
            "amount": "1 1/2 teaspoons", 
            "ingredient": "sugar"
        }, 
        {
            "amount": "1/4 cup", 
            "ingredient": "milk"
        }
    ], 
    "prep_steps": [
        "Place squash in a pot fitted with a steamer basket over boiling water, and steam 10 minutes, or until tender.", 
        "Preheat oven to 350 degrees F (175 degrees C). Lightly grease a medium baking dish.", 
        "In a bowl, mix the squash, cornbread, margarine, sage, cream of mushroom soup, egg, onion, sugar, salt and pepper, and milk. Transfer to the prepared baking dish.", 
        "Bake 30 minutes in the preheated oven, or until lightly browned."
    ], 
    "prep_time": "50 mins", 
    "recipe_name": "Yellow Squash Dressing"
}