{
    "ingredients": [
        {
            "amount": "3", 
            "ingredient": "skinless, boneless chicken breast halves - cut into 1/2 inch strips"
        }, 
        {
            "amount": "2 tablespoons", 
            "ingredient": "ketchup"
        }, 
        {
            "amount": "2 tablespoons", 
            "ingredient": "olive oil"
        }, 
        {
            "amount": "1 1/2 teaspoons", 
            "ingredient": "white wine vinegar"
        }, 
        {
            "amount": "1 teaspoon", 
            "ingredient": "dried oregano"
        }, 
        {
            "amount": "1 teaspoon", 
            "ingredient": "mustard powder"
        }, 
        {
            "amount": "1 1/2 teaspoons", 
            "ingredient": "curry powder, or to taste"
        }, 
        {
            "amount": "4", 
            "ingredient": "pita breads, cut in half"
        }, 
        {
            "amount": "2 cups", 
            "ingredient": "mixed salad greens"
        }, 
        {
            "amount": "1 cup", 
            "ingredient": "plain yogurt"
        }
    ], 
    "prep_steps": [
        "Place the chicken strips side by side in a broiling pan. In a cup or small bowl, stir together the ketchup, olive oil, white wine vinegar, oregano, mustard powder and curry powder. Pour over the chicken. Allow the chicken to marinate while you preheat the oven's broiler.", 
        "Broil uncovered for 15 minutes with the meat about 6 inches from the heat. Just until the chicken is cooked through, but not browned. If left too long, it will turn stringy and dry.", 
        "Place hot chicken into pita pockets and spoon some of the juices from the pan over it. Top with salad greens and plain yogurt."
    ], 
    "prep_time": "30 mins", 
    "recipe_name": "Koula's Best Ever Chicken Gyros"
}