{
    "ingredients": [
        {
            "amount": "1/2 cup", 
            "ingredient": "canned coconut milk"
        }, 
        {
            "amount": "1 1/2 teaspoons", 
            "ingredient": "ground coriander"
        }, 
        {
            "amount": "1 teaspoon", 
            "ingredient": "yellow curry powder"
        }, 
        {
            "amount": "1 teaspoon", 
            "ingredient": "fish sauce"
        }, 
        {
            "amount": "1/2 teaspoon", 
            "ingredient": "chili oil"
        }, 
        {
            "amount": "1 pound", 
            "ingredient": "skinless, boneless chicken breast halves - cut into strips"
        }, 
        {
            "amount": "1 tablespoon", 
            "ingredient": "chopped fresh cilantro"
        }, 
        {
            "amount": "1 tablespoon", 
            "ingredient": "chopped unsalted peanuts"
        }, 
        {
            "amount": "12", 
            "ingredient": "wooden skewers, soaked in water for 15 minutes"
        }, 
        {
            "amount": "1 cup", 
            "ingredient": "prepared Thai peanut sauce"
        }
    ], 
    "prep_steps": [
        "In a medium bowl, stir together the coconut milk, ground coriander, curry powder, fish sauce, and chili oil. Add the chicken breast strips, and stir to coat. Cover, and refrigerate for at least 30 minutes, and up to 2 hours.", 
        "Preheat an indoor or outdoor grill for high heat. Thread the chicken strips onto skewers. Discard marinade.", 
        "Grill chicken for 2 to 3 minutes per side, until no longer pink. Time will depend on how thick your strips are. Transfer to a serving plate, and garnish with cilantro and peanuts. Serve with peanut sauce for dipping."
    ], 
    "prep_time": "20 mins", 
    "recipe_name": "Thai Chicken Satay"
}