{
    "ingredients": [
        {
            "amount": "12", 
            "ingredient": "skinless, boneless chicken breast halves"
        }, 
        {
            "amount": "2", 
            "ingredient": "eggs"
        }, 
        {
            "amount": "1 cup", 
            "ingredient": "milk"
        }, 
        {
            "amount": "2 cups", 
            "ingredient": "all-purpose flour"
        }, 
        {
            "amount": "1 cup", 
            "ingredient": "bread crumbs"
        }, 
        {
            "amount": "1 cup", 
            "ingredient": "sliced almonds"
        }, 
        {
            "amount": "1 tablespoon", 
            "ingredient": "butter"
        }, 
        {
            "amount": "1 cup", 
            "ingredient": "white sugar"
        }, 
        {
            "amount": "1/4 teaspoon", 
            "ingredient": "salt"
        }, 
        {
            "amount": "2 tablespoons", 
            "ingredient": "cornstarch"
        }, 
        {
            "amount": "1 tablespoon", 
            "ingredient": "all-purpose flour"
        }, 
        {
            "amount": "1 1/4 cups", 
            "ingredient": "orange juice"
        }, 
        {
            "amount": "1/4 cup", 
            "ingredient": "lemon juice"
        }, 
        {
            "amount": "1/2 cup", 
            "ingredient": "water"
        }, 
        {
            "amount": "1 tablespoon", 
            "ingredient": "butter"
        }, 
        {
            "amount": "1 tablespoon", 
            "ingredient": "grated orange zest"
        }, 
        {
            "amount": "1 tablespoon", 
            "ingredient": "grated lemon zest"
        }
    ], 
    "prep_steps": [
        "Preheat oven to 400 degrees F (200 degrees C).", 
        "In a small bowl beat together eggs and milk. Add 2 cups flour, salt and pepper. Beat all together until smooth. In a shallow dish or plate mix together the breadcrumbs and almonds. Dip chicken in egg batter, then in breadcrumb mixture.", 
        "In a large skillet melt 1 tablespoon butter/margarine and saute coated chicken in skillet 8 to 10 minutes. Place chicken in a lightly greased 9x13 inch baking dish and bake uncovered in the preheated oven for 20 minutes.", 
        "To Make Sauce: Meanwhile, in a medium saucepan mix together the sugar, 1/4 teaspoon salt, cornstarch, and 1 tablespoon flour. Then stir in the orange juice, lemon juice, and 1/2 cup water. Mix all together and cook over low heat, stirring constantly, until the mixture boils. Let boil for 3 minutes, then remove from heat.", 
        "Add 1 tablespoon of butter/margarine, the orange rind and the lemon rind to the orange sauce and stir together. Remove chicken from oven and pour orange sauce over warm chicken or put in a gravy boat for people to pour themselves. Enjoy!"
    ], 
    "recipe_name": "Orange Sauce Chicken"
}