{
    "ingredients": [
        {
            "amount": "1/2 pound", 
            "ingredient": "bacon"
        }, 
        {
            "amount": "4", 
            "ingredient": "skinless, boneless chicken breast halves"
        }, 
        {
            "amount": "1 tablespoon", 
            "ingredient": "butter"
        }, 
        {
            "amount": "20 ounces", 
            "ingredient": "fresh green beans, washed and trimmed"
        }, 
        {
            "amount": "1 (10.75 ounce) can", 
            "ingredient": "condensed cream of Cheddar cheese soup"
        }, 
        {
            "amount": "1 pinch", 
            "ingredient": "ground cayenne pepper"
        }, 
        {
            "amount": "1/2 cup", 
            "ingredient": "seasoned dry bread crumbs"
        }, 
        {
            "amount": "2 cups", 
            "ingredient": "shredded Cheddar cheese"
        }
    ], 
    "prep_steps": [
        "Place the bacon in a skillet. Cook over medium-high heat until evenly brown. Drain, crumble, and set aside. Melt the butter in a skillet, and saute the chicken breasts 10 to 12 minutes on each side, until the exterior is golden, the meat is no longer pink, and the juices run clear.", 
        "Place the green beans in a saucepan with enough water to cover. Bring to a boil, and cook 5 minutes, or until tender.", 
        "Preheat the oven broiler. Lightly grease a 9x13 inch baking dish.", 
        "Arrange the beans in the bottom of the prepared baking dish. Top with the chicken, and cover evenly with the soup. Sprinkle with bread crumbs and bacon, and top with Cheddar cheese.", 
        "Broil 10 minutes, or until browned and bubbly."
    ], 
    "prep_time": "55 mins", 
    "recipe_name": "Green Bean Cheddar Chicken"
}