{
    "ingredients": [
        {
            "amount": "1/2 cup", 
            "ingredient": "butter, softened"
        }, 
        {
            "amount": "1 (8 ounce) package", 
            "ingredient": "cream cheese, softened"
        }, 
        {
            "amount": "4 cups", 
            "ingredient": "confectioners' sugar"
        }, 
        {
            "amount": "5 tablespoons", 
            "ingredient": "premium bourbon"
        }
    ], 
    "prep_steps": [
        "Beat softened butter and cream cheese until smooth. Add confectioners' sugar and bourbon. Beat until creamy."
    ], 
    "prep_time": "50 mins", 
    "recipe_name": "Bourbon Cream Cheese Frosting"
}