{
    "ingredients": [
        {
            "amount": "5 1/2 cups", 
            "ingredient": "water"
        }, 
        {
            "amount": "1 1/2 cups", 
            "ingredient": "dry black beans"
        }, 
        {
            "amount": "3 cloves", 
            "ingredient": "garlic, minced"
        }, 
        {
            "amount": "1", 
            "ingredient": "bay leaf"
        }, 
        {
            "amount": "1/4 teaspoon", 
            "ingredient": "ground allspice"
        }, 
        {
            "amount": "2 cups", 
            "ingredient": "chicken broth"
        }, 
        {
            "amount": "1 tablespoon", 
            "ingredient": "tomato paste"
        }, 
        {
            "amount": "1 tablespoon", 
            "ingredient": "water"
        }, 
        {
            "amount": "1/4 pound", 
            "ingredient": "Italian sausage, cut into 1/2 inch pieces"
        }, 
        {
            "amount": "1/2 teaspoon", 
            "ingredient": "Worcestershire sauce"
        }, 
        {
            "amount": "1 pound", 
            "ingredient": "sweet potatoes"
        }, 
        {
            "amount": "3", 
            "ingredient": "green onions"
        }
    ], 
    "prep_steps": [
        "In a 4 quart saucepan, combine beans, garlic, bay leaf, allspice, broth and 5 1/2 cups water. Cook, partially covered, until beans are tender, about 50 minutes. Discard bay leaf.", 
        "In a blender puree 1 cup cooked beans with 1 cup cooking liquid, and return to pan.", 
        "In a small bowl, stir together tomato paste and 1 tablespoon water; stir into beans with sausage and Worcestershire sauce. Simmer soup, covered, for 15 minutes. Soup may be prepared up to this point 3 days ahead.", 
        "While soup is simmering, peel sweet potatoes and cut into 1/2 inch pieces. Steam until tender, about 10 minutes. Stir potatoes, 3 chopped scallions, and salt and pepper to taste into soup. Serve soup garnished with scallion greens."
    ], 
    "prep_time": "1\u00bd hrs", 
    "recipe_name": "Black Bean, Sausage, and Sweet Potato Soup"
}