{
    "ingredients": [
        {
            "amount": "1 cup", 
            "ingredient": "penne pasta"
        }, 
        {
            "amount": "2 tablespoons", 
            "ingredient": "olive oil"
        }, 
        {
            "amount": "2 cloves", 
            "ingredient": "garlic, minced"
        }, 
        {
            "amount": "1/4 cup", 
            "ingredient": "onion, chopped"
        }, 
        {
            "amount": "1/2 cup", 
            "ingredient": "white wine"
        }, 
        {
            "amount": "1/4 teaspoon", 
            "ingredient": "crushed red pepper flakes"
        }, 
        {
            "amount": "1 tablespoon", 
            "ingredient": "butter"
        }, 
        {
            "amount": "10 spears", 
            "ingredient": "asparagus, cut into 1-inch pieces"
        }, 
        {
            "amount": "18", 
            "ingredient": "peeled and deveined large shrimp (21 to 25 per lb)"
        }, 
        {
            "amount": "1 tablespoon", 
            "ingredient": "lemon juice"
        }, 
        {
            "amount": "2 tablespoons", 
            "ingredient": "chopped fresh flat-leaf parsley"
        }, 
        {
            "amount": "1/4 cup", 
            "ingredient": "grated Parmesan cheese"
        }
    ], 
    "prep_steps": [
        "Bring a large pot of lightly salted water to a boil. Add penne and cook until al dente, 8 to 10 minutes; drain.", 
        "Meanwhile, heat the olive oil in a large skillet over medium heat. Stir in the garlic and onion, and cook until the onion has softened and turned translucent, about 5 minutes. Pour in the white wine, and simmer for 2 minutes. Stir in the red pepper flakes, butter, and asparagus; cook until the asparagus is just tender, about 3 minutes. Add the shrimp and lemon juice, continue cooking until the shrimp have turned pink and are no longer translucent in the center. Season to taste with salt and pepper.", 
        "Toss the cooked penne pasta with the shrimp and asparagus mixture. Sprinkle with parsley and Parmesan cheese to garnish."
    ], 
    "prep_time": "35 mins", 
    "recipe_name": "Elegant Penne with Asparagus and Shrimp"
}