{
    "ingredients": [
        {
            "amount": "2 tablespoons", 
            "ingredient": "cooking oil"
        }, 
        {
            "amount": "1/2 teaspoon", 
            "ingredient": "ground ginger"
        }, 
        {
            "amount": "1/2 teaspoon", 
            "ingredient": "chili powder"
        }, 
        {
            "amount": "1/2 teaspoon", 
            "ingredient": "ground cinnamon"
        }, 
        {
            "amount": "1/2 teaspoon", 
            "ingredient": "ground turmeric"
        }, 
        {
            "amount": "1/2 teaspoon", 
            "ingredient": "ground white pepper"
        }, 
        {
            "amount": "1 large", 
            "ingredient": "onion, chopped"
        }, 
        {
            "amount": "1 clove", 
            "ingredient": "garlic, minced"
        }, 
        {
            "amount": "1 cup", 
            "ingredient": "chopped canned tomatoes"
        }, 
        {
            "amount": "2", 
            "ingredient": "skinless, boneless chicken breast halves - cubed"
        }, 
        {
            "amount": "1/4 cup", 
            "ingredient": "chicken stock"
        }, 
        {
            "amount": "2 tablespoons", 
            "ingredient": "ground almonds"
        }, 
        {
            "amount": "1/4 cup", 
            "ingredient": "heavy cream"
        }, 
        {
            "amount": "1/4 cup", 
            "ingredient": "plain yogurt"
        }
    ], 
    "prep_steps": [
        "Heat the oil in a large skillet over medium heat. Combine the ginger, chili powder, cinnamon, turmeric, and pepper; stir into the hot oil and cook for 5 seconds. Add the onion and garlic; stir and cook until onions become transparent, about 7 minutes. Stir in the tomatoes and chicken, and cook until chicken is no longer pink, 5 to 8 minutes.", 
        "Combine the chicken stock with the chicken-onion mixture; stir and cook 3 minutes. Stir in the almonds, cream, and yogurt; continue cooking 2 to 4 minutes."
    ], 
    "prep_time": "35 mins", 
    "recipe_name": "Steve's Chicken Korma"
}