{
    "ingredients": [
        {
            "amount": "1/2 cup", 
            "ingredient": "sugar"
        }, 
        {
            "amount": "1/3 cup", 
            "ingredient": "baking cocoa"
        }, 
        {
            "amount": "2 tablespoons", 
            "ingredient": "cornstarch"
        }, 
        {
            "amount": "2 cups", 
            "ingredient": "milk"
        }, 
        {
            "amount": "1", 
            "ingredient": "egg, beaten"
        }, 
        {
            "amount": "1/4 teaspoon", 
            "ingredient": "vanilla extract"
        }, 
        {
            "amount": "1/8 teaspoon", 
            "ingredient": "almond extract"
        }
    ], 
    "prep_steps": [
        "In a medium saucepan, stir together the sugar, cocoa and cornstarch. Gradually whisk in milk and egg. Stirring constantly, bring to a boil over medium heat, and cook until thickened. Remove from heat, and quickly stir in the vanilla and almond extracts. Garnish as desired, and serve warm."
    ], 
    "prep_time": "15 mins", 
    "recipe_name": "Chocolate Almond Pudding"
}