{
    "ingredients": [
        {
            "amount": "1/4 cup", 
            "ingredient": "all-purpose flour"
        }, 
        {
            "amount": "1 teaspoon", 
            "ingredient": "salt"
        }, 
        {
            "amount": "1/2 teaspoon", 
            "ingredient": "ground black pepper"
        }, 
        {
            "amount": "2 pounds", 
            "ingredient": "cubed stew meat"
        }, 
        {
            "amount": "4 tablespoons", 
            "ingredient": "butter"
        }, 
        {
            "amount": "1", 
            "ingredient": "onion, chopped"
        }, 
        {
            "amount": "2", 
            "ingredient": "carrots, chopped"
        }, 
        {
            "amount": "1 clove", 
            "ingredient": "garlic, minced"
        }, 
        {
            "amount": "2 cups", 
            "ingredient": "red wine"
        }, 
        {
            "amount": "1", 
            "ingredient": "bay leaf"
        }, 
        {
            "amount": "3 tablespoons", 
            "ingredient": "chopped fresh parsley"
        }, 
        {
            "amount": "1/2 teaspoon", 
            "ingredient": "dried thyme"
        }, 
        {
            "amount": "1 (6 ounce) can", 
            "ingredient": "sliced mushrooms"
        }, 
        {
            "amount": "1 (16 ounce) can", 
            "ingredient": "canned onions"
        }
    ], 
    "prep_steps": [
        "In a small bowl, combine the flour, salt and ground black pepper. Coat the beef cubes with this mixture.", 
        "Melt the butter or margarine in a large skillet over medium high heat. Add the meat and brown well on all sides. Pour this into a 2 quart casserole dish.", 
        "Return the skillet to the heat and add the onion, carrots and garlic to it. Saute for 5 to 10 minutes, or until onion is tender. add the wine, bay leaf, parsley, thyme, and liquid from the mushrooms. Pour over meat.", 
        "Bake, covered, at 350 degrees F (175 degrees C) for 2 1/2 hours. Remove cover, add canned onions and mushroom crowns, and bake for 30 more minutes."
    ], 
    "prep_time": "3 hrs", 
    "recipe_name": "Beef Bourguignon II"
}