{
    "ingredients": [
        {
            "amount": "2 cups", 
            "ingredient": "broccoli florets"
        }, 
        {
            "amount": "1", 
            "ingredient": "onion, sliced"
        }, 
        {
            "amount": "1 tablespoon", 
            "ingredient": "margarine"
        }, 
        {
            "amount": "1 (10.75 ounce) can", 
            "ingredient": "condensed cream of potato soup"
        }, 
        {
            "amount": "1 cup", 
            "ingredient": "milk"
        }, 
        {
            "amount": "1/2 cup", 
            "ingredient": "water"
        }, 
        {
            "amount": "3/4 teaspoon", 
            "ingredient": "chopped fresh basil"
        }, 
        {
            "amount": "1/4 teaspoon", 
            "ingredient": "ground black pepper"
        }, 
        {
            "amount": "1/3 cup", 
            "ingredient": "shredded Cheddar cheese"
        }
    ], 
    "prep_steps": [
        "In a large saucepan over medium heat, saut E the broccoli and onion in the butter or margarine, about 5 minutes, or until tender. Stir in the soup, milk, water, basil and pepper. Mix well and heat through, about 15 minutes. Add cheese and stir until melted."
    ], 
    "recipe_name": "Broccoli Potato Soup"
}