{
    "ingredients": [
        {
            "amount": "1 teaspoon", 
            "ingredient": "brown sugar"
        }, 
        {
            "amount": "1/8 teaspoon", 
            "ingredient": "wasabi paste"
        }, 
        {
            "amount": "1/8 teaspoon", 
            "ingredient": "lemon or lime juice"
        }, 
        {
            "amount": "1/2 cup", 
            "ingredient": "ketchup"
        }
    ], 
    "prep_steps": [
        "In a small bowl, mix together the brown sugar, wasabi paste, lemon juice and ketchup. Chill until using, or use immediately."
    ], 
    "prep_time": "5 mins", 
    "recipe_name": "Rachel's Wasabi Cocktail Sauce"
}