{
    "ingredients": [
        {
            "amount": "5", 
            "ingredient": "potatoes"
        }, 
        {
            "amount": "4 ounces", 
            "ingredient": "American cheese, sliced into strips"
        }, 
        {
            "amount": "1 tablespoon", 
            "ingredient": "butter"
        }, 
        {
            "amount": "3/4 cup", 
            "ingredient": "sour cream"
        }
    ], 
    "prep_steps": [
        "Preheat oven to 350 degrees F (175 degrees C).", 
        "Bake potatoes for 1 hour or until soft.", 
        "In a microwave safe bowl, combine the cheese and butter. Cook in microwave for 1 1/2 minutes or until melted. Add sour cream and mix together.", 
        "Cut potatoes in half, scoop out insides while being careful not to tear the skins. Add to cheese mixture and mix together until smooth.", 
        "Stuff potato mixture back into potato shells and bake at 350 degrees F (175 degrees C) for 10 minutes."
    ], 
    "recipe_name": "Twice Baked Cheesy Potatoes"
}