{
    "ingredients": [
        {
            "amount": "2 cups", 
            "ingredient": "all-purpose flour"
        }, 
        {
            "amount": "2 tablespoons", 
            "ingredient": "unsweetened cocoa powder"
        }, 
        {
            "amount": "1 teaspoon", 
            "ingredient": "baking soda"
        }, 
        {
            "amount": "1/2 teaspoon", 
            "ingredient": "salt"
        }, 
        {
            "amount": "1/2 cup", 
            "ingredient": "butter"
        }, 
        {
            "amount": "1 1/2 cups", 
            "ingredient": "white sugar"
        }, 
        {
            "amount": "2", 
            "ingredient": "eggs"
        }, 
        {
            "amount": "1 teaspoon", 
            "ingredient": "vanilla extract"
        }, 
        {
            "amount": "2 1/2 cups", 
            "ingredient": "shredded zucchini"
        }, 
        {
            "amount": "2 tablespoons", 
            "ingredient": "white sugar"
        }, 
        {
            "amount": "1 cup", 
            "ingredient": "chopped walnuts"
        }, 
        {
            "amount": "1 cup", 
            "ingredient": "chocolate chips"
        }
    ], 
    "prep_steps": [
        "Preheat an oven to 350 degrees F (175 degrees C). Grease a jelly roll pan.", 
        "Sift flour, cocoa powder, baking soda, and salt together in a bowl.", 
        "Beat the butter and 1 1/2 cups sugar with an electric mixer in a large bowl until smooth. Beat the first egg into the butter until completely blended, then beat in the vanilla extract with the last egg. Mix in the flour mixture until just incorporated. Fold in the zucchini; mixing just enough to evenly combine. Pour mixture into prepared pan. Sprinkle the remaining 2 tablespoons sugar, chocolate chips, and walnuts on top.", 
        "Bake in the preheated oven until the top is dry and the edges have started to pull away from the sides of the pan, 25 to 30 minutes."
    ], 
    "prep_time": "55 mins", 
    "recipe_name": "Grandma's Chocolate Zucchini Brownies "
}