{
    "ingredients": [
        {
            "amount": "1 pound", 
            "ingredient": "flank steak, thinly sliced"
        }, 
        {
            "amount": "5 tablespoons", 
            "ingredient": "soy sauce"
        }, 
        {
            "amount": "2 1/2 tablespoons", 
            "ingredient": "white sugar"
        }, 
        {
            "amount": "1/4 cup", 
            "ingredient": "chopped green onion"
        }, 
        {
            "amount": "2 tablespoons", 
            "ingredient": "minced garlic"
        }, 
        {
            "amount": "2 tablespoons", 
            "ingredient": "sesame seeds"
        }, 
        {
            "amount": "2 tablespoons", 
            "ingredient": "sesame oil"
        }, 
        {
            "amount": "1/2 teaspoon", 
            "ingredient": "ground black pepper"
        }
    ], 
    "prep_steps": [
        "Place the beef in a shallow dish. Combine soy sauce, sugar, green onion, garlic, sesame seeds, sesame oil, and ground black pepper in a small bowl. Pour over beef. Cover and refrigerate for at least 1 hour or overnight.", 
        "Preheat an outdoor grill for high heat, and lightly oil the grate.", 
        "Quickly grill beef on hot grill until slightly charred and cooked through, 1 to 2 minutes per side."
    ], 
    "prep_time": "1\u00bc hrs", 
    "recipe_name": "Beef Bulgogi"
}