{
    "ingredients": [
        {
            "amount": "1 (16 ounce) package", 
            "ingredient": "wide egg noodles"
        }, 
        {
            "amount": "2 (5 ounce) cans", 
            "ingredient": "chunk chicken, drained"
        }, 
        {
            "amount": "2 (10.75 ounce) cans", 
            "ingredient": "condensed cream of mushroom soup"
        }, 
        {
            "amount": "1/2 teaspoon", 
            "ingredient": "garlic salt"
        }, 
        {
            "amount": "1/2 teaspoon", 
            "ingredient": "ground black pepper"
        }
    ], 
    "prep_steps": [
        "Bring a large pot of lightly salted water to a boil. Add pasta and cook for 8 to 10 minutes or until al dente; drain.", 
        "Return pasta to pot with chicken, soup, garlic salt and pepper over medium heat. Heat through, 5 minutes."
    ], 
    "prep_time": "15 mins", 
    "recipe_name": "Noodles"
}