{
    "ingredients": [
        {
            "amount": "1 (16 ounce) package", 
            "ingredient": "uncooked linguine pasta"
        }, 
        {
            "amount": "3 tablespoons", 
            "ingredient": "olive oil, divided"
        }, 
        {
            "amount": "3 ounces", 
            "ingredient": "pancetta bacon, diced"
        }, 
        {
            "amount": "1/2 teaspoon", 
            "ingredient": "crushed red pepper flakes"
        }, 
        {
            "amount": "3 cups", 
            "ingredient": "loosely packed torn fresh spinach"
        }, 
        {
            "amount": "2", 
            "ingredient": "hard-cooked eggs, peeled and chopped"
        }
    ], 
    "prep_steps": [
        "Bring a large pot of salted water to boil. Cook linguine until al dente, about 8 to 10 minutes.", 
        "As the water is being brought to boil, heat 1 tablespoon olive oil in a skillet over medium heat. Stir in pancetta, and cook until browned. Remove to paper towels.", 
        "Return skillet to heat, and pour in 2 tablespoons olive oil. Stir in crushed red pepper flakes. Then stir in spinach, and cook until softened. Return pancetta to the skillet, and stir in eggs. Cover, and turn off heat.", 
        "When the pasta is done, drain, and mix into skillet, reserving some pasta water. If the pasta is too dry, add a small amount of pasta water. Top with freshly grated Parmesan."
    ], 
    "prep_time": "25 mins", 
    "recipe_name": "Spinach, Egg, and Pancetta with Linguine"
}