{
    "ingredients": [
        {
            "amount": "1/4 cup", 
            "ingredient": "olive oil"
        }, 
        {
            "amount": "4 stalks", 
            "ingredient": "celery"
        }, 
        {
            "amount": "1/2", 
            "ingredient": "onion, diced"
        }, 
        {
            "amount": "3", 
            "ingredient": "carrots, diced"
        }, 
        {
            "amount": "3 cloves", 
            "ingredient": "garlic, diced"
        }, 
        {
            "amount": "1 (14 ounce) can", 
            "ingredient": "stewed tomatoes"
        }, 
        {
            "amount": "2 1/2 cups", 
            "ingredient": "water"
        }, 
        {
            "amount": "1 cup", 
            "ingredient": "white wine"
        }, 
        {
            "amount": "1 (8 ounce) bottle", 
            "ingredient": "clam juice"
        }, 
        {
            "amount": "1/4 cup", 
            "ingredient": "sherry"
        }, 
        {
            "amount": "2 cubes", 
            "ingredient": "chicken bouillon"
        }, 
        {
            "amount": "1/2 teaspoon", 
            "ingredient": "red pepper flakes"
        }, 
        {
            "amount": "1/2 bunch", 
            "ingredient": "cilantro"
        }, 
        {
            "amount": "1/2 pound", 
            "ingredient": "medium shrimp - peeled and deveined"
        }, 
        {
            "amount": "1/2 pound", 
            "ingredient": "white fish, cut into small chunks"
        }
    ], 
    "prep_steps": [
        "Heat the oil in a large pot over medium heat. Mix in the celery, onion, carrots, and garlic. Cook and stir until onion is tender. Stir in the tomatoes, water, wine, clam juice, and sherry. Dissolve bouillon cubes in the stew, and season with red pepper, salt, and pepper. Bring to a boil, reduce heat to low, and simmer 1 hour.", 
        "Mix the cilantro, shrimp, and fish into the stew. Continue cooking 5 minutes, or until shrimp is opaque and fish is easily flaked. Remove from heat, and allow to sit 10 minutes before serving."
    ], 
    "prep_time": "1\u00be hrs", 
    "recipe_name": "Russell's Fish Stew"
}