{
    "ingredients": [
        {
            "amount": "1/2 cup", 
            "ingredient": "teriyaki sauce"
        }, 
        {
            "amount": "1 1/2 pounds", 
            "ingredient": "sashimi grade tuna steaks"
        }, 
        {
            "amount": "2 tablespoons", 
            "ingredient": "extra virgin olive oil"
        }, 
        {
            "amount": "1", 
            "ingredient": "lemon"
        }, 
        {
            "amount": "1 tablespoon", 
            "ingredient": "sesame seeds"
        }, 
        {
            "amount": "2 teaspoons", 
            "ingredient": "sea salt"
        }, 
        {
            "amount": "1", 
            "ingredient": "carrot, grated"
        }
    ], 
    "prep_steps": [
        "Pour the teriyaki sauce into a shallow dish or bowl, and place tuna steaks in the sauce to marinate. Cover, and allow to marinate for about 45 minutes at room temperature. The steaks will cook more evenly if they are not cold.", 
        "Heat olive oil in a large skillet over medium heat. Place tuna steaks in the hot oil, and pour in the teriyaki sauce. Squeeze juice from the lemon over the steaks, and sprinkle with sesame seeds. When the bottom is light brown, flip the steaks, and cook until browned on the other side. The center will still be slightly red. Season with sea salt and pepper.", 
        "Place the tuna steaks onto serving plates, and garnish with grated carrots. Serve the pan drippings as a dipping sauce."
    ], 
    "prep_time": "1 hr", 
    "recipe_name": "Teriyaki Tuna"
}