{
    "ingredients": [
        {
            "amount": "1", 
            "ingredient": "egg yolk"
        }, 
        {
            "amount": "3 tablespoons", 
            "ingredient": "white sugar"
        }, 
        {
            "amount": "1 tablespoon", 
            "ingredient": "prepared mustard"
        }, 
        {
            "amount": "2 tablespoons", 
            "ingredient": "butter"
        }, 
        {
            "amount": "1/2 cup", 
            "ingredient": "white vinegar"
        }, 
        {
            "amount": "1/2 cup", 
            "ingredient": "half-and-half"
        }
    ], 
    "prep_steps": [
        "In a medium saucepan, stir together the egg yolk, sugar, mustard, butter and vinegar. Whisk together over medium heat and boil until thick. Remove from heat and cool. Whisk in the half-and-half. Refrigerate until using."
    ], 
    "prep_time": "15 mins", 
    "recipe_name": "Coleslaw Dressing"
}