{
    "ingredients": [
        {
            "amount": "1 (18.25 ounce) package", 
            "ingredient": "yellow cake mix"
        }, 
        {
            "amount": "1/2 cup", 
            "ingredient": "melted butter"
        }, 
        {
            "amount": "1", 
            "ingredient": "egg"
        }, 
        {
            "amount": "8 ounces", 
            "ingredient": "cream cheese"
        }, 
        {
            "amount": "2", 
            "ingredient": "eggs"
        }, 
        {
            "amount": "3 3/4 cups", 
            "ingredient": "confectioners' sugar"
        }
    ], 
    "prep_steps": [
        "Grease and flour one 13x9 inch pan. Preheat oven to 350 degrees F (175 degrees C).", 
        "Mix together cake mix, melted butter, and 1 egg. Press into prepared pan.", 
        "In separate bowl mix cream cheese, 2 eggs, and confectioners' sugar. Pour over first layer.", 
        "Bake at 350 degrees F (175 degrees C) for 40 minutes."
    ], 
    "recipe_name": "Ooey Goey Cake"
}