{
    "ingredients": [
        {
            "amount": "1 (20 ounce) package", 
            "ingredient": "chocolate sandwich cookies"
        }, 
        {
            "amount": "1/2 cup", 
            "ingredient": "butter, melted"
        }, 
        {
            "amount": "2 (3.5 ounce) packages", 
            "ingredient": "instant vanilla pudding mix"
        }, 
        {
            "amount": "3 cups", 
            "ingredient": "milk"
        }, 
        {
            "amount": "1 (8 ounce) package", 
            "ingredient": "cream cheese"
        }, 
        {
            "amount": "1 (8 ounce) container", 
            "ingredient": "frozen whipped topping, thawed"
        }
    ], 
    "prep_steps": [
        "Using a blender or food processor, crush 2/3 of the cookies. Stir in the melted butter, then press into a 9x13 inch baking pan.", 
        "In a medium bowl, stir together instant pudding and milk. chill in freezer until thickened. Using an electric mixer, beat the cream cheese into the pudding. Fold the dessert topping into the pudding mixture by hand.", 
        "Spread over the prepared crust. Crush the remaining cookies in the blender, and sprinkle over the top of the pudding layer. chill for at least 4 hours or until serving time."
    ], 
    "prep_time": "15 mins", 
    "recipe_name": "Dirt Cake III"
}