{
    "ingredients": [
        {
            "amount": "12 cups", 
            "ingredient": "all-purpose flour"
        }, 
        {
            "amount": "6 cups", 
            "ingredient": "white sugar"
        }, 
        {
            "amount": "12 teaspoons", 
            "ingredient": "baking powder"
        }, 
        {
            "amount": "6 teaspoons", 
            "ingredient": "baking soda"
        }, 
        {
            "amount": "6 teaspoons", 
            "ingredient": "salt"
        }, 
        {
            "amount": "1/2 cup", 
            "ingredient": "vegetable oil"
        }, 
        {
            "amount": "2", 
            "ingredient": "eggs"
        }
    ], 
    "prep_steps": [
        "Mix thoroughly flour, sugar, baking powder, soda, and salt. (Can be stored on the shelf for months.)", 
        "Mix 3 cups baking mix, oil, eggs, and 1 cup vegetables or fruits. Add flavorings, nuts, raisins, dates, etc., if desired. Pour into one 8-1/2x4-1/2 inch or two 7-1/4x3-1/2 inch greased loaf pans.", 
        "Bake at 350 degrees F (175 degrees C) for 30 to 45 minutes."
    ], 
    "prep_time": "1\u00bc hrs", 
    "recipe_name": "Quick Bread Mix"
}