{
    "ingredients": [
        {
            "amount": "4", 
            "ingredient": "boneless chicken breast halves, cooked and cubed"
        }, 
        {
            "amount": "2 cups", 
            "ingredient": "elbow macaroni"
        }, 
        {
            "amount": "2 cups", 
            "ingredient": "milk"
        }, 
        {
            "amount": "2 cups", 
            "ingredient": "condensed cream of celery soup"
        }, 
        {
            "amount": "1 cup", 
            "ingredient": "cubed processed cheese"
        }, 
        {
            "amount": "2", 
            "ingredient": "onions, chopped"
        }
    ], 
    "prep_steps": [
        "In a 9x13 inch baking dish combine the chicken, macaroni, milk, soup, cheese, onions and salt and pepper to taste. Mix all together, cover dish and let sit in refrigerator overnight.", 
        "Preheat oven to 350 degrees F (175 degrees C).", 
        "Bake at 350 degrees F (175 degrees C) for 1 hour."
    ], 
    "prep_time": "1 days", 
    "recipe_name": "Traci's Chicken Noodle Casserole"
}