{
    "ingredients": [
        {
            "amount": "2 teaspoons", 
            "ingredient": "lemon pepper"
        }, 
        {
            "amount": "1/2 teaspoon", 
            "ingredient": "dried marjoram"
        }, 
        {
            "amount": "1 teaspoon", 
            "ingredient": "dried basil"
        }, 
        {
            "amount": "1/8 teaspoon", 
            "ingredient": "dried thyme"
        }, 
        {
            "amount": "1 teaspoon", 
            "ingredient": "dried rosemary"
        }, 
        {
            "amount": "1/4 cup", 
            "ingredient": "white wine"
        }, 
        {
            "amount": "1 cup", 
            "ingredient": "water"
        }, 
        {
            "amount": "2 tablespoons", 
            "ingredient": "olive oil"
        }, 
        {
            "amount": "2 tablespoons", 
            "ingredient": "Italian salad dressing"
        }, 
        {
            "amount": "2 cloves", 
            "ingredient": "garlic, minced"
        }, 
        {
            "amount": "1", 
            "ingredient": "lemon, juiced"
        }, 
        {
            "amount": "1 tablespoon", 
            "ingredient": "lemon zest"
        }, 
        {
            "amount": "6 medium", 
            "ingredient": "potatoes, peeled and quartered"
        }
    ], 
    "prep_steps": [
        "In a small bowl, mix the lemon pepper, marjoram, basil, thyme, and rosemary. In a separate bowl, mix the wine, water, olive oil, dressing, garlic, lemon juice, lemon zest, and 1/2 the seasoning mixture. Pour into a medium glass baking dish. Place potatoes in the dish, coat with the mixture, and sprinkle with remaining seasonings. Cover, and refrigerate 8 hours, or overnight.", 
        "Preheat oven to 350 degrees F (175 degrees C).", 
        "Bake potatoes 1 hour and 15 minutes in the preheated oven, basting once half way through the bake time."
    ], 
    "prep_time": "9 hrs", 
    "recipe_name": "Oven Roasted Greek Potatoes"
}