{
    "ingredients": [
        {
            "amount": "1 pound", 
            "ingredient": "ground chicken"
        }, 
        {
            "amount": "1/2 (1 ounce) package", 
            "ingredient": "guacamole seasoning mix"
        }, 
        {
            "amount": "1/2 cup", 
            "ingredient": "chopped fresh cilantro, divided"
        }, 
        {
            "amount": "1/2", 
            "ingredient": "lime, juiced"
        }, 
        {
            "amount": "1/4 cup", 
            "ingredient": "minced onion"
        }, 
        {
            "amount": "8 slices", 
            "ingredient": "ciabatta bread"
        }, 
        {
            "amount": "1/4 cup", 
            "ingredient": "prepared salsa, divided"
        }, 
        {
            "amount": "4 slices", 
            "ingredient": "Cheddar cheese"
        }
    ], 
    "prep_steps": [
        "Preheat an outdoor grill for medium heat, and lightly oil the grate.", 
        "In a bowl, mix together the ground chicken, guacamole seasoning, half the cilantro, lime juice, and minced onion until thoroughly combined. Form the chicken mixture into 4 patties. Reserve the other half of the cilantro for garnish.", 
        "Grill the chicken burgers on the preheated grill until the meat is no longer pink inside, the juices run clear, and the burgers show browned grill marks, 5 to 8 minutes per side.", 
        "About 2 minutes before burgers are done, place slices of ciabatta bread onto the grill to toast, about 1 minute per side. About 1 minute before the burgers are done, top each burger with a slice of Cheddar cheese, and let melt.", 
        "Serve chicken burgers on the toasted ciabatta bread, topped with about 1 tablespoon of salsa and about 1 tablespoon of the reserved chopped cilantro."
    ], 
    "prep_time": "25 mins", 
    "recipe_name": "Fantastic Chicken Burgers"
}