{
    "ingredients": [
        {
            "amount": "1/4 cup", 
            "ingredient": "butter"
        }, 
        {
            "amount": "1 cup", 
            "ingredient": "heavy cream"
        }, 
        {
            "amount": "1 clove", 
            "ingredient": "garlic, crushed"
        }, 
        {
            "amount": "1 1/2 cups", 
            "ingredient": "freshly grated Parmesan cheese"
        }, 
        {
            "amount": "1/4 cup", 
            "ingredient": "chopped fresh parsley"
        }
    ], 
    "prep_steps": [
        "Melt butter in a medium saucepan over medium low heat. Add cream and simmer for 5 minutes, then add garlic and cheese and whisk quickly, heating through. Stir in parsley and serve."
    ], 
    "prep_time": "20 mins", 
    "recipe_name": "Alfredo Sauce"
}