{
    "ingredients": [
        {
            "amount": "2 tablespoons", 
            "ingredient": "all-purpose flour"
        }, 
        {
            "amount": "1 teaspoon", 
            "ingredient": "garlic powder"
        }, 
        {
            "amount": "1 pound", 
            "ingredient": "skinless, boneless chicken breast meat - cut into cubes"
        }, 
        {
            "amount": "1 teaspoon", 
            "ingredient": "vegetable oil"
        }, 
        {
            "amount": "1", 
            "ingredient": "red bell pepper, sliced"
        }, 
        {
            "amount": "1 small", 
            "ingredient": "onion, chopped"
        }, 
        {
            "amount": "1 cup", 
            "ingredient": "sliced zucchini"
        }, 
        {
            "amount": "1 cup", 
            "ingredient": "sliced fresh mushrooms"
        }, 
        {
            "amount": "1/4 cup", 
            "ingredient": "chicken broth"
        }, 
        {
            "amount": "1/4 cup", 
            "ingredient": "Italian salad dressing"
        }
    ], 
    "prep_steps": [
        "Mix flour, garlic powder, salt, and pepper together in a resealable plastic bag. Add cubed chicken to the bag and shake until well coated.", 
        "Heat the oil in a large skillet over medium heat. Add the chicken; cook and stir until the chicken is no longer pink, about 5 minutes. Stir in the bell pepper, onion, zucchini, mushrooms, chicken broth, and Italian dressing. Cover and simmer until vegetables and meat are tender, about 10 minutes."
    ], 
    "prep_time": "30 mins", 
    "recipe_name": "No-Tomatoes-Required Italian Seasoned Stir Fry"
}