{
    "ingredients": [
        {
            "amount": "4 cups", 
            "ingredient": "rolled oats"
        }, 
        {
            "amount": "1 (15 ounce) can", 
            "ingredient": "cannellini beans, drained and rinsed"
        }, 
        {
            "amount": "1/2 cup", 
            "ingredient": "white sugar"
        }, 
        {
            "amount": "1/2 cup", 
            "ingredient": "brown sugar"
        }, 
        {
            "amount": "1 teaspoon", 
            "ingredient": "vanilla extract"
        }, 
        {
            "amount": "1 teaspoon", 
            "ingredient": "baking powder"
        }, 
        {
            "amount": "1 teaspoon", 
            "ingredient": "baking soda"
        }, 
        {
            "amount": "1 teaspoon", 
            "ingredient": "ground cinnamon"
        }, 
        {
            "amount": "1/2 cup", 
            "ingredient": "chopped pitted dates"
        }, 
        {
            "amount": "1/2 cup", 
            "ingredient": "flaked coconut"
        }, 
        {
            "amount": "1/2 cup", 
            "ingredient": "raisins"
        }, 
        {
            "amount": "1/2 cup", 
            "ingredient": "chopped walnuts"
        }
    ], 
    "prep_steps": [
        "Preheat the oven to 325 degrees F (165 degrees C). Grease cookie sheets. Grind the oats in a blender until resembling coarse flour.", 
        "In a medium bowl, mash beans to a smooth paste. Stir in the white sugar, brown sugar and vanilla until well blended. Combine the ground oats, baking powder, baking soda and cinnamon; blend into the bean mixture. Stir in the dates, coconut, raisins and walnuts. Drop dough by heaping spoonfuls onto the prepared cookie sheet.", 
        "Bake for 10 to 15 minutes in the preheated oven, until golden. Cool on baking sheets for 5 minutes then remove to wire racks to cool completely."
    ], 
    "prep_time": "30 mins", 
    "recipe_name": "Power Cookies"
}