{
    "ingredients": [
        {
            "amount": "1 (18.25 ounce) package", 
            "ingredient": "yellow cake mix"
        }, 
        {
            "amount": "1 (3.4 ounce) package", 
            "ingredient": "instant vanilla pudding mix"
        }, 
        {
            "amount": "2 cups", 
            "ingredient": "sour cream"
        }, 
        {
            "amount": "2", 
            "ingredient": "eggs"
        }, 
        {
            "amount": "1/4 cup", 
            "ingredient": "vegetable oil"
        }, 
        {
            "amount": "1/4 cup", 
            "ingredient": "orange liqueur"
        }, 
        {
            "amount": "1 cup", 
            "ingredient": "white chocolate chips"
        }, 
        {
            "amount": "1/8 cup", 
            "ingredient": "confectioners' sugar for dusting"
        }
    ], 
    "prep_steps": [
        "Preheat oven to 350 degrees F(175 degrees C). Grease a 9 inch Bundt pan.", 
        "In a medium bowl, stir together the cake mix and pudding mix. Add the sour cream, eggs, oil and orange liqueur. Mix until smooth and well blended, then fold in the white chocolate chips. Pour the mixture into the prepared pan.", 
        "Bake for 1 hour in the preheated oven, until cake springs back to the touch. Allow cake to cool for 10 minutes in the pan, then turn out onto a wire rack to cool completely. When cake is cool, dust with confectioners' sugar and serve."
    ], 
    "prep_time": "1\u00bd hrs", 
    "recipe_name": "Fabulous Orange Cake"
}