{
    "ingredients": [
        {
            "amount": "1 large", 
            "ingredient": "avocado, peeled and pitted"
        }, 
        {
            "amount": "2 cloves", 
            "ingredient": "garlic, minced"
        }, 
        {
            "amount": "1", 
            "ingredient": "lemons, juiced"
        }, 
        {
            "amount": "1/4 cup", 
            "ingredient": "sour cream"
        }, 
        {
            "amount": "1/2 cup", 
            "ingredient": "chopped seeded cucumber"
        }, 
        {
            "amount": "1/2 teaspoon", 
            "ingredient": "red pepper flakes, or to taste"
        }, 
        {
            "amount": "1 tablespoon", 
            "ingredient": "chopped fresh cilantro"
        }, 
        {
            "amount": "1 tablespoon", 
            "ingredient": "chopped fresh mint"
        }
    ], 
    "prep_steps": [
        "In a medium bowl, combine the avocado, garlic, lemon juice, sour cream and cucumber. Mash with a fork until smooth. If your avocado is not quite ripe enough, you may wish to use a food processor. Season with red pepper flakes, cilantro, mint, salt and pepper, and mix well. Cover and refrigerate for 1 hour before serving."
    ], 
    "prep_time": "5 mins", 
    "recipe_name": "Avocado Tzatziki"
}