{
    "ingredients": [
        {
            "amount": "5", 
            "ingredient": "fresh tomatoes"
        }, 
        {
            "amount": "5", 
            "ingredient": "shallots, coarsely chopped"
        }, 
        {
            "amount": "1/2 cup", 
            "ingredient": "olive oil"
        }, 
        {
            "amount": "1/4 cup", 
            "ingredient": "balsamic vinegar"
        }, 
        {
            "amount": "1 loaf", 
            "ingredient": "French bread, for dipping"
        }
    ], 
    "prep_steps": [
        "Core and slice the tomatoes, and arrange them in a serving dish. Sprinkle the shallots over the tomatoes. Whisk the olive oil and balsamic vinegar together with a fork, then pour over the tomatoes. Let stand for 5 minutes before serving, or refrigerate, covered, for up to 3 days. Eat with French bread, and dip the bread in the marinade when finished with the tomatoes."
    ], 
    "prep_time": "15 mins", 
    "recipe_name": "Mediterranean Summer Tomatoes"
}