{
    "ingredients": [
        {
            "amount": "2 quarts", 
            "ingredient": "chicken broth"
        }, 
        {
            "amount": "5 pounds", 
            "ingredient": "potatoes, peeled and quartered"
        }, 
        {
            "amount": "5 cloves", 
            "ingredient": "garlic, chopped"
        }, 
        {
            "amount": "1 cup", 
            "ingredient": "heavy cream"
        }, 
        {
            "amount": "1/2 cup", 
            "ingredient": "sour cream"
        }, 
        {
            "amount": "3 tablespoons", 
            "ingredient": "chopped fresh chives"
        }, 
        {
            "amount": "1/2 teaspoon", 
            "ingredient": "salt"
        }, 
        {
            "amount": "1/4 cup", 
            "ingredient": "melted butter"
        }
    ], 
    "prep_steps": [
        "Bring chicken broth to a boil. Add potatoes and cook until tender but still firm, about 15 minutes; drain, reserving broth.", 
        "Stir in garlic, cream and 1 to 2 tablespoons broth; mash until creamy. Blend in sour cream, chives, salt and butter. Heat through and serve."
    ], 
    "prep_time": "25 mins", 
    "recipe_name": "Garlicky Potatoes"
}