{
    "ingredients": [
        {
            "amount": "1 cup", 
            "ingredient": "butter"
        }, 
        {
            "amount": "1/2 teaspoon", 
            "ingredient": "salt"
        }, 
        {
            "amount": "2 cups", 
            "ingredient": "chopped pecans"
        }, 
        {
            "amount": "1 tablespoon", 
            "ingredient": "vanilla extract"
        }, 
        {
            "amount": "2 cups", 
            "ingredient": "all-purpose flour"
        }, 
        {
            "amount": "1/2 cup", 
            "ingredient": "confectioners' sugar"
        }
    ], 
    "prep_steps": [
        "Preheat oven to 325 degrees F (170 degrees C).", 
        "Cream butter or margarine, gradually adding confectioners' sugar and salt. Cream until light and fluffy.", 
        "Stir in pecans and vanilla. Add flour gradually. Mix well. Shape dough into crescents using a teaspoon full for each crescent. Place on ungreased cookie sheet and bake 15-30 minutes. Do not brown. Let cool slightly, then roll cookies in additional confectioners' sugar."
    ], 
    "recipe_name": "Pecan Crescents"
}