{
    "ingredients": [
        {
            "amount": "4", 
            "ingredient": "skinless, boneless chicken breast halves - cut into bite-size pieces"
        }, 
        {
            "amount": "2 cloves", 
            "ingredient": "garlic, minced"
        }, 
        {
            "amount": "1/2 cup", 
            "ingredient": "all-purpose flour"
        }, 
        {
            "amount": "1 tablespoon", 
            "ingredient": "vegetable oil"
        }, 
        {
            "amount": "1 tablespoon", 
            "ingredient": "butter"
        }, 
        {
            "amount": "1 (14.5 ounce) can", 
            "ingredient": "chicken broth"
        }
    ], 
    "prep_steps": [
        "Place chicken in a bowl, and season with salt, pepper and garlic. Sprinkle the flour over the chicken pieces and toss to coat.", 
        "Heat the oil and butter in a large skillet over medium heat. Shake the excess flour off of the chicken, and reserve in the bowl. Place the chicken in the hot pan, and brown on all sides. Remove from the pan, and keep warm.", 
        "Whisk some of the chicken broth into the flour in the bowl until smooth. Stir this into the drippings in the skillet, then stir in the remaining broth. Bring to a boil, then reduce the heat to low, and return the chicken pieces to the skillet. Simmer over medium heat until the chicken is cooked through, and the sauce has thickened. Taste, and season with additional salt and pepper if desired."
    ], 
    "prep_time": "40 mins", 
    "recipe_name": "Chicken Voila"
}