{
    "ingredients": [
        {
            "amount": "2 tablespoons", 
            "ingredient": "vegetable oil"
        }, 
        {
            "amount": "2", 
            "ingredient": "onions, minced"
        }, 
        {
            "amount": "2 cloves", 
            "ingredient": "garlic, minced"
        }, 
        {
            "amount": "2 teaspoons", 
            "ingredient": "fresh ginger root, finely chopped"
        }, 
        {
            "amount": "6", 
            "ingredient": "whole cloves"
        }, 
        {
            "amount": "2 (2 inch) sticks", 
            "ingredient": "cinnamon, crushed"
        }, 
        {
            "amount": "1 teaspoon", 
            "ingredient": "ground cumin"
        }, 
        {
            "amount": "1 teaspoon", 
            "ingredient": "ground coriander"
        }, 
        {
            "amount": "1 teaspoon", 
            "ingredient": "cayenne pepper"
        }, 
        {
            "amount": "1 teaspoon", 
            "ingredient": "ground turmeric"
        }, 
        {
            "amount": "2 (15 ounce) cans", 
            "ingredient": "garbanzo beans"
        }, 
        {
            "amount": "1 cup", 
            "ingredient": "chopped fresh cilantro"
        }
    ], 
    "prep_steps": [
        "Heat oil in a large frying pan over medium heat, and fry onions until tender.", 
        "Stir in garlic, ginger, cloves, cinnamon, cumin, coriander, salt, cayenne, and turmeric. Cook for 1 minute over medium heat, stirring constantly. Mix in garbanzo beans and their liquid. Continue to cook and stir until all ingredients are well blended and heated through. Remove from heat. Stir in cilantro just before serving, reserving 1 tablespoon for garnish."
    ], 
    "prep_time": "40 mins", 
    "recipe_name": "Chickpea Curry"
}