{
    "ingredients": [
        {
            "amount": "1 cup", 
            "ingredient": "vegetable oil"
        }, 
        {
            "amount": "3", 
            "ingredient": "eggs"
        }, 
        {
            "amount": "1 1/2 cups", 
            "ingredient": "white sugar"
        }, 
        {
            "amount": "2 cups", 
            "ingredient": "all-purpose flour"
        }, 
        {
            "amount": "1 teaspoon", 
            "ingredient": "baking soda"
        }, 
        {
            "amount": "1 teaspoon", 
            "ingredient": "salt"
        }, 
        {
            "amount": "1 teaspoon", 
            "ingredient": "ground allspice"
        }, 
        {
            "amount": "1 teaspoon", 
            "ingredient": "ground cinnamon"
        }, 
        {
            "amount": "1 teaspoon", 
            "ingredient": "ground nutmeg"
        }, 
        {
            "amount": "1 cup", 
            "ingredient": "buttermilk"
        }, 
        {
            "amount": "1 1/4 teaspoons", 
            "ingredient": "vanilla extract"
        }, 
        {
            "amount": "1 cup", 
            "ingredient": "prunes, pitted and chopped"
        }, 
        {
            "amount": "1 1/2 cups", 
            "ingredient": "chopped pecans"
        }, 
        {
            "amount": "3/4 cup", 
            "ingredient": "butter"
        }, 
        {
            "amount": "3/4 cup", 
            "ingredient": "buttermilk"
        }, 
        {
            "amount": "1 1/2 teaspoons", 
            "ingredient": "dark corn syrup"
        }, 
        {
            "amount": "1 1/2 cups", 
            "ingredient": "white sugar"
        }, 
        {
            "amount": "2 teaspoons", 
            "ingredient": "vanilla extract"
        }
    ], 
    "prep_steps": [
        "Preheat oven to 350 degrees F (175 degrees C). Grease and flour Bundt or tube pan.", 
        "In a medium bowl, mix together flour, soda, salt, allspice, cinnamon and nutmeg. Set aside.", 
        "In a large bowl, combine oil, eggs and 1 1/2 cup sugar. Beat 2 minutes at medium speed.", 
        "Add flour mixture, alternating with 1 cup buttermilk, starting and ending with dry ingredients. beat well after each addition. Stir in prunes, pecans and 1 1/4 teaspoon vanilla.", 
        "Pour into greased and floured bundt or tube pan and bake at 350 degrees F (175 degrees C) for 1 hour or until a toothpick comes out clean when inserted in the center.", 
        "Make large, deep holes in hot cake and pour topping in holes and on top of cake a little at a time, giving it time to soak in.", 
        "For the topping: In saucepan, over medium heat, cook butter, 3/4 cup buttermilk, corn syrup and 1 1/2 cup sugar until sugar and butter melt. Remove from heat and add 2 teaspoons vanilla and stir."
    ], 
    "recipe_name": "Old Fashioned Prune Cake"
}