{
    "ingredients": [
        {
            "amount": "2/3 cup", 
            "ingredient": "milk"
        }, 
        {
            "amount": "2", 
            "ingredient": "eggs"
        }, 
        {
            "amount": "3 cups", 
            "ingredient": "bread flour"
        }, 
        {
            "amount": "1 1/2 teaspoons", 
            "ingredient": "salt"
        }, 
        {
            "amount": "2 1/2 tablespoons", 
            "ingredient": "white sugar"
        }, 
        {
            "amount": "1 teaspoon", 
            "ingredient": "chopped fresh rosemary"
        }, 
        {
            "amount": "1 teaspoon", 
            "ingredient": "chopped fresh thyme"
        }, 
        {
            "amount": "1 teaspoon", 
            "ingredient": "dried marjoram"
        }, 
        {
            "amount": "1 1/2 tablespoons", 
            "ingredient": "margarine"
        }, 
        {
            "amount": "2 teaspoons", 
            "ingredient": "active dry yeast"
        }
    ], 
    "prep_steps": [
        "Place ingredients in the bread machine in the order suggested by the manufacture. Select Basic or White Bread setting. Start."
    ], 
    "recipe_name": "Rosemary Herb Bread"
}