{
    "ingredients": [
        {
            "amount": "1/4 cup", 
            "ingredient": "butter"
        }, 
        {
            "amount": "2 tablespoons", 
            "ingredient": "olive oil"
        }, 
        {
            "amount": "1/2 large", 
            "ingredient": "onion, finely chopped"
        }, 
        {
            "amount": "2 large", 
            "ingredient": "carrots, sliced"
        }, 
        {
            "amount": "2 tablespoons", 
            "ingredient": "curry powder"
        }, 
        {
            "amount": "1/2 teaspoon", 
            "ingredient": "ground turmeric"
        }, 
        {
            "amount": "1 pinch", 
            "ingredient": "red pepper flakes"
        }, 
        {
            "amount": "1 head", 
            "ingredient": "cauliflower, broken into small florets"
        }, 
        {
            "amount": "2 large", 
            "ingredient": "potatoes, peeled and cubed"
        }
    ], 
    "prep_steps": [
        "Heat the butter and olive oil in a large skillet over medium heat. Add the onion and carrots; cook and stir until tender. Season with curry powder, turmeric, salt, pepper, and red pepper flakes.", 
        "Add the cauliflower and potatoes to the pan, and stir to coat with spices. Reduce heat to medium-low, cover, and simmer for 20 minutes, or until the potatoes are tender. Stir occasionally."
    ], 
    "prep_time": "35 mins", 
    "recipe_name": "Vegetable Curry"
}