{
    "ingredients": [
        {
            "amount": "6 cups", 
            "ingredient": "cubed pumpkin bread"
        }, 
        {
            "amount": "1 cup", 
            "ingredient": "chopped celery"
        }, 
        {
            "amount": "1 cup", 
            "ingredient": "butter or margarine"
        }, 
        {
            "amount": "2 cups", 
            "ingredient": "chopped red onion"
        }, 
        {
            "amount": "2 cups", 
            "ingredient": "sliced crimini mushrooms"
        }, 
        {
            "amount": "2 tablespoons", 
            "ingredient": "chopped fresh rosemary"
        }, 
        {
            "amount": "2 tablespoons", 
            "ingredient": "chopped fresh tarragon"
        }, 
        {
            "amount": "2 tablespoons", 
            "ingredient": "chopped fresh chives"
        }, 
        {
            "amount": "2 tablespoons", 
            "ingredient": "chopped fresh parsley"
        }, 
        {
            "amount": "1 1/2 teaspoons", 
            "ingredient": "salt"
        }, 
        {
            "amount": "1 teaspoon", 
            "ingredient": "ground black pepper"
        }, 
        {
            "amount": "6 tablespoons", 
            "ingredient": "chicken broth"
        }
    ], 
    "prep_steps": [
        "Spread bread cubes on a baking sheet, and let dry overnight. Alternatively, heat in a 250 degrees F (120 degrees C) oven until dry, about 1 hour.", 
        "Preheat oven to 375 degrees F (190 degrees C). Butter a 2 quart baking dish.", 
        "Melt butter in a large skillet over medium heat. Saute celery and onions for about 10 minutes. Add mushrooms, and continue cooking for about 8 minutes, or until tender. Season with rosemary, tarragon, chives, parsley, salt, and pepper. Fold in bread cubes, and add enough broth to moisten. Transfer to prepared dish, and cover with foil.", 
        "Bake in preheated oven for 40 minutes. Remove cover, and bake for 10 minutes, or until top is crisp."
    ], 
    "prep_time": "2\u00bd hrs", 
    "recipe_name": "Ibby's Pumpkin Mushroom Stuffing"
}