{
    "ingredients": [
        {
            "amount": "2 (10.5 ounce) cans", 
            "ingredient": "condensed chicken and rice soup"
        }, 
        {
            "amount": "1 (10 ounce) can", 
            "ingredient": "diced tomatoes with green chile peppers"
        }, 
        {
            "amount": "1 (8 ounce) can", 
            "ingredient": "tomato sauce"
        }, 
        {
            "amount": "8 ounces", 
            "ingredient": "tortilla chips"
        }, 
        {
            "amount": "4 ounces", 
            "ingredient": "shredded Cheddar cheese"
        }
    ], 
    "prep_steps": [
        "In a medium saucepan over medium high heat, combine the soup, tomatoes and chilies and tomato sauce. Bring just to a boil and remove from heat. Place some tortilla chips in the bottom of an individual bowl and sprinkle cheese over the chips. Pour soup over the chips and cheese."
    ], 
    "recipe_name": "Easy Tortilla Soup"
}