{
    "ingredients": [
        {
            "amount": "2 tablespoons", 
            "ingredient": "butter"
        }, 
        {
            "amount": "2 tablespoons", 
            "ingredient": "margarine"
        }, 
        {
            "amount": "3 tablespoons", 
            "ingredient": "all-purpose flour"
        }, 
        {
            "amount": "1 cube", 
            "ingredient": "chicken bouillon, crumbled"
        }, 
        {
            "amount": "1 1/2 cups", 
            "ingredient": "boiling water"
        }, 
        {
            "amount": "1 cup", 
            "ingredient": "2% milk"
        }
    ], 
    "prep_steps": [
        "Melt butter and margarine in a saucepan over medium-low heat; stir in flour and bouillon until roux is well blended. Continue to cook and stir until thickened and lightly browned, about 5 minutes. Increase heat to medium and whisk water into roux until smooth. Stir in milk; cook and stir until thickened, about 2 minutes more. Season with white pepper."
    ], 
    "prep_time": "15 mins", 
    "recipe_name": "White Sauce for Pasta"
}