{
    "ingredients": [
        {
            "amount": "1 (8 ounce) package", 
            "ingredient": "cream cheese"
        }, 
        {
            "amount": "1 (7 ounce) jar", 
            "ingredient": "marshmallow creme"
        }, 
        {
            "amount": "3/4 cup", 
            "ingredient": "confectioners' sugar"
        }, 
        {
            "amount": "1/8 teaspoon", 
            "ingredient": "lemon juice"
        }
    ], 
    "prep_steps": [
        "In large bowl, blend cream cheese, marshmallow creme, sugar and lemon juice with electric mixer until smooth."
    ], 
    "prep_time": "5 mins", 
    "recipe_name": "Fruit Dip"
}