{
    "ingredients": [
        {
            "amount": "2 tablespoons", 
            "ingredient": "butter"
        }, 
        {
            "amount": "1 1/2 pounds", 
            "ingredient": "lamb shoulder"
        }, 
        {
            "amount": "2", 
            "ingredient": "large eggplants, peeled and chopped"
        }, 
        {
            "amount": "2 large", 
            "ingredient": "tomatoes, chopped"
        }, 
        {
            "amount": "2 large", 
            "ingredient": "onions, chopped"
        }, 
        {
            "amount": "2", 
            "ingredient": "green bell peppers, chopped"
        }, 
        {
            "amount": "10 cloves", 
            "ingredient": "garlic, chopped"
        }, 
        {
            "amount": "1 tablespoon", 
            "ingredient": "tomato paste"
        }, 
        {
            "amount": "1/2 cup", 
            "ingredient": "water"
        }, 
        {
            "amount": "1 teaspoon", 
            "ingredient": "allspice"
        }, 
        {
            "amount": "2 teaspoons", 
            "ingredient": "salt"
        }, 
        {
            "amount": "1 teaspoon", 
            "ingredient": "ground black pepper"
        }
    ], 
    "prep_steps": [
        "In a large pot, melt the butter over medium heat, and brown the lamb on all sides. Mix in the eggplants, tomatoes, onions, green bell peppers, and garlic. Cook and stir until tender and lightly browned.", 
        "In a small bowl, blend the tomato paste and water. Mix into the pot with the lamb. Season lamb with allspice, salt, and pepper. Reduce heat, and simmer about 1 1/2 hours, stirring occasionally, until the meat shreds easily with a fork. Add a little water as necessary to keep the ingredients moist."
    ], 
    "prep_time": "2\u00bc hrs", 
    "recipe_name": "Eggplant and Lamb Stew"
}