{
    "ingredients": [
        {
            "amount": "1 pound", 
            "ingredient": "lean ground beef"
        }, 
        {
            "amount": "1 tablespoon", 
            "ingredient": "chili powder"
        }, 
        {
            "amount": "2 cups", 
            "ingredient": "low-fat salad dressing"
        }, 
        {
            "amount": "1 cup", 
            "ingredient": "ketchup"
        }, 
        {
            "amount": "1 (1.25 ounce) package", 
            "ingredient": "taco seasoning mix"
        }, 
        {
            "amount": "1 head", 
            "ingredient": "iceberg lettuce - rinsed, dried, and chopped"
        }, 
        {
            "amount": "1 head", 
            "ingredient": "romaine lettuce- rinsed, dried and chopped"
        }, 
        {
            "amount": "3 large", 
            "ingredient": "tomatoes, diced"
        }, 
        {
            "amount": "1", 
            "ingredient": "green bell pepper, diced"
        }, 
        {
            "amount": "1", 
            "ingredient": "yellow bell pepper, diced"
        }, 
        {
            "amount": "1 bunch", 
            "ingredient": "green onions, chopped"
        }, 
        {
            "amount": "1 (4 ounce) can", 
            "ingredient": "green chile peppers, finely chopped"
        }, 
        {
            "amount": "1 (15 ounce) can", 
            "ingredient": "kidney beans, drained"
        }, 
        {
            "amount": "1 (15 ounce) can", 
            "ingredient": "garbanzo beans, drained"
        }, 
        {
            "amount": "12 ounces", 
            "ingredient": "shredded Cheddar cheese"
        }, 
        {
            "amount": "1 (14.5 ounce) package", 
            "ingredient": "corn tortilla chips"
        }
    ], 
    "prep_steps": [
        "Brown the beef, drain, season with chili powder and set aside to cool.", 
        "Prepare the dressing by whisking the Miracle Whip, ketchup and taco seasoning mix together in a small bowl.", 
        "In a large bowl, combine iceberg lettuce, romaine lettuce, tomatoes, green pepper, red or yellow pepper, green onions, jalapeno peppers, kidney beans, garbanzo beans, half of the cheese, half of the crushed chips, dressing and cooled ground beef. Mix well, cover and refrigerate.", 
        "Just before serving, top the salad with the other half of the cheese and crushed chips."
    ], 
    "prep_time": "35 mins", 
    "recipe_name": "Joy's Taco Salad"
}