{
    "ingredients": [
        {
            "amount": "2 1/2 cups", 
            "ingredient": "sliced canned beets, juice reserved"
        }, 
        {
            "amount": "1/2 cup", 
            "ingredient": "apple cider vinegar"
        }, 
        {
            "amount": "2 tablespoons", 
            "ingredient": "sugar"
        }, 
        {
            "amount": "2", 
            "ingredient": "whole cloves"
        }, 
        {
            "amount": "3", 
            "ingredient": "black peppercorns"
        }, 
        {
            "amount": "1", 
            "ingredient": "bay leaf"
        }, 
        {
            "amount": "1/2 teaspoon", 
            "ingredient": "salt"
        }, 
        {
            "amount": "1 small", 
            "ingredient": "onion, sliced"
        }
    ], 
    "prep_steps": [
        "Place the beets into a medium bowl and set aside.", 
        "In a medium saucepan, combine vinegar and 1/2 cup beet juice and bring to a boil. Add sugar, cloves, peppercorns, bay leaf, salt and onion, and return to a boil. Remove from heat, and pour mixture over the beets. Toss until coated, cover and chill. Serve the beets very cold."
    ], 
    "prep_time": "1 hr", 
    "recipe_name": "Spiced Pickled Beets"
}