{
    "ingredients": [
        {
            "amount": "1 3/4 cups", 
            "ingredient": "instant mashed potato flakes"
        }, 
        {
            "amount": "1 1/2 cups", 
            "ingredient": "dry milk powder"
        }, 
        {
            "amount": "2 tablespoons", 
            "ingredient": "chicken bouillon granules"
        }, 
        {
            "amount": "2 teaspoons", 
            "ingredient": "dried minced onion"
        }, 
        {
            "amount": "1 teaspoon", 
            "ingredient": "dried parsley"
        }, 
        {
            "amount": "1/4 teaspoon", 
            "ingredient": "ground white pepper"
        }, 
        {
            "amount": "1/4 teaspoon", 
            "ingredient": "dried thyme"
        }, 
        {
            "amount": "1/8 teaspoon", 
            "ingredient": "ground turmeric"
        }, 
        {
            "amount": "1 1/2 teaspoons", 
            "ingredient": "seasoning salt"
        }
    ], 
    "prep_steps": [
        "Combine potato flakes, dry milk, bouillon granules, onion, parsley, pepper, thyme, turmeric and seasoning salt in a bowl and stir to mix. Pour into a 1 quart jar.", 
        "Attach the following instructions: To serve, place 1/2 cup soup mix in bowl. Stir in 1 cup boiling water until smooth."
    ], 
    "prep_time": "15 mins", 
    "recipe_name": "Potato Soup Mix "
}