{
    "ingredients": [
        {
            "amount": "6 ounces", 
            "ingredient": "uncooked spaghetti"
        }, 
        {
            "amount": "1", 
            "ingredient": "egg"
        }, 
        {
            "amount": "1/4 cup", 
            "ingredient": "milk"
        }, 
        {
            "amount": "1/2 cup", 
            "ingredient": "sour cream"
        }, 
        {
            "amount": "1 (10 ounce) package", 
            "ingredient": "frozen chopped spinach, thawed"
        }, 
        {
            "amount": "1/2 (14 ounce) can", 
            "ingredient": "artichoke hearts, drained and chopped"
        }, 
        {
            "amount": "1 (8 ounce) package", 
            "ingredient": "shredded Monterey Jack cheese"
        }, 
        {
            "amount": "4 tablespoons", 
            "ingredient": "grated Parmesan cheese, divided"
        }, 
        {
            "amount": "1 teaspoon", 
            "ingredient": "dried minced onion"
        }
    ], 
    "prep_steps": [
        "Bring a large pot of lightly salted water to a boil. Cook spaghetti in boiling water for 8 to 10 minutes, or until al dente; drain. Preheat oven to 350 degrees F (175 degrees C).", 
        "In a 2 quart casserole dish, whisk together egg, milk, and sour cream. Using a wooden spoon, stir in spinach, artichoke hearts, Monterey Jack cheese, 2 tablespoons Parmesan cheese, and cooked spaghetti. Season with minced onion, salt, and pepper. Top with a sprinkling of paprika and remaining Parmesan cheese.", 
        "Cover, and bake in preheated oven for 15 minutes. Remove cover, and bake for another 15 minutes. Let stand 2 minutes before serving."
    ], 
    "prep_time": "50 mins", 
    "recipe_name": "Cheesy Spinach Casserole"
}