{
    "ingredients": [
        {
            "amount": "1 cup", 
            "ingredient": "uncooked orzo pasta"
        }, 
        {
            "amount": "2 tablespoons", 
            "ingredient": "extra virgin olive oil, divided"
        }, 
        {
            "amount": "1 pound", 
            "ingredient": "ground lamb"
        }, 
        {
            "amount": "2 cloves", 
            "ingredient": "garlic, chopped"
        }, 
        {
            "amount": "1 tablespoon", 
            "ingredient": "ground coriander"
        }, 
        {
            "amount": "4 cups", 
            "ingredient": "fresh spinach leaves, chopped"
        }, 
        {
            "amount": "3", 
            "ingredient": "tomatoes, seeded and chopped"
        }, 
        {
            "amount": "1", 
            "ingredient": "lemon, zested and juiced"
        }, 
        {
            "amount": "1/4 cup", 
            "ingredient": "chopped fresh mint leaves"
        }, 
        {
            "amount": "1/4 cup", 
            "ingredient": "chopped fresh parsley"
        }, 
        {
            "amount": "5", 
            "ingredient": "green onions, chopped"
        }, 
        {
            "amount": "1 cup", 
            "ingredient": "crumbled feta cheese"
        }
    ], 
    "prep_steps": [
        "Bring a pot of lightly salted water to a boil. Add orzo pasta, cook for 5 minutes, or until al dente. Drain.", 
        "Heat 1 tablespoon olive oil in a skillet over medium heat. Place the lamb and garlic in the skillet. Season lamb with coriander, salt, and pepper. Cook until evenly browned. Remove from heat, and drain.", 
        "In a large bowl, mix the spinach, tomatoes, lemon juice and zest, mint, parsley, green onions, and remaining olive oil. Toss with the orzo, lamb, and feta cheese to serve."
    ], 
    "prep_time": "35 mins", 
    "recipe_name": "Mediterranean Orzo Spinach Salad"
}