{
    "ingredients": [
        {
            "amount": "6 cups", 
            "ingredient": "all-purpose flour"
        }, 
        {
            "amount": "2 tablespoons", 
            "ingredient": "baking powder"
        }, 
        {
            "amount": "1 tablespoon", 
            "ingredient": "salt"
        }, 
        {
            "amount": "1 cup", 
            "ingredient": "dry milk powder"
        }, 
        {
            "amount": "1 cup", 
            "ingredient": "shortening"
        }
    ], 
    "prep_steps": [
        "In a large bowl, mix together flour, baking powder, salt and dry milk. Cut in shortening until mixture resembles coarse cornmeal."
    ], 
    "prep_time": "5 mins", 
    "recipe_name": "Complete Pancake Mix"
}