{
    "ingredients": [
        {
            "amount": "1 1/8 cups", 
            "ingredient": "warm water (110 degrees F/45 degrees C)"
        }, 
        {
            "amount": "1 teaspoon", 
            "ingredient": "salt"
        }, 
        {
            "amount": "2 tablespoons", 
            "ingredient": "white sugar"
        }, 
        {
            "amount": "1/2 cup", 
            "ingredient": "diced sharp Cheddar cheese"
        }, 
        {
            "amount": "5 1/2 tablespoons", 
            "ingredient": "fresh chopped jalapeno peppers"
        }, 
        {
            "amount": "3 cups", 
            "ingredient": "bread flour"
        }, 
        {
            "amount": "1/2 tablespoon", 
            "ingredient": "active dry yeast"
        }
    ], 
    "prep_steps": [
        "Add ingredients according to the bread machine manufacturer's directions.", 
        "Set your machine on regular basic bread. I used setting 1 and it turned out great. Hope you like this one!!!"
    ], 
    "prep_time": "3 hrs", 
    "recipe_name": "Jalapeno Bread II"
}