{
    "ingredients": [
        {
            "amount": "5 tablespoons", 
            "ingredient": "olive oil, divided"
        }, 
        {
            "amount": "1 (8 ounce) package", 
            "ingredient": "sliced fresh mushrooms"
        }, 
        {
            "amount": "1", 
            "ingredient": "onion, chopped"
        }, 
        {
            "amount": "2 cloves", 
            "ingredient": "garlic, chopped"
        }, 
        {
            "amount": "1 pound", 
            "ingredient": "large shrimp, peeled and deveined"
        }, 
        {
            "amount": "1 1/4 teaspoons", 
            "ingredient": "salt, divided"
        }, 
        {
            "amount": "4", 
            "ingredient": "skinless, boneless chicken breast halves - cut into 1 inch cubes"
        }, 
        {
            "amount": "3 tablespoons", 
            "ingredient": "all-purpose flour, divided"
        }, 
        {
            "amount": "1/4 cup", 
            "ingredient": "dry white wine"
        }, 
        {
            "amount": "1 1/4 cups", 
            "ingredient": "water"
        }
    ], 
    "prep_steps": [
        "Heat 1 tablespoon oil in a large skillet over medium high heat. Saute mushrooms until golden; remove from skillet with a slotted spoon and set aside.", 
        "Add another 2 tablespoons oil to skillet. Saute onion, garlic and shrimp until opaque. Remove from skillet and add to mushrooms.", 
        "In a shallow dish or bowl mix 2 tablespoons flour with 3/4 teaspoon salt. Dredge chicken in flour to coat. Add 1 tablespoon oil to skillet and saute chicken in oil for 3 to 5 minutes or until no longer pink. Add chicken to mushroom/shrimp mixture.", 
        "Heat 1 tablespoon oil in skillet and stir in 1 tablespoon flour. Cook about 30 seconds, stirring constantly, until brown. Stir in wine, 1/2 teaspoon salt and water. Boil for 1 minute.", 
        "Reduce heat to medium low and return shrimp and chicken mixture to skillet. Simmer for about 10 minutes, season with pepper and serve."
    ], 
    "prep_time": "40 mins", 
    "recipe_name": "Chicken and Shrimp"
}