{
    "ingredients": [
        {
            "amount": "1 (10.75 ounce) loaf", 
            "ingredient": "day-old bread, torn into small pieces"
        }, 
        {
            "amount": "4 cups", 
            "ingredient": "milk"
        }, 
        {
            "amount": "2 cups", 
            "ingredient": "brown sugar"
        }, 
        {
            "amount": "1/2 cup", 
            "ingredient": "butter, melted"
        }, 
        {
            "amount": "3", 
            "ingredient": "eggs, beaten"
        }, 
        {
            "amount": "2 teaspoons", 
            "ingredient": "vanilla extract"
        }, 
        {
            "amount": "1 cup", 
            "ingredient": "butterscotch chips"
        }
    ], 
    "prep_steps": [
        "Preheat oven to 350 degrees F (175 degrees C). Butter a 9x13 inch baking dish.", 
        "In a large bowl, combine bread, milk, sugar, butter, eggs, vanilla and butterscotch chips; mixture should be the consistency of oatmeal. Pour into prepared pan.", 
        "Bake in preheated oven 1 hour, until nearly set. (It should have a \"thigh wiggle\" or wiggle as much as a well endowed thigh.) Serve warm or cold."
    ], 
    "prep_time": "1\u00bc hrs", 
    "recipe_name": "Butterscotch Bread Pudding"
}