{
    "ingredients": [
        {
            "amount": "2 cups", 
            "ingredient": "uncooked sushi (sticky) or medium-grain rice"
        }, 
        {
            "amount": "4 cups", 
            "ingredient": "water"
        }, 
        {
            "amount": "2/3 cup", 
            "ingredient": "peanut butter"
        }, 
        {
            "amount": "1 cup", 
            "ingredient": "hot water"
        }, 
        {
            "amount": "2 tablespoons", 
            "ingredient": "soy sauce"
        }, 
        {
            "amount": "2 tablespoons", 
            "ingredient": "rice vinegar"
        }, 
        {
            "amount": "3 tablespoons", 
            "ingredient": "white sugar"
        }, 
        {
            "amount": "3 cloves", 
            "ingredient": "garlic, minced"
        }, 
        {
            "amount": "3", 
            "ingredient": "green onions, chopped"
        }, 
        {
            "amount": "1/4 teaspoon", 
            "ingredient": "red pepper flakes"
        }, 
        {
            "amount": "1 (10 ounce) bag", 
            "ingredient": "baby spinach leaves"
        }, 
        {
            "amount": "1 (8 ounce) package", 
            "ingredient": "baked tofu, cut into bite-size pieces"
        }
    ], 
    "prep_steps": [
        "Combine the rice and 4 cups of water in a saucepan and bring to a boil. Cover and reduce heat to low; simmer until rice is tender and water has been absorbed, about 20 minutes.", 
        "In a separate saucepan, whisk together the peanut butter, 1 cup hot water, soy sauce, rice vinegar, sugar, garlic, green onions and red pepper flakes. Bring to a simmer over medium heat. Cook, stirring occasionally, and adding more hot water 1/4 cup at a time to maintain a pourable consistency.", 
        "Bring about 1 inch of water to a boil in a large pot. Place the spinach and tofu into a steamer basket and set over the boiling water. Cover and steam until spinach has wilted and tofu is heated through, about 7 minutes.", 
        "To serve, place spinach and tofu over white rice and smother in peanut sauce."
    ], 
    "prep_time": "45 mins", 
    "recipe_name": "Swimming Angels"
}