{
    "ingredients": [
        {
            "amount": "1 1/2 cups", 
            "ingredient": "all-purpose flour"
        }, 
        {
            "amount": "2 envelopes", 
            "ingredient": "Fleischmann's\u00ae RapidRise Yeast"
        }, 
        {
            "amount": "2 teaspoons", 
            "ingredient": "sugar"
        }, 
        {
            "amount": "1/2 teaspoon", 
            "ingredient": "salt"
        }, 
        {
            "amount": "3/4 cup", 
            "ingredient": "very warm water (120 degrees F to 130 degrees F)"
        }, 
        {
            "amount": "3 tablespoons", 
            "ingredient": "olive oil"
        }, 
        {
            "amount": "12 ounces", 
            "ingredient": "fully cooked, frozen, breaded chicken (breast or tenders), chopped"
        }, 
        {
            "amount": "2 cups", 
            "ingredient": "spaghetti sauce"
        }, 
        {
            "amount": "1 cup", 
            "ingredient": "Italian blend shredded cheese"
        }, 
        {
            "amount": "1 teaspoon", 
            "ingredient": "Spice Islands\u00ae Italian Herb Seasoning"
        }
    ], 
    "prep_steps": [
        "Mix batter ingredients together in a pre-sprayed 8x8-inch baking dish. Let rest 5 to 10 minutes.", 
        "Top batter evenly with chicken. Pour marinara sauce over chicken, sprinkle with cheese and herbs.", 
        "Bake by placing in a COLD oven; set temperature to 350 degrees F. Bake for 30 minutes, or until done."
    ], 
    "prep_time": "45 mins", 
    "recipe_name": "1-Dish Chicken Parmesan"
}