{
    "ingredients": [
        {
            "amount": "1 cup", 
            "ingredient": "all-purpose flour"
        }, 
        {
            "amount": "1 cup", 
            "ingredient": "quick cooking oats"
        }, 
        {
            "amount": "1/4 cup", 
            "ingredient": "brown sugar"
        }, 
        {
            "amount": "2 teaspoons", 
            "ingredient": "baking powder"
        }, 
        {
            "amount": "1/4 teaspoon", 
            "ingredient": "ground cinnamon"
        }, 
        {
            "amount": "1/4 teaspoon", 
            "ingredient": "ground cloves"
        }, 
        {
            "amount": "1/2 teaspoon", 
            "ingredient": "salt"
        }, 
        {
            "amount": "1 cup", 
            "ingredient": "milk"
        }, 
        {
            "amount": "1", 
            "ingredient": "egg, beaten"
        }, 
        {
            "amount": "3/4 cup", 
            "ingredient": "canned pumpkin"
        }, 
        {
            "amount": "2 tablespoons", 
            "ingredient": "vegetable oil"
        }, 
        {
            "amount": "3/4 cup", 
            "ingredient": "semisweet chocolate chips"
        }
    ], 
    "prep_steps": [
        "Stir together flour, oats, brown sugar, baking powder, cinnamon, cloves, and salt in a large bowl. In a separate large bowl, lightly beat together the milk, egg, pumpkin, and oil. Stir flour mixture into the pumpkin mixture, blending just until moistened.", 
        "Heat a lightly greased griddle over medium high heat.", 
        "Pour batter, 1/3 cup at a time, onto the prepared griddle. Make a jack-o-lantern face in each pancake with the chocolate chips. Cook until bubbles appear on the surface, then flip and cook until golden brown on the other side, about 5 minutes per side."
    ], 
    "prep_time": "20 mins", 
    "recipe_name": "Jack-O-Lantern Pumpkin Pancakes"
}