{
    "ingredients": [
        {
            "amount": "1 1/2 pounds", 
            "ingredient": "carrots, coarsely chopped"
        }, 
        {
            "amount": "2 pounds", 
            "ingredient": "parsnips, peeled and cut into 1/2 inch pieces"
        }, 
        {
            "amount": "1/2 cup", 
            "ingredient": "butter, diced and softened"
        }, 
        {
            "amount": "1 pinch", 
            "ingredient": "ground nutmeg"
        }
    ], 
    "prep_steps": [
        "Bring a large pot of salted water to a boil. Add carrots, cover partially, and simmer 5 minutes. Add parsnips, and cover partially. Simmer until vegetables are very tender, about 15 minutes. Drain well.", 
        "Return vegetables to saucepan, and stir over medium heat until any excess moisture evaporates. Transfer to food processor. Add butter, and process until smooth. Season with nutmeg, salt, and pepper. Can be made 4 hours ahead. Rewarm over low heat, stirring often. Transfer to bowl. Serve."
    ], 
    "recipe_name": "Whipped Carrots And Parsnips"
}