{
    "ingredients": [
        {
            "amount": "3 tablespoons", 
            "ingredient": "butter"
        }, 
        {
            "amount": "3 cups", 
            "ingredient": "apple juice"
        }, 
        {
            "amount": "1 cup", 
            "ingredient": "dry white wine"
        }, 
        {
            "amount": "1 1/4 pounds", 
            "ingredient": "turnips"
        }, 
        {
            "amount": "1 1/4 pounds", 
            "ingredient": "parsnip"
        }, 
        {
            "amount": "1 1/4 pounds", 
            "ingredient": "carrots"
        }, 
        {
            "amount": "1 1/4 pounds", 
            "ingredient": "sweet potatoes"
        }, 
        {
            "amount": "1 1/4 pounds", 
            "ingredient": "rutabagas"
        }
    ], 
    "prep_steps": [
        "Boil apple juice and wine in a large saucepan until reduced to 3/4 cup, about 30 minutes. Whisk in butter or margarine.", 
        "Preheat oven to 425 degrees F (220 degrees C).", 
        "Peel and cut vegetables into l/2 inch pieces. Divide between 2 roasting pans. Pour apple juice mixture over vegetables. Sprinkle with salt and pepper. Toss to coat.", 
        "Roast until vegetables are tender and golden, stirring occasionally, about 40 minutes."
    ], 
    "recipe_name": "Roasted Root Vegetables With Apple Juice"
}