{
    "ingredients": [
        {
            "amount": "3 cups", 
            "ingredient": "fresh strawberries, hulled and quartered lengthwise"
        }, 
        {
            "amount": "3/4 cup", 
            "ingredient": "white sugar, or to taste"
        }, 
        {
            "amount": "1 1/2 cups", 
            "ingredient": "white wine"
        }
    ], 
    "prep_steps": [
        "Place strawberries into a medium bowl. Dust with sugar, then pour the wine over them. Cover and refrigerate for 2 to 3 hours.", 
        "Let the strawberries stand at room temperature for 15 to 20 minutes before serving. Spoon berries into 6 dessert cups, and distribute the remaining wine over the berries."
    ], 
    "prep_time": "2\u00bc hrs", 
    "recipe_name": "Strawberries and Wine"
}