{
    "ingredients": [
        {
            "amount": "8 ounces", 
            "ingredient": "fresh tortellini pasta"
        }, 
        {
            "amount": "1 slice", 
            "ingredient": "ham"
        }, 
        {
            "amount": "16 ounces", 
            "ingredient": "frozen green peas"
        }, 
        {
            "amount": "8 ounces", 
            "ingredient": "fresh mushrooms, sliced"
        }, 
        {
            "amount": "1 1/2 (16 ounce) jars", 
            "ingredient": "Alfredo-style pasta sauce"
        }
    ], 
    "prep_steps": [
        "To Cook Tortellini: Add pasta to a large pot of boiling salted water. Let cook for 8 to 10 minutes or until al dente. Drain and set aside.", 
        "Heat a skillet to medium heat. Add the ham, peas and mushrooms and toss together until heated through. Add sauce and reserved tortellini and stir all together. Let all simmer for 3 to 5 minutes and serve."
    ], 
    "recipe_name": "Angela's Alfredo Ham"
}