{
    "ingredients": [
        {
            "amount": "1 cup", 
            "ingredient": "dry bread crumbs"
        }, 
        {
            "amount": "1/2 cup", 
            "ingredient": "grated Parmesan cheese"
        }, 
        {
            "amount": "2 pounds", 
            "ingredient": "cube steak"
        }, 
        {
            "amount": "1/4 cup", 
            "ingredient": "vegetable oil for frying"
        }, 
        {
            "amount": "1 (32 ounce) jar", 
            "ingredient": "spaghetti sauce"
        }
    ], 
    "prep_steps": [
        "In a medium bowl, combine the bread crumbs, Parmesan cheese, salt, and pepper. Dredge the meat in the crumbs.", 
        "Heat oil in a large skillet over medium-high heat. Place the breaded meat in the oil, and saute for 5 to 10 minutes, or until well browned on both sides.", 
        "Drain excess oil, and pour in the spaghetti sauce. Reduce heat to low, and simmer for 30 minutes."
    ], 
    "prep_time": "55 mins", 
    "recipe_name": "Steak Parmesan"
}