{
    "ingredients": [
        {
            "amount": "1", 
            "ingredient": "whole chicken"
        }, 
        {
            "amount": "1 medium", 
            "ingredient": "yellow onion, chopped"
        }, 
        {
            "amount": "8", 
            "ingredient": "carrots, peeled and sliced"
        }, 
        {
            "amount": "1", 
            "ingredient": "parsnip, chopped"
        }, 
        {
            "amount": "3 cloves", 
            "ingredient": "garlic, crushed"
        }, 
        {
            "amount": "2 stalks", 
            "ingredient": "celery, chopped"
        }, 
        {
            "amount": "1 bunch", 
            "ingredient": "fresh dill weed, chopped"
        }, 
        {
            "amount": "2 1/2 cups", 
            "ingredient": "matzo meal"
        }, 
        {
            "amount": "6", 
            "ingredient": "eggs"
        }, 
        {
            "amount": "6 tablespoons", 
            "ingredient": "vegetable oil"
        }, 
        {
            "amount": "2 teaspoons", 
            "ingredient": "salt"
        }
    ], 
    "prep_steps": [
        "Place the chicken into a large pot with the breast side down. Fill with enough cold water to reach about 3 inches from the top of the pot. Add the onion, carrot, parsnip, celery and dill. Bring to a simmer over medium heat, and cook, partially covered for 2 hours. Do not let the soup boil. Skim any fat from the top of the soup, and add the garlic cloves. Partially cover, and simmer for another 2 hours for best flavor.", 
        "In a medium bowl, mix together the matzo meal, eggs, oil, salt, and 1/4 cup of the broth from the chicken soup. Refrigerate for about 20 minutes to set up.", 
        "Bring a separate pot of water to a rolling boil. Roll the matzo mixture into about 16 balls. Wet your hands to keep the dough from sticking to them. Drop the balls into boiling water, cover, and cook for about 35 minutes.", 
        "While the matzo balls are cooking, strain the broth from the chicken soup. Return the broth to the pot. Remove the bones and skin from the chicken and cut into pieces. Return to the soup, or leave the soup as a broth, and reserve the chicken for other uses. Remove the matzo balls from the water, and serve in the hot chicken soup."
    ], 
    "prep_time": "4 hrs", 
    "recipe_name": "Jewish Chicken Soup"
}