{
    "ingredients": [
        {
            "amount": "1/2 cup", 
            "ingredient": "shortening"
        }, 
        {
            "amount": "1/2 cup", 
            "ingredient": "butter, softened"
        }, 
        {
            "amount": "3/4 cup", 
            "ingredient": "packed brown sugar"
        }, 
        {
            "amount": "3/4 cup", 
            "ingredient": "white sugar"
        }, 
        {
            "amount": "2", 
            "ingredient": "eggs"
        }, 
        {
            "amount": "1 teaspoon", 
            "ingredient": "vanilla extract"
        }, 
        {
            "amount": "1 tablespoon", 
            "ingredient": "coffee-flavored liqueur"
        }, 
        {
            "amount": "2 cups", 
            "ingredient": "all-purpose flour"
        }, 
        {
            "amount": "1 teaspoon", 
            "ingredient": "baking soda"
        }, 
        {
            "amount": "1 teaspoon", 
            "ingredient": "salt"
        }, 
        {
            "amount": "2 cups", 
            "ingredient": "rolled oats"
        }, 
        {
            "amount": "2 cups", 
            "ingredient": "semisweet chocolate chips"
        }, 
        {
            "amount": "1 cup", 
            "ingredient": "chopped walnuts"
        }
    ], 
    "prep_steps": [
        "Preheat oven to 375 degrees F (190 degrees C). Grease cookie sheets.", 
        "In a large bowl, cream together the shortening, butter, brown sugar, and white sugar until smooth. Beat in the eggs one at a time, then stir in the vanilla and coffee liqueur. Combine the flour, baking soda, and salt; stir into the sugar mixture. Mix in the oats, chocolate chips, and walnuts. Roll tablespoonfuls of dough into balls, and place them 2 inches apart onto the prepared cookie sheets.", 
        "Bake for 10 to 12 minutes in the preheated oven, or until golden. Cool on a wire rack for a few minutes before eating!"
    ], 
    "prep_time": "40 mins", 
    "recipe_name": "Allison's Supreme Chocolate Chip Cookies"
}