{
    "ingredients": [
        {
            "amount": "1 (16 ounce) package", 
            "ingredient": "rotini pasta, uncooked"
        }, 
        {
            "amount": "2 tablespoons", 
            "ingredient": "butter"
        }, 
        {
            "amount": "3 tablespoons", 
            "ingredient": "extra-virgin olive oil"
        }, 
        {
            "amount": "2 cups", 
            "ingredient": "broccoli florets, finely chopped"
        }, 
        {
            "amount": "2 tablespoons", 
            "ingredient": "all-purpose flour"
        }, 
        {
            "amount": "1 cup", 
            "ingredient": "chicken broth"
        }, 
        {
            "amount": "1 cup", 
            "ingredient": "milk"
        }, 
        {
            "amount": "1/8 teaspoon", 
            "ingredient": "chipotle chile powder"
        }, 
        {
            "amount": "2 cups", 
            "ingredient": "Cheddar cheese, shredded"
        }, 
        {
            "amount": "1/4 cup", 
            "ingredient": "onion, finely diced"
        }, 
        {
            "amount": "1 pound", 
            "ingredient": "ground chicken"
        }, 
        {
            "amount": "1 cup", 
            "ingredient": "sour cream"
        }
    ], 
    "prep_steps": [
        "Bring a large pot of lightly salted water to a boil. Add rotini pasta and cook until al dente, 7 to 10 minutes. Drain, cover, and set aside until needed.", 
        "Melt butter in a saucepan over medium-high heat, and stir in 1 tablespoon olive oil. Add 1 cup broccoli; toss and cook just until tender, about 5 minutes. Sprinkle broccoli with flour, and cook 1 minute. Stir in the chicken broth, and bring to a boil. Pour in the milk, and stir to blend. Season with salt, pepper, and chipotle pepper powder, if desired. Reduce heat to medium, and simmer mixture until sauce thickens, 8 to 10 minutes. Mix in 1 cup Cheddar cheese and stir until melted. Remove from heat.", 
        "Heat the remaining 2 tablespoons olive oil in another large skillet over medium-high heat. Stir in the onion, ground chicken, and remaining 1 cup of broccoli. Cook and stir until chicken is evenly browned and no longer pink, about 10 minutes. Season to taste with salt and pepper. Reduce heat, and cook until liquid is reduced, about 5 minutes.", 
        "Preheat oven broiler to High. Lightly grease 9x13 inch baking dish.", 
        "Toss the pasta with the broccoli sauce until evenly blended. Stir in the sour cream, if desired. Stir the broccoli sauce mixture into the chicken mixture. Spoon into the prepared baking dish. Top with remaining 1 cup Cheddar cheese.", 
        "Cook under preheated broiler until cheese melts and browns around the edges, 3 to 5 minutes."
    ], 
    "prep_time": "54 mins", 
    "recipe_name": "Creamy Chicken and Broccoli Casserole"
}