{
    "ingredients": [
        {
            "amount": "7 tablespoons", 
            "ingredient": "butter, divided"
        }, 
        {
            "amount": "1 tablespoon", 
            "ingredient": "olive oil"
        }, 
        {
            "amount": "8", 
            "ingredient": "skinless, boneless chicken breast halves"
        }, 
        {
            "amount": "1/4 cup", 
            "ingredient": "all-purpose flour"
        }, 
        {
            "amount": "1 cup", 
            "ingredient": "light cream"
        }, 
        {
            "amount": "1 cup", 
            "ingredient": "chicken broth"
        }, 
        {
            "amount": "3/4 teaspoon", 
            "ingredient": "Morton\u00ae Kosher Salt"
        }, 
        {
            "amount": "1/4 teaspoon", 
            "ingredient": "ground black pepper"
        }, 
        {
            "amount": "1/2 cup", 
            "ingredient": "grated Parmesan cheese"
        }, 
        {
            "amount": "2 dashes", 
            "ingredient": "hot pepper sauce"
        }, 
        {
            "amount": "1/2 teaspoon", 
            "ingredient": "dried rosemary, crushed"
        }, 
        {
            "amount": "1/2 teaspoon", 
            "ingredient": "dried basil"
        }, 
        {
            "amount": "3 cups", 
            "ingredient": "sliced fresh mushrooms"
        }, 
        {
            "amount": "1/4 cup", 
            "ingredient": "sherry"
        }, 
        {
            "amount": "1/2 cup", 
            "ingredient": "sliced almonds, toasted"
        }, 
        {
            "amount": "2", 
            "ingredient": "avocados"
        }
    ], 
    "prep_steps": [
        "Preheat the oven to 350 degrees F. Melt one tablespoon of butter in large heavy skillet. Add olive oil and swirl together with the butter. Add chicken and saute until chicken pieces are browned and juices run clear. Turn pieces to brown evenly while sauteing. Place chicken breasts in 9x13 baking dish and set aside.", 
        "Melt 4 tablespoons of butter until foamy. Stir in flour, and cook for three minutes, stirring constantly. Slowly add cream and chicken broth. Continue stirring and cooking until smooth and thickened. Season sauce with Morton\u00ae Kosher Salt, black pepper, Parmesan cheese, hot pepper sauce and herbs. Set aside.", 
        "Saute mushrooms in remaining two tablespoons of butter. Add sherry and cook until reduced. Place mushrooms over the chicken. Pour the sauce over the chicken and mushrooms. Bake uncovered for 25 minutes, then sprinkle with almonds, and return to oven for 10 minutes. Peel and slice avocados lengthwise and place over chicken before serving."
    ], 
    "prep_time": "1 hr", 
    "recipe_name": "Chicken Avocado Casserole"
}