{
    "ingredients": [
        {
            "amount": "1/2 cup", 
            "ingredient": "shortening"
        }, 
        {
            "amount": "1 1/2 cups", 
            "ingredient": "white sugar"
        }, 
        {
            "amount": "2", 
            "ingredient": "eggs"
        }, 
        {
            "amount": "2 ounces", 
            "ingredient": "red food coloring"
        }, 
        {
            "amount": "2 1/4 cups", 
            "ingredient": "all-purpose flour"
        }, 
        {
            "amount": "1/2 teaspoon", 
            "ingredient": "salt"
        }, 
        {
            "amount": "1 teaspoon", 
            "ingredient": "vanilla extract"
        }, 
        {
            "amount": "2 tablespoons", 
            "ingredient": "unsweetened cocoa powder"
        }, 
        {
            "amount": "1 tablespoon", 
            "ingredient": "distilled white vinegar"
        }, 
        {
            "amount": "1 cup", 
            "ingredient": "buttermilk"
        }, 
        {
            "amount": "1 tablespoon", 
            "ingredient": "baking soda"
        }, 
        {
            "amount": "5 tablespoons", 
            "ingredient": "all-purpose flour"
        }, 
        {
            "amount": "1 cup", 
            "ingredient": "milk"
        }, 
        {
            "amount": "1 cup", 
            "ingredient": "confectioners' sugar"
        }, 
        {
            "amount": "1 cup", 
            "ingredient": "butter, softened"
        }, 
        {
            "amount": "1 teaspoon", 
            "ingredient": "vanilla extract"
        }
    ], 
    "prep_steps": [
        "Cream together the shortening, sugar, and eggs.", 
        "Make a paste with food coloring and cocoa. Add to shortening mixture.", 
        "Add salt and buttermilk to mixture.", 
        "Next add flour, vanilla, vinegar, and baking soda in that order. Mix.", 
        "Bake for 30 minutes at 350 degrees F (175 degrees C) in two 8 inch round greased and floured cake pans. Let cool.", 
        "To Make Frosting: Cook 5 tablespoons flour and 1 cup milk until thick, and then cool.", 
        "Cream together 1 cup confectioners' sugar, 1 cup butter or margarine and 1 teaspoon vanilla 'til fluffy. Add to flour mixture.", 
        "Cut layers of cake in half lengthwise. Spread frosting on each half layer. Stack and frost over all."
    ], 
    "recipe_name": "Waldorf Astoria Red Cake"
}