{
    "ingredients": [
        {
            "amount": "3 cups", 
            "ingredient": "all-purpose flour"
        }, 
        {
            "amount": "2 cups", 
            "ingredient": "white sugar"
        }, 
        {
            "amount": "1 teaspoon", 
            "ingredient": "salt"
        }, 
        {
            "amount": "1 tablespoon", 
            "ingredient": "ground cinnamon"
        }, 
        {
            "amount": "1 teaspoon", 
            "ingredient": "ground nutmeg"
        }, 
        {
            "amount": "1 teaspoon", 
            "ingredient": "baking soda"
        }, 
        {
            "amount": "1 1/4 cups", 
            "ingredient": "vegetable oil"
        }, 
        {
            "amount": "4", 
            "ingredient": "eggs, beaten"
        }, 
        {
            "amount": "2 (10 ounce) packages", 
            "ingredient": "frozen strawberries, thawed"
        }
    ], 
    "prep_steps": [
        "Preheat oven to 350 degrees F (175 degrees C). Grease and flour two 9x5 inch loaf pans.", 
        "In a large bowl, combine flour, sugar, salt, cinnamon, nutmeg and baking soda. In a separate bowl, combine oil and eggs. Add strawberries (juice and all) to oil/egg mixture. Mix thoroughly. Make a well in the center of the dry ingredients and pour in the strawberry mixture. Mix until thoroughly combined. Pour batter into prepared pans.", 
        "Bake in preheated oven for one hour, or until a toothpick inserted into the center of a loaf comes out clean. Cool slightly before removing from pans."
    ], 
    "prep_time": "1\u00bc hrs", 
    "recipe_name": "Strawberry Spice Loaf"
}