{
    "ingredients": [
        {
            "amount": "1 large", 
            "ingredient": "cucumber, chopped"
        }, 
        {
            "amount": "2", 
            "ingredient": "roma (plum) tomatoes, chopped"
        }, 
        {
            "amount": "1 (5 ounce) jar", 
            "ingredient": "pitted kalamata olives"
        }, 
        {
            "amount": "1 (4 ounce) package", 
            "ingredient": "feta cheese, crumbled"
        }, 
        {
            "amount": "1", 
            "ingredient": "red onion, halved and thinly sliced"
        }, 
        {
            "amount": "1/2 (10 ounce) package", 
            "ingredient": "baby greens"
        }, 
        {
            "amount": "1/2 (10 ounce) package", 
            "ingredient": "romaine lettuce leaves"
        }, 
        {
            "amount": "6 tablespoons", 
            "ingredient": "olive oil"
        }, 
        {
            "amount": "1 teaspoon", 
            "ingredient": "garlic powder"
        }, 
        {
            "amount": "1 teaspoon", 
            "ingredient": "dried oregano"
        }, 
        {
            "amount": "1 teaspoon", 
            "ingredient": "dried basil"
        }, 
        {
            "amount": "1 teaspoon", 
            "ingredient": "Dijon mustard"
        }, 
        {
            "amount": "1 teaspoon", 
            "ingredient": "lemon juice"
        }, 
        {
            "amount": "1 1/2 cups", 
            "ingredient": "red wine vinegar"
        }
    ], 
    "prep_steps": [
        "In a large bowl, mix the cucumber, tomatoes, olives, feta cheese, red onion, baby greens, and romaine. In a separate bowl, mix the olive oil, garlic powder, oregano, basil, mustard, lemon juice, and red wine vinegar. Pour dressing over the vegetables, and toss to coat."
    ], 
    "prep_time": "20 mins", 
    "recipe_name": "Greek Veggie Salad II"
}