{
    "ingredients": [
        {
            "amount": "1 cup", 
            "ingredient": "uncooked adzuki beans"
        }, 
        {
            "amount": "1 tablespoon", 
            "ingredient": "olive oil"
        }, 
        {
            "amount": "2 cloves", 
            "ingredient": "garlic, peeled and crushed"
        }, 
        {
            "amount": "6 cups", 
            "ingredient": "roughly chopped kale"
        }, 
        {
            "amount": "2 tablespoons", 
            "ingredient": "water"
        }, 
        {
            "amount": "1/4 cup", 
            "ingredient": "tamari"
        }, 
        {
            "amount": "1 teaspoon", 
            "ingredient": "ground cumin"
        }, 
        {
            "amount": "1 teaspoon", 
            "ingredient": "ground coriander"
        }
    ], 
    "prep_steps": [
        "Place adzuki beans in a medium saucepan with enough water to cover. Bring to a boil, reduce heat, and simmer 30 to 45 minutes, until tender.", 
        "Heat olive oil in a medium skillet over medium heat, and saute garlic about 1 minute. Mix in kale and 2 tablespoons water. Season with tamari, cumin, and coriander. Thoroughly blend in adzuki beans. Reduce heat to low, cover, and simmer about 20 minutes, until kale is tender. Season with salt and pepper."
    ], 
    "prep_time": "1\u00bc hrs", 
    "recipe_name": "Kale and Adzuki Beans"
}