{
    "ingredients": [
        {
            "amount": "1 pound", 
            "ingredient": "smoked Cheddar cheese, shredded"
        }, 
        {
            "amount": "1 cup", 
            "ingredient": "thousand island salad dressing, or to taste"
        }, 
        {
            "amount": "1 (16 ounce) jar", 
            "ingredient": "sauerkraut, drained"
        }, 
        {
            "amount": "12 slices", 
            "ingredient": "dark rye bread"
        }, 
        {
            "amount": "2 tablespoons", 
            "ingredient": "butter"
        }, 
        {
            "amount": "2", 
            "ingredient": "tomatoes, sliced"
        }
    ], 
    "prep_steps": [
        "In a large mixing bowl, stir together the cheese and sauerkraut. Add enough dressing to coat, and mix thoroughly.", 
        "Butter each slice of bread on one side. Spread a thick layer of the cheese mixture onto unbuttered side of half of the bread slices. Top with sliced tomato and another slice of bread.", 
        "Heat a large skillet to medium-high heat. Fry sandwiches on both sides until the outside is toasted and the cheese is melted."
    ], 
    "prep_time": "25 mins", 
    "recipe_name": "Vegetarian Reubens"
}