{
    "ingredients": [
        {
            "amount": "1 tablespoon", 
            "ingredient": "olive oil"
        }, 
        {
            "amount": "1", 
            "ingredient": "yellow onion, diced"
        }, 
        {
            "amount": "4 cloves", 
            "ingredient": "garlic, minced"
        }, 
        {
            "amount": "2 teaspoons", 
            "ingredient": "ground cumin"
        }, 
        {
            "amount": "1 (4 inch)", 
            "ingredient": "cinnamon stick"
        }, 
        {
            "amount": "1 pound", 
            "ingredient": "butternut squash - peeled, seeded, and cut into 2-inch cubes"
        }, 
        {
            "amount": "4 large", 
            "ingredient": "red potatoes, cut into 2-inch cubes"
        }, 
        {
            "amount": "2 cups", 
            "ingredient": "vegetable broth"
        }, 
        {
            "amount": "1 (15 ounce) can", 
            "ingredient": "garbanzo beans, drained"
        }, 
        {
            "amount": "1 (14.5 ounce) can", 
            "ingredient": "canned diced tomatoes with their juice"
        }, 
        {
            "amount": "1 cup", 
            "ingredient": "pitted, brine-cured green olives"
        }, 
        {
            "amount": "1/2 teaspoon", 
            "ingredient": "lemon zest"
        }, 
        {
            "amount": "1 3/4 cups", 
            "ingredient": "water"
        }, 
        {
            "amount": "1 (10 ounce) box", 
            "ingredient": "uncooked couscous"
        }, 
        {
            "amount": "6 tablespoons", 
            "ingredient": "plain yogurt"
        }, 
        {
            "amount": "6 tablespoons", 
            "ingredient": "chopped fresh cilantro"
        }
    ], 
    "prep_steps": [
        "Heat olive oil in a large covered saucepan or Dutch oven over medium heat, until oil is hot but not smoking. Drop in the onion, garlic, cumin, cinnamon stick, and salt and pepper. Cook and stir for 5 minutes, until onion is tender and translucent.", 
        "Stir in the butternut squash and potato cubes, broth, garbanzo beans, and tomatoes, and bring the mixture to a boil. Reduce heat, cover the pot, and simmer about 20 minutes, stirring occasionally, until the squash and potatoes are tender. Remove the stew from heat, and stir in the olives and lemon zest.", 
        "In a large saucepan, bring 1 3/4 cup water to a boil. Stir in couscous. Cover and remove from the heat; let stand for 5 minutes. Fluff with a fork; cool. Serve stew over cooked couscous. Garnish each serving with a dollop of yogurt and a sprinkle of cilantro leaves."
    ], 
    "prep_time": "40 mins", 
    "recipe_name": "Vegetarian Moroccan Stew"
}