{
    "ingredients": [
        {
            "amount": "1 tablespoon", 
            "ingredient": "cooking oil"
        }, 
        {
            "amount": "1", 
            "ingredient": "onion, chopped"
        }, 
        {
            "amount": "2 cloves", 
            "ingredient": "garlic, minced"
        }, 
        {
            "amount": "1 (1 1/2 inch) piece", 
            "ingredient": "fresh ginger, peeled and thinly sliced"
        }, 
        {
            "amount": "1 tablespoon", 
            "ingredient": "fish sauce"
        }, 
        {
            "amount": "3 pounds", 
            "ingredient": "chicken legs and thighs, rinsed and patted dry"
        }, 
        {
            "amount": "2 (14 ounce) cans", 
            "ingredient": "chicken broth"
        }, 
        {
            "amount": "1", 
            "ingredient": "chayote squash, peeled and cut into bite-sized pieces"
        }, 
        {
            "amount": "1 head", 
            "ingredient": "bok choy, chopped"
        }, 
        {
            "amount": "1/2 pound", 
            "ingredient": "spinach"
        }
    ], 
    "prep_steps": [
        "Heat the oil in a large pot over medium heat; cook and stir the onion and garlic in the hot oil until fragrant. Quickly stir the ginger and fish sauce into the onion and garlic mixture before adding the chicken; cook together for 5 minutes. Pour the chicken broth over the mixture and cook another 5 minutes. Add the chayote to the mixture and simmer until the chicken is no longer pink in the center, about 10 minutes more. Season with salt and pepper. Add the bok choy and spinach; cook until the spinach is just wilted, 1 to 2 minutes. Serve hot."
    ], 
    "prep_time": "55 mins", 
    "recipe_name": "Chicken Tinola"
}