{
    "ingredients": [
        {
            "amount": "1/3 cup", 
            "ingredient": "brown sugar"
        }, 
        {
            "amount": "1 tablespoon", 
            "ingredient": "pumpkin pie spice"
        }, 
        {
            "amount": "3 1/2 cups", 
            "ingredient": "rolled oats"
        }, 
        {
            "amount": "1/2 cup", 
            "ingredient": "sliced almonds"
        }, 
        {
            "amount": "1/2 cup", 
            "ingredient": "chopped pecans"
        }, 
        {
            "amount": "2/3 cup", 
            "ingredient": "applesauce"
        }, 
        {
            "amount": "1/2 cup", 
            "ingredient": "honey"
        }, 
        {
            "amount": "1 tablespoon", 
            "ingredient": "vanilla extract"
        }, 
        {
            "amount": "1/2 cup", 
            "ingredient": "raisins"
        }, 
        {
            "amount": "1/2 cup", 
            "ingredient": "dried cranberries"
        }
    ], 
    "prep_steps": [
        "Preheat an oven to 250 degrees F (120 degrees C). Coat 2 baking sheets with nonstick cooking spray.", 
        "Combine brown sugar, pumpkin pie spice, rolled oats, almonds, and pecans in a large bowl. Mix the applesauce, honey, and vanilla in a separate large bowl. Stir the oat mixture into the applesauce mixture, until granola begins to gather in clusters. Spoon granola evenly onto prepared baking sheets.", 
        "Bake in preheated oven, stirring every 20 minutes, until lightly browned and crispy, about 1 hour.", 
        "Remove from oven; cool to room temperature. Stir in raisins and cranberries; store in an airtight container."
    ], 
    "prep_time": "1\u00be hrs", 
    "recipe_name": "Crunchy Pumpkin Pie Granola"
}