{
    "ingredients": [
        {
            "amount": "4 cloves", 
            "ingredient": "garlic, chopped"
        }, 
        {
            "amount": "3 (29 ounce) cans", 
            "ingredient": "tomato sauce"
        }, 
        {
            "amount": "4 (6 ounce) cans", 
            "ingredient": "tomato paste"
        }, 
        {
            "amount": "1 tablespoon", 
            "ingredient": "chopped fresh parsley"
        }, 
        {
            "amount": "1 tablespoon", 
            "ingredient": "chopped fresh basil"
        }, 
        {
            "amount": "2 pounds", 
            "ingredient": "ground beef"
        }, 
        {
            "amount": "1 pound", 
            "ingredient": "ground pork"
        }, 
        {
            "amount": "1 cup", 
            "ingredient": "dry bread crumbs"
        }, 
        {
            "amount": "1 cup", 
            "ingredient": "grated Parmesan cheese"
        }, 
        {
            "amount": "1 teaspoon", 
            "ingredient": "garlic powder"
        }, 
        {
            "amount": "1 tablespoon", 
            "ingredient": "chopped fresh parsley"
        }
    ], 
    "prep_steps": [
        "In a large pot mix together garlic, tomato sauce, tomato paste, parsley and basil. Bring sauce to a boil and then turn down the heat and simmer.", 
        "In a large bowl mix together the ground beef, ground pork, bread crumbs, parmesan cheese, garlic powder and parsley. Shape into balls the size of a child's fist. In a skillet, fry meatballs in hot olive oil until brown. Add to sauce mixture. Simmer over low heat for four hours."
    ], 
    "prep_time": "4 hrs", 
    "recipe_name": "Old Fashioned Sicilian Succo"
}