{
    "ingredients": [
        {
            "amount": "1 tablespoon", 
            "ingredient": "butter"
        }, 
        {
            "amount": "1", 
            "ingredient": "onion, chopped"
        }, 
        {
            "amount": "1 pound", 
            "ingredient": "fresh mushrooms, sliced"
        }, 
        {
            "amount": "5 cloves", 
            "ingredient": "garlic, minced"
        }, 
        {
            "amount": "1 pound", 
            "ingredient": "small shell pasta"
        }, 
        {
            "amount": "1 (10.75 ounce) can", 
            "ingredient": "condensed cream of mushroom soup"
        }, 
        {
            "amount": "1/8 cup", 
            "ingredient": "heavy cream"
        }, 
        {
            "amount": "5 teaspoons", 
            "ingredient": "ground black pepper, or to taste"
        }, 
        {
            "amount": "2 tablespoons", 
            "ingredient": "paprika"
        }, 
        {
            "amount": "1 pinch", 
            "ingredient": "salt"
        }, 
        {
            "amount": "3 cups", 
            "ingredient": "shredded Medium Cheddar cheese"
        }, 
        {
            "amount": "2 cups", 
            "ingredient": "chicken breasts, cooked and chopped"
        }
    ], 
    "prep_steps": [
        "In a large skillet, melt butter over medium heat and add onion, mushrooms and garlic; saute until golden brown.", 
        "Bring a large pot of lightly salted water to a boil; add pasta and cook for 8 to 10 minutes or until al dente; drain.", 
        "In a large saucepan over medium-low heat, combine soup, cream, ground black pepper, paprika and salt; heat until sauce thickens.", 
        "Add mushroom mixture to sauce and bring to a slow boil over medium heat; stir in cheese and chopped chicken.", 
        "Pour sauce onto pasta; serve."
    ], 
    "prep_time": "35 mins", 
    "recipe_name": "Easy Creamy Chicken Mushroom Sauce"
}