{
    "ingredients": [
        {
            "amount": "2 pounds", 
            "ingredient": "cooked chicken, chopped"
        }, 
        {
            "amount": "1 (15 ounce) can", 
            "ingredient": "mixed vegetables"
        }, 
        {
            "amount": "1 (10.75 ounce) can", 
            "ingredient": "condensed cream of potato soup"
        }, 
        {
            "amount": "1/4 cup", 
            "ingredient": "milk"
        }, 
        {
            "amount": "1/4 teaspoon", 
            "ingredient": "black pepper"
        }, 
        {
            "amount": "1/4 teaspoon", 
            "ingredient": "dried thyme"
        }, 
        {
            "amount": "1/4 teaspoon", 
            "ingredient": "dried parsley"
        }, 
        {
            "amount": "1 recipe", 
            "ingredient": "pastry for a 9 inch double crust pie"
        }
    ], 
    "prep_steps": [
        "Preheat oven to 350 degrees F (175 degrees C.) Roll one ball out to fit a 9 inch pie plate. Place bottom crust in pie plate. Roll out top crust and set aside.", 
        "In a large bowl, combine chicken, vegetables, potato soup and milk. Season with pepper, thyme, parsley and salt to taste. Pour filling into pie shell. Cover with top crust. Seal edges and cut several slits in the top to allow steam to escape.", 
        "Bake in the preheated oven for 25 to 30 minutes, or until golden brown."
    ], 
    "prep_time": "35 mins", 
    "recipe_name": "Old Fashioned Chicken Pot Pie"
}