{
    "ingredients": [
        {
            "amount": "1 (16 ounce) package", 
            "ingredient": "frozen California mixed vegetables (cauliflower, broccoli, and carrots)"
        }, 
        {
            "amount": "1 (16 ounce) bag", 
            "ingredient": "frozen broccoli"
        }, 
        {
            "amount": "2 (14.5 ounce) cans", 
            "ingredient": "chicken broth"
        }, 
        {
            "amount": "1/4 cup", 
            "ingredient": "butter"
        }, 
        {
            "amount": "1/2 cup", 
            "ingredient": "all-purpose flour"
        }, 
        {
            "amount": "2 cups", 
            "ingredient": "milk"
        }, 
        {
            "amount": "1 (1 pound) loaf", 
            "ingredient": "processed cheese food (such as Velveeta\u00ae), cubed"
        }
    ], 
    "prep_steps": [
        "Place the mixed vegetables and frozen broccoli into a large pot. Pour in the chicken stock and bring to a boil. Reduce heat to medium-low and simmer until the vegetables are tender, about 20 minutes. Meanwhile, melt the butter in a saucepan over medium heat; stir in the flour until smooth and cook for a few minutes until the color lightens slightly. Whisk in the milk and simmer until thickened, about 10 minutes. Stir in the cheese until melted; stir the cheese mixture into the simmering vegetables. Cook and stir until the vegetables are tender, about 5 minutes more."
    ], 
    "prep_time": "35 mins", 
    "recipe_name": "Cheesy Broccoli and Vegetable Soup"
}