{
    "ingredients": [
        {
            "amount": "3", 
            "ingredient": "bananas, mashed"
        }, 
        {
            "amount": "1 cup", 
            "ingredient": "white sugar"
        }, 
        {
            "amount": "2", 
            "ingredient": "eggs, lightly beaten"
        }, 
        {
            "amount": "3/4 cup", 
            "ingredient": "vegetable oil"
        }, 
        {
            "amount": "2 cups", 
            "ingredient": "all-purpose flour"
        }, 
        {
            "amount": "2 teaspoons", 
            "ingredient": "baking soda"
        }, 
        {
            "amount": "3 tablespoons", 
            "ingredient": "buttermilk"
        }, 
        {
            "amount": "1 cup", 
            "ingredient": "chopped pecans"
        }, 
        {
            "amount": "1 cup", 
            "ingredient": "confectioners' sugar, or as needed"
        }
    ], 
    "prep_steps": [
        "Preheat oven to 300 degrees F (150 degrees C). Grease 14 muffin cups.", 
        "Lightly beat bananas and white sugar together in a bowl until smooth; add eggs, one at a time, until incorporated. Beat in vegetable oil until well blended, 1 to 2 minutes. Stir in flour, baking soda, and buttermilk; mix well. Fold in pecans. Pour batter into the prepared muffin cups.", 
        "Bake in the preheated oven until a toothpick inserted in the center of a cupcake comes out clean, 20 to 30 minutes. Sprinkle cupcakes with confectioners' sugar."
    ], 
    "prep_time": "35 mins", 
    "recipe_name": "Mari's Banana Cupcakes"
}