{
    "ingredients": [
        {
            "amount": "1 cup", 
            "ingredient": "white sugar"
        }, 
        {
            "amount": "3", 
            "ingredient": "egg yolks"
        }, 
        {
            "amount": "2 tablespoons", 
            "ingredient": "all-purpose flour"
        }, 
        {
            "amount": "2 cups", 
            "ingredient": "pineapple juice"
        }, 
        {
            "amount": "1 tablespoon", 
            "ingredient": "lemon juice"
        }, 
        {
            "amount": "1 (16 ounce) package", 
            "ingredient": "acini di pepe pasta"
        }, 
        {
            "amount": "2 (20 ounce) cans", 
            "ingredient": "pineapple chunks"
        }, 
        {
            "amount": "2 (11 ounce) cans", 
            "ingredient": "mandarin oranges, drained"
        }, 
        {
            "amount": "3/4 cup", 
            "ingredient": "maraschino cherries, chopped"
        }, 
        {
            "amount": "1 (16 ounce) package", 
            "ingredient": "miniature marshmallows"
        }, 
        {
            "amount": "1 (12 ounce) container", 
            "ingredient": "frozen whipped topping, thawed"
        }
    ], 
    "prep_steps": [
        "In large saucepan over low heat, combine sugar, egg yolks, flour, pineapple juice and lemon juice. Stir and cook until thickened. Remove from heat.", 
        "While sauce is cooking, bring a large pot of lightly salted water to a boil. Add pasta and cook for 8 to 10 minutes or until al dente; drain and rinse with cold water.", 
        "In large bowl, combine cooked mixture with pasta and toss to coat thoroughly. Refrigerate 8 hours or overnight.", 
        "Toss pasta with pineapple, mandarin oranges, maraschino cherries, marshmallows and whipped topping. Refrigerate until serving."
    ], 
    "prep_time": "9 hr", 
    "recipe_name": "Frog Eyed Salad"
}