{
    "ingredients": [
        {
            "amount": "1 1/2 large", 
            "ingredient": "yellow onions"
        }, 
        {
            "amount": "5 cloves", 
            "ingredient": "crushed garlic"
        }, 
        {
            "amount": "10 slices", 
            "ingredient": "bacon, diced"
        }, 
        {
            "amount": "2 cups", 
            "ingredient": "chopped tomatoes"
        }, 
        {
            "amount": "1 (28 ounce) can", 
            "ingredient": "crushed tomatoes"
        }, 
        {
            "amount": "1 cup", 
            "ingredient": "heavy whipping cream"
        }, 
        {
            "amount": "2 fluid ounces", 
            "ingredient": "vodka"
        }, 
        {
            "amount": "12 ounces", 
            "ingredient": "penne pasta"
        }
    ], 
    "prep_steps": [
        "Cook and drain the penne pasta. Set aside.", 
        "In a pan or skillet, sweat thinly sliced onions, crushed garlic and bacon.", 
        "Add diced tomato and deglaze (cook until alcohol has evaporated) with vodka. Add crushed tomatoes and cream.", 
        "Reduce sauce until thickened and season with salt and pepper. Add to pasta, toss and serve. Bon appetite!"
    ], 
    "recipe_name": "Penne a la Vodka I"
}