{
    "ingredients": [
        {
            "amount": "2 cups", 
            "ingredient": "rotini pasta"
        }, 
        {
            "amount": "1/4 cup", 
            "ingredient": "butter"
        }, 
        {
            "amount": "3 tablespoons", 
            "ingredient": "all-purpose flour"
        }, 
        {
            "amount": "1 3/4 cups", 
            "ingredient": "milk"
        }, 
        {
            "amount": "3 cups", 
            "ingredient": "shredded Cheddar cheese"
        }, 
        {
            "amount": "1 (8 ounce) package", 
            "ingredient": "cream cheese, cubed"
        }, 
        {
            "amount": "1/4 cup", 
            "ingredient": "white wine"
        }, 
        {
            "amount": "1 tablespoon", 
            "ingredient": "spicy brown mustard"
        }, 
        {
            "amount": "3 pinches", 
            "ingredient": "ground nutmeg"
        }, 
        {
            "amount": "1/2 teaspoon", 
            "ingredient": "salt"
        }, 
        {
            "amount": "2 cups", 
            "ingredient": "chopped cooked chicken"
        }, 
        {
            "amount": "10", 
            "ingredient": "buttery round crackers, crushed"
        }, 
        {
            "amount": "2 tablespoons", 
            "ingredient": "grated Parmesan cheese"
        }, 
        {
            "amount": "2 teaspoons", 
            "ingredient": "butter, melted"
        }
    ], 
    "prep_steps": [
        "Preheat oven to 350 degrees F (175 degrees C). Lightly spray a 9x13-inch pan with cooking spray and set aside. Bring a large pot of lightly salted water to a boil. Add pasta and cook for 8 to 10 minutes or until al dente; drain.", 
        "Melt butter in a saucepan over medium heat. Add flour a tablespoon at a time and stir until smooth. Gradually stir in milk. Bring to a low boil, and cook for one minute, stirring constantly. Remove from heat and stir in cheddar cheese until melted. Stir in cream cheese and until melted. Add wine, and season with mustard, nutmeg and salt.", 
        "Pour cooked noodles in pan. Layer chicken pieces over the noodles. Pour sauce over the chicken. In a small bowl, mix the cracker crumbs, parmesan cheese and butter, and sprinkle over the sauce.", 
        "Bake in preheated oven for 30 minutes, or until edges of casserole are bubbling. Remove from oven, and stir to thoroughly coat pasta and chicken and to keep top of casserole from hardening. Allow to cool for 10 minutes before serving."
    ], 
    "prep_time": "1 hr", 
    "recipe_name": "Creamy Dreamy Chicken and Spirals Casserole"
}