{
    "ingredients": [
        {
            "amount": "1 pound", 
            "ingredient": "lean ground beef"
        }, 
        {
            "amount": "1 pound", 
            "ingredient": "sausage"
        }, 
        {
            "amount": "1 teaspoon", 
            "ingredient": "minced onion"
        }, 
        {
            "amount": "1 pound", 
            "ingredient": "processed cheese food, cubed"
        }, 
        {
            "amount": "1 teaspoon", 
            "ingredient": "dried oregano"
        }, 
        {
            "amount": "1 1/2 tablespoons", 
            "ingredient": "Worcestershire sauce"
        }, 
        {
            "amount": "1 (1 pound) loaf", 
            "ingredient": "cocktail rye bread"
        }
    ], 
    "prep_steps": [
        "Preheat the broiler.", 
        "Place ground beef, sausage and onion in a large, deep skillet. Cook over medium high heat until meat is evenly brown and onions are soft. Drain liquid.", 
        "Mix in the processed cheese food, oregano and Worcestershire sauce. Stir continuously until the cheese is melted.", 
        "If the bread is not sliced, cut it into thin slices. Spoon approximately 1 tablespoon of the mixture onto each slice. Place the slices in a single layer on a baking pan.", 
        "Broil the slices 10 minutes, or until the cheese is slightly browned and the bread is toasted."
    ], 
    "prep_time": "20 mins", 
    "recipe_name": "Polish Mistakes"
}