{
    "ingredients": [
        {
            "amount": "4 cups", 
            "ingredient": "fresh broccoli florets"
        }, 
        {
            "amount": "1/4 cup", 
            "ingredient": "red onion, finely diced"
        }, 
        {
            "amount": "3 tablespoons", 
            "ingredient": "raisins"
        }, 
        {
            "amount": "2 tablespoons", 
            "ingredient": "dry roasted sunflower seeds"
        }, 
        {
            "amount": "1/4 cup", 
            "ingredient": "plain yogurt"
        }, 
        {
            "amount": "2 tablespoons", 
            "ingredient": "orange juice"
        }, 
        {
            "amount": "1 tablespoon", 
            "ingredient": "fat-free mayonnaise"
        }
    ], 
    "prep_steps": [
        "Combine the broccoli, onions, raisins, and sunflower seeds.", 
        "In a small bowl, whisk the yogurt, orange juice, and mayonnaise until blended. Pour over the broccoli mixture and toss to coat."
    ], 
    "recipe_name": "Broccoli Salad I"
}