{
    "ingredients": [
        {
            "amount": "1 (15 ounce) can", 
            "ingredient": "whole kernel corn, drained"
        }, 
        {
            "amount": "1 (15 ounce) can", 
            "ingredient": "creamed corn"
        }, 
        {
            "amount": "2", 
            "ingredient": "eggs, beaten"
        }, 
        {
            "amount": "1 cup", 
            "ingredient": "milk"
        }, 
        {
            "amount": "75", 
            "ingredient": "buttery round crackers, crushed fine"
        }, 
        {
            "amount": "1/2 cup", 
            "ingredient": "chopped green onions"
        }
    ], 
    "prep_steps": [
        "Preheat oven to 350 degrees F (175 degrees C). Lightly butter casserole dish and set aside.", 
        "In a large mixing bowl, combine the whole corn, creamed corn, eggs, milk, crackers and green onion; mix well.", 
        "Pour mixture into prepared casserole dish.", 
        "Bake at 350 degrees F (175 degrees C) for 50 minutes."
    ], 
    "recipe_name": "Scalloped Corn III"
}