{
    "ingredients": [
        {
            "amount": "1 1/4 cups", 
            "ingredient": "warm water"
        }, 
        {
            "amount": "1 tablespoon", 
            "ingredient": "butter, softened"
        }, 
        {
            "amount": "1 tablespoon", 
            "ingredient": "white sugar"
        }, 
        {
            "amount": "1 teaspoon", 
            "ingredient": "salt"
        }, 
        {
            "amount": "3 cups", 
            "ingredient": "bread flour"
        }, 
        {
            "amount": "2 tablespoons", 
            "ingredient": "dry milk powder"
        }, 
        {
            "amount": "1 (.25 ounce) package", 
            "ingredient": "active dry yeast"
        }
    ], 
    "prep_steps": [
        "Place ingredients in the pan of the bread machine in the order recommended by the manufacturer. Select White Bread setting; press Start."
    ], 
    "prep_time": "3 hrs", 
    "recipe_name": "Basic White Bread"
}