{
    "ingredients": [
        {
            "amount": "4", 
            "ingredient": "skinless, boneless chicken breasts"
        }, 
        {
            "amount": "1/4 cup", 
            "ingredient": "soy sauce"
        }, 
        {
            "amount": "1 pinch", 
            "ingredient": "garlic powder"
        }, 
        {
            "amount": "1/4 teaspoon", 
            "ingredient": "dried sage"
        }, 
        {
            "amount": "3", 
            "ingredient": "green bell pepper, minced"
        }, 
        {
            "amount": "1", 
            "ingredient": "onion, chopped"
        }, 
        {
            "amount": "2", 
            "ingredient": "carrots, sliced thin"
        }, 
        {
            "amount": "2 tablespoons", 
            "ingredient": "olive oil"
        }
    ], 
    "prep_steps": [
        "Slice chicken into small cubes.", 
        "Heat oil in a wok or frying pan over medium high heat. Brown chicken. Add carrots, and cook with chicken until slightly cooked. Add onions, bell peppers, sage, garlic powder, and soy sauce. Stir and cook continuously until chicken and vegetables are done, about five to ten minutes."
    ], 
    "prep_time": "50 mins", 
    "recipe_name": "Tasty Chicken"
}