{
    "ingredients": [
        {
            "amount": "1 (2 to 3 pound)", 
            "ingredient": "whole chicken"
        }, 
        {
            "amount": "2 (9 inch)", 
            "ingredient": "deep dish frozen pie crusts, thawed"
        }, 
        {
            "amount": "1 (10.75 ounce) can", 
            "ingredient": "condensed cream of mushroom soup"
        }, 
        {
            "amount": "1 (10 ounce) package", 
            "ingredient": "frozen green peas, thawed"
        }, 
        {
            "amount": "2 cups", 
            "ingredient": "water, or as needed"
        }, 
        {
            "amount": "1 teaspoon", 
            "ingredient": "chicken bouillon granules"
        }
    ], 
    "prep_steps": [
        "In a large heavy pot, place chicken and water to cover. Bring to a boil and let simmer uncovered for 30 minutes, adding water as needed. When chicken is boiled and tender, pick all the meat off of the bones.", 
        "Preheat oven to 400 degrees F (200 degrees C).", 
        "Open 1 can of cream of mushroom soup and pour into a small saucepan. Add frozen peas and carrots, water and chicken bouillon to taste. Simmer all together until the soup is smooth. Add chicken meat and mix all together.", 
        "Pour chicken and soup mixture into one pie crust and cover with the other crust. Seal the edges and cut a small steam hole in the top crust. Bake in the preheated oven 30 to 35 minutes or until crust is brown. Yummy!"
    ], 
    "recipe_name": "Gram's Chicken Pot Pie"
}