{
    "ingredients": [
        {
            "amount": "2 pounds", 
            "ingredient": "sweet potatoes"
        }, 
        {
            "amount": "1/2 cup", 
            "ingredient": "butter"
        }, 
        {
            "amount": "1/2 cup", 
            "ingredient": "packed brown sugar"
        }, 
        {
            "amount": "1/2 cup", 
            "ingredient": "brandy"
        }, 
        {
            "amount": "1/2 teaspoon", 
            "ingredient": "salt"
        }
    ], 
    "prep_steps": [
        "Peel and cut the sweet potatoes into 2 inch chunks. Place them in a large pot of water and boil until tender.", 
        "In a large skillet melt the butter or margarine. Stir in the brown sugar, brandy and salt. Stir until smooth. Add the sweet potatoes. Cook over low heat, stirring gently, until sweet potatoes are heated through and well glazed."
    ], 
    "recipe_name": "Brandied Candied Sweet Potatoes"
}