{
    "ingredients": [
        {
            "amount": "4 cups", 
            "ingredient": "pearl onions"
        }, 
        {
            "amount": "1/2 teaspoon", 
            "ingredient": "salt"
        }, 
        {
            "amount": "1/2 teaspoon", 
            "ingredient": "pepper"
        }, 
        {
            "amount": "1/3 cup", 
            "ingredient": "butter, melted"
        }, 
        {
            "amount": "2 1/2 cups", 
            "ingredient": "crushed buttery round crackers"
        }, 
        {
            "amount": "1 1/3 cups", 
            "ingredient": "heavy cream"
        }
    ], 
    "prep_steps": [
        "Preheat oven to 350 degrees F (175 degrees C).", 
        "Place onions in a 2 quart casserole dish and season with salt and pepper. Pour melted butter over onions and sprinkle crushed crackers on top. Pour cream over crackers.", 
        "Bake in preheated oven for 50 minutes."
    ], 
    "prep_time": "55 mins", 
    "recipe_name": "Pearl Baked Cream Onions"
}