{
    "ingredients": [
        {
            "amount": "3 cups", 
            "ingredient": "vegetable oil for frying"
        }, 
        {
            "amount": "1 pound", 
            "ingredient": "okra, finely chopped"
        }, 
        {
            "amount": "1 cup", 
            "ingredient": "finely chopped onion"
        }, 
        {
            "amount": "1 teaspoon", 
            "ingredient": "salt"
        }, 
        {
            "amount": "1/4 teaspoon", 
            "ingredient": "pepper"
        }, 
        {
            "amount": "1/2 cup", 
            "ingredient": "water"
        }, 
        {
            "amount": "1", 
            "ingredient": "egg"
        }, 
        {
            "amount": "1/2 cup", 
            "ingredient": "all-purpose flour"
        }, 
        {
            "amount": "1 teaspoon", 
            "ingredient": "baking powder"
        }, 
        {
            "amount": "1/2 cup", 
            "ingredient": "cornmeal"
        }
    ], 
    "prep_steps": [
        "Heat 1 inch of oil in a large skillet to 375 degrees F (190 degrees C).", 
        "In a large bowl, mix together the okra, onion, salt, pepper, water and egg. Combine the flour, baking powder and cornmeal; and stir that into the okra mixture.", 
        "Carefully drop spoonfuls of the okra batter into the hot oil, and fry on each side until golden, about 2 minutes per side. Remove with a slotted spoon, and drain on paper towels."
    ], 
    "prep_time": "30 mins", 
    "recipe_name": "Okra Patties"
}