{
    "ingredients": [
        {
            "amount": "1 pound", 
            "ingredient": "fresh, ground pork sausage"
        }, 
        {
            "amount": "3 tablespoons", 
            "ingredient": "minced onion"
        }, 
        {
            "amount": "1/2 teaspoon", 
            "ingredient": "garlic powder"
        }, 
        {
            "amount": "1/4 teaspoon", 
            "ingredient": "ground black pepper"
        }, 
        {
            "amount": "1 cup", 
            "ingredient": "process cheese sauce"
        }, 
        {
            "amount": "16 ounces", 
            "ingredient": "cocktail rye bread"
        }
    ], 
    "prep_steps": [
        "In a large skillet, cook sausage over a medium heat until it is browned and cooked through. Stir onion, garlic powder, black pepper, and process cheese into the skillet. Stir until the cheese is melted and the ingredients are well combined.", 
        "Spread 1 tablespoon of mixture onto each slice of cocktail rye. Serve warm."
    ], 
    "prep_time": "25 mins", 
    "recipe_name": "Hanky Pankies"
}