{
    "ingredients": [
        {
            "amount": "4 (4 ounce) fillets", 
            "ingredient": "tilapia"
        }, 
        {
            "amount": "4 tablespoons", 
            "ingredient": "butter"
        }, 
        {
            "amount": "3 cloves", 
            "ingredient": "garlic, pressed"
        }, 
        {
            "amount": "4", 
            "ingredient": "fresh basil leaves, chopped"
        }, 
        {
            "amount": "1 large", 
            "ingredient": "tomato, chopped"
        }, 
        {
            "amount": "1 cup", 
            "ingredient": "white wine"
        }
    ], 
    "prep_steps": [
        "Preheat a grill for medium-high heat.", 
        "Place the tilapia fillets side by side on a large piece of aluminum foil. Season each one with salt and pepper. Place one tablespoon of butter on top of each piece of fish, and sprinkle garlic, basil and tomato. Pour the wine over everything. Fold foil up around fish, and seal into a packet. Place packet on a cookie sheet for ease in transportation to and from the grill.", 
        "Place foil packet on the preheated grill, and cook for 15 minutes, or until fish flakes easily with a fork. Open the packet carefully so as not to get burned from the steam, and serve."
    ], 
    "prep_time": "25 mins", 
    "recipe_name": "Easy Tilapia with Wine and Tomatoes"
}