{
    "ingredients": [
        {
            "amount": "6 tablespoons", 
            "ingredient": "unsalted butter"
        }, 
        {
            "amount": "1/4 cup", 
            "ingredient": "white sugar"
        }, 
        {
            "amount": "1/2 cup", 
            "ingredient": "brown sugar"
        }, 
        {
            "amount": "1 pinch", 
            "ingredient": "salt"
        }, 
        {
            "amount": "1/4 teaspoon", 
            "ingredient": "ground cinnamon"
        }, 
        {
            "amount": "1/4 cup", 
            "ingredient": "water"
        }, 
        {
            "amount": "1 (15 ounce) package", 
            "ingredient": "double crust ready-to-use pie crust (such as Pillsbury\u00ae)"
        }, 
        {
            "amount": "4 large", 
            "ingredient": "red apples, cored and thinly sliced"
        }
    ], 
    "prep_steps": [
        "Preheat oven to 425 degrees F (220 degrees C).", 
        "Melt butter in saucepan over medium heat. Stir in white sugar, brown sugar, salt, cinnamon, and water. Bring the syrup to a boil, stirring constantly to dissolve sugar, then remove from heat.", 
        "Unroll pie crusts, press one into a 9-inch pie dish, and place the apples into the crust. Unroll the second crust on a work surface, and cut into about 8 1-inch wide strips. Criss-cross the strips over the apples, or weave into a lattice crust. Crimp the bottom crust over the lattice strips with your fingers. Spoon caramel sauce over pie, covering lattice portion of top crust; let remaining sauce drizzle through the crust.", 
        "Bake in preheated oven for 15 minutes. Reduce heat to 350 degrees F (175 degrees C), and bake until the crust is golden brown, the caramel on the top crust is set, and the apple filling is bubbling, 35 to 40 more minutes. Allow to cool completely before slicing."
    ], 
    "prep_time": "2\u00bd hrs", 
    "recipe_name": "Chef John's Easy Apple Pie"
}