{
    "ingredients": [
        {
            "amount": "2 1/4 cups", 
            "ingredient": "all-purpose flour"
        }, 
        {
            "amount": "1/2 teaspoon", 
            "ingredient": "baking powder"
        }, 
        {
            "amount": "1/2 teaspoon", 
            "ingredient": "baking soda"
        }, 
        {
            "amount": "1/2 teaspoon", 
            "ingredient": "salt"
        }, 
        {
            "amount": "3 tablespoons", 
            "ingredient": "butter"
        }, 
        {
            "amount": "1 tablespoon", 
            "ingredient": "dried minced onion"
        }, 
        {
            "amount": "1/2 cup", 
            "ingredient": "shredded Parmesan cheese"
        }, 
        {
            "amount": "1 1/2 cups", 
            "ingredient": "shredded sharp Cheddar cheese"
        }, 
        {
            "amount": "1 cup", 
            "ingredient": "1% buttermilk"
        }
    ], 
    "prep_steps": [
        "Preheat an oven to 450 degrees F (230 degrees C). Line a baking sheet with parchment paper.", 
        "Whisk the flour, baking powder, baking soda, and salt together in a bowl. Cut the butter into the flour mixture until the mixture resembles course crumbs. Stir the onion, Parmesan cheese, and Cheddar cheese into the flour mixture. Pour the buttermilk into the bowl; stir until evenly combined. Drop by 1/4-cupfuls onto prepared baking sheet, about 2 inches apart.", 
        "Bake in the preheated oven until the tops of the biscuits are lightly browned, 12 to 15 minutes. Serve warm."
    ], 
    "prep_time": "25 mins", 
    "recipe_name": "Cheddar Onion Drop Biscuits"
}