{
    "ingredients": [
        {
            "amount": "1/2 cup", 
            "ingredient": "butter"
        }, 
        {
            "amount": "1 (8 ounce) can", 
            "ingredient": "crushed pineapple, drained and juice reserved"
        }, 
        {
            "amount": "1 (21 ounce) can", 
            "ingredient": "cherry pie filling"
        }, 
        {
            "amount": "1 (18.25 ounce) package", 
            "ingredient": "chocolate cake mix"
        }
    ], 
    "prep_steps": [
        "Melt the butter in a small saucepan, and mix with reserved juice from the can of pineapple. Set the mixture aside.", 
        "Spread the crushed pineapple in a layer on the bottom of a slow cooker. Spoon the cherry pie filling in an even layer on top of the pineapple, and empty the dry cake mix into the slow cooker on top of the cherry filling. Stir the butter and pineapple juice mixture, and pour it over the dry cake mix.", 
        "Set the slow cooker to Low, and cook for 3 hours. Spoon the dessert into bowls, and let cool about 5 minutes to cool the hot pie filling before eating."
    ], 
    "prep_time": "3 hrs", 
    "recipe_name": "Unbelievably Easy Slow Cooker Black Forest Cake"
}