{
    "ingredients": [
        {
            "amount": "1 tablespoon", 
            "ingredient": "vegetable oil"
        }, 
        {
            "amount": "4", 
            "ingredient": "skinless, boneless chicken breasts"
        }, 
        {
            "amount": "1 (10.75 ounce) can", 
            "ingredient": "Campbell's\u00ae Condensed Cream of Mushroom Soup or Campbell's\u00ae Condensed 98% Fat Free Cream of Mushroom Soup"
        }, 
        {
            "amount": "1/2 cup", 
            "ingredient": "water"
        }
    ], 
    "prep_steps": [
        "Heat oil in skillet over medium-high heat. Cook chicken 10 minutes or until browned. Set aside. Pour off fat.", 
        "Add soup and water. Heat to a boil. Return chicken to pan. Cover and cook over low heat 5 minutes or until chicken is done."
    ], 
    "prep_time": "20 mins", 
    "recipe_name": "Tasty 2-Step Chicken"
}