{
    "ingredients": [
        {
            "amount": "1 cup", 
            "ingredient": "white sugar"
        }, 
        {
            "amount": "1/2 cup", 
            "ingredient": "butter, softened"
        }, 
        {
            "amount": "3", 
            "ingredient": "egg yolks"
        }, 
        {
            "amount": "2 tablespoons", 
            "ingredient": "milk"
        }, 
        {
            "amount": "2 cups", 
            "ingredient": "all-purpose flour"
        }, 
        {
            "amount": "2 teaspoons", 
            "ingredient": "ground cinnamon"
        }, 
        {
            "amount": "1/2 teaspoon", 
            "ingredient": "baking powder"
        }, 
        {
            "amount": "1/2 teaspoon", 
            "ingredient": "salt"
        }
    ], 
    "prep_steps": [
        "In a medium bowl, cream together the butter and sugar. Beat in the egg yolks, then stir in the milk. Combine the flour, cinnamon, baking powder and salt, stir into the wet ingredients until well blended. Wrap dough and chill for at least 2 hours.", 
        "Preheat oven to 350 degrees F (175 degrees C).", 
        "On a lightly floured surface, roll the dough out to 1/4 inch thickness. Cut out cookies using a 2 1/4 inch cookie cutter. Place cookies 1 inch apart onto a cookie sheet.", 
        "Bake for 10 to 12 minutes in the preheated oven, until lightly browned. Remove cookies to wire racks and cool."
    ], 
    "recipe_name": "Cinnamon Cookies I"
}