{
    "ingredients": [
        {
            "amount": "5/8 cup", 
            "ingredient": "butter"
        }, 
        {
            "amount": "1/2 cup", 
            "ingredient": "white sugar"
        }, 
        {
            "amount": "1", 
            "ingredient": "egg"
        }, 
        {
            "amount": "1 tablespoon", 
            "ingredient": "lavender flowers"
        }, 
        {
            "amount": "1 1/2 cups", 
            "ingredient": "all-purpose flour"
        }, 
        {
            "amount": "1/2 cup", 
            "ingredient": "colored sugar for decoration"
        }, 
        {
            "amount": "1 tablespoon", 
            "ingredient": "lavender flowers"
        }
    ], 
    "prep_steps": [
        "Preheat oven to 350 degrees F (175 degrees C). Grease cookie sheets.", 
        "Cream together the butter and sugar. Beat the egg, and blend into the butter and sugar. Mix in the lavender flowers and the flour. Drop batter by teaspoonfuls onto cookie sheets.", 
        "Bake 15 to 20 minutes, or until golden. Remove cookies to cooling racks, and sprinkle with decorative sugar and additional lavender flowers if desired."
    ], 
    "recipe_name": "Lavender Cookies"
}