{
    "ingredients": [
        {
            "amount": "1 pound", 
            "ingredient": "pork sausage meat"
        }, 
        {
            "amount": "2 teaspoons", 
            "ingredient": "Worcestershire sauce"
        }, 
        {
            "amount": "4", 
            "ingredient": "hard-cooked eggs, peeled"
        }, 
        {
            "amount": "1 tablespoon", 
            "ingredient": "all-purpose flour"
        }, 
        {
            "amount": "1/8 teaspoon", 
            "ingredient": "salt"
        }, 
        {
            "amount": "1/8 teaspoon", 
            "ingredient": "ground black pepper"
        }, 
        {
            "amount": "1", 
            "ingredient": "egg, beaten"
        }, 
        {
            "amount": "2/3 cup", 
            "ingredient": "dry bread crumbs"
        }, 
        {
            "amount": "1 quart", 
            "ingredient": "oil for deep frying"
        }
    ], 
    "prep_steps": [
        "In a medium bowl, mix together the pork sausage and Worcestershire sauce. Combine the flour, salt and pepper; mix into the sausage.", 
        "Divide the sausage into four equal parts. Mold each part around one of the hard-cooked eggs, rolling between your hands to shape. Place the beaten egg and bread crumbs into separate dishes. Dip the balls into the egg, then roll in the bread crumbs until coated. Shake off any excess.", 
        "Heat the oil in a large saucepan or deep fryer to 365 degrees F (180 degrees C), or until a cube of bread dropped into the oil turns brown in 1 minute. Lower the eggs carefully into the hot oil. Fry for 5 minutes, or until deep golden brown."
    ], 
    "prep_time": "30 mins", 
    "recipe_name": "Scotch Eggs"
}