{
    "ingredients": [
        {
            "amount": "4 pounds", 
            "ingredient": "ground beef"
        }, 
        {
            "amount": "1 (1 ounce) envelope", 
            "ingredient": "dry onion soup mix"
        }, 
        {
            "amount": "1 1/2 (10.5 ounce) cans", 
            "ingredient": "condensed French onion soup"
        }, 
        {
            "amount": "16", 
            "ingredient": "hamburger buns, split"
        }
    ], 
    "prep_steps": [
        "Crumble the ground beef into a large skillet over medium-high heat. Cook and stir until evenly browned, crumbling even more as it cooks. Drain off the grease. Stir in the onion soup mix and French onion soup. Cover, and simmer over low heat for about 2 hours, or you may transfer to a slow cooker for this part.", 
        "To serve, spoon onto hamburger buns like a sloppy Joe."
    ], 
    "prep_time": "2\u00bd hrs", 
    "recipe_name": "Iowa Maid-Rites"
}