{
    "ingredients": [
        {
            "amount": "1 (14 ounce) can", 
            "ingredient": "black beans, rinsed and drained"
        }, 
        {
            "amount": "1 (15.5 ounce) can", 
            "ingredient": "black-eyed peas, rinsed and drained"
        }, 
        {
            "amount": "1 (14 ounce) can", 
            "ingredient": "garbanzo beans, rinsed and drained"
        }, 
        {
            "amount": "1 (15 ounce) can", 
            "ingredient": "white corn, drained"
        }, 
        {
            "amount": "1 cup", 
            "ingredient": "finely chopped Vidalia or other sweet onion"
        }, 
        {
            "amount": "2 cloves", 
            "ingredient": "garlic, minced"
        }, 
        {
            "amount": "1 cup", 
            "ingredient": "finely chopped fresh parsley"
        }, 
        {
            "amount": "2 teaspoons", 
            "ingredient": "finely chopped fresh basil"
        }, 
        {
            "amount": "1/3 cup", 
            "ingredient": "olive oil"
        }, 
        {
            "amount": "1/4 cup", 
            "ingredient": "red wine vinegar"
        }, 
        {
            "amount": "1 teaspoon", 
            "ingredient": "salt"
        }, 
        {
            "amount": "1/2 teaspoon", 
            "ingredient": "ground black pepper"
        }, 
        {
            "amount": "1/2 teaspoon", 
            "ingredient": "dry mustard powder"
        }, 
        {
            "amount": "1/2 teaspoon", 
            "ingredient": "hot pepper sauce, or amount to taste"
        }
    ], 
    "prep_steps": [
        "Stir the black beans, black-eyed peas, garbanzo beans, white corn, onion, garlic, parsley, and basil together in a bowl.", 
        "To make the dressing, mix the olive oil, red wine vinegar, salt, pepper, dry mustard, and hot sauce together in a small bowl until well blended. Pour over the bean mixture and toss to mix evenly. Refrigerate for 24 hours before serving."
    ], 
    "prep_time": "1 days", 
    "recipe_name": "Poor Man's Caviar"
}