{
    "ingredients": [
        {
            "amount": "4 ounces", 
            "ingredient": "Brie cheese"
        }, 
        {
            "amount": "4 slices", 
            "ingredient": "rye bread"
        }, 
        {
            "amount": "1 (28 ounce) can", 
            "ingredient": "tomato puree"
        }, 
        {
            "amount": "1/2 teaspoon", 
            "ingredient": "red pepper flakes"
        }, 
        {
            "amount": "1/8 teaspoon", 
            "ingredient": "freshly ground black pepper"
        }, 
        {
            "amount": "3/4 teaspoon", 
            "ingredient": "dried basil"
        }, 
        {
            "amount": "1/2 teaspoon", 
            "ingredient": "white sugar"
        }, 
        {
            "amount": "1/4 cup", 
            "ingredient": "milk"
        }, 
        {
            "amount": "4 ounces", 
            "ingredient": "cream cheese, cubed"
        }, 
        {
            "amount": "2 tablespoons", 
            "ingredient": "chopped fresh basil leaves"
        }
    ], 
    "prep_steps": [
        "Preheat the oven or a toaster oven to 400 degrees F (200 degrees C). Spread the Brie cheese onto two slices of bread, and top with remaining slices. Place on a baking sheet and toast in the oven for about 8 minutes, turning once halfway through. Cut in half, and set aside.", 
        "In a saucepan over medium heat, stir together the tomato puree, red pepper flakes, black pepper, basil, and sugar. Bring to a simmer, and cook for 10 minutes.", 
        "Whisk in the cream cheese until well blended, then stir in the milk. Heat through without bringing to a boil. Stir in the fresh basil, and remove from the heat.", 
        "To serve, place each sandwich half into a separate bowl. Ladle soup over each one into the bowl. Serve immediately."
    ], 
    "prep_time": "25 mins", 
    "recipe_name": "Spicy Tomato Bisque with Grilled Brie Toast"
}