{
    "ingredients": [
        {
            "amount": "2 tablespoons", 
            "ingredient": "olive oil"
        }, 
        {
            "amount": "2 cups", 
            "ingredient": "butternut squash - peeled, seeded, and cut into 3/4-inch chunks"
        }, 
        {
            "amount": "1 small", 
            "ingredient": "yellow onion, finely chopped"
        }, 
        {
            "amount": "1/4 cup", 
            "ingredient": "finely chopped celery"
        }, 
        {
            "amount": "1/2 cup", 
            "ingredient": "finely chopped carrot"
        }, 
        {
            "amount": "3 cloves", 
            "ingredient": "garlic, minced"
        }, 
        {
            "amount": "2", 
            "ingredient": "canned Chipotle peppers in adobo sauce, seeded and minced"
        }, 
        {
            "amount": "1 tablespoon", 
            "ingredient": "chopped fresh basil leaves"
        }, 
        {
            "amount": "1 tablespoon", 
            "ingredient": "chopped fresh parsley"
        }, 
        {
            "amount": "1 teaspoon", 
            "ingredient": "cumin"
        }, 
        {
            "amount": "1 (15 ounce) can", 
            "ingredient": "diced tomatoes"
        }, 
        {
            "amount": "2 quarts", 
            "ingredient": "chicken broth"
        }, 
        {
            "amount": "1 (15.5 ounce) can", 
            "ingredient": "cannellini beans, drained"
        }, 
        {
            "amount": "1 cup", 
            "ingredient": "corn kernels, fresh, canned, or frozen"
        }, 
        {
            "amount": "2", 
            "ingredient": "limes, cut into wedges"
        }, 
        {
            "amount": "1 (10 ounce) bag", 
            "ingredient": "tortilla chips, for topping"
        }, 
        {
            "amount": "1 cup", 
            "ingredient": "sour cream, for topping"
        }, 
        {
            "amount": "1 (8 ounce) package", 
            "ingredient": "shredded Mexican blend cheese, for topping"
        }
    ], 
    "prep_steps": [
        "Heat the olive oil in a deep pot over medium-high heat. Stir in the squash, and cook until it begins to soften, 5 to 7 minutes. Add the onion, celery, and carrots. Cook until the onion is transparent, about 5 minutes. Stir in the garlic, chipotle peppers, basil, parsley, and cumin; cook 2 minutes more. Mix in the tomatoes and chicken broth. Reduce the heat to medium, and simmer until the vegetables are tender, about 30 minutes. Stir in the cannellini beans and the corn; cook just until heated through.", 
        "To serve, ladle the soup into bowls. Squeeze lime juice over each bowl, and top with tortilla chips, a dollop of sour cream, and a sprinkling of Mexican cheese."
    ], 
    "prep_time": "1\u00bd hrs", 
    "recipe_name": "Mexican Bean and Squash Soup"
}