{
    "ingredients": [
        {
            "amount": "2 pounds", 
            "ingredient": "fresh tuna steaks"
        }, 
        {
            "amount": "1/2 cup", 
            "ingredient": "soy sauce"
        }, 
        {
            "amount": "1/2 cup", 
            "ingredient": "sherry"
        }, 
        {
            "amount": "1/2 cup", 
            "ingredient": "vegetable oil"
        }, 
        {
            "amount": "1 bunch", 
            "ingredient": "green onions, finely chopped"
        }, 
        {
            "amount": "1/2 cup", 
            "ingredient": "minced fresh ginger root"
        }, 
        {
            "amount": "3 cloves", 
            "ingredient": "garlic, minced"
        }, 
        {
            "amount": "1 teaspoon", 
            "ingredient": "salt"
        }, 
        {
            "amount": "1 teaspoon", 
            "ingredient": "ground black pepper"
        }
    ], 
    "prep_steps": [
        "Place tuna steaks in a steamer over 1 inch of boiling water, and cover. Cook 6 to 8 minutes, or until fish flakes easily with a fork.", 
        "Meanwhile, in a medium saucepan, combine soy sauce, sherry, vegetable oil, green onions, ginger, garlic, salt, and black pepper. Bring to a boil.", 
        "Remove tuna steaks from steamer, and place in a serving dish. Pour sauce over tuna steaks, and serve immediately."
    ], 
    "prep_time": "30 mins", 
    "recipe_name": "Steamed Tuna Fish"
}