{
    "ingredients": [
        {
            "amount": "1 pound", 
            "ingredient": "shrimp - peeled, deveined and chopped"
        }, 
        {
            "amount": "1 1/4 cups", 
            "ingredient": "coarsely crushed buttery round crackers"
        }, 
        {
            "amount": "1/4 cup", 
            "ingredient": "chopped onion"
        }, 
        {
            "amount": "2", 
            "ingredient": "jalapeno peppers, seeded and chopped"
        }, 
        {
            "amount": "1 cup", 
            "ingredient": "mayonnaise"
        }, 
        {
            "amount": "1 tablespoon", 
            "ingredient": "prepared yellow mustard"
        }, 
        {
            "amount": "10 dashes", 
            "ingredient": "hot pepper sauce (e.g. Tabasco\u2122)"
        }, 
        {
            "amount": "1 tablespoon", 
            "ingredient": "Parmesan cheese"
        }, 
        {
            "amount": "1 quart", 
            "ingredient": "oil for frying"
        }
    ], 
    "prep_steps": [
        "In a medium bowl, combine the shrimp, crackers, onion and jalapeno. Stir in the mayonnaise and mustard, and season with Tabasco and celery salt. Mix in Parmesan cheese. Form into 8 patties.", 
        "Heat about 1/2 inch of oil in a deep heavy skillet over medium-high heat. When oil is nice and hot, fry the patties for about 5 minutes per side, or until golden brown."
    ], 
    "prep_time": "30 mins", 
    "recipe_name": "Shrimp Cakes"
}