{
    "ingredients": [
        {
            "amount": "6", 
            "ingredient": "lasagna noodles"
        }, 
        {
            "amount": "1/4 cup", 
            "ingredient": "chopped onion"
        }, 
        {
            "amount": "1 (4.5 ounce) can", 
            "ingredient": "sliced mushrooms, drained"
        }, 
        {
            "amount": "3 tablespoons", 
            "ingredient": "chicken broth"
        }, 
        {
            "amount": "1 (10.75 ounce) can", 
            "ingredient": "condensed cream of chicken soup"
        }, 
        {
            "amount": "1/3 cup", 
            "ingredient": "milk"
        }, 
        {
            "amount": "1/2 teaspoon", 
            "ingredient": "dried basil"
        }, 
        {
            "amount": "2 cups", 
            "ingredient": "diced chicken breast meat"
        }, 
        {
            "amount": "1 pound", 
            "ingredient": "ricotta cheese"
        }, 
        {
            "amount": "1 1/2 cups", 
            "ingredient": "shredded Cheddar cheese"
        }, 
        {
            "amount": "1/8 cup", 
            "ingredient": "grated Parmesan cheese"
        }
    ], 
    "prep_steps": [
        "Preheat oven to 350 degrees F (175 degrees C). Bring a large pot of lightly salted water to a boil. Add noodles and cook for 8 to 10 minutes or until al dente; drain.", 
        "In a small saucepan, saute onion and mushrooms in chicken broth. Remove from heat. Stir in soup, milk and basil. Mix well. Set aside.", 
        "In a lightly greased 9x13 inch baking dish, arrange 3 cooked lasagna noodles. Layer as follows: 1/2 the chicken, 1/2 the ricotta cheese, 1/2 the Cheddar cheese, 1/2 the Parmesan cheese and 1/2 the mushroom/soup mixture. Add the other 3 lasagna noodles and repeat layers. Bake uncovered in the preheated oven for approximately 50 minutes."
    ], 
    "prep_time": "1\u00bc hrs", 
    "recipe_name": "Golden Lasagna"
}