{
    "ingredients": [
        {
            "amount": "1 cup", 
            "ingredient": "beer"
        }, 
        {
            "amount": "1 tablespoon", 
            "ingredient": "margarine"
        }, 
        {
            "amount": "2 tablespoons", 
            "ingredient": "white sugar"
        }, 
        {
            "amount": "1 teaspoon", 
            "ingredient": "salt"
        }, 
        {
            "amount": "3 cups", 
            "ingredient": "all-purpose flour"
        }, 
        {
            "amount": "3/4 teaspoon", 
            "ingredient": "active dry yeast"
        }, 
        {
            "amount": "1", 
            "ingredient": "egg"
        }, 
        {
            "amount": "1 tablespoon", 
            "ingredient": "warm water (110 degrees F/45 degrees C)"
        }, 
        {
            "amount": "2 tablespoons", 
            "ingredient": "kosher salt"
        }
    ], 
    "prep_steps": [
        "Measure first 6 ingredients in order listed into baking pan. Select: Dough/Pasta Setting and press start.", 
        "When the cycle is complete remove dough to a lightly floured surface. If necessary, knead in enough flour to make dough easy to handle. Roll into a 14X9 inch rectangle. With a sharp knife, cut into eighteen 14X1/2 inch strips. Gently pull each strip into a rope 16 inches long. To shape into pretzels: Curve ends of each rope to make a circle; cross ends at top. Twist ends once and lay over bottom of circle. Place on greased baking sheets. DO NOT LET RISE.", 
        "Combine lightly beaten egg and 1tablespoon water; brush on pretzels. Sprinkle with kosher salt. Bake in a preheated 350 degrees F (175 degrees C) oven for 18-20 minutes or until done. Remove from sheets and let pretzels cool on wire rack. Enjoy!"
    ], 
    "prep_time": "2\u00be hrs", 
    "recipe_name": "Baked Pretzels"
}