{
    "ingredients": [
        {
            "amount": "2 cups", 
            "ingredient": "shredded zucchini"
        }, 
        {
            "amount": "1/3 cup", 
            "ingredient": "boiling water"
        }, 
        {
            "amount": "2 3/4 cups", 
            "ingredient": "all-purpose flour"
        }, 
        {
            "amount": "1 1/2 cups", 
            "ingredient": "white sugar"
        }, 
        {
            "amount": "2/3 cup", 
            "ingredient": "sunflower seeds"
        }, 
        {
            "amount": "1 1/4 teaspoons", 
            "ingredient": "baking soda"
        }, 
        {
            "amount": "1 teaspoon", 
            "ingredient": "salt"
        }, 
        {
            "amount": "1 teaspoon", 
            "ingredient": "ground cinnamon"
        }, 
        {
            "amount": "1 teaspoon", 
            "ingredient": "ground cloves"
        }, 
        {
            "amount": "1 teaspoon", 
            "ingredient": "ground coriander"
        }, 
        {
            "amount": "1 teaspoon", 
            "ingredient": "ground nutmeg"
        }, 
        {
            "amount": "3", 
            "ingredient": "eggs, beaten"
        }, 
        {
            "amount": "1/3 cup", 
            "ingredient": "vegetable oil"
        }, 
        {
            "amount": "1 teaspoon", 
            "ingredient": "vanilla extract"
        }
    ], 
    "prep_steps": [
        "Preheat oven to 350 degrees F (175 degrees C). Lightly grease a 12 cup and a 6 cup muffin pan.", 
        "In a large bowl, stir together zucchini and boiling water.", 
        "In a separate bowl, mix flour, sugar, sunflower seeds, baking soda, salt, cinnamon, cloves, coriander, and nutmeg.", 
        "Blend eggs, vegetable oil, and vanilla extract with the zucchini. Stir the zucchini mixture into the flour mixture. Spoon into the prepared muffin pans.", 
        "Bake 20 to 25 minutes in the preheated oven, or until a knife inserted into the center of a muffin comes out clean."
    ], 
    "prep_time": "45 mins", 
    "recipe_name": "Five Spice Muffins"
}