{
    "ingredients": [
        {
            "amount": "1 (8 ounce) package", 
            "ingredient": "cream cheese, softened"
        }, 
        {
            "amount": "2 (7 ounce) jars", 
            "ingredient": "marshmallow creme"
        }, 
        {
            "amount": "1 (15 ounce) can", 
            "ingredient": "solid pack pumpkin"
        }, 
        {
            "amount": "1 teaspoon", 
            "ingredient": "ground cinnamon"
        }
    ], 
    "prep_steps": [
        "In a medium bowl, beat together cream cheese and marshmallow creme until smooth. Fold in pumpkin and cinnamon. Cover, and chill in the refrigerator until serving."
    ], 
    "prep_time": "10 mins", 
    "recipe_name": "Pumpkin Cookie Dip"
}