{
    "ingredients": [
        {
            "amount": "1 pint", 
            "ingredient": "heavy cream"
        }
    ], 
    "prep_steps": [
        "Fill airtight containers approximately half full with heavy cream. Securely cover containers and shake until thickened."
    ], 
    "prep_time": "10 mins", 
    "recipe_name": "Homemade Butter"
}