{
    "ingredients": [
        {
            "amount": "2 cups", 
            "ingredient": "semisweet chocolate chips"
        }, 
        {
            "amount": "2 tablespoons", 
            "ingredient": "instant coffee powder"
        }, 
        {
            "amount": "2 teaspoons", 
            "ingredient": "boiling water"
        }, 
        {
            "amount": "1 1/4 cups", 
            "ingredient": "all-purpose flour"
        }, 
        {
            "amount": "3/4 teaspoon", 
            "ingredient": "baking soda"
        }, 
        {
            "amount": "1/2 teaspoon", 
            "ingredient": "salt"
        }, 
        {
            "amount": "1/2 cup", 
            "ingredient": "butter, softened"
        }, 
        {
            "amount": "1/2 cup", 
            "ingredient": "white sugar"
        }, 
        {
            "amount": "1/2 cup", 
            "ingredient": "packed brown sugar"
        }, 
        {
            "amount": "1", 
            "ingredient": "egg"
        }, 
        {
            "amount": "1/2 cup", 
            "ingredient": "chopped walnuts"
        }
    ], 
    "prep_steps": [
        "Preheat oven to 350 degrees F (175 degrees C).", 
        "Melt over hot (not boiling) water 1/2 cup of the chocolate morsels. Stir until smooth. Cool to room temperature.", 
        "In small cup, dissolve the instant coffee in the 2 teaspoons boiling water. Set aside.", 
        "In small bowl, combine flour, baking soda, and salt. Set aside.", 
        "In large bowl, combine butter, sugars, and coffee. Beat until creamy. Add egg and melted morsels. Mix well. Gradually add flour mixture. Stir in remaining 1-1/2 cups chocolate morsels and walnuts. Form into walnut-sized balls and place on ungreased cookie sheets.", 
        "Bake at 350 degrees F (175 degrees C) for 10-12 minutes. Allow to stand 2-3 minutes before removing from cookie sheets."
    ], 
    "recipe_name": "Mocha Walnut Cookies"
}