{
    "ingredients": [
        {
            "amount": "5", 
            "ingredient": "eggs"
        }, 
        {
            "amount": "1/3 cup", 
            "ingredient": "butter, melted"
        }, 
        {
            "amount": "1/4 cup", 
            "ingredient": "white sugar"
        }, 
        {
            "amount": "1/2 cup", 
            "ingredient": "milk"
        }, 
        {
            "amount": "4 tablespoons", 
            "ingredient": "cornstarch"
        }, 
        {
            "amount": "1 (15.25 ounce) can", 
            "ingredient": "whole kernel corn"
        }, 
        {
            "amount": "2 (14.75 ounce) cans", 
            "ingredient": "cream-style corn"
        }
    ], 
    "prep_steps": [
        "Preheat oven to 400 Degrees F (200 degrees C). Grease a 2 quart casserole dish.", 
        "In a large bowl, lightly beat eggs. Add melted butter, sugar, and milk. Whisk in cornstarch. Stir in corn and creamed corn. Blend well. Pour mixture into prepared casserole dish.", 
        "Bake for 1 hour."
    ], 
    "prep_time": "1\u00bc hrs", 
    "recipe_name": "Grandma's Corn Pudding"
}