{
    "ingredients": [
        {
            "amount": "1 pound", 
            "ingredient": "bacon or SPAM\u2122, chopped"
        }, 
        {
            "amount": "4 cloves", 
            "ingredient": "garlic, minced"
        }, 
        {
            "amount": "6", 
            "ingredient": "green onions, chopped"
        }, 
        {
            "amount": "2", 
            "ingredient": "carrots, sliced"
        }, 
        {
            "amount": "1/2 pound", 
            "ingredient": "snow peas"
        }, 
        {
            "amount": "4 cups", 
            "ingredient": "cooked white rice"
        }, 
        {
            "amount": "1/4 cup", 
            "ingredient": "soy sauce"
        }
    ], 
    "prep_steps": [
        "Cook bacon in a skillet over medium-high heat until crisp. Stir in the garlic, green onions, and carrots; cook for 2 minutes. Add snow peas; cook for 2 more minutes.", 
        "Stir in the cooked rice, a cup at a time, coating well with the grease. Cook and stir until the rice is hot, then sprinkle with soy sauce."
    ], 
    "prep_time": "50 mins", 
    "recipe_name": "Guam Fried Rice"
}