{
    "ingredients": [
        {
            "amount": "1 tablespoon", 
            "ingredient": "butter"
        }, 
        {
            "amount": "1 small", 
            "ingredient": "onion, diced"
        }, 
        {
            "amount": "1/2 pound", 
            "ingredient": "bacon"
        }, 
        {
            "amount": "1 (28 ounce) can", 
            "ingredient": "baked beans (such as Bush's Original\u00ae)"
        }, 
        {
            "amount": "2 teaspoons", 
            "ingredient": "Worcestershire sauce"
        }, 
        {
            "amount": "1 tablespoon", 
            "ingredient": "ketchup"
        }, 
        {
            "amount": "1 teaspoon", 
            "ingredient": "prepared yellow mustard"
        }, 
        {
            "amount": "1 cup", 
            "ingredient": "brown sugar, divided"
        }
    ], 
    "prep_steps": [
        "Preheat an oven to 400 degrees F (200 degrees C).", 
        "Melt the butter in a skillet over low heat. Cook and stir until the onion has softened and turned translucent, 10 to 15 minutes. Meanwhile, place the bacon in a large, deep skillet, and cook over medium-high heat, turning occasionally, until evenly browned, about 10 minutes. Drain the bacon slices on a paper towel-lined plate. Cut bacon into bite-sized pieces and set aside.", 
        "Combine the baked beans, Worcestershire sauce, ketchup, mustard, and onions in a 2-quart casserole dish. Stir in 2/3 of the cooked bacon and 1/4 of the brown sugar until evenly mixed. Cover the bean mixture with the remaining bacon, and sprinkle with the remaining brown sugar.", 
        "Bake in the preheated oven until hot and bubbly, about 45 minutes."
    ], 
    "prep_time": "1\u00bc hrs", 
    "recipe_name": "3BC (Best Baked Bean Casserole)"
}