{
    "ingredients": [
        {
            "amount": "4", 
            "ingredient": "fresh tomatillos - husked, peeled, and halved"
        }, 
        {
            "amount": "3", 
            "ingredient": "Anaheim chile peppers - seeded and halved"
        }, 
        {
            "amount": "3", 
            "ingredient": "jalapeno peppers - seeded and halved lengthwise"
        }, 
        {
            "amount": "1 medium", 
            "ingredient": "onion, halved"
        }, 
        {
            "amount": "1", 
            "ingredient": "green bell pepper, seeded and halved lengthwise"
        }, 
        {
            "amount": "1 tablespoon", 
            "ingredient": "olive oil, or as needed"
        }, 
        {
            "amount": "1 tablespoon", 
            "ingredient": "olive oil"
        }, 
        {
            "amount": "1 1/2 cups", 
            "ingredient": "pork shoulder, cut into 1-inch chunks"
        }, 
        {
            "amount": "2", 
            "ingredient": "tomatoes, chopped"
        }, 
        {
            "amount": "4 cloves", 
            "ingredient": "garlic, chopped"
        }, 
        {
            "amount": "1", 
            "ingredient": "beef bouillon cube"
        }, 
        {
            "amount": "1/2 (12 fluid ounce) can or bottle", 
            "ingredient": "lager-style beer"
        }, 
        {
            "amount": "2 tablespoons", 
            "ingredient": "chopped fresh oregano"
        }, 
        {
            "amount": "1 tablespoon", 
            "ingredient": "chopped fresh parsley"
        }, 
        {
            "amount": "1 tablespoon", 
            "ingredient": "ground cumin"
        }, 
        {
            "amount": "1 teaspoon", 
            "ingredient": "chili powder"
        }, 
        {
            "amount": "4 ounces", 
            "ingredient": "cream cheese at room temperature"
        }
    ], 
    "prep_steps": [
        "Preheat oven to 425 degrees F (220 degrees C).", 
        "Arrange the halved tomatillos, Anaheim chiles, jalapenos, onion, and green bell pepper on a baking sheet. Drizzle the vegetables with 1 tablespoon of olive oil.", 
        "Roast the vegetables in the preheated oven until they begin to show brown spots, about 30 minutes. Allow to cool, then chop vegetables into bite-size pieces.", 
        "Heat 1 more tablespoon of olive oil in a large skillet over high heat, and pan-fry the pork until browned, sprinkling the meat with salt and black pepper as it cooks, about 12 minutes. Transfer the pork cubes to a slow cooker, and stir in the roasted vegetables. Mix in the tomatoes, garlic, beef bouillon cube, beer, oregano, parsley, cumin, and chili powder. Set the cooker on Low, cover, and cook until the pork is very tender, 4 to 6 hours.", 
        "About 1/2 hour before serving, place the cream cheese into a bowl, and stir in about 1 tablespoon of the chili liquid until thoroughly combined. Continue stirring in chili broth, a tablespoon at a time, until the cream cheese is almost a liquid. Stir the cream cheese mixture back into the chili."
    ], 
    "prep_time": "5 hr", 
    "recipe_name": "Mile High Green Chili"
}