{
    "ingredients": [
        {
            "amount": "4 tablespoons", 
            "ingredient": "olive oil"
        }, 
        {
            "amount": "1", 
            "ingredient": "onion, chopped"
        }, 
        {
            "amount": "3", 
            "ingredient": "tomatoes, chopped"
        }, 
        {
            "amount": "1 tablespoon", 
            "ingredient": "tomato puree"
        }
    ], 
    "prep_steps": [
        "In a large skillet over medium heat, cook onion in olive oil until translucent. Stir in tomatoes, cook until juice begins to thicken. Stir in puree, salt and pepper. Reduce heat and simmer 15 minutes more, until rich and thick."
    ], 
    "prep_time": "30 mins", 
    "recipe_name": "Easy Tomato Sauce"
}