{
    "ingredients": [
        {
            "amount": "1 (.25 ounce) package", 
            "ingredient": "active dry yeast"
        }, 
        {
            "amount": "1 tablespoon", 
            "ingredient": "white sugar"
        }, 
        {
            "amount": "1 tablespoon", 
            "ingredient": "salt"
        }, 
        {
            "amount": "1 1/2 cups", 
            "ingredient": "warm water (110 degrees F/45 degrees C)"
        }, 
        {
            "amount": "1/2 cup", 
            "ingredient": "Greek-style yogurt"
        }, 
        {
            "amount": "4 cups", 
            "ingredient": "all-purpose flour"
        }
    ], 
    "prep_steps": [
        "Dissolve the yeast, sugar, and salt in the warm water. Add the water and yogurt to the flour and mix well. The dough will be soft but not sticky. Turn the dough out onto a lightly floured surface and shape it into a ball. Cover the dough with a damp cloth and allow it to rise at room temperature for 3 hours.", 
        "Cut the dough into four portions. Shape the dough into rounds and flatten each round as though you're making pizza dough. Cover the rounds with a damp cloth and let the dough rest for 15 minutes.", 
        "Heat a cast iron skillet or griddle over medium-high heat. Place one dough round in the skillet and bake until brown spots appear on the bottom, about 1 minute. Flip the bread and bake for an additional minute. Remove the bread and wrap it in a clean kitchen towel to keep warm.", 
        "Repeat with the remaining dough rounds. Store any leftover flatbreads in an airtight container."
    ], 
    "prep_time": "4 hr", 
    "recipe_name": "Bazlama - Turkish Flat Bread"
}