{
    "ingredients": [
        {
            "amount": "1 pound", 
            "ingredient": "dry fettuccine pasta"
        }, 
        {
            "amount": "1 tablespoon", 
            "ingredient": "butter"
        }, 
        {
            "amount": "6 ounces", 
            "ingredient": "diced cooked ham"
        }, 
        {
            "amount": "2 cups", 
            "ingredient": "heavy cream"
        }, 
        {
            "amount": "1 cup", 
            "ingredient": "grated Parmesan cheese"
        }
    ], 
    "prep_steps": [
        "Bring a large pot of lightly salted water to a boil. Add pasta and cook for 8 to 10 minutes or until al dente; drain.", 
        "In a medium sauce pan over medium heat, melt butter. Stir in ham and cook 1 minute. Stir in cream and heat through. Stir in Parmesan and cook until thick and smooth. Toss with cooked pasta."
    ], 
    "prep_time": "15 mins", 
    "recipe_name": "Fettuccine Alfredo with Ham"
}