{
    "ingredients": [
        {
            "amount": "1 (8 ounce) package", 
            "ingredient": "cream cheese"
        }, 
        {
            "amount": "1 (14 ounce) can", 
            "ingredient": "sweetened condensed milk"
        }, 
        {
            "amount": "1/3 cup", 
            "ingredient": "lemon juice"
        }, 
        {
            "amount": "2 cups", 
            "ingredient": "cherry pie filling"
        }, 
        {
            "amount": "1 (9 inch)", 
            "ingredient": "prepared graham cracker crust"
        }
    ], 
    "prep_steps": [
        "Cream together cream cheese and condensed milk until smooth.", 
        "Add lemon juice and blend well.", 
        "Pour into graham cracker crust.", 
        "Top with fruit pie filling.", 
        "Chill for 2 hours before serving."
    ], 
    "prep_time": "2\u00bd hrs", 
    "recipe_name": "Easy Cream Cheese Pie"
}