{
    "ingredients": [
        {
            "amount": "5 ounces", 
            "ingredient": "spinach - rinsed, stemmed, and dried"
        }, 
        {
            "amount": "2", 
            "ingredient": "eggs"
        }, 
        {
            "amount": "5/8 cup", 
            "ingredient": "semolina flour"
        }, 
        {
            "amount": "1 teaspoon", 
            "ingredient": "salt"
        }, 
        {
            "amount": "1 1/2 cups", 
            "ingredient": "all-purpose flour"
        }, 
        {
            "amount": "2 tablespoons", 
            "ingredient": "butter"
        }, 
        {
            "amount": "2 slices", 
            "ingredient": "bacon, diced"
        }, 
        {
            "amount": "1", 
            "ingredient": "carrot, diced"
        }, 
        {
            "amount": "1 stalk", 
            "ingredient": "celery, diced"
        }, 
        {
            "amount": "1", 
            "ingredient": "onion, diced"
        }, 
        {
            "amount": "3 1/2 ounces", 
            "ingredient": "lean ground pork"
        }, 
        {
            "amount": "3 1/2 ounces", 
            "ingredient": "lean ground beef"
        }, 
        {
            "amount": "3 1/2 ounces", 
            "ingredient": "minced ham"
        }, 
        {
            "amount": "2 tablespoons", 
            "ingredient": "tomato paste"
        }, 
        {
            "amount": "1 teaspoon", 
            "ingredient": "dried oregano"
        }, 
        {
            "amount": "1 cup", 
            "ingredient": "beef stock"
        }, 
        {
            "amount": "3 1/2 ounces", 
            "ingredient": "chicken livers, trimmed and chopped"
        }, 
        {
            "amount": "2 tablespoons", 
            "ingredient": "butter"
        }, 
        {
            "amount": "2 tablespoons", 
            "ingredient": "all-purpose flour"
        }, 
        {
            "amount": "2 cups", 
            "ingredient": "warm milk"
        }, 
        {
            "amount": "1 pinch", 
            "ingredient": "salt"
        }, 
        {
            "amount": "1 pinch", 
            "ingredient": "ground nutmeg"
        }, 
        {
            "amount": "1 2/3 cups", 
            "ingredient": "grated Parmesan cheese"
        }, 
        {
            "amount": "1 pint", 
            "ingredient": "ricotta cheese"
        }, 
        {
            "amount": "3 tablespoons", 
            "ingredient": "butter"
        }
    ], 
    "prep_steps": [
        "For the pasta dough: Steam the spinach in a steamer or over boiling water until bright green, 2 minutes. Squeeze to remove excess moisture and process in a food processor to make a paste. Combine spinach with eggs, semolina, and salt and process until smooth. Stir in enough of the flour to make a smooth dough. Knead briefly, cover and set aside.", 
        "For the ragu: In a large skillet, melt butter over medium-high heat. Saute bacon, carrot, celery and onion until onion is translucent. Stir in ground pork, ground beef and minced ham, and cook until browned. Stir in tomato paste, oregano and beef stock. (Reserve the chicken livers for later.) Season with salt and pepper, reduce heat to low, cover and simmer 20 minutes.", 
        "For the bechamel: While the ragu is simmering, combine 2 tablespoons butter and 2 tablespoons flour in a medium saucepan over medium-low heat. Whisk to make a roux. Remove from heat, let rest one minute, then whisk in warm milk. Return to heat, simmer 10 minutes, stirring constantly, until thickened. Season with salt and nutmeg. Remove from heat.", 
        "To cook pasta: Bring a large pot of lightly salted water to a boil. On a floured surface, divide pasta dough into three portions. Roll each portion out to a thin sheet. Have ready an ice water bath. Cook each sheet 3 minutes in the boiling water; remove from the boiling water and dip in the ice water; drain and dry on a clean, dry cloth.", 
        "To finish the ragu: Stir the chicken livers into the simmering sauce. Cook 1 minute, remove from heat and set aside.", 
        "Preheat oven to 400 degrees F (200 degrees C). Grease a 9x13 baking dish.", 
        "To assemble lasagna: Place one pasta sheet in bottom of prepared baking dish. Spread one-third of the ragu, one-quarter of the bechamel, one-third of the ricotta, and one-quarter of the parmesan over the pasta. Repeat layers twice. Top with remaining bechamel and parmesan and dot with butter.", 
        "Bake in preheated oven 30 minutes, until top is golden brown."
    ], 
    "prep_time": "1\u00bd hrs", 
    "recipe_name": "Lasagne Verdi al Forno"
}