{
    "ingredients": [
        {
            "amount": "1 (9 inch)", 
            "ingredient": "pie shell"
        }, 
        {
            "amount": "2 cups", 
            "ingredient": "chopped rhubarb"
        }, 
        {
            "amount": "1 cup", 
            "ingredient": "white sugar"
        }, 
        {
            "amount": "2 tablespoons", 
            "ingredient": "all-purpose flour"
        }, 
        {
            "amount": "1/2 teaspoon", 
            "ingredient": "ground nutmeg"
        }, 
        {
            "amount": "2", 
            "ingredient": "eggs, beaten"
        }, 
        {
            "amount": "4 teaspoons", 
            "ingredient": "milk"
        }
    ], 
    "prep_steps": [
        "Preheat oven to 350 degrees F (175 degrees C).", 
        "Spread rhubarb evenly across unbaked pastry shell.", 
        "In a medium bowl combine sugar, flour, and nutmeg. Mix well, then add eggs and milk. Beat until smooth and pour mixture over rhubarb layer.", 
        "Cover edges of pie shell with aluminum foil to prevent overbrowning. Bake in preheated oven for 50 minutes. Remove foil from crust and bake an additional 10 minutes."
    ], 
    "recipe_name": "Rhubarb Custard Pie IV"
}