{
    "ingredients": [
        {
            "amount": "48", 
            "ingredient": "milk chocolate candy kisses, unwrapped"
        }, 
        {
            "amount": "1 cup", 
            "ingredient": "butter, softened"
        }, 
        {
            "amount": "1/3 cup", 
            "ingredient": "white sugar"
        }, 
        {
            "amount": "1/3 cup", 
            "ingredient": "packed brown sugar"
        }, 
        {
            "amount": "1 teaspoon", 
            "ingredient": "vanilla extract"
        }, 
        {
            "amount": "2 cups", 
            "ingredient": "all-purpose flour"
        }, 
        {
            "amount": "1 cup", 
            "ingredient": "mini semi-sweet chocolate chips"
        }
    ], 
    "prep_steps": [
        "Preheat oven to 375 degrees F (190 degrees C).", 
        "In large mixing bowl, beat butter or margarine, sugar, brown sugar and vanilla until well blended. Add flour, blend until smooth. Stir in small chocolate chips.", 
        "Unwrap chocolate kiss candies. Mold scant tablespoons of dough around each chocolate piece, covering completely. Shape into balls; place on ungreased cookie sheet.", 
        "Shape into balls; place on ungreased cookie sheet. Bake 10 to 12 minutes or until set. Cool slightly; remove from cookie sheet to wire rack. Cool completely. NOTE: I buy chocolate dessert topping and drizzle over cooled cookies."
    ], 
    "recipe_name": "Chocolate Chip Kiss Cookies"
}