{
    "ingredients": [
        {
            "amount": "4 large", 
            "ingredient": "oranges"
        }, 
        {
            "amount": "8 (4 ounce) fillets", 
            "ingredient": "salmon"
        }, 
        {
            "amount": "2 teaspoons", 
            "ingredient": "red wine vinegar"
        }, 
        {
            "amount": "1/2 cup", 
            "ingredient": "chopped green onions"
        }, 
        {
            "amount": "2 teaspoons", 
            "ingredient": "cracked black pepper"
        }
    ], 
    "prep_steps": [
        "Preheat the oven's broiler.", 
        "Slice, peel, and pith oranges; slice crosswise into 1/4 inch rounds. Season fillets with salt. Place salmon fillets on broiling pan.", 
        "Place the pan of fillets 4 to 6 inches from heat. Cook for 15 minutes under the preheated broiler, or 10 minutes per inch of thickness. Remove from broiler just before they are cooked through. Sprinkle with vinegar. Arrange orange rounds on top. Sprinkle with green onions and cracked black pepper. Broil 1 minute longer."
    ], 
    "prep_time": "30 mins", 
    "recipe_name": "Citrus Broiled Alaska Salmon"
}