{
    "ingredients": [
        {
            "amount": "3 (8 ounce) packages", 
            "ingredient": "cream cheese, softened"
        }, 
        {
            "amount": "1 tablespoon", 
            "ingredient": "Worcestershire sauce"
        }, 
        {
            "amount": "1 tablespoon", 
            "ingredient": "onion powder"
        }, 
        {
            "amount": "1 tablespoon", 
            "ingredient": "garlic powder"
        }, 
        {
            "amount": "1/4 cup", 
            "ingredient": "chopped green onions"
        }, 
        {
            "amount": "1 tablespoon", 
            "ingredient": "chili powder"
        }, 
        {
            "amount": "1 tablespoon", 
            "ingredient": "Creole-style seasoning"
        }, 
        {
            "amount": "1 cup", 
            "ingredient": "shredded Cheddar cheese"
        }, 
        {
            "amount": "1 cup", 
            "ingredient": "diced cooked ham"
        }, 
        {
            "amount": "1 tablespoon", 
            "ingredient": "creamy salad dressing, e.g. Miracle Whip \u2122"
        }
    ], 
    "prep_steps": [
        "In a large bowl, mix by hand cream cheese, Worcestershire sauce, onion powder, garlic powder, green onions, chili powder, Creole-style seasoning, Cheddar cheese, ham and creamy salad dressing. Form the mixture into one or more balls. Chill in the refrigerator at least 1 hour before serving."
    ], 
    "prep_time": "1\u00bd hrs", 
    "recipe_name": "Southern Made Cheese Ball"
}