{
    "ingredients": [
        {
            "amount": "3 pounds", 
            "ingredient": "pork shoulder"
        }, 
        {
            "amount": "1", 
            "ingredient": "onion, chopped"
        }, 
        {
            "amount": "4", 
            "ingredient": "green bell peppers, chopped"
        }, 
        {
            "amount": "1 (7 ounce) can", 
            "ingredient": "green chile peppers, chopped"
        }, 
        {
            "amount": "1 bunch", 
            "ingredient": "cilantro, chopped"
        }, 
        {
            "amount": "1 cup", 
            "ingredient": "water"
        }, 
        {
            "amount": "1 1/4 cups", 
            "ingredient": "cooking sherry"
        }, 
        {
            "amount": "1 1/2 tablespoons", 
            "ingredient": "dried oregano"
        }, 
        {
            "amount": "1 tablespoon", 
            "ingredient": "salt"
        }
    ], 
    "prep_steps": [
        "Cut pork into small pieces, removing as much fat as possible. Transfer pork to a large frying pan or Dutch oven, and cook and stir until brown.", 
        "Stir in onion, bell peppers, chile peppers, and cilantro. Add water and sherry, and season with oregano and salt. Cover, and simmer for about 2 1/2 hours, or until pork is tender. Taste and adjust seasonings if necessary."
    ], 
    "prep_time": "3 hrs", 
    "recipe_name": "Bianca's Green Chile Pork"
}