{
    "ingredients": [
        {
            "amount": "4", 
            "ingredient": "skinless, boneless chicken breast halves - cubed"
        }, 
        {
            "amount": "1 large", 
            "ingredient": "green bell pepper, cut into 2 inch pieces"
        }, 
        {
            "amount": "1", 
            "ingredient": "onion, cut into wedges"
        }, 
        {
            "amount": "1 large", 
            "ingredient": "red bell pepper, cut into 2 inch pieces"
        }, 
        {
            "amount": "1 cup", 
            "ingredient": "barbeque sauce"
        }
    ], 
    "prep_steps": [
        "Preheat grill for high heat.", 
        "Thread the chicken, green bell pepper, onion, and red bell pepper pieces onto skewers alternately.", 
        "Lightly oil the grill grate. Place kabobs on the prepared grill, and brush with barbeque sauce. Cook, turning and brushing with barbeque sauce frequently, for 15 minutes, or until chicken juices run clear."
    ], 
    "prep_time": "30 mins", 
    "recipe_name": "Chicken Kabobs"
}