{
    "ingredients": [
        {
            "amount": "1 cup", 
            "ingredient": "quinoa"
        }, 
        {
            "amount": "2 cups", 
            "ingredient": "nonfat milk"
        }, 
        {
            "amount": "1 pinch", 
            "ingredient": "salt"
        }, 
        {
            "amount": "3 tablespoons", 
            "ingredient": "maple syrup"
        }, 
        {
            "amount": "1/2", 
            "ingredient": "lemon, zested"
        }, 
        {
            "amount": "1 cup", 
            "ingredient": "blueberries"
        }, 
        {
            "amount": "2 teaspoons", 
            "ingredient": "flax seed"
        }
    ], 
    "prep_steps": [
        "Rinse quinoa in a fine strainer with cold water to remove bitterness until water runs clear and is no longer frothy.", 
        "Heat milk in a saucepan over medium heat until warm, 2 to 3 minutes. Stir quinoa and salt into the milk; simmer over medium-low heat until much of the liquid has been absorbed, about 20 minutes. Remove saucepan from heat. Stir maple syrup and lemon zest into the quinoa mixture. Gently fold blueberries into the mixture.", 
        "Divide quinoa mixture between 2 bowls; top each with 1 teaspoon flax seed to serve."
    ], 
    "prep_time": "30 mins", 
    "recipe_name": "Blueberry Lemon Breakfast Quinoa"
}