{
    "ingredients": [
        {
            "amount": "5 cups", 
            "ingredient": "all-purpose flour"
        }, 
        {
            "amount": "1 1/4 cups", 
            "ingredient": "powdered milk"
        }, 
        {
            "amount": "1/4 cup", 
            "ingredient": "white sugar"
        }, 
        {
            "amount": "1/4 cup", 
            "ingredient": "baking powder"
        }, 
        {
            "amount": "1 tablespoon", 
            "ingredient": "salt"
        }
    ], 
    "prep_steps": [
        "Combine flour, powdered milk, sugar, baking powder, and salt in a large bowl; stir to blend. Store mixture in an airtight container and use within 8 months."
    ], 
    "prep_time": "10 mins", 
    "recipe_name": "Homemade Pancake Mix"
}