{
    "ingredients": [
        {
            "amount": "2 tablespoons", 
            "ingredient": "olive oil"
        }, 
        {
            "amount": "4", 
            "ingredient": "skinless, boneless chicken breast halves, cut into small cubes"
        }, 
        {
            "amount": "2 (8 ounce) packages", 
            "ingredient": "sliced fresh mushrooms"
        }, 
        {
            "amount": "1 pinch", 
            "ingredient": "garlic powder, or to taste"
        }, 
        {
            "amount": "3", 
            "ingredient": "zucchinis, cubed"
        }, 
        {
            "amount": "2", 
            "ingredient": "sweet potatoes, cut into cubes"
        }, 
        {
            "amount": "2 large", 
            "ingredient": "red potatoes, cut into cubes"
        }, 
        {
            "amount": "1/2 cup", 
            "ingredient": "seasoned bread crumbs"
        }, 
        {
            "amount": "1/2 cup", 
            "ingredient": "grated Parmesan cheese"
        }, 
        {
            "amount": "1/4 cup", 
            "ingredient": "olive oil"
        }
    ], 
    "prep_steps": [
        "Preheat an oven to 400 degrees F (200 degrees C). Lightly grease a baking dish.", 
        "Heat 2 tablespoons of olive oil in a large skillet over medium-high heat. Cook and stir the chicken and mushrooms until the chicken breasts in the hot oil until the chicken is no longer pink in the center and the juices run clear, about 15 minutes. Season with salt, pepper, and garlic powder and remove from heat. Stir in the zucchini, sweet potatoes, red potatoes, bread crumbs, Parmesan cheese, and 1/4 cup of olive oil; transfer to the prepared baking dish.", 
        "Bake in the preheated oven, stirring every 15 minutes, until potatoes are tender and easily pierced with a fork about 1 hour."
    ], 
    "prep_time": "1\u00be hrs", 
    "recipe_name": "All-in-One Casserole"
}