{
    "ingredients": [
        {
            "amount": "1 (7.25 ounce) package", 
            "ingredient": "macaroni and cheese mix"
        }, 
        {
            "amount": "2 tablespoons", 
            "ingredient": "butter"
        }, 
        {
            "amount": "1/4 cup", 
            "ingredient": "milk"
        }, 
        {
            "amount": "1 cup", 
            "ingredient": "shredded Cheddar cheese"
        }, 
        {
            "amount": "3/4 cup", 
            "ingredient": "pimento cheese spread"
        }, 
        {
            "amount": "1 cup", 
            "ingredient": "shredded Italian cheese blend"
        }, 
        {
            "amount": "2 cups", 
            "ingredient": "Italian seasoned bread crumbs"
        }, 
        {
            "amount": "1/2 teaspoon", 
            "ingredient": "paprika"
        }, 
        {
            "amount": "1/2 teaspoon", 
            "ingredient": "chili powder"
        }, 
        {
            "amount": "1/2 teaspoon", 
            "ingredient": "ground black pepper"
        }, 
        {
            "amount": "1/2 teaspoon", 
            "ingredient": "white sugar"
        }, 
        {
            "amount": "1/4 teaspoon", 
            "ingredient": "salt"
        }, 
        {
            "amount": "1 pinch", 
            "ingredient": "cayenne pepper, or to taste"
        }, 
        {
            "amount": "4", 
            "ingredient": "eggs"
        }, 
        {
            "amount": "3 tablespoons", 
            "ingredient": "milk"
        }, 
        {
            "amount": "4 cups", 
            "ingredient": "peanut oil for frying, or as needed"
        }
    ], 
    "prep_steps": [
        "Fill a pot with lightly salted water and bring to a rolling boil over high heat. Stir in the macaroni, and return to a boil. Cook, uncovered, stirring occasionally, until the macaroni is cooked through but still firm to the bite, about 7 minutes. Drain. Stir in the 2 tablespoons butter, the 1/4 cup milk, and the cheese packet from the package.", 
        "While the macaroni is still hot, stir in the Cheddar cheese, pimento cheese spread, and Italian cheese blend, and continue to stir until melted. Place the macaroni and cheese mixture in a container and refrigerate until firm, about 4 hours.", 
        "Line a baking sheet with parchment paper. Remove the macaroni mixture from the refrigerator, and, using a cookie scoop, scoop into balls. Place mac balls on the prepared baking sheet and freeze for at least 2 hours.", 
        "Heat oil in a deep fryer or large saucepan to 350 degrees F (175 degrees C).", 
        "Whisk the bread crumbs with the paprika, chili powder, black pepper, sugar, and cayenne in a shallow dish; set aside. Beat the eggs with the 3 tablespoons milk in a small bowl. Remove the mac balls from the freezer, coat in the egg wash, and then dredge in breading.", 
        "Fry the mac balls in small batches until golden brown, 3 to 5 minutes. Drain briefly on a paper towel-lined plate; serve hot."
    ], 
    "prep_time": "7 hrs", 
    "recipe_name": "Fried Mac and Cheese Balls"
}