{
    "ingredients": [
        {
            "amount": "1/4 cup", 
            "ingredient": "butter"
        }, 
        {
            "amount": "4", 
            "ingredient": "skinless, boneless chicken breast halves - cut into 1/2 inch cubes"
        }, 
        {
            "amount": "1 (10.75 ounce) can", 
            "ingredient": "condensed cream of chicken soup"
        }, 
        {
            "amount": "1 (16 ounce) container", 
            "ingredient": "sour cream"
        }, 
        {
            "amount": "1 (4.5 ounce) can", 
            "ingredient": "chopped green chilies"
        }, 
        {
            "amount": "1 (1 ounce) package", 
            "ingredient": "ranch dressing mix"
        }, 
        {
            "amount": "10 (8 inch)", 
            "ingredient": "flour tortillas"
        }, 
        {
            "amount": "2 cups", 
            "ingredient": "shredded Mexican cheese blend"
        }
    ], 
    "prep_steps": [
        "Preheat an oven to 350 degrees F (175 degrees C).", 
        "Melt the butter in a large skillet over medium-high heat. Stir in the chicken and cook until no longer pink in the center, about 7 minutes. Whisk together the condensed cream of chicken soup, sour cream, chiles, and ranch dressing in a bowl; spread a thin layer of the mixture into a 9x13 inch baking dish.", 
        "Spoon about 2 tablespoons of sauce into each tortilla; divide the chicken among the tortillas and sprinkle with 3/4 of the cheese. Roll the tortillas into cylinders and place seam-side-down into the baking dish. Pour the remaining sauce over the enchiladas and cover the dish with aluminum foil.", 
        "Bake in the preheated oven until hot, about 35 minutes. Remove the foil and sprinkle with the remaining cheese. Return to the oven and cook a few more minutes until the cheese melts."
    ], 
    "prep_time": "1 hr", 
    "recipe_name": "Chicken Ranch Enchiladas"
}