{
    "ingredients": [
        {
            "amount": "2 cups", 
            "ingredient": "all-purpose flour"
        }, 
        {
            "amount": "3/4 cup", 
            "ingredient": "brown sugar, packed"
        }, 
        {
            "amount": "2 teaspoons", 
            "ingredient": "baking powder"
        }, 
        {
            "amount": "1/4 teaspoon", 
            "ingredient": "baking soda"
        }, 
        {
            "amount": "1/2 teaspoon", 
            "ingredient": "salt"
        }, 
        {
            "amount": "1 teaspoon", 
            "ingredient": "ground cinnamon"
        }, 
        {
            "amount": "1/4 teaspoon", 
            "ingredient": "ground ginger"
        }, 
        {
            "amount": "1/8 teaspoon", 
            "ingredient": "ground cloves"
        }, 
        {
            "amount": "1/8 teaspoon", 
            "ingredient": "ground nutmeg"
        }, 
        {
            "amount": "1 cup", 
            "ingredient": "canned unsweetened pumpkin puree"
        }, 
        {
            "amount": "2", 
            "ingredient": "eggs, lightly beaten"
        }, 
        {
            "amount": "1/2 cup", 
            "ingredient": "butter, melted"
        }, 
        {
            "amount": "1/4 cup", 
            "ingredient": "buttermilk"
        }, 
        {
            "amount": "2 teaspoons", 
            "ingredient": "vanilla extract"
        }, 
        {
            "amount": "1 cup", 
            "ingredient": "dried, sweetened cranberries"
        }
    ], 
    "prep_steps": [
        "Preheat oven to 400 degrees F (200 degrees C). Grease or place paper muffin cups in a 12 cup muffin tin.", 
        "Mix the flour, brown sugar, baking powder, baking soda, salt, cinnamon, ginger, cloves, and nutmeg together in a mixing bowl.", 
        "Beat the canned pumpkin, eggs, butter, buttermilk, and vanilla together in another large mixing bowl. Gradually beat in the flour mixture until well blended. Stir in the dried cranberries until evenly blended. Spoon batter into muffin tins about 3/4 full.", 
        "Bake in preheated oven until a toothpick inserted in the middle of a muffin comes out clean, 20 to 25 minutes. 3 minutes before turning out from pan. Serve warm or at room temperature."
    ], 
    "prep_time": "40 mins", 
    "recipe_name": "Cranberry Pumpkin Muffins"
}