{
    "ingredients": [
        {
            "amount": "2 tablespoons", 
            "ingredient": "butter, softened"
        }, 
        {
            "amount": "3 tablespoons", 
            "ingredient": "all-purpose flour"
        }, 
        {
            "amount": "1 tablespoon", 
            "ingredient": "mustard powder"
        }, 
        {
            "amount": "3 cups", 
            "ingredient": "cubed fully cooked ham"
        }, 
        {
            "amount": "8 ounces", 
            "ingredient": "Cheddar cheese, cubed"
        }, 
        {
            "amount": "3 cups", 
            "ingredient": "cubed day old French bread"
        }, 
        {
            "amount": "4", 
            "ingredient": "eggs, beaten"
        }, 
        {
            "amount": "3 cups", 
            "ingredient": "milk"
        }, 
        {
            "amount": "1 dash", 
            "ingredient": "hot pepper sauce"
        }, 
        {
            "amount": "3 tablespoons", 
            "ingredient": "butter, melted"
        }, 
        {
            "amount": "1/2 cup", 
            "ingredient": "freshly grated Parmesan cheese"
        }
    ], 
    "prep_steps": [
        "Generously grease a 9x13-inch glass baking dish with softened butter. Stir together flour and mustard powder. Place ham and Cheddar cubes in a large mixing bowl, sprinkle with flour mixture, and toss until evenly coated. Add bread cubes and toss to mix. In a separate bowl, whisk together eggs, milk, and hot pepper sauce.", 
        "Pour 1/3 of the bread mixture into the prepared baking dish and smooth out to form a layer. Drizzle with 1 tablespoon of butter, and sprinkle with 1/3 of the Parmesan cheese. Repeat twice more to form three layers. Pour egg mixture overtop, cover with plastic wrap, and refrigerate 8 hours to overnight.", 
        "The next morning, remove casserole from refrigerator, remove plastic wrap, and allow to stand at room temperature for 30 minutes. Preheat oven to 350 degrees F (175 degrees C).", 
        "Bake uncovered in preheated oven until the eggs have set, and the top is golden brown and crispy, about 1 hour."
    ], 
    "prep_time": "10 hr", 
    "recipe_name": "French Ham Cheese and Egg Fondue Casserole"
}