{
    "ingredients": [
        {
            "amount": "1 1/2 cups", 
            "ingredient": "all-purpose flour"
        }, 
        {
            "amount": "1/2 cup", 
            "ingredient": "white sugar"
        }, 
        {
            "amount": "2 teaspoons", 
            "ingredient": "baking powder"
        }, 
        {
            "amount": "1/2 teaspoon", 
            "ingredient": "salt"
        }, 
        {
            "amount": "1/4 cup", 
            "ingredient": "butter"
        }, 
        {
            "amount": "1 cup", 
            "ingredient": "chocolate chips"
        }, 
        {
            "amount": "1", 
            "ingredient": "egg"
        }, 
        {
            "amount": "1/4 cup", 
            "ingredient": "milk"
        }, 
        {
            "amount": "1 (21 ounce) can", 
            "ingredient": "cherry pie filling"
        }
    ], 
    "prep_steps": [
        "Preheat the oven to 350 degrees F (175 degrees C). Coat a 2 quart casserole dish with vegetable cooking spray. Melt chocolate chips in a measuring cup in the microwave, stirring every 20 seconds until smooth. Let stand for 5 minutes to cool slightly.", 
        "In a medium bowl, stir together the flour, sugar, baking powder, and salt. Cut in butter until the dough is a uniform crumbly texture. Beat the egg into the melted chocolate chips, then stir the milk in. Pour the chocolate mixture into the dry ingredients, and stir until well blended.", 
        "Pour the cherry pie filling in an even layer in the bottom of the greased casserole dish. Drop spoonfuls of the chocolate batter over the cherries in a random pattern.", 
        "Bake for 40 to 45 minutes in the preheated oven, until top crust is not doughy when lifted. Serve warm."
    ], 
    "prep_time": "55 mins", 
    "recipe_name": "Cherry Chocolate Cobbler"
}