{
    "ingredients": [
        {
            "amount": "1 cup", 
            "ingredient": "white sugar"
        }, 
        {
            "amount": "1/3 cup", 
            "ingredient": "water"
        }, 
        {
            "amount": "1 tablespoon", 
            "ingredient": "light corn syrup"
        }, 
        {
            "amount": "1/8 teaspoon", 
            "ingredient": "salt"
        }, 
        {
            "amount": "2", 
            "ingredient": "egg whites"
        }, 
        {
            "amount": "1 teaspoon", 
            "ingredient": "vanilla extract"
        }, 
        {
            "amount": "3 tablespoons", 
            "ingredient": "confectioners' sugar"
        }
    ], 
    "prep_steps": [
        "Combine sugar, water, corn syrup, and salt in a saucepan; stir until well blended. Boil slowly without stirring until mixture will spin a long thread when a little is dropped from a spoon (hold the spoon high above saucepan), or reaches 238 - 242 degrees F (114 - 117 degrees C).", 
        "In a large bowl, beat egg whites with a mixer until they are stiff, but still moist. Pour hot syrup slowly over egg whites while beating. Continue until mixture is very fluffy, and will hold its shape. Add vanilla, and beat until blended. If icing does not seem stiff enough, beat in 2 or 3 tablespoons confectioners sugar 1 tablespoon at a time until stiff enough to hold its shape. Spread on cake."
    ], 
    "recipe_name": "Fluffy Boiled Icing"
}