{
    "ingredients": [
        {
            "amount": "1 cup", 
            "ingredient": "butter, softened"
        }, 
        {
            "amount": "3/4 cup", 
            "ingredient": "white sugar"
        }, 
        {
            "amount": "3/4 cup", 
            "ingredient": "packed brown sugar"
        }, 
        {
            "amount": "1", 
            "ingredient": "egg"
        }, 
        {
            "amount": "1 teaspoon", 
            "ingredient": "vanilla extract"
        }, 
        {
            "amount": "1 1/2 cups", 
            "ingredient": "all-purpose flour"
        }, 
        {
            "amount": "1 teaspoon", 
            "ingredient": "baking soda"
        }, 
        {
            "amount": "1 teaspoon", 
            "ingredient": "salt"
        }, 
        {
            "amount": "1 3/4 cups", 
            "ingredient": "granola"
        }, 
        {
            "amount": "1 cup", 
            "ingredient": "semi-sweet chocolate chips"
        }, 
        {
            "amount": "1/2 cup", 
            "ingredient": "chopped, unsalted dry-roasted peanuts"
        }
    ], 
    "prep_steps": [
        "Preheat oven to 375 degrees F (190 degrees C).", 
        "In a medium bowl, cream together the butter, brown sugar and white sugar. Beat in the egg and vanilla. Combine the flour, salt and baking soda, stir into the creamed mixture. Finally, stir in the granola, chocolate chips and peanuts. Drop dough by heaping teaspoonfuls onto greased cookie sheets, about 2 inches apart.", 
        "Bake 12 to 15 minutes in the preheated oven, until cookies are lightly browned around edges. Remove cookies to wire racks and allow to cool."
    ], 
    "recipe_name": "Granola-Chocolate Cookies"
}