{
    "ingredients": [
        {
            "amount": "2/3 cup", 
            "ingredient": "butter"
        }, 
        {
            "amount": "1 cup", 
            "ingredient": "white sugar"
        }, 
        {
            "amount": "1/4 cup", 
            "ingredient": "milk"
        }, 
        {
            "amount": "2", 
            "ingredient": "eggs"
        }, 
        {
            "amount": "1 teaspoon", 
            "ingredient": "vanilla extract"
        }, 
        {
            "amount": "1/4 teaspoon", 
            "ingredient": "salt"
        }, 
        {
            "amount": "1 teaspoon", 
            "ingredient": "baking soda"
        }, 
        {
            "amount": "4 cups", 
            "ingredient": "all-purpose flour"
        }
    ], 
    "prep_steps": [
        "Cream butter and sugar. Beat in eggs.", 
        "Dissolve the baking soda in the milk, then add to mixture. Add the vanilla and mix well", 
        "Place salt in with flour and slowly stir into mixture. The dough should not be too sticky and should pull away from the sides of the bowl easily. If the dough is sticky, add a little more flour.", 
        "Form the dough into a roll about a foot long and 2-3 inches in diameter. Roll up in wax paper and put in the refrigerator for 1 hour.", 
        "Remove from refrigerator and let dough come to room temperature. Roll out dough a chunk at a time (one dough log makes about 4 chunks).", 
        "Preheat oven to 350 degrees F (180 degrees C).", 
        "Cut your cookies and decorate or bake plain for 8-10 minutes. Enjoy!"
    ], 
    "recipe_name": "Busia's Cutout Cookies"
}