{
    "ingredients": [
        {
            "amount": "3/4 cup", 
            "ingredient": "white sugar"
        }, 
        {
            "amount": "2 tablespoons", 
            "ingredient": "all-purpose flour"
        }, 
        {
            "amount": "2 tablespoons", 
            "ingredient": "grated orange zest"
        }, 
        {
            "amount": "1/2 cup", 
            "ingredient": "orange juice"
        }, 
        {
            "amount": "2 tablespoons", 
            "ingredient": "fresh lemon juice"
        }, 
        {
            "amount": "1", 
            "ingredient": "egg"
        }, 
        {
            "amount": "1 cup", 
            "ingredient": "whipped cream"
        }
    ], 
    "prep_steps": [
        "In a saucepan over medium heat mix the white sugar, flour, orange juice, orange zest, lemon juice and the egg. Cook until thickened. Remove from heat and let cool completely before folding in the whipped cream. Makes enough to fill one 2 layer 9 inch round layer cake."
    ], 
    "recipe_name": "Lemon Filling"
}