{
    "ingredients": [
        {
            "amount": "1 (8 ounce) package", 
            "ingredient": "cream cheese, softened"
        }, 
        {
            "amount": "1 cup", 
            "ingredient": "brown sugar"
        }, 
        {
            "amount": "1 tablespoon", 
            "ingredient": "vanilla extract"
        }
    ], 
    "prep_steps": [
        "Beat cream cheese in a stand mixer until whipped; add brown sugar and vanilla extract. Continue beating until dip is well mixed."
    ], 
    "prep_time": "10 mins", 
    "recipe_name": "Cream Cheese Fruit Dip"
}