{
    "ingredients": [
        {
            "amount": "2 cups", 
            "ingredient": "frozen peas and carrots"
        }, 
        {
            "amount": "2 cups", 
            "ingredient": "frozen green beans"
        }, 
        {
            "amount": "1 cup", 
            "ingredient": "sliced celery"
        }, 
        {
            "amount": "2/3 cup", 
            "ingredient": "butter"
        }, 
        {
            "amount": "2/3 cup", 
            "ingredient": "chopped onion"
        }, 
        {
            "amount": "2/3 cup", 
            "ingredient": "all-purpose flour"
        }, 
        {
            "amount": "1 teaspoon", 
            "ingredient": "salt"
        }, 
        {
            "amount": "1 teaspoon", 
            "ingredient": "ground black pepper"
        }, 
        {
            "amount": "1/2 teaspoon", 
            "ingredient": "celery seed"
        }, 
        {
            "amount": "1/2 teaspoon", 
            "ingredient": "onion powder"
        }, 
        {
            "amount": "1/2 teaspoon", 
            "ingredient": "Italian seasoning"
        }, 
        {
            "amount": "1 3/4 cups", 
            "ingredient": "chicken broth"
        }, 
        {
            "amount": "1 1/3 cups", 
            "ingredient": "milk"
        }, 
        {
            "amount": "4 cups", 
            "ingredient": "cubed cooked turkey meat - light and dark meat mixed"
        }, 
        {
            "amount": "4 (9 inch)", 
            "ingredient": "unbaked pie crusts"
        }
    ], 
    "prep_steps": [
        "Preheat an oven to 425 degrees F (220 degrees C).", 
        "Place the peas and carrots, green beans, and celery into a saucepan; cover with water, bring to a boil, and simmer over medium-low heat until the celery is tender, about 8 minutes. Drain the vegetables in a colander set in the sink, and set aside.", 
        "Melt the butter in a saucepan over medium heat, and cook the onion until translucent, about 5 minutes. Stir in 2/3 cup of flour, salt, black pepper, celery seed, onion powder, and Italian seasoning; slowly whisk in the chicken broth and milk until the mixture comes to a simmer and thickens. Remove from heat; stir the cooked vegetables and turkey meat into the filling until well combined.", 
        "Fit 2 pie crusts into the bottom of 2 9-inch pie dishes. Spoon half the filling into each pie crust, then top each pie with another crust. Pinch and roll the top and bottom crusts together at the edge of each pie to seal, and cut several small slits into the top of the pies with a sharp knife to release steam.", 
        "Bake in the preheated oven until the crusts are golden brown and the filling is bubbly, 30 to 35 minutes. If the crusts are browning too quickly, cover the pies with aluminum foil after about 15 minutes. Cool for 10 minutes before serving."
    ], 
    "prep_time": "1\u00bd hrs", 
    "recipe_name": "Dad's Leftover Turkey Pot Pie"
}