{
    "ingredients": [
        {
            "amount": "4 cups", 
            "ingredient": "vegetable oil for frying"
        }, 
        {
            "amount": "1", 
            "ingredient": "egg"
        }, 
        {
            "amount": "1 1/2 pounds", 
            "ingredient": "boneless, skinless chicken thighs, cut into 1/2 inch cubes"
        }, 
        {
            "amount": "1 teaspoon", 
            "ingredient": "salt"
        }, 
        {
            "amount": "1 teaspoon", 
            "ingredient": "white sugar"
        }, 
        {
            "amount": "1 pinch", 
            "ingredient": "white pepper"
        }, 
        {
            "amount": "1 cup", 
            "ingredient": "cornstarch"
        }, 
        {
            "amount": "2 tablespoons", 
            "ingredient": "vegetable oil"
        }, 
        {
            "amount": "3 tablespoons", 
            "ingredient": "chopped green onion"
        }, 
        {
            "amount": "1 clove", 
            "ingredient": "garlic, minced"
        }, 
        {
            "amount": "6", 
            "ingredient": "dried whole red chilies"
        }, 
        {
            "amount": "1 strip", 
            "ingredient": "orange zest"
        }, 
        {
            "amount": "1/2 cup", 
            "ingredient": "white sugar"
        }, 
        {
            "amount": "1/4 teaspoon", 
            "ingredient": "ground ginger"
        }, 
        {
            "amount": "3 tablespoons", 
            "ingredient": "chicken broth"
        }, 
        {
            "amount": "1 tablespoon", 
            "ingredient": "rice vinegar"
        }, 
        {
            "amount": "1/4 cup", 
            "ingredient": "soy sauce"
        }, 
        {
            "amount": "2 teaspoons", 
            "ingredient": "sesame oil"
        }, 
        {
            "amount": "2 tablespoons", 
            "ingredient": "peanut oil"
        }, 
        {
            "amount": "2 teaspoons", 
            "ingredient": "cornstarch"
        }, 
        {
            "amount": "1/4 cup", 
            "ingredient": "water"
        }
    ], 
    "prep_steps": [
        "Heat 4 cups vegetable oil in a deep-fryer or large saucepan to 375 degrees F (190 degrees C).", 
        "Beat the egg in a mixing bowl. Add the chicken cubes; sprinkle with salt, 1 teaspoon sugar, and white pepper; mix well. Mix in 1 cup of cornstarch a little bit at a time until the chicken cubes are well coated.", 
        "In batches, carefully drop the chicken cubes into the hot oil one by one, cooking until they turns golden brown and begin to float, about 3 minutes. Remove the chicken and allow to cool as you fry the next batch. Once all of the chicken has been fried, refry the chicken, starting with the batch that was cooked first. Cook until the chicken turns deep golden brown, about 2 minutes more. Drain on a paper towel-lined plate.", 
        "Heat 2 tablespoons vegetable oil in a wok or large skillet over high heat. Stir in the green onion, garlic, whole chiles, and orange zest. Cook and stir a minute or two until the garlic has turned golden and the chiles brighten. Add 1/2 cup sugar, the ginger, chicken broth, vinegar, soy sauce, sesame oil, and peanut oil; bring to a boil and cook for 3 minutes.", 
        "Dissolve 2 teaspoons of cornstarch into the water, and stir into the boiling sauce. Return to a boil and cook until the sauce thickens and is no longer cloudy from the cornstarch, about 1 minute. Stir the chicken into the boiling sauce. Reduce heat to low and cook for a few minutes until the chicken absorbs some of the sauce."
    ], 
    "prep_time": "50 mins", 
    "recipe_name": "General Tsao's Chicken II"
}