{
    "ingredients": [
        {
            "amount": "3/4 cup", 
            "ingredient": "brown sugar"
        }, 
        {
            "amount": "1 teaspoon", 
            "ingredient": "ground cinnamon"
        }, 
        {
            "amount": "1 (8 ounce) package", 
            "ingredient": "cream cheese, softened"
        }, 
        {
            "amount": "1 (6 ounce) container", 
            "ingredient": "nonfat plain yogurt"
        }, 
        {
            "amount": "1 teaspoon", 
            "ingredient": "vanilla"
        }, 
        {
            "amount": "6 large", 
            "ingredient": "apples - peeled, cored and chopped"
        }, 
        {
            "amount": "1 1/2 cups", 
            "ingredient": "chopped walnuts"
        }, 
        {
            "amount": "1 cup", 
            "ingredient": "dried cranberries"
        }, 
        {
            "amount": "1/4 cup", 
            "ingredient": "chopped walnuts"
        }
    ], 
    "prep_steps": [
        "Combine the brown sugar and cinnamon in a large bowl. Whisk in the softened cream cheese, yogurt, and vanilla until smooth.", 
        "Stir the apples, 1 1/2 cups of walnuts, and the dried cranberries into the cream cheese mixture until well coated.", 
        "Spoon salad into a serving bowl and garnish with the remaining 1/4 cup of chopped walnuts. Keep chilled until serving."
    ], 
    "prep_time": "20 mins", 
    "recipe_name": "Apple Walnut Salad"
}