{
    "ingredients": [
        {
            "amount": "1 pound", 
            "ingredient": "yellow squash, sliced"
        }, 
        {
            "amount": "1 pound", 
            "ingredient": "zucchini, sliced"
        }, 
        {
            "amount": "1/2", 
            "ingredient": "onion, diced"
        }, 
        {
            "amount": "1 cup", 
            "ingredient": "shredded Cheddar cheese"
        }, 
        {
            "amount": "1/2 cup", 
            "ingredient": "biscuit baking mix (such as Bisquick\u00ae)"
        }, 
        {
            "amount": "1/2 cup", 
            "ingredient": "butter"
        }, 
        {
            "amount": "2", 
            "ingredient": "eggs"
        }, 
        {
            "amount": "1 tablespoon", 
            "ingredient": "white sugar"
        }, 
        {
            "amount": "1 teaspoon", 
            "ingredient": "salt"
        }, 
        {
            "amount": "10", 
            "ingredient": "saltine crackers, or as needed, crushed"
        }, 
        {
            "amount": "1/4 cup", 
            "ingredient": "bread crumbs"
        }
    ], 
    "prep_steps": [
        "Preheat oven to 325 degrees F (165 degrees C).", 
        "Fill a large pot with water and bring to a rolling boil. Add yellow squash, zucchini, and onion; bring back to a boil, and cook vegetables until tender, about 15 minutes. Drain and transfer vegetables to a large bowl.", 
        "Mix Cheddar cheese, baking mix, butter, eggs, sugar, and salt with the cooked vegetables using a large spoon; stir until butter has melted and baking mix has dissolved. Fold crushed crackers into the mixture until the liquid has been absorbed. Pour mixture into a 1 1/2-quart casserole dish; top with bread crumbs.", 
        "Bake in the preheated oven until topping is lightly browned and cheese is melted, 30 minutes."
    ], 
    "prep_time": "1 hr", 
    "recipe_name": "Cheesy Squash and Zucchini Casserole"
}