{
    "ingredients": [
        {
            "amount": "1 tablespoon", 
            "ingredient": "olive oil"
        }, 
        {
            "amount": "4 ounces", 
            "ingredient": "hot Italian ground sausage meat"
        }, 
        {
            "amount": "1 cup", 
            "ingredient": "sliced mushrooms"
        }, 
        {
            "amount": "1", 
            "ingredient": "onion, sliced"
        }, 
        {
            "amount": "1 1/2 pounds", 
            "ingredient": "skinless, boneless chicken thighs, roughly chopped"
        }, 
        {
            "amount": "1/2 cup", 
            "ingredient": "Marsala wine"
        }, 
        {
            "amount": "1 (28 ounce) can", 
            "ingredient": "whole Italian plum tomatoes (such as San Marzano), crushed"
        }, 
        {
            "amount": "1 cup", 
            "ingredient": "chicken broth"
        }, 
        {
            "amount": "1/2 cup", 
            "ingredient": "heavy whipping cream"
        }, 
        {
            "amount": "1/2 cup", 
            "ingredient": "water, or as needed"
        }, 
        {
            "amount": "1 1/2 cups", 
            "ingredient": "chopped hot and sweet peppers"
        }, 
        {
            "amount": "1/2 cup", 
            "ingredient": "pitted and chopped kalamata olives"
        }, 
        {
            "amount": "3 cloves", 
            "ingredient": "garlic, minced"
        }, 
        {
            "amount": "1/4 cup", 
            "ingredient": "chopped Italian flat leaf parsley"
        }, 
        {
            "amount": "1 pound", 
            "ingredient": "rigatoni"
        }, 
        {
            "amount": "1/2 cup", 
            "ingredient": "grated Parmigiano-Reggiano or Romano cheese"
        }
    ], 
    "prep_steps": [
        "Heat olive oil in a large saucepan over medium heat. Cook and stir sausage, mushrooms, onions, salt, and black pepper in hot oil until vegetables are softened and sausage is browned, 6 to 7 minutes.", 
        "Stir chopped chicken to sausage mixture; cook and stir over medium-high heat until browned, about 5 minutes. Pour in wine and cook, stirring to remove any browned bits off the bottom of the pan, until most of the wine is evaporated, 2 to 3 minutes. Add tomatoes, chicken broth, and cream; simmer for 30 minutes. If needed, add water to create a thick sauce.", 
        "Stir peppers, olives, and garlic into sauce. Continue to simmer until thickened, 15 to 20 minutes. Season with salt and pepper to taste and stir in parsley.", 
        "Bring a large pot of lightly salted water to a boil. Cook rigatoni in the boiling water, stirring occasionally until nearly cooked, about 11 minutes. Drain.", 
        "Combine sauce and cooked pasta, stir in cheese, cover and set aside until pasta has absorbed the sauce, 1 to 2 minutes."
    ], 
    "prep_time": "1\u00be hrs", 
    "recipe_name": "Chef John's Chicken Riggies"
}