{
    "ingredients": [
        {
            "amount": "1 tablespoon", 
            "ingredient": "olive oil"
        }, 
        {
            "amount": "3", 
            "ingredient": "skinless, boneless chicken breast halves"
        }, 
        {
            "amount": "1 large", 
            "ingredient": "onion, chopped"
        }, 
        {
            "amount": "2 cloves", 
            "ingredient": "garlic, minced"
        }, 
        {
            "amount": "5 1/4 cups", 
            "ingredient": "chicken broth"
        }, 
        {
            "amount": "3 (15 ounce) cans", 
            "ingredient": "cannellini (white kidney) beans, rinsed and drained"
        }, 
        {
            "amount": "2 (4 ounce) cans", 
            "ingredient": "chopped green chiles"
        }, 
        {
            "amount": "1 tablespoon", 
            "ingredient": "dried oregano"
        }, 
        {
            "amount": "1 teaspoon", 
            "ingredient": "ground cumin"
        }, 
        {
            "amount": "2 pinches", 
            "ingredient": "cayenne pepper, or to taste"
        }, 
        {
            "amount": "1/4 cup", 
            "ingredient": "chopped fresh cilantro, or to taste"
        }, 
        {
            "amount": "1/2 cup", 
            "ingredient": "shredded Monterey Jack cheese, or to taste"
        }
    ], 
    "prep_steps": [
        "Heat olive oil in a Dutch oven over medium heat. Cook chicken, onion, and garlic in hot oil until the chicken is browned completely, 3 to 5 minutes per side.", 
        "Remove the chicken to a cutting board, cut into 1-inch pieces, and return to the Dutch oven; add chicken broth, cannellini, green chilies, oregano, cumin, and cayenne pepper. Bring the mixture to a simmer and cook until the chicken is cooked through, 30 to 45 minutes.", 
        "Divide cilantro among 4 bowls. Ladle chili over cilantro and top with cheese. Season with salt to serve."
    ], 
    "prep_time": "55 mins", 
    "recipe_name": "Easy White Chicken Chili"
}