{
    "ingredients": [
        {
            "amount": "1 (9 inch)", 
            "ingredient": "unbaked pie crust (see footnote for recipe link)"
        }, 
        {
            "amount": "3 cups", 
            "ingredient": "rhubarb, sliced 1/4-inch thick"
        }, 
        {
            "amount": "1 cup", 
            "ingredient": "fresh strawberries, quartered"
        }, 
        {
            "amount": "3", 
            "ingredient": "large eggs"
        }, 
        {
            "amount": "1 1/2 cups", 
            "ingredient": "white sugar"
        }, 
        {
            "amount": "3 tablespoons", 
            "ingredient": "milk"
        }, 
        {
            "amount": "3 tablespoons", 
            "ingredient": "all-purpose flour"
        }, 
        {
            "amount": "1/4 teaspoon", 
            "ingredient": "freshly grated nutmeg"
        }, 
        {
            "amount": "1 tablespoon", 
            "ingredient": "butter, diced"
        }, 
        {
            "amount": "2 tablespoons", 
            "ingredient": "strawberry jam"
        }, 
        {
            "amount": "1/4 teaspoon", 
            "ingredient": "water"
        }
    ], 
    "prep_steps": [
        "Preheat oven to 350 degrees F (175 degrees C). Place rolled-out pie crust in a 9-inch pie plate and set on a baking sheet lined with parchment paper or a silicone baking mat.", 
        "Combine rhubarb and strawberries in a bowl; transfer to the pie crust, distributing evenly.", 
        "Whisk eggs, sugar, milk, flour, and nutmeg together in a medium bowl. Slowly pour filling over rhubarb mixture until it just reaches the top edge of the crust. Scatter diced butter evenly over the top of the filling. Lightly tap and shake the baking sheet to remove any air bubbles.", 
        "Transfer pie to the preheated oven and bake, turning halfway through, until rhubarb is tender and custard is set, about 1 hour.", 
        "Mix strawberry jam and water in a small bowl; heat in the microwave until warm, about 15 seconds. Glaze the top of the pie with the jam mixture and let cool. Refrigerate until ready to serve."
    ], 
    "prep_time": "2\u00bd hrs", 
    "recipe_name": "Strawberry Rhubarb Custard Pie"
}