{
    "ingredients": [
        {
            "amount": "1 quart", 
            "ingredient": "vegetable oil for frying, or as needed"
        }, 
        {
            "amount": "1 cup", 
            "ingredient": "buttermilk"
        }, 
        {
            "amount": "1/4 cup", 
            "ingredient": "vegetable oil"
        }, 
        {
            "amount": "2", 
            "ingredient": "eggs, room temperature"
        }, 
        {
            "amount": "1 cup", 
            "ingredient": "cornmeal"
        }, 
        {
            "amount": "1 cup", 
            "ingredient": "all-purpose flour"
        }, 
        {
            "amount": "1/4 cup", 
            "ingredient": "white sugar"
        }, 
        {
            "amount": "1/2 teaspoon", 
            "ingredient": "baking soda"
        }, 
        {
            "amount": "1/2 teaspoon", 
            "ingredient": "salt"
        }, 
        {
            "amount": "1/2 cup", 
            "ingredient": "minced onion"
        }, 
        {
            "amount": "4", 
            "ingredient": "green onions, minced"
        }
    ], 
    "prep_steps": [
        "Heat 1 quart vegetable oil in a deep-fryer or large saucepan to 365 degrees F (185 degrees C).", 
        "Preheat oven to 200 degrees F (95 degrees C).", 
        "Whisk buttermilk, 1/4 cup vegetable oil, and eggs in a bowl.", 
        "Combine cornmeal, flour, sugar, baking soda, and salt in a separate bowl. Fold buttermilk mixture, onion, and green onions into cornmeal mixture until just mixed.", 
        "Drop 6 to 8 tablespoon-sized balls of batter into the hot oil; fry until each hush puppy is golden brown, turning the hush puppies to cook evenly, 6 to 10 minutes. Remove hush puppies with a slotted spoon and place on brown paper bags to drain. Repeat with any remaining batter.", 
        "Transfer hush puppies to a baking sheet and keep warm in the preheated oven until ready to serve."
    ], 
    "prep_time": "25 mins", 
    "recipe_name": "Buttermilk Hush Puppies"
}