{
    "ingredients": [
        {
            "amount": "1 1/2 cups", 
            "ingredient": "sifted all-purpose flour"
        }, 
        {
            "amount": "1/2 teaspoon", 
            "ingredient": "baking soda"
        }, 
        {
            "amount": "1/2 teaspoon", 
            "ingredient": "salt"
        }, 
        {
            "amount": "1/2 cup", 
            "ingredient": "butter"
        }, 
        {
            "amount": "3/4 cup", 
            "ingredient": "packed brown sugar"
        }, 
        {
            "amount": "1", 
            "ingredient": "egg"
        }, 
        {
            "amount": "1 teaspoon", 
            "ingredient": "vanilla extract"
        }, 
        {
            "amount": "2 cups", 
            "ingredient": "toffee baking bits"
        }, 
        {
            "amount": "1/3 cup", 
            "ingredient": "chopped pecans"
        }
    ], 
    "prep_steps": [
        "Combine and sift flour, baking soda, and salt. In a separate bowl, cream butter or margarine. Add sugar, egg, and vanilla; mix until smooth and creamy.", 
        "Stir in dry ingredients; blend in toffee bits and pecans.", 
        "Drop tablespoonfuls 2 inches apart onto greased baking sheets. Bake at 350 degrees F (175 degrees C) until done, 12 to 15 minutes. Remove from baking sheets and cool."
    ], 
    "recipe_name": "Toffee Crunch Cookies"
}