{
    "ingredients": [
        {
            "amount": "5 cups", 
            "ingredient": "bread flour"
        }, 
        {
            "amount": "2 1/2 teaspoons", 
            "ingredient": "salt"
        }, 
        {
            "amount": "2 cups", 
            "ingredient": "water, or as needed"
        }, 
        {
            "amount": "2 cups", 
            "ingredient": "unsalted butter, at room temperature"
        }
    ], 
    "prep_steps": [
        "Mix the flour and salt together in a large bowl or in the bowl of a stand mixer that is fitted with a dough hook. Gradually stir in water until the dough holds together enough to clean the sides of the bowl. You may not need the full amount of water. Shape into a flat ball, and allow to rest for at least 10 minutes.", 
        "Place the butter between two pieces of plastic wrap and pound into a flat disc using a rolling pin or other heavy object. Refrigerate until firm, about 20 minutes.", 
        "On a lightly floured surface, roll out the dough into a large rectangle about 1/2 inch thick. Place the disc of chilled butter in the center and fold the two ends over it so that it is completely encased in dough. Roll out the dough again, taking care not to let the butter break through the dough, to about 1/2 inch thickness. Fold into thirds. This is the first ''turn''. Rotate the dough 90 degrees and roll out into a rectangle again. Fold into thirds. By this time the butter is starting to warm up. Place the dough on a baking sheet and mark it with two pokes from your finger (two turns). Wrap in plastic and refrigerate for at least 30 minutes.", 
        "Repeat this rolling, folding and turning two more times, then refrigerate until firm. Repeat two more times for a total of 6 ''turns''. Wrap and refrigerate. The dough is now ready to roll out and use in any recipe calling for puff pastry. Roll the dough out as thin as 1/4 inch to make pastries. Bake in a preheated oven of at least 400 degrees F (200 degrees C) to get the maximum puff from your pastry."
    ], 
    "prep_time": "1\u00be hrs", 
    "recipe_name": "Puff Pastry"
}