{
    "ingredients": [
        {
            "amount": "1 1/2 pounds", 
            "ingredient": "boneless, skinless chicken meat"
        }, 
        {
            "amount": "1/2 pound", 
            "ingredient": "uncooked spaghetti"
        }, 
        {
            "amount": "4 cloves", 
            "ingredient": "garlic"
        }, 
        {
            "amount": "1/4 cup", 
            "ingredient": "chopped onion"
        }, 
        {
            "amount": "12 cups", 
            "ingredient": "water"
        }, 
        {
            "amount": "3 tablespoons", 
            "ingredient": "olive oil"
        }
    ], 
    "prep_steps": [
        "In a large pot, bring the water to a boil. Add the salt and olive oil.", 
        "Chop up the chicken, and add it with the onion and garlic to the pot.", 
        "Break the spaghetti into small pieces, no longer than half the size of your pinkie; add to the pot. Stir. Let simmer over medium heat for 30 to 45 minutes."
    ], 
    "prep_time": "1\u00bc hrs", 
    "recipe_name": "Chicken Noodle Soup I"
}