{
    "ingredients": [
        {
            "amount": "3 cups", 
            "ingredient": "coconut milk"
        }, 
        {
            "amount": "2 cups", 
            "ingredient": "water"
        }, 
        {
            "amount": "1/2 pound", 
            "ingredient": "skinless, boneless chicken breast halves - cut into thin strips"
        }, 
        {
            "amount": "3 tablespoons", 
            "ingredient": "minced fresh ginger root"
        }, 
        {
            "amount": "2 tablespoons", 
            "ingredient": "fish sauce, or to taste"
        }, 
        {
            "amount": "1/4 cup", 
            "ingredient": "fresh lime juice"
        }, 
        {
            "amount": "2 tablespoons", 
            "ingredient": "sliced green onions"
        }, 
        {
            "amount": "1 tablespoon", 
            "ingredient": "chopped fresh cilantro"
        }
    ], 
    "prep_steps": [
        "Pour the coconut milk and water into a saucepan, and bring to a boil. Add the chicken strips, and reduce heat to medium. Simmer for about 3 minutes, just until the chicken is cooked through. Stir in the ginger, fish sauce and lime juice. Sprinkle in the green onions and cilantro, and serve."
    ], 
    "prep_time": "25 mins", 
    "recipe_name": "Thai Ginger Soup"
}