{
    "ingredients": [
        {
            "amount": "4", 
            "ingredient": "eggs"
        }, 
        {
            "amount": "8 slices", 
            "ingredient": "bacon"
        }, 
        {
            "amount": "1 (10 ounce) package", 
            "ingredient": "fresh spinach"
        }, 
        {
            "amount": "1 small", 
            "ingredient": "onion, chopped"
        }, 
        {
            "amount": "6 tablespoons", 
            "ingredient": "vegetable oil"
        }, 
        {
            "amount": "3 tablespoons", 
            "ingredient": "lemon juice"
        }, 
        {
            "amount": "2 cloves", 
            "ingredient": "garlic, minced"
        }
    ], 
    "prep_steps": [
        "Place eggs in a saucepan and cover with cold water. Bring water to a boil; cover, remove from heat, and let eggs stand in hot water for 10 to 12 minutes. Remove from hot water, cool, peel and chop.", 
        "Place bacon in a large, deep skillet. Cook over medium high heat until evenly brown. Drain, crumble and set aside.", 
        "In a large bowl, combine the eggs, bacon, spinach and onion.", 
        "In a small bowl, whisk together the oil, lemon juice, garlic and salt and pepper. Pour over salad and toss well to coat."
    ], 
    "prep_time": "25 mins", 
    "recipe_name": "Spinach Salad II"
}