{
    "ingredients": [
        {
            "amount": "1 1/4 cups", 
            "ingredient": "graham cracker crumbs"
        }, 
        {
            "amount": "1/4 cup", 
            "ingredient": "sugar"
        }, 
        {
            "amount": "1/3 cup", 
            "ingredient": "butter or margarine, melted"
        }, 
        {
            "amount": "2 (8 ounce) packages", 
            "ingredient": "cream cheese, softened"
        }, 
        {
            "amount": "1 (14 ounce) can", 
            "ingredient": "EAGLE BRAND\u00ae Sweetened Condensed Milk"
        }, 
        {
            "amount": "3", 
            "ingredient": "eggs"
        }, 
        {
            "amount": "1/4 cup", 
            "ingredient": "lemon juice"
        }, 
        {
            "amount": "1 (8 ounce) container", 
            "ingredient": "sour cream, at room temperature"
        }, 
        {
            "amount": "1 (21 ounce) can", 
            "ingredient": "cherry pie filling"
        }
    ], 
    "prep_steps": [
        "Preheat oven to 300 degrees F. Combine graham cracker crumbs, sugar and butter; press firmly on bottom of 9-inch springform pan.", 
        "In large bowl, beat cream cheese until fluffy. Gradually beat in sweetened condensed milk until smooth. Add eggs and lemon juice; mix well. Pour into prepared pan.", 
        "Bake 50 to 55 minutes or until center is set. Remove from oven; top with sour cream. Bake 5 minutes longer. Cool 1 hour. Chill at least 4 hours. Garnish with pie filling. Store leftovers covered in refrigerator."
    ], 
    "recipe_name": "Creamy Baked Cheesecake"
}