{
    "ingredients": [
        {
            "amount": "8", 
            "ingredient": "skinless, boneless chicken breast halves"
        }, 
        {
            "amount": "1/2 teaspoon", 
            "ingredient": "garlic powder"
        }, 
        {
            "amount": "1/2 teaspoon", 
            "ingredient": "poultry seasoning"
        }, 
        {
            "amount": "1 cup", 
            "ingredient": "sour cream"
        }, 
        {
            "amount": "1 (10.75 ounce) can", 
            "ingredient": "condensed cream of chicken soup"
        }, 
        {
            "amount": "1 (10.75 ounce) can", 
            "ingredient": "condensed cream of mushroom soup"
        }, 
        {
            "amount": "3/4 cup", 
            "ingredient": "white wine"
        }, 
        {
            "amount": "1", 
            "ingredient": "onion, chopped"
        }, 
        {
            "amount": "1 cup", 
            "ingredient": "fresh sliced mushrooms"
        }
    ], 
    "prep_steps": [
        "Preheat oven to 350 degrees F (175 degrees C).", 
        "Place chicken pieces in a 9x13 inch baking dish. Season chicken with garlic powder, salt, pepper and poultry seasoning.", 
        "In a large bowl combine the sour cream, cream of chicken soup and cream of mushroom soup. Mix well with a wire whisk. Add the wine and mix together. Pour this cream mixture over the chicken and bake in the preheated oven for 40 minutes.", 
        "Add the onion and mushrooms and stir into the chicken/sauce mixture. Bake for another 30 minutes. Let cool 10 minutes and serve."
    ], 
    "recipe_name": "Chicken a la Charlie"
}