{
    "ingredients": [
        {
            "amount": "1 cup", 
            "ingredient": "bread crumbs"
        }, 
        {
            "amount": "1/4 cup", 
            "ingredient": "Parmesan cheese"
        }, 
        {
            "amount": "1/4 cup", 
            "ingredient": "sesame seeds"
        }, 
        {
            "amount": "1", 
            "ingredient": "egg, beaten"
        }, 
        {
            "amount": "4", 
            "ingredient": "boneless, skinless chicken breast halves"
        }
    ], 
    "prep_steps": [
        "Preheat oven to 350 degrees F (175 degrees C).", 
        "In a bowl, mix the bread crumbs, Parmesan cheese, and sesame seeds. Place the egg in a separate bowl. Dip the chicken in the egg, then dip into the bread crumb mixture to coat. Place the chicken breasts in a shallow baking dish.", 
        "Bake chicken 20 to 30 minutes in the preheated oven, until juices run clear."
    ], 
    "prep_time": "45 mins", 
    "recipe_name": "Parmesan Sesame Chicken"
}