{
    "ingredients": [
        {
            "amount": "3/8 pound", 
            "ingredient": "shallots"
        }, 
        {
            "amount": "3 cloves", 
            "ingredient": "garlic"
        }, 
        {
            "amount": "15", 
            "ingredient": "dried red chile peppers"
        }, 
        {
            "amount": "5 slices", 
            "ingredient": "fresh ginger root"
        }, 
        {
            "amount": "5", 
            "ingredient": "lemon grass, chopped"
        }, 
        {
            "amount": "2 teaspoons", 
            "ingredient": "coriander seeds"
        }, 
        {
            "amount": "2 teaspoons", 
            "ingredient": "fennel seeds"
        }, 
        {
            "amount": "2 teaspoons", 
            "ingredient": "cumin seeds"
        }, 
        {
            "amount": "1 pinch", 
            "ingredient": "grated nutmeg"
        }, 
        {
            "amount": "1 tablespoon", 
            "ingredient": "vegetable oil"
        }, 
        {
            "amount": "1 1/4 pounds", 
            "ingredient": "beef stew meat, cut into 1 inch cubes"
        }, 
        {
            "amount": "1 1/2 tablespoons", 
            "ingredient": "white sugar"
        }, 
        {
            "amount": "2 cups", 
            "ingredient": "shredded coconut"
        }, 
        {
            "amount": "5", 
            "ingredient": "whole cloves"
        }, 
        {
            "amount": "1", 
            "ingredient": "cinnamon stick"
        }, 
        {
            "amount": "1 2/3 cups", 
            "ingredient": "coconut milk"
        }, 
        {
            "amount": "7/8 cup", 
            "ingredient": "water"
        }
    ], 
    "prep_steps": [
        "Heat the coconut in a dry wok, stirring continuously until golden brown. Set aside to cool.", 
        "Using a blender or a food processor, blend the shallots, garlic, chilies, ginger, and lemon grass to a thick paste.", 
        "Grind the coriander, fennel, cumin and nutmeg.", 
        "Using the wok, fry the shallot paste in a little oil for a few minutes. Add the ground coriander, fennel, cumin and nutmeg; cook for 3 to 4 minutes, stirring continuously. Add beef; cook over a medium heat for a further 3 to 4 minutes, or until meat is browned.", 
        "Stir in sugar, coconut, cloves, cinnamon stick, coconut milk , and water. Bring to a boil, lower heat, and simmer until most of the liquid has gone and the meat is tender (about 1 hour). Season with salt to taste."
    ], 
    "prep_time": "2 hr", 
    "recipe_name": "Malaysian Beef Rendang"
}