{
    "ingredients": [
        {
            "amount": "3 (6.5 ounce) jars", 
            "ingredient": "marinated artichoke hearts, undrained"
        }, 
        {
            "amount": "1 (12 ounce) jar", 
            "ingredient": "roasted red bell peppers, drained and sliced"
        }, 
        {
            "amount": "1 (15 ounce) can", 
            "ingredient": "black olives, drained"
        }, 
        {
            "amount": "1 pound", 
            "ingredient": "smoked provolone cheese, diced"
        }, 
        {
            "amount": "1/3 cup", 
            "ingredient": "olive oil"
        }, 
        {
            "amount": "1/2 cup", 
            "ingredient": "balsamic vinegar"
        }, 
        {
            "amount": "1/2 teaspoon", 
            "ingredient": "dried oregano"
        }, 
        {
            "amount": "1 clove", 
            "ingredient": "garlic, finely chopped"
        }, 
        {
            "amount": "1 pinch", 
            "ingredient": "salt and pepper to taste"
        }, 
        {
            "amount": "8", 
            "ingredient": "fresh basil leaves, cut into thin strips"
        }
    ], 
    "prep_steps": [
        "Pour the jars of artichoke hearts with their liquid into a 1 1/2 quart or larger container with a tight sealing lid. Add the bell peppers, black olives, and provolone cheese.", 
        "In a medium bowl, whisk together the olive oil, balsamic vinegar, oregano, garlic, salt and pepper. Pour over the ingredients in the container. Seal the lid, and refrigerate for at least 3 hours, shaking gently about once per hour.", 
        "To serve, allow the mixture to come to room temperature. Soon onto serving plates, and top with basil shreds as a garnish."
    ], 
    "prep_time": "3 hrs", 
    "recipe_name": "Artichoke, Cheese and Olive Antipasto"
}