{
    "ingredients": [
        {
            "amount": "3 cups", 
            "ingredient": "quick cooking oats"
        }, 
        {
            "amount": "1 cup", 
            "ingredient": "sweetened flaked coconut"
        }, 
        {
            "amount": "2 cups", 
            "ingredient": "white sugar"
        }, 
        {
            "amount": "1/2 cup", 
            "ingredient": "unsweetened cocoa powder"
        }, 
        {
            "amount": "1/2 cup", 
            "ingredient": "milk"
        }, 
        {
            "amount": "1/2 cup", 
            "ingredient": "margarine"
        }
    ], 
    "prep_steps": [
        "Line a baking sheet with waxed paper.", 
        "Mix oats and coconut in a large bowl until thoroughly combined.", 
        "Stir sugar, cocoa powder, milk, and margarine together in a saucepan over medium heat until the mixture is smooth. Bring to a boil and cook for 2 minutes, stirring constantly. Pour over the oats and coconut and quickly mix to coat. Drop by tablespoon onto prepared baking sheet; let cookies cool and harden. Store in an airtight container."
    ], 
    "prep_time": "1 hr", 
    "recipe_name": "No-Bake Chocolate Coconut Cookies"
}