{
    "ingredients": [
        {
            "amount": "1 1/2 cups", 
            "ingredient": "brown rice"
        }, 
        {
            "amount": "1 teaspoon", 
            "ingredient": "salt"
        }, 
        {
            "amount": "2 tablespoons", 
            "ingredient": "butter"
        }, 
        {
            "amount": "3 cups", 
            "ingredient": "boiling water"
        }
    ], 
    "prep_steps": [
        "Preheat oven to 400 degrees F (200 degrees C).", 
        "Place rice, salt, and butter in a casserole dish that has a cover. Pour boiling water over rice; stir.", 
        "Cover and bake in preheated oven until liquid is absorbed and rice is tender, about 1 hour. Remove from oven, fluff with fork, and serve hot."
    ], 
    "prep_time": "1\u00bc hrs", 
    "recipe_name": "Easy Oven Brown Rice"
}