{
    "ingredients": [
        {
            "amount": "1 1/2 cups", 
            "ingredient": "quick cooking oats"
        }, 
        {
            "amount": "1/2 cup", 
            "ingredient": "unbleached all-purpose flour"
        }, 
        {
            "amount": "1 teaspoon", 
            "ingredient": "baking powder"
        }, 
        {
            "amount": "1/2 teaspoon", 
            "ingredient": "ground cinnamon"
        }, 
        {
            "amount": "1/2 teaspoon", 
            "ingredient": "salt"
        }, 
        {
            "amount": "1/2 cup", 
            "ingredient": "brown sugar"
        }, 
        {
            "amount": "1/4 cup", 
            "ingredient": "margarine, softened"
        }, 
        {
            "amount": "1", 
            "ingredient": "egg"
        }
    ], 
    "prep_steps": [
        "Preheat oven to 350 degrees F (175 degrees C). Lightly grease 9x9 inch baking pan.", 
        "In a large bowl, stir together oats, flour, baking powder, cinnamon and salt. In a separate bowl, cream together brown sugar and margarine. Beat in egg. Stir mixtures together just until blended. Pour batter into prepared pan.", 
        "Bake in preheated oven for 30 minutes, until a toothpick inserted into center of pan comes out clean."
    ], 
    "prep_time": "40 mins", 
    "recipe_name": "Breakfast Crisp"
}