{
    "ingredients": [
        {
            "amount": "2 ounces", 
            "ingredient": "angel hair pasta"
        }, 
        {
            "amount": "2 tablespoons", 
            "ingredient": "butter"
        }, 
        {
            "amount": "3 tablespoons", 
            "ingredient": "chopped sweet onion"
        }, 
        {
            "amount": "1 clove", 
            "ingredient": "garlic, minced"
        }, 
        {
            "amount": "2/3 cup", 
            "ingredient": "heavy cream"
        }, 
        {
            "amount": "1/4 cup", 
            "ingredient": "grated Parmesan cheese"
        }, 
        {
            "amount": "1/4 cup", 
            "ingredient": "chopped fresh basil"
        }, 
        {
            "amount": "1 pinch", 
            "ingredient": "salt and ground black pepper to taste"
        }
    ], 
    "prep_steps": [
        "Bring a large pot of lightly salted water to a boil. Add the angel hair pasta and cook for 8 to 10 minutes or until al dente. Once done, set aside 1/2 cup of the pasta water, then drain the pasta in a colander in the sink. Keep warm.", 
        "While the pasta is cooking, melt the butter in a saucepan over medium heat. Stir in the onion, and cook for 3 minutes, then stir in the garlic, and continue cooking until the onion has softened and turned translucent, 1 to 2 minutes more.", 
        "Pour in the heavy cream, and stir in the Parmesan cheese, basil, salt, and pepper. Bring to a simmer, then reduce heat to medium-low, and simmer for 2 minutes. Dilute with the reserved pasta water if the sauce is too thick for your taste. Pour the sauce over the angel hair pasta to serve."
    ], 
    "prep_time": "25 mins", 
    "recipe_name": "Quick Angel Hair with Basil Cream for One"
}