{
    "ingredients": [
        {
            "amount": "1/2 cup", 
            "ingredient": "coconut oil"
        }, 
        {
            "amount": "1/2 cup", 
            "ingredient": "cocoa powder"
        }, 
        {
            "amount": "3 tablespoons", 
            "ingredient": "honey"
        }, 
        {
            "amount": "1/2 teaspoon", 
            "ingredient": "vanilla extract"
        }
    ], 
    "prep_steps": [
        "Gently melt coconut oil in a saucepan over medium-low heat. Stir cocoa powder, honey, and vanilla extract into melted oil until well blended. Pour mixture into a candy mold or pliable tray. Refrigerate until chilled, about 1 hour."
    ], 
    "prep_time": "1\u00bc hrs", 
    "recipe_name": "Homemade Melt-In-Your-Mouth Dark Chocolate (Paleo)"
}