{
    "ingredients": [
        {
            "amount": "3 pounds", 
            "ingredient": "pork medallions, each about 1/3 inch thick"
        }, 
        {
            "amount": "2 (10.75 ounce) cans", 
            "ingredient": "cream of asparagus soup"
        }
    ], 
    "prep_steps": [
        "In a large skillet saute pork until browned on both sides. Add soup, coating the meat well. Cover skillet and reduce heat. Let simmer over very low heat for 30 minutes."
    ], 
    "prep_time": "45 mins", 
    "recipe_name": "Asparagus Medallions"
}