{
    "ingredients": [
        {
            "amount": "2 (5 ounce)", 
            "ingredient": "beef tenderloin filets"
        }, 
        {
            "amount": "1 tablespoon", 
            "ingredient": "olive oil"
        }, 
        {
            "amount": "1 tablespoon", 
            "ingredient": "cracked white peppercorns"
        }, 
        {
            "amount": "1 tablespoon", 
            "ingredient": "olive oil"
        }, 
        {
            "amount": "1 tablespoon", 
            "ingredient": "minced shallot"
        }, 
        {
            "amount": "1/4 cup", 
            "ingredient": "port wine"
        }, 
        {
            "amount": "1 tablespoon", 
            "ingredient": "balsamic vinegar"
        }, 
        {
            "amount": "1/4 cup", 
            "ingredient": "beef stock"
        }, 
        {
            "amount": "1 teaspoon", 
            "ingredient": "minced fresh rosemary"
        }, 
        {
            "amount": "1/2 (1 ounce) square", 
            "ingredient": "bittersweet chocolate, chopped"
        }
    ], 
    "prep_steps": [
        "Brush the tenderloin filets on all sides with 1 tablespoon olive oil, then sprinkle with sea salt and cracked pepper. Heat another tablespoon of olive oil in a skillet over medium-high heat until it begins to smoke. Add the steaks, and cook to your desired degree of doneness, 4 minutes per side for medium-rare. Once done, remove the steaks from the skillet and keep warm.", 
        "Stir in the minced shallot, and cook for 1 minute. Pour in the port and balsamic vinegar. Simmer until the port reduces to the consistency of chocolate syrup, 2 to 3 minutes. Add the beef stock and rosemary, and return to a simmer. Once the sauce has begun to simmer, whisk in the chocolate until it melts and slightly thickens the sauce. Pour sauce over steaks to serve."
    ], 
    "prep_time": "35 mins", 
    "recipe_name": "Pepper-Crusted Beef Tenderloin with Chocolate-Port Sauce"
}