{
    "ingredients": [
        {
            "amount": "2 cups", 
            "ingredient": "self-rising flour"
        }, 
        {
            "amount": "3 teaspoons", 
            "ingredient": "pumpkin pie spice"
        }, 
        {
            "amount": "1 1/2 cups", 
            "ingredient": "white sugar"
        }, 
        {
            "amount": "1/2 cup", 
            "ingredient": "light brown sugar, packed"
        }, 
        {
            "amount": "1/2 cup", 
            "ingredient": "vegetable oil"
        }, 
        {
            "amount": "1/4 cup", 
            "ingredient": "melted butter"
        }, 
        {
            "amount": "1/2 cup", 
            "ingredient": "unsweetened applesauce"
        }, 
        {
            "amount": "1 1/2 teaspoons", 
            "ingredient": "vanilla extract"
        }, 
        {
            "amount": "3 cups", 
            "ingredient": "unsweetened canned pumpkin puree"
        }, 
        {
            "amount": "4", 
            "ingredient": "eggs, lightly beaten"
        }, 
        {
            "amount": "1 (4 ounce) package", 
            "ingredient": "cream cheese, softened"
        }, 
        {
            "amount": "1 tablespoon", 
            "ingredient": "butter, softened"
        }, 
        {
            "amount": "2 cups", 
            "ingredient": "confectioners' sugar"
        }, 
        {
            "amount": "1 teaspoon", 
            "ingredient": "rum extract"
        }, 
        {
            "amount": "1 tablespoon", 
            "ingredient": "milk"
        }
    ], 
    "prep_steps": [
        "Preheat oven to 350 degrees F (175 degrees C). Grease and flour a Bundt pan.", 
        "Sift the self-rising flour and pumpkin pie spice together into a bowl. In another mixing bowl, beat the white and brown sugars, vegetable oil, melted butter, applesauce, vanilla, pumpkin, and eggs together until smooth.", 
        "Gradually beat the flour mixture into the pumpkin mixture, 1/2 cup at a time, until completely smooth and well blended. Pour the batter into the prepared Bundt pan.", 
        "Bake in preheated oven for 60 minutes. Cover cake with aluminum foil to prevent over-browning, and bake until a wooden skewer inserted into the cake comes out clean, 15 to 20 minutes longer. Cool the cake in the pan on a wire rack for about half an hour.", 
        "To unmold the cake, tap the bottom of the Bundt pan on the counter or work surface to help release it. Invert the cake on a serving plate and allow it to cool completely before glazing.", 
        "To make the glaze, mix the cream cheese with the butter, confectioners' sugar, rum extract, and milk in a bowl. Heat in a microwave oven for 15 seconds. Drizzle spoonfuls over the cooled cake. Keep cake refrigerated after serving."
    ], 
    "prep_time": "2\u00bd hrs", 
    "recipe_name": "Holiday Pumpkin Cake with Rum-Cream Cheese Glaze"
}