{
    "ingredients": [
        {
            "amount": "1 1/2 cups", 
            "ingredient": "graham cracker crumbs"
        }, 
        {
            "amount": "1/2 cup", 
            "ingredient": "margarine, melted"
        }, 
        {
            "amount": "1 cup", 
            "ingredient": "chopped walnuts"
        }, 
        {
            "amount": "3/4 cup", 
            "ingredient": "semisweet chocolate chips"
        }, 
        {
            "amount": "3/4 cup", 
            "ingredient": "butterscotch chips"
        }, 
        {
            "amount": "1 1/2 cups", 
            "ingredient": "flaked coconut"
        }, 
        {
            "amount": "1 1/3 cups", 
            "ingredient": "sweetened condensed milk"
        }
    ], 
    "prep_steps": [
        "Preheat oven to 350 degrees F (175 degrees C).", 
        "In a 9 x 13 inch pan pour in melted margarine. Sprinkle the graham cracker crumbs evenly over the margarine. Next place the chopped nuts over the crumbs, and spread the chocolate and butterscotch chips over the nuts. Add the coconut over all, and pour the milk evenly over the top.", 
        "Bake 25 to 30 minutes or until lightly brown on top. Cool at least 20 minutes then cut into desired sized bars."
    ], 
    "recipe_name": "Magic Cookie Bars II"
}