{
    "ingredients": [
        {
            "amount": "1 pound", 
            "ingredient": "carrots, cut diagonally into thin slices"
        }, 
        {
            "amount": "2 tablespoons", 
            "ingredient": "cider vinegar"
        }, 
        {
            "amount": "1 tablespoon", 
            "ingredient": "olive oil"
        }, 
        {
            "amount": "2 tablespoons", 
            "ingredient": "Splenda"
        }, 
        {
            "amount": "1 clove", 
            "ingredient": "garlic, grated"
        }, 
        {
            "amount": "1/4 teaspoon", 
            "ingredient": "ground cumin"
        }, 
        {
            "amount": "1/4 teaspoon", 
            "ingredient": "cinnamon"
        }, 
        {
            "amount": "1 teaspoon", 
            "ingredient": "grated fresh ginger"
        }, 
        {
            "amount": "1/8 teaspoon", 
            "ingredient": "seasoned salt"
        }, 
        {
            "amount": "1 dash", 
            "ingredient": "cayenne pepper"
        }, 
        {
            "amount": "1/2 cup", 
            "ingredient": "raisins"
        }
    ], 
    "prep_steps": [
        "Bring a large pot of water to boil. Add carrots, and continue to boil until just tender, about 2 minutes. Rinse with cold water, drain well, and set aside.", 
        "In a large bowl, whisk together the vinegar, olive oil, Splenda, and garlic. Season with cumin, cinnamon, ginger, salt, and cayenne pepper. Stir in carrots and raisins, and toss with dressing. Cover, and refrigerate at least 4 hours."
    ], 
    "prep_time": "1 days", 
    "recipe_name": "Gingery Carrot Salad"
}