{
    "ingredients": [
        {
            "amount": "3 cups", 
            "ingredient": "cooked ham, cut into one inch cubes"
        }, 
        {
            "amount": "2 tablespoons", 
            "ingredient": "brown sugar"
        }, 
        {
            "amount": "1 teaspoon", 
            "ingredient": "ground allspice"
        }, 
        {
            "amount": "1 (9 ounce) package", 
            "ingredient": "mango chutney"
        }, 
        {
            "amount": "2 tablespoons", 
            "ingredient": "lime juice"
        }, 
        {
            "amount": "2 tablespoons", 
            "ingredient": "creamy peanut butter"
        }, 
        {
            "amount": "1/4 cup", 
            "ingredient": "raisins"
        }, 
        {
            "amount": "1 (15 ounce) can", 
            "ingredient": "chickpeas, rinsed and drained"
        }, 
        {
            "amount": "1 (16 ounce) can", 
            "ingredient": "chili beans in spicy sauce"
        }, 
        {
            "amount": "2 (10 ounce) cans", 
            "ingredient": "diced tomatoes with green chile peppers"
        }
    ], 
    "prep_steps": [
        "In a large saucepan or Dutch oven, combine the cubed ham, brown sugar, allspice, mango chutney, lime juice, peanut butter, raisins, chick peas, chili beans, and diced tomatoes with chilies. Cook over medium-high heat, stirring frequently, for 15 to 20 minutes, until thoroughly heated."
    ], 
    "prep_time": "25 mins", 
    "recipe_name": "Casablanca Chili"
}