{
    "ingredients": [
        {
            "amount": "2 cups", 
            "ingredient": "water"
        }, 
        {
            "amount": "1 cube", 
            "ingredient": "chicken bouillon"
        }, 
        {
            "amount": "1", 
            "ingredient": "carrot, shredded"
        }, 
        {
            "amount": "1 cup", 
            "ingredient": "uncooked long-grain rice"
        }
    ], 
    "prep_steps": [
        "Bring water to a boil in a medium saucepan over medium-high heat. Drop in bouillon cube and let dissolve. Stir in carrots and rice and return to boiling.", 
        "Reduce heat to low, cover and simmer for 20 minutes.", 
        "Remove from heat and let stand, covered, for 5 minutes."
    ], 
    "prep_time": "30 mins", 
    "recipe_name": "Carroty Rice"
}