{
    "ingredients": [
        {
            "amount": "1/4 cup", 
            "ingredient": "olive oil"
        }, 
        {
            "amount": "1 cup", 
            "ingredient": "minced onion"
        }, 
        {
            "amount": "1/4 teaspoon", 
            "ingredient": "onion powder"
        }, 
        {
            "amount": "2 cloves", 
            "ingredient": "garlic, minced"
        }, 
        {
            "amount": "2 tablespoons", 
            "ingredient": "dried oregano"
        }, 
        {
            "amount": "2 (6 ounce) cans", 
            "ingredient": "tomato paste"
        }, 
        {
            "amount": "2 (15 ounce) cans", 
            "ingredient": "tomato sauce"
        }
    ], 
    "prep_steps": [
        "Heat oil in a medium saucepan over medium heat. Saute onion, onion powder, garlic and oregano until clear. Stir in tomato paste and tomato sauce; reduce heat to low and simmer for 15 minutes. Let cool and spread over prepared pizza crust."
    ], 
    "prep_time": "10 mins", 
    "recipe_name": "Pizza Sauce II"
}