{
    "ingredients": [
        {
            "amount": "1 cup", 
            "ingredient": "butterscotch chips"
        }, 
        {
            "amount": "1/4 cup", 
            "ingredient": "butter"
        }, 
        {
            "amount": "2", 
            "ingredient": "eggs"
        }, 
        {
            "amount": "1/2 teaspoon", 
            "ingredient": "vanilla extract"
        }, 
        {
            "amount": "3/4 cup", 
            "ingredient": "all-purpose flour"
        }, 
        {
            "amount": "1 teaspoon", 
            "ingredient": "baking powder"
        }, 
        {
            "amount": "3/4 teaspoon", 
            "ingredient": "salt"
        }, 
        {
            "amount": "1 cup", 
            "ingredient": "brown sugar"
        }, 
        {
            "amount": "1 cup", 
            "ingredient": "semi-sweet chocolate chips"
        }, 
        {
            "amount": "1/2 cup", 
            "ingredient": "chopped walnuts"
        }, 
        {
            "amount": "1/2 cup", 
            "ingredient": "raisins"
        }
    ], 
    "prep_steps": [
        "Place butterscotch chips and butter into a glass bowl. Heat in the microwave for about 3 minutes, stirring at 30 second intervals until smooth. Set aside to cool until firm.", 
        "Preheat the oven to 350 degrees F (175 degrees C). Grease a 9x13 inch pan.", 
        "In a large bowl, beat the butterscotch chip mixture with eggs and vanilla until well blended. Combine the flour, baking powder, and salt; stir into the batter until evenly mixed. Mix in the brown sugar, chocolate chips, walnuts, and raisins. Spread the batter evenly in the prepared pan.", 
        "Bake for 25 minutes in the preheated oven, just until the bars begin to pull away from the sides of the pan. Cut into squares while warm."
    ], 
    "prep_time": "35 mins", 
    "recipe_name": "Butterscotch Cookie Bars"
}