{
    "ingredients": [
        {
            "amount": "3", 
            "ingredient": "skinless, boneless chicken breast halves"
        }, 
        {
            "amount": "2 tablespoons", 
            "ingredient": "butter"
        }, 
        {
            "amount": "1 1/2 tablespoons", 
            "ingredient": "all-purpose flour"
        }, 
        {
            "amount": "1", 
            "ingredient": "green onion, chopped"
        }, 
        {
            "amount": "3/4 cup", 
            "ingredient": "milk"
        }, 
        {
            "amount": "1 tablespoon", 
            "ingredient": "coarse grained prepared mustard"
        }, 
        {
            "amount": "3 ounces", 
            "ingredient": "Camembert cheese, cubed"
        }, 
        {
            "amount": "1", 
            "ingredient": "avocado - peeled, pitted and sliced"
        }
    ], 
    "prep_steps": [
        "Spray a skillet with cooking spray, and place over medium heat. Fry chicken breasts in the skillet until cooked through, about 20 minutes.", 
        "While the chicken cooks, melt butter in a small skillet over medium heat, and stir in flour until smooth. Stir in green onion, and cook, stirring constantly, until the mixture starts to brown. Gradually mix in milk, and continue cooking and stirring until the sauce is thick and smooth. Remove from heat, and stir in the mustard and Camembert until melted and smooth.", 
        "Remove chicken to serving plates, and top with slices of avocado. Pour sauce over the chicken, and serve."
    ], 
    "prep_time": "30 mins", 
    "recipe_name": "Camembert Chicken"
}