{
    "ingredients": [
        {
            "amount": "1 cup", 
            "ingredient": "all-purpose flour"
        }, 
        {
            "amount": "1 cup", 
            "ingredient": "whole wheat flour"
        }, 
        {
            "amount": "1/2 teaspoon", 
            "ingredient": "salt"
        }, 
        {
            "amount": "1/2 teaspoon", 
            "ingredient": "baking soda"
        }, 
        {
            "amount": "2 1/2 teaspoons", 
            "ingredient": "baking powder"
        }, 
        {
            "amount": "1/4 teaspoon", 
            "ingredient": "ground allspice"
        }, 
        {
            "amount": "1/4 teaspoon", 
            "ingredient": "ground nutmeg"
        }, 
        {
            "amount": "1/3 cup", 
            "ingredient": "vegetable oil"
        }, 
        {
            "amount": "3/4 cup", 
            "ingredient": "brown sugar"
        }, 
        {
            "amount": "2", 
            "ingredient": "eggs"
        }, 
        {
            "amount": "1/3 cup", 
            "ingredient": "orange juice"
        }, 
        {
            "amount": "1 cup", 
            "ingredient": "pumpkin puree"
        }
    ], 
    "prep_steps": [
        "Preheat an oven to 350 degrees F (175 degrees C).", 
        "Mix together flour, salt, baking soda, baking powder, allspice and nutmeg. In a large bowl, beat together vegetable oil, brown sugar, eggs, orange juice and pumpkin. Stir flour mixture into pumpkin mixture until just combined. Pour batter into prepared loaf pan.", 
        "Bake in preheated oven for 50 to 60 minutes, until a toothpick inserted into center of the loaf comes out clean."
    ], 
    "prep_time": "1\u00bc hrs", 
    "recipe_name": "Pumpkin Bread VI"
}