{
    "ingredients": [
        {
            "amount": "1 (16 ounce) package", 
            "ingredient": "rotini pasta"
        }, 
        {
            "amount": "1 tablespoon", 
            "ingredient": "vegetable oil"
        }, 
        {
            "amount": "1", 
            "ingredient": "onion, chopped"
        }, 
        {
            "amount": "1 cup", 
            "ingredient": "chopped bacon"
        }, 
        {
            "amount": "1 (10.75 ounce) can", 
            "ingredient": "condensed tomato soup"
        }, 
        {
            "amount": "2 cups", 
            "ingredient": "shredded Cheddar cheese, divided"
        }, 
        {
            "amount": "1/2 cup", 
            "ingredient": "milk"
        }
    ], 
    "prep_steps": [
        "Bring a large pot of lightly salted water to a boil. Add rotini pasta and cook for 8 to 10 minutes or until al dente; drain.", 
        "Heat oil in a large saucepan or skillet, add onion, bacon, salt, and pepper. Cook until bacon is crispy and onion is soft. Drain fat. Pour in tomato soup and stir; bring to boil. Reduce heat to low; add 1 cup Cheddar cheese and the milk. Stir until cheese is melted.", 
        "Set oven rack about 6 inches from the heat source and preheat the oven's broiler.", 
        "Combine sauce with pasta in a baking dish. Sprinkle with remaining 1 cup cheese. Place under the oven broiler until sauce is thick and cheese browned, 3 to 5 minutes."
    ], 
    "prep_time": "30 mins", 
    "recipe_name": "Tomato and Bacon Pasta Bake"
}