{
    "ingredients": [
        {
            "amount": "3 cups", 
            "ingredient": "water"
        }, 
        {
            "amount": "2 teaspoons", 
            "ingredient": "salt"
        }, 
        {
            "amount": "1 cup", 
            "ingredient": "chopped broccoli"
        }, 
        {
            "amount": "2 tablespoons", 
            "ingredient": "butter"
        }, 
        {
            "amount": "3 tablespoons", 
            "ingredient": "all-purpose flour"
        }, 
        {
            "amount": "14 1/2 ounces", 
            "ingredient": "evaporated milk"
        }, 
        {
            "amount": "1 cup", 
            "ingredient": "water"
        }, 
        {
            "amount": "1 1/2 teaspoons", 
            "ingredient": "grated onion"
        }, 
        {
            "amount": "1 1/2 teaspoons", 
            "ingredient": "salt"
        }
    ], 
    "prep_steps": [
        "In a medium saucepan, bring 3 cups water and salt to a boil. Cook broccoli in boiling water, uncovered, for 10 to 12 minutes. Drain, place broccoli in a small bowl, and mash.", 
        "Melt butter in a large saucepan over medium heat. Mix in flour, and then gradually whisk in milk and water; stir continuously until liquid begins to boil. Stir in grated onion and mashed broccoli. Season with remaining salt."
    ], 
    "prep_time": "35 mins", 
    "recipe_name": "Gramma's Cream of Broccoli"
}