{
    "ingredients": [
        {
            "amount": "2", 
            "ingredient": "skinless, boneless chicken breast halves - cubed"
        }, 
        {
            "amount": "1", 
            "ingredient": "egg, beaten"
        }, 
        {
            "amount": "1 (10 ounce) package", 
            "ingredient": "frozen chopped spinach, thawed and drained"
        }, 
        {
            "amount": "1/2 cup", 
            "ingredient": "drained, creamed cottage cheese"
        }, 
        {
            "amount": "1/4 cup", 
            "ingredient": "grated Parmesan cheese"
        }, 
        {
            "amount": "10", 
            "ingredient": "manicotti shells"
        }, 
        {
            "amount": "1 (10.75 ounce) can", 
            "ingredient": "condensed cream of chicken soup"
        }, 
        {
            "amount": "1 (8 ounce) container", 
            "ingredient": "sour cream"
        }, 
        {
            "amount": "1 cup", 
            "ingredient": "milk"
        }, 
        {
            "amount": "1 teaspoon", 
            "ingredient": "Italian seasoning"
        }, 
        {
            "amount": "1 cup", 
            "ingredient": "boiling water"
        }, 
        {
            "amount": "1 cup", 
            "ingredient": "shredded Cheddar cheese"
        }, 
        {
            "amount": "2 tablespoons", 
            "ingredient": "chopped fresh parsley"
        }
    ], 
    "prep_steps": [
        "Preheat oven to 350 degrees F (175 degrees C).", 
        "In a medium skillet over medium heat, cook chicken until opaque and juices run clear.", 
        "In a medium bowl, combine cooked chicken, egg, spinach, cottage cheese and Parmesan. Stuff uncooked manicotti shells with chicken mixture. Arrange shells, not touching one another, in a 9x13 inch baking dish.", 
        "In a medium bowl, combine soup, sour cream, milk and Italian seasoning and stir until smooth. Pour over shells in dish and spread to cover completely. Carefully pour boiling water around the edge of the dish. Cover tightly with foil.", 
        "Bake in preheated oven 60 minutes, or until pasta is tender. Sprinkle with Cheddar and parsley and let stand 10 minutes before serving."
    ], 
    "prep_time": "1\u00bd hrs", 
    "recipe_name": "Shortcut Chicken Manicotti"
}