{
    "ingredients": [
        {
            "amount": "1 (8 ounce) container", 
            "ingredient": "frozen whipped topping, thawed"
        }, 
        {
            "amount": "1 (12 fluid ounce) can", 
            "ingredient": "evaporated milk"
        }, 
        {
            "amount": "1/2 (14 ounce) can", 
            "ingredient": "sweetened condensed milk"
        }, 
        {
            "amount": "1 1/2 teaspoons", 
            "ingredient": "vanilla extract"
        }
    ], 
    "prep_steps": [
        "Beat whipped topping with evaporated and condensed milks and vanilla in a large bowl until smooth. Pour into a round or rectangular container, seal tightly, and place in freezer for 24 hours."
    ], 
    "prep_time": "1 day", 
    "recipe_name": "Vanilla Ice Cream X"
}