{
    "ingredients": [
        {
            "amount": "1 pound", 
            "ingredient": "cod fillets"
        }, 
        {
            "amount": "1/2 cup", 
            "ingredient": "butter, melted"
        }, 
        {
            "amount": "1/4 cup", 
            "ingredient": "soy-based steak marinade"
        }, 
        {
            "amount": "1 teaspoon", 
            "ingredient": "salt"
        }, 
        {
            "amount": "1 teaspoon", 
            "ingredient": "ground black pepper"
        }, 
        {
            "amount": "1 teaspoon", 
            "ingredient": "cayenne pepper"
        }, 
        {
            "amount": "1", 
            "ingredient": "lemon, quartered"
        }, 
        {
            "amount": "2 small", 
            "ingredient": "tomatoes, thinly sliced"
        }
    ], 
    "prep_steps": [
        "Preheat oven to 375 degrees F (190 degrees C).", 
        "Place fish in a 13x9 inch baking dish or pan.", 
        "Pour butter, marinade, salt and pepper onto and around the fish. Squeeze the lemons onto the fish. Lay tomato slices over the top of the fish.", 
        "Bake for 30 minutes or until the fish is flaky."
    ], 
    "prep_time": "35 mins", 
    "recipe_name": "Freeda's Fabulous Fish"
}