{
    "ingredients": [
        {
            "amount": "4 tablespoons", 
            "ingredient": "vegetable oil"
        }, 
        {
            "amount": "1/2 cup", 
            "ingredient": "butter"
        }, 
        {
            "amount": "2 bunches", 
            "ingredient": "green onion, chopped"
        }, 
        {
            "amount": "1 large", 
            "ingredient": "onion, diced"
        }, 
        {
            "amount": "1/4 cup", 
            "ingredient": "chopped green bell pepper"
        }, 
        {
            "amount": "2 stalks", 
            "ingredient": "celery, chopped"
        }, 
        {
            "amount": "1 pound", 
            "ingredient": "crawfish, peeled"
        }, 
        {
            "amount": "1 teaspoon", 
            "ingredient": "tomato paste"
        }, 
        {
            "amount": "1 (14.5 ounce) can", 
            "ingredient": "chicken broth"
        }, 
        {
            "amount": "2 tablespoons", 
            "ingredient": "cornstarch"
        }, 
        {
            "amount": "1 tablespoon", 
            "ingredient": "water"
        }
    ], 
    "prep_steps": [
        "Heat oil and butter in a large skillet over medium high heat. Stir in onion, green onion, green pepper and celery; cook until transparent. Mix in crawfish and tomato paste; cook for 10 minutes.", 
        "Pour chicken broth into skillet. In a small bowl, dissolve cornstarch in water. Stir dissolved cornstarch into crawfish mixture and cook until thickened, about 35 minutes."
    ], 
    "prep_time": "1 hr", 
    "recipe_name": "Crawfish Etouffee II"
}