{
    "ingredients": [
        {
            "amount": "6 tablespoons", 
            "ingredient": "butter"
        }, 
        {
            "amount": "1 1/2 cups", 
            "ingredient": "brown sugar"
        }, 
        {
            "amount": "4 1/2 tablespoons", 
            "ingredient": "lemon juice"
        }, 
        {
            "amount": "2 1/4 teaspoons", 
            "ingredient": "dried dill weed"
        }, 
        {
            "amount": "3/4 teaspoon", 
            "ingredient": "ground cayenne pepper"
        }, 
        {
            "amount": "1 pound", 
            "ingredient": "salmon fillets, with skin"
        }
    ], 
    "prep_steps": [
        "Preheat an outdoor grill for high heat.", 
        "Melt the butter in a saucepan over medium heat, and mix in the brown sugar, lemon juice, dill, and cayenne pepper. Cook and stir until the brown sugar is dissolved. Reduce heat and simmer until ready to brush onto the salmon.", 
        "Season salmon with lemon pepper, and place directly on the grill grate, skin side down. Brushing frequently with the butter and brown sugar glaze, cook the salmon 20 minutes, or until easily flaked with a fork. Reserve some of the glaze for serving."
    ], 
    "prep_time": "45 mins", 
    "recipe_name": "Sweet and Tangy Glazed Salmon"
}