{
    "ingredients": [
        {
            "amount": "1 1/2 pounds", 
            "ingredient": "fresh tuna steaks, minced"
        }, 
        {
            "amount": "1/2 cup", 
            "ingredient": "dry bread crumbs"
        }, 
        {
            "amount": "1/4 cup", 
            "ingredient": "finely chopped green onion"
        }, 
        {
            "amount": "1/4 cup", 
            "ingredient": "grated carrot"
        }, 
        {
            "amount": "1 tablespoon", 
            "ingredient": "minced fresh ginger root"
        }, 
        {
            "amount": "1 tablespoon", 
            "ingredient": "chopped fresh cilantro"
        }, 
        {
            "amount": "1 teaspoon", 
            "ingredient": "sesame oil"
        }, 
        {
            "amount": "1 tablespoon", 
            "ingredient": "ketchup"
        }, 
        {
            "amount": "1 tablespoon", 
            "ingredient": "lite soy sauce"
        }, 
        {
            "amount": "1/2 teaspoon", 
            "ingredient": "ground cumin"
        }, 
        {
            "amount": "1/4 teaspoon", 
            "ingredient": "salt"
        }, 
        {
            "amount": "1/4 teaspoon", 
            "ingredient": "black pepper"
        }, 
        {
            "amount": "1", 
            "ingredient": "egg, beaten"
        }, 
        {
            "amount": "6", 
            "ingredient": "hamburger buns"
        }, 
        {
            "amount": "6", 
            "ingredient": "lettuce leaves - rinsed and dried"
        }, 
        {
            "amount": "2 medium", 
            "ingredient": "tomatoes, sliced"
        }
    ], 
    "prep_steps": [
        "In a bowl, thoroughly mix minced tuna, bread crumbs, green onion, carrot, ginger, cilantro, sesame oil, ketchup, soy sauce, cumin, salt, pepper, and egg. Cover, and refrigerate for 30 minutes.", 
        "Preheat oven broiler.", 
        "Form tuna mixture into 6 patties, and place in a broiler pan on top oven rack. Cook, uncovered, 4 minutes per side, or until easily flaked with a fork. Serve on hamburger buns with lettuce and tomato."
    ], 
    "prep_time": "55 mins", 
    "recipe_name": "Thai Tuna Burgers"
}