{
    "ingredients": [
        {
            "amount": "1 1/2 cups", 
            "ingredient": "all-purpose flour"
        }, 
        {
            "amount": "2 tablespoons", 
            "ingredient": "baking powder"
        }, 
        {
            "amount": "1 tablespoon", 
            "ingredient": "white sugar"
        }, 
        {
            "amount": "1/2 teaspoon", 
            "ingredient": "salt"
        }, 
        {
            "amount": "1 1/4 cups", 
            "ingredient": "milk"
        }, 
        {
            "amount": "1", 
            "ingredient": "ripe banana, mashed"
        }, 
        {
            "amount": "1/3 cup", 
            "ingredient": "smooth peanut butter"
        }, 
        {
            "amount": "1", 
            "ingredient": "egg"
        }, 
        {
            "amount": "1 tablespoon", 
            "ingredient": "canola oil"
        }, 
        {
            "amount": "1 teaspoon", 
            "ingredient": "vanilla extract"
        }
    ], 
    "prep_steps": [
        "Preheat a griddle to medium heat.", 
        "Whisk flour, baking powder, sugar, and salt together in a mixing bowl. Combine milk, banana, peanut butter, egg, canola oil, and vanilla extract in a separate bowl; pour into the flour mixture and whisk together until thoroughly mixed.", 
        "Ladle batter in 1/4 cup portions onto hot griddle. Cook until tiny air bubbles form on top, 2 to 5 minutes; flip and continue cooking until the bottoms are browned, 2 to 3 minutes. Repeat with remaining batter. Keep finished pancakes warm."
    ], 
    "prep_time": "25 mins", 
    "recipe_name": "Peanut Butter Banana Pancakes"
}