{
    "ingredients": [
        {
            "amount": "1 pound", 
            "ingredient": "rump roast"
        }, 
        {
            "amount": "2 tablespoons", 
            "ingredient": "vegetable oil"
        }, 
        {
            "amount": "1", 
            "ingredient": "onion, chopped"
        }, 
        {
            "amount": "2 cloves", 
            "ingredient": "garlic, minced"
        }, 
        {
            "amount": "1 (14 ounce) can", 
            "ingredient": "beef broth"
        }, 
        {
            "amount": "1 (14 ounce) can", 
            "ingredient": "stewed tomatoes"
        }, 
        {
            "amount": "1 quart", 
            "ingredient": "water"
        }, 
        {
            "amount": "1 (16 ounce) package", 
            "ingredient": "frozen mixed vegetables, thawed"
        }, 
        {
            "amount": "4", 
            "ingredient": "mushrooms, sliced"
        }, 
        {
            "amount": "2 stalks", 
            "ingredient": "celery, chopped"
        }, 
        {
            "amount": "1/2 teaspoon", 
            "ingredient": "dried oregano"
        }, 
        {
            "amount": "1/2 teaspoon", 
            "ingredient": "dried thyme"
        }, 
        {
            "amount": "1/2 teaspoon", 
            "ingredient": "dried basil"
        }, 
        {
            "amount": "1/2 teaspoon", 
            "ingredient": "dried parsley"
        }, 
        {
            "amount": "1/4 teaspoon", 
            "ingredient": "ground cayenne pepper"
        }, 
        {
            "amount": "6 ounces", 
            "ingredient": "rotelle pasta"
        }
    ], 
    "prep_steps": [
        "Trim fat from roast and cut into 1 inch cubes. Place meat in a large pot over medium heat with oil, onion and garlic and cook, stirring, until meat is browned and onion is tender. Pour in broth, tomatoes and water. Stir in mixed vegetables, mushrooms and celery. Season with oregano, thyme, basil, parsley and cayenne. Bring to a boil, then reduce heat, cover and simmer 75 minutes.", 
        "Stir in pasta and cook 10 minutes more, until pasta is tender."
    ], 
    "prep_time": "1\u00be hrs", 
    "recipe_name": "Spicy Vegetable Beef Soup"
}