{
    "ingredients": [
        {
            "amount": "1 cup", 
            "ingredient": "uncooked wild rice"
        }, 
        {
            "amount": "1 cup", 
            "ingredient": "water"
        }, 
        {
            "amount": "1 cup", 
            "ingredient": "water"
        }, 
        {
            "amount": "3 tablespoons", 
            "ingredient": "butter"
        }, 
        {
            "amount": "2", 
            "ingredient": "skinless, boneless chicken breast halves - cubed"
        }, 
        {
            "amount": "1", 
            "ingredient": "onion, diced"
        }, 
        {
            "amount": "1/2 cup", 
            "ingredient": "chopped celery"
        }, 
        {
            "amount": "2 (10.75 ounce) cans", 
            "ingredient": "condensed cream of chicken soup"
        }, 
        {
            "amount": "2 2/3 cups", 
            "ingredient": "milk"
        }, 
        {
            "amount": "1 (14.5 ounce) can", 
            "ingredient": "sliced carrots"
        }, 
        {
            "amount": "3 tablespoons", 
            "ingredient": "sliced almonds"
        }, 
        {
            "amount": "5 tablespoons", 
            "ingredient": "butter"
        }, 
        {
            "amount": "3 tablespoons", 
            "ingredient": "dried parsley"
        }
    ], 
    "prep_steps": [
        "Soak rice in 1 cup water for 6 to 8 hours. Drain.", 
        "Bring 1 cup water to a boil in a small saucepan. Stir in drained rice. Boil until water level dips below rice, 10 minutes. Set aside.", 
        "In a medium saucepan, melt 3 tablespoons butter over medium-high heat. Cook chicken, onion and celery in butter until browned and slightly crispy, 10 to 15 minutes. Set aside.", 
        "In a large pot, combine cream of chicken soup, milk, chicken mixture, carrots, almonds, 5 tablespoons butter and parsley. Bring to a boil, stirring, then reduce heat to low and stir in rice. Simmer, uncovered, 15 minutes, stirring occasionally and adding more water or milk to thin if needed. Serve at once."
    ], 
    "prep_time": "8 hr", 
    "recipe_name": "Chicken Wild Rice Soup II"
}