{
    "ingredients": [
        {
            "amount": "1 cup", 
            "ingredient": "packed brown sugar"
        }, 
        {
            "amount": "1/4 cup", 
            "ingredient": "milk"
        }, 
        {
            "amount": "2 tablespoons", 
            "ingredient": "light corn syrup"
        }, 
        {
            "amount": "3 tablespoons", 
            "ingredient": "butter"
        }
    ], 
    "prep_steps": [
        "In a small saucepan, stir together the brown sugar, milk, corn syrup and butter. Warm over low heat until smooth and butter is melted. Do not boil."
    ], 
    "prep_time": "15 mins", 
    "recipe_name": "Butterscotch Sauce II"
}