{
    "ingredients": [
        {
            "amount": "2 (14 ounce) cans", 
            "ingredient": "cream of coconut"
        }, 
        {
            "amount": "3 (6 ounce) cans", 
            "ingredient": "frozen lemonade concentrate"
        }, 
        {
            "amount": "1 (46 fluid ounce) can", 
            "ingredient": "unsweetened pineapple juice"
        }, 
        {
            "amount": "1 (750 milliliter) bottle", 
            "ingredient": "vodka"
        }, 
        {
            "amount": "2 liters", 
            "ingredient": "lemon-lime flavored carbonated beverage"
        }
    ], 
    "prep_steps": [
        "In a plastic container combine cream of coconut, lemonade concentrate, pineapple juice and vodka. Mix well and store overnight in the freezer.", 
        "To serve, place 2 scoops in a glass, then fill the glass with lemon-lime soda."
    ], 
    "prep_time": "15 mins", 
    "recipe_name": "Hawaiian Punch Slush for Adults"
}