{
    "ingredients": [
        {
            "amount": "1 1/4 cups", 
            "ingredient": "butter"
        }, 
        {
            "amount": "2 cups", 
            "ingredient": "chopped pecans"
        }, 
        {
            "amount": "3 cups", 
            "ingredient": "sifted all-purpose flour"
        }, 
        {
            "amount": "2 teaspoons", 
            "ingredient": "baking powder"
        }, 
        {
            "amount": "1/2 teaspoon", 
            "ingredient": "salt"
        }, 
        {
            "amount": "2 cups", 
            "ingredient": "white sugar"
        }, 
        {
            "amount": "4", 
            "ingredient": "eggs"
        }, 
        {
            "amount": "1 cup", 
            "ingredient": "milk"
        }, 
        {
            "amount": "2 teaspoons", 
            "ingredient": "vanilla extract"
        }, 
        {
            "amount": "1/4 cup", 
            "ingredient": "butter"
        }, 
        {
            "amount": "1 teaspoon", 
            "ingredient": "vanilla extract"
        }, 
        {
            "amount": "1/4 teaspoon", 
            "ingredient": "salt"
        }, 
        {
            "amount": "4 cups", 
            "ingredient": "sifted confectioners' sugar"
        }, 
        {
            "amount": "1/3 cup", 
            "ingredient": "heavy whipping cream"
        }
    ], 
    "prep_steps": [
        "Grease and flour bottoms of three 9 inch layer pans. Preheat oven to 350 degrees F (175 degrees C).", 
        "Melt 1/4 cup butter in heavy skillet over medium heat. Add pecans and brown 10 to 15 minutes, stirring frequently.", 
        "Sift flour with baking powder and 1/2 teaspoon salt. Cream remaining butter in large mixing bowl. Gradually add 2 cups sugar; cream at high speed of mixer until light and fluffy. At medium speed blend in eggs, one at a time, beating well after each. At low speed add sifted dry ingredients alternately with milk and vanilla extract, beginning and ending with dry ingredients. Blend well after each addition. Stir in 1 1/3 cups pecans. Pour batter into pans.", 
        "Bake for 25 to 30 minutes, until cake is golden brown and springs back when lightly touched in center. When cool, blend remaining pecans with Creamy Butter Frosting; spread between layers and on top.", 
        "To Make Creamy Butter Frosting: Cream 1/4 cup butter or margarine in mixing bowl. Add 1 teaspoon vanilla extract, salt, 4 cups confectioners' sugar and 1/3 to 1/2 cup cream. Beat until smooth and of spreading consistency. If necessary, thin with additional cream."
    ], 
    "prep_time": "1\u00bd hrs", 
    "recipe_name": "Carol's Butter Pecan Cake"
}