{
    "ingredients": [
        {
            "amount": "1 1/4 cups", 
            "ingredient": "milk"
        }, 
        {
            "amount": "1 1/2 tablespoons", 
            "ingredient": "butter, softened"
        }, 
        {
            "amount": "3/4 cup", 
            "ingredient": "shredded Cheddar cheese"
        }, 
        {
            "amount": "16 ounces", 
            "ingredient": "sliced pepperoni sausage"
        }, 
        {
            "amount": "1 1/2 tablespoons", 
            "ingredient": "white sugar"
        }, 
        {
            "amount": "1 teaspoon", 
            "ingredient": "salt"
        }, 
        {
            "amount": "1 tablespoon", 
            "ingredient": "grated Parmesan cheese"
        }, 
        {
            "amount": "1 (.25 ounce) package", 
            "ingredient": "active dry yeast"
        }, 
        {
            "amount": "3 1/2 cups", 
            "ingredient": "bread flour"
        }
    ], 
    "prep_steps": [
        "Place ingredients in the pan of the bread machine in the order recommended by the manufacturer.", 
        "Select the Bread/Light Crust cycle, and press Start."
    ], 
    "prep_time": "1 hr", 
    "recipe_name": "Hubby's Pizza Bread"
}