{
    "ingredients": [
        {
            "amount": "2 (14.5 ounce) cans", 
            "ingredient": "Italian-style diced tomatoes"
        }, 
        {
            "amount": "1 (19 ounce) can", 
            "ingredient": "cannellini beans, drained and rinsed"
        }, 
        {
            "amount": "10 ounces", 
            "ingredient": "fresh spinach, washed and chopped"
        }, 
        {
            "amount": "8 ounces", 
            "ingredient": "penne pasta"
        }, 
        {
            "amount": "1/2 cup", 
            "ingredient": "crumbled feta cheese"
        }
    ], 
    "prep_steps": [
        "Cook the pasta in a large pot of boiling salted water until al dente.", 
        "Meanwhile, combine tomatoes and beans in a large non-stick skillet. Bring to a boil over medium high heat. Reduce heat, and simmer 10 minutes.", 
        "Add spinach to the sauce; cook for 2 minutes or until spinach wilts, stirring constantly.", 
        "Serve sauce over pasta, and sprinkle with feta."
    ], 
    "prep_time": "25 mins", 
    "recipe_name": "Greek Pasta with Tomatoes and White Beans"
}