{
    "ingredients": [
        {
            "amount": "1 cup", 
            "ingredient": "apple cider vinegar"
        }, 
        {
            "amount": "1/8 cup", 
            "ingredient": "salt"
        }, 
        {
            "amount": "1 cup", 
            "ingredient": "white sugar"
        }, 
        {
            "amount": "1/4 teaspoon", 
            "ingredient": "ground turmeric"
        }, 
        {
            "amount": "1/2 teaspoon", 
            "ingredient": "mustard seed"
        }, 
        {
            "amount": "2 pounds", 
            "ingredient": "cucumbers"
        }, 
        {
            "amount": "2", 
            "ingredient": "sweet onions"
        }
    ], 
    "prep_steps": [
        "In a small saucepan at medium-high heat, combine cider vinegar, salt, sugar, tumeric and mustard seed. Bring to a boil and let cook for 5 more minutes.", 
        "Meanwhile, slice cucumbers and onion. Loosely pack the vegetables in a 1-quart canning jar or other similarly sized container. Pour hot liquid over the vegetables in the container. Refrigerate for 24 hours and enjoy! Keep refrigerated."
    ], 
    "prep_time": "21 hrs", 
    "recipe_name": "Summertime Sweet Pickles"
}