{
    "ingredients": [
        {
            "amount": "1 pound", 
            "ingredient": "cooked ham"
        }, 
        {
            "amount": "1/3 cup", 
            "ingredient": "chopped onions"
        }, 
        {
            "amount": "2 teaspoons", 
            "ingredient": "dill pickle relish"
        }, 
        {
            "amount": "1 teaspoon", 
            "ingredient": "prepared mustard"
        }, 
        {
            "amount": "1/4 cup", 
            "ingredient": "creamy salad dressing (e.g. Miracle Whip)"
        }
    ], 
    "prep_steps": [
        "Cut up ham to put into food processor, grind on pulse until very coarse. Add the onion and dill pickle relish close to the end of this stage. Put into mixing bowl and add mustard and creamy salad dressing; mix well."
    ], 
    "prep_time": "15 mins", 
    "recipe_name": "Ham Spread"
}