{
    "ingredients": [
        {
            "amount": "1/2 cup", 
            "ingredient": "milk"
        }, 
        {
            "amount": "2 teaspoons", 
            "ingredient": "vegetable oil"
        }, 
        {
            "amount": "1/3 cup", 
            "ingredient": "white sugar"
        }, 
        {
            "amount": "1 cup", 
            "ingredient": "all-purpose baking mix (such as Bisquick\u00ae)"
        }, 
        {
            "amount": "2/3 cup", 
            "ingredient": "white sugar"
        }, 
        {
            "amount": "1 cup", 
            "ingredient": "water"
        }, 
        {
            "amount": "2 cups", 
            "ingredient": "fresh blackberries"
        }
    ], 
    "prep_steps": [
        "Preheat an oven to 375 degrees F (190 degrees C). Grease a 9x9-inch baking dish.", 
        "Whisk the milk, oil, 1/3 cup sugar, and baking mix together in a bowl until no large lumps remain. Pour into the prepared baking dish. Whisk 2/3 cup sugar with the water in a clean bowl until mixed. Gently fold in the berries until evenly coated. Spread the berries over the baking mix batter.", 
        "Bake in the preheated oven 45 minutes."
    ], 
    "prep_time": "1 hr", 
    "recipe_name": "Baking Mix Blackberry Cobbler"
}