{
    "ingredients": [
        {
            "amount": "1 1/2 pounds", 
            "ingredient": "skinless, boneless chicken breast halves"
        }, 
        {
            "amount": "1/4 cup", 
            "ingredient": "butter"
        }, 
        {
            "amount": "6 cloves", 
            "ingredient": "crushed garlic"
        }, 
        {
            "amount": "2 cups", 
            "ingredient": "seasoned dry bread crumbs"
        }
    ], 
    "prep_steps": [
        "Preheat oven to 375 degrees F (190 degrees C).", 
        "In a small saucepan melt butter/margarine with garlic. Dip chicken pieces in butter/garlic sauce, letting extra drip off, then coat completely with bread crumbs.", 
        "Place coated chicken in a lightly greased 9x13 inch baking dish. Combine any leftover butter/garlic sauce with bread crumbs and spoon mixture over chicken pieces. Bake in the preheated oven for 45 minutes to 1 hour."
    ], 
    "recipe_name": "Easy Garlic Chicken"
}