{
    "ingredients": [
        {
            "amount": "1 (8 ounce) package", 
            "ingredient": "shredded Cheddar cheese"
        }, 
        {
            "amount": "1/2 cup", 
            "ingredient": "butter, softened"
        }, 
        {
            "amount": "1 cup", 
            "ingredient": "all-purpose flour"
        }, 
        {
            "amount": "1/4 teaspoon", 
            "ingredient": "salt"
        }
    ], 
    "prep_steps": [
        "Preheat oven to 450 degrees F (230 degrees C).", 
        "In a mixing bowl, combine the cheese and butter. Blend in the flour and salt. Form the mixture into 6 balls. Roll the balls into slender \"snakes.\" Cut each \"snake\" into 4 straws. Bake the straws for about 8 minutes, or until golden brown."
    ], 
    "prep_time": "45 mins", 
    "recipe_name": "Simple Cheese Straws"
}