{
    "ingredients": [
        {
            "amount": "1 head", 
            "ingredient": "cauliflower, quartered"
        }, 
        {
            "amount": "1 tablespoon", 
            "ingredient": "butter"
        }, 
        {
            "amount": "1 cup", 
            "ingredient": "minced onion"
        }, 
        {
            "amount": "3 tablespoons", 
            "ingredient": "butter"
        }, 
        {
            "amount": "1/2 cup", 
            "ingredient": "Italian-seasoned dry bread crumbs"
        }
    ], 
    "prep_steps": [
        "Place the cauliflower into a large pot and cover with water. Bring to a boil over high heat, then reduce heat to medium-low, cover, and simmer until fork-tender, 5 to 7 minutes. Drain and allow to steam dry for a minute or two; chop into bite-size pieces.", 
        "Melt 1 tablespoon butter in a skillet over medium-high heat. Cook the onion in the butter until the onion is browned, about 5 minutes. Add 3 tablespoons of butter and cook until the butter is melted. Stir in the bread crumbs and cook until the mixture bubbles. Mix the cauliflower into the skillet and cook until the cauliflower is warm, 3 to 5 minutes. Season with salt and black pepper; serve hot."
    ], 
    "prep_time": "20 mins", 
    "recipe_name": "Cauliflower Side Dish"
}