{
    "ingredients": [
        {
            "amount": "1/2 cup", 
            "ingredient": "unsalted butter"
        }, 
        {
            "amount": "1 cup", 
            "ingredient": "rolled oats"
        }, 
        {
            "amount": "3 tablespoons", 
            "ingredient": "self-rising flour"
        }, 
        {
            "amount": "1/2 cup", 
            "ingredient": "white sugar"
        }, 
        {
            "amount": "1", 
            "ingredient": "egg, beaten"
        }, 
        {
            "amount": "1 teaspoon", 
            "ingredient": "vanilla extract"
        }
    ], 
    "prep_steps": [
        "Preheat oven to 350 degrees F (180 degrees C). Line cookie sheets with parchment paper.", 
        "Melt butter over low heat. Pour into bowl and stir in the rest of the ingredients. Mix well.", 
        "Drop on one inch apart by the teaspoonful onto parchment paper. Bake 10 to 12 minutes until light golden brown. Let cool on rack."
    ], 
    "recipe_name": "Oatmeal Crispies II"
}