{
    "ingredients": [
        {
            "amount": "2 tablespoons", 
            "ingredient": "butter, softened"
        }, 
        {
            "amount": "1/2 cup", 
            "ingredient": "unsweetened cocoa powder"
        }, 
        {
            "amount": "3 cups", 
            "ingredient": "confectioners' sugar"
        }, 
        {
            "amount": "1 teaspoon", 
            "ingredient": "vanilla extract"
        }, 
        {
            "amount": "3/4 cup", 
            "ingredient": "dry milk powder"
        }, 
        {
            "amount": "1/2 cup", 
            "ingredient": "white corn syrup"
        }
    ], 
    "prep_steps": [
        "Mix all ingredients together. Knead like you would for bread. Roll into rope shapes and cut into desired lengths."
    ], 
    "recipe_name": "Easy Tootsie Rolls"
}