{
    "ingredients": [
        {
            "amount": "1 quart", 
            "ingredient": "peppermint ice cream"
        }, 
        {
            "amount": "1 cup", 
            "ingredient": "cold milk"
        }, 
        {
            "amount": "2 liters", 
            "ingredient": "ginger ale, chilled"
        }
    ], 
    "prep_steps": [
        "Place ice cream in a punch bowl, and allow to soften slightly. Blend in milk and ginger ale. Stir until frothy. Serve at once, or keep chilled until ready to serve."
    ], 
    "prep_time": "5 mins", 
    "recipe_name": "Peppermint Punch"
}