{
    "ingredients": [
        {
            "amount": "1 cup", 
            "ingredient": "water"
        }, 
        {
            "amount": "3", 
            "ingredient": "fresh strawberries, sliced"
        }, 
        {
            "amount": "1 cup", 
            "ingredient": "white sugar"
        }, 
        {
            "amount": "1/2 cup", 
            "ingredient": "brown sugar"
        }, 
        {
            "amount": "1 teaspoon", 
            "ingredient": "honey"
        }, 
        {
            "amount": "7 cups", 
            "ingredient": "water"
        }, 
        {
            "amount": "1 3/4 cups", 
            "ingredient": "fresh lemon juice"
        }, 
        {
            "amount": "2 slices", 
            "ingredient": "orange"
        }
    ], 
    "prep_steps": [
        "In a saucepan, combine 1 cup water, strawberries, white sugar, brown sugar, and honey. Bring to a boil, and simmer 10 minutes, stirring occasionally. Cool to room temperature, cover, and chill.", 
        "In a large pitcher, mix together water, lemon juice, and orange slices. Stir in cooled syrup; chill. Serve in a tall glass over ice."
    ], 
    "prep_time": "2\u00bd hrs", 
    "recipe_name": "Rico's Passionate Pink Honey Lemonade"
}