{
    "ingredients": [
        {
            "amount": "1 (8 ounce) package", 
            "ingredient": "cream cheese, softened"
        }, 
        {
            "amount": "1 (6 ounce) can", 
            "ingredient": "crab meat, drained"
        }, 
        {
            "amount": "1 (12 ounce) jar", 
            "ingredient": "cocktail sauce"
        }, 
        {
            "amount": "1", 
            "ingredient": "lemon, juiced"
        }
    ], 
    "prep_steps": [
        "Place cream cheese on large plate. Cover with crabmeat, squeeze juice of one lemon over the crabmeat. Pour cocktail sauce over top of the entire concoction."
    ], 
    "prep_time": "5 mins", 
    "recipe_name": "Crab Spread I"
}