{
    "ingredients": [
        {
            "amount": "2 cups", 
            "ingredient": "beef broth"
        }, 
        {
            "amount": "1/2 cup", 
            "ingredient": "all-purpose flour"
        }, 
        {
            "amount": "3/4 pound", 
            "ingredient": "mushrooms, diced"
        }, 
        {
            "amount": "1/2 cup", 
            "ingredient": "chopped green onions"
        }, 
        {
            "amount": "1/2 cup", 
            "ingredient": "butter"
        }
    ], 
    "prep_steps": [
        "In a medium saucepan over medium heat, combine broth, flour, mushrooms, green onions and butter. Cook, stirring constantly, until golden brown and thickened."
    ], 
    "prep_time": "20 mins", 
    "recipe_name": "Easiest Mushroom Sauce"
}