{
    "ingredients": [
        {
            "amount": "1 pound", 
            "ingredient": "beef frankfurters, sliced"
        }, 
        {
            "amount": "1 (15 ounce) can", 
            "ingredient": "pork and beans"
        }, 
        {
            "amount": "1 (15 ounce) can", 
            "ingredient": "butter beans"
        }, 
        {
            "amount": "1 (16 ounce) can", 
            "ingredient": "chili beans, drained"
        }, 
        {
            "amount": "1 small", 
            "ingredient": "onion, chopped"
        }, 
        {
            "amount": "1/2 cup", 
            "ingredient": "brown sugar"
        }, 
        {
            "amount": "1/4 teaspoon", 
            "ingredient": "dried oregano"
        }, 
        {
            "amount": "2 tablespoons", 
            "ingredient": "distilled white vinegar"
        }
    ], 
    "prep_steps": [
        "Preheat oven to 350 degrees F (175 degrees C).", 
        "In a large bowl combine the frankfurters, pork and beans, butter beans, chili beans, onion, sugar, oregano and vinegar. Mix all together and pour mixture into a lightly greased 9x13-inch baking dish.", 
        "Bake uncovered at 350 degrees F (175 degrees C) for 1 hour, or until cooked through and bubbly."
    ], 
    "prep_time": "40 mins", 
    "recipe_name": "Three Bean Casserole"
}