{
    "ingredients": [
        {
            "amount": "1 (8 ounce) package", 
            "ingredient": "cream cheese, softened"
        }, 
        {
            "amount": "1/4 pound", 
            "ingredient": "crabmeat"
        }, 
        {
            "amount": "1 tablespoon", 
            "ingredient": "minced onion"
        }, 
        {
            "amount": "1/4 cup", 
            "ingredient": "mayonnaise"
        }, 
        {
            "amount": "2 tablespoons", 
            "ingredient": "cocktail sauce"
        }, 
        {
            "amount": "1/2 teaspoon", 
            "ingredient": "prepared horseradish"
        }, 
        {
            "amount": "1/2 cup", 
            "ingredient": "sliced almonds"
        }
    ], 
    "prep_steps": [
        "Preheat oven to 350 degrees F (175 degrees C).", 
        "In a mixing bowl, combine the softened cream cheese, crabmeat, onion, mayonnaise, cocktail sauce and horseradish. Mix thoroughly.", 
        "Place mixture in a small casserole dish. Top mixture with sliced almonds. Bake in a preheated oven for 30 minutes or until bubbly"
    ], 
    "prep_time": "40 mins", 
    "recipe_name": "Great Hot Crab Dip"
}