{
    "ingredients": [
        {
            "amount": "1/2 cup", 
            "ingredient": "shortening"
        }, 
        {
            "amount": "1/2 cup", 
            "ingredient": "butter, softened"
        }, 
        {
            "amount": "1 cup", 
            "ingredient": "white sugar"
        }, 
        {
            "amount": "2", 
            "ingredient": "eggs"
        }, 
        {
            "amount": "1 cup", 
            "ingredient": "mashed bananas"
        }, 
        {
            "amount": "1/2 cup", 
            "ingredient": "evaporated milk"
        }, 
        {
            "amount": "1 teaspoon", 
            "ingredient": "vanilla extract"
        }, 
        {
            "amount": "1 teaspoon", 
            "ingredient": "distilled white vinegar"
        }, 
        {
            "amount": "3 cups", 
            "ingredient": "all-purpose flour"
        }, 
        {
            "amount": "1 1/2 teaspoons", 
            "ingredient": "baking soda"
        }, 
        {
            "amount": "1/2 teaspoon", 
            "ingredient": "salt"
        }, 
        {
            "amount": "1 cup", 
            "ingredient": "chopped walnuts"
        }, 
        {
            "amount": "2 1/2 cups", 
            "ingredient": "confectioners' sugar"
        }, 
        {
            "amount": "2 tablespoons", 
            "ingredient": "butter, softened"
        }, 
        {
            "amount": "1/4 cup", 
            "ingredient": "evaporated milk"
        }, 
        {
            "amount": "1/4 teaspoon", 
            "ingredient": "vanilla extract"
        }
    ], 
    "prep_steps": [
        "Mix together shortening, 1/2 cup butter, white sugar, eggs, bananas, vanilla, 1/2 cup evaporated milk and vinegar till light and creamy.", 
        "In a separate bowl mix together flour, baking soda, and salt. Add to other mixture. Add nuts.", 
        "Chill one hour in refrigerator.", 
        "Drop by teaspoonful on greased cookie sheet about two inches apart. Bake at 375 degrees F (190 degrees C) for about 15 minutes. Let cool then frost them.", 
        "To Make Frosting: Mix 2 1/2 cups confectioners' sugar with 2 tablespoons soft butter or margarine, 1/4 cup evaporated milk, and 1/4 tsp vanilla. Beat until soft. Spread on tops of cooled cookies."
    ], 
    "recipe_name": "Jumbo Banana Cookies"
}