{
    "ingredients": [
        {
            "amount": "2 1/2 cups", 
            "ingredient": "all-purpose flour"
        }, 
        {
            "amount": "2", 
            "ingredient": "eggs"
        }, 
        {
            "amount": "1 teaspoon", 
            "ingredient": "vanilla extract"
        }, 
        {
            "amount": "3/4 teaspoon", 
            "ingredient": "salt"
        }, 
        {
            "amount": "1 teaspoon", 
            "ingredient": "baking soda"
        }, 
        {
            "amount": "4 (1 ounce) squares", 
            "ingredient": "semisweet chocolate, chopped"
        }, 
        {
            "amount": "3/4 cup", 
            "ingredient": "chopped walnuts"
        }, 
        {
            "amount": "1 cup", 
            "ingredient": "white sugar"
        }, 
        {
            "amount": "2 tablespoons", 
            "ingredient": "honey"
        }, 
        {
            "amount": "1 1/4 cups", 
            "ingredient": "butter"
        }
    ], 
    "prep_steps": [
        "Preheat oven to 375 degrees F (190 degrees C).", 
        "Cream the butter with the sugar and the honey. Stir in the eggs and vanilla. Add the flour and baking soda. Stir in the chopped candy bars and chopped walnuts.", 
        "Place teaspoon sized cookies about 2 inches apart on an ungreased baking sheet. Bake at 375 degrees F (190 degrees C) for 10 minutes or until golden brown."
    ], 
    "recipe_name": "Chocolate Chip Cookies Without Chocolate Chips"
}