{
    "ingredients": [
        {
            "amount": "2 teaspoons", 
            "ingredient": "dried minced onion"
        }, 
        {
            "amount": "1 teaspoon", 
            "ingredient": "salt"
        }, 
        {
            "amount": "1 teaspoon", 
            "ingredient": "chili powder"
        }, 
        {
            "amount": "1/2 teaspoon", 
            "ingredient": "cornstarch"
        }, 
        {
            "amount": "1/2 teaspoon", 
            "ingredient": "ground cumin"
        }, 
        {
            "amount": "1/2 teaspoon", 
            "ingredient": "red pepper flakes"
        }, 
        {
            "amount": "1/4 teaspoon", 
            "ingredient": "cayenne pepper"
        }, 
        {
            "amount": "1/4 teaspoon", 
            "ingredient": "dried minced garlic"
        }, 
        {
            "amount": "1/4 teaspoon", 
            "ingredient": "dried oregano"
        }, 
        {
            "amount": "1 pound", 
            "ingredient": "ground beef"
        }, 
        {
            "amount": "1/2 cup", 
            "ingredient": "water"
        }
    ], 
    "prep_steps": [
        "Mix minced onion, salt, chili powder, cornstarch, cumin, red pepper flakes, cayenne pepper, dried minced garlic, and oregano in a bowl.", 
        "Heat a large skillet over medium-high heat. Crumble ground beef into the hot skillet. Cook and stir until the beef is completely browned, 7 to 10 minutes. Drain and discard any excess grease.", 
        "Return ground beef to heat. Pour seasoning mixture and water over the beef; stir to combine. Bring to a simmer and cook until the moisture absorbs into the meat, about 5 minutes."
    ], 
    "prep_time": "25 mins", 
    "recipe_name": "Ground Beef with Homemade Taco Seasoning Mix"
}