{
    "ingredients": [
        {
            "amount": "2 tablespoons", 
            "ingredient": "vegetable oil"
        }, 
        {
            "amount": "1 pound", 
            "ingredient": "beef sirloin, cut into 2-inch strips"
        }, 
        {
            "amount": "1 1/2 cups", 
            "ingredient": "fresh broccoli florets"
        }, 
        {
            "amount": "1", 
            "ingredient": "red bell pepper, cut into matchsticks"
        }, 
        {
            "amount": "2", 
            "ingredient": "carrots, thinly sliced"
        }, 
        {
            "amount": "1", 
            "ingredient": "green onion, chopped"
        }, 
        {
            "amount": "1 teaspoon", 
            "ingredient": "minced garlic"
        }, 
        {
            "amount": "2 tablespoons", 
            "ingredient": "soy sauce"
        }, 
        {
            "amount": "2 tablespoons", 
            "ingredient": "sesame seeds, toasted"
        }
    ], 
    "prep_steps": [
        "Heat vegetable oil in a large wok or skillet over medium-high heat; cook and stir beef until browned, 3 to 4 minutes. Move beef to the side of the wok and add broccoli, bell pepper, carrots, green onion, and garlic to the center of the wok. Cook and stir vegetables for 2 minutes. Stir beef into vegetables and season with soy sauce and sesame seeds. Continue to cook and stir until vegetables are tender, about 2 more minutes."
    ], 
    "prep_time": "25 mins", 
    "recipe_name": "Quick Beef Stir-Fry"
}