{
    "ingredients": [
        {
            "amount": "1/2 cup", 
            "ingredient": "butter"
        }, 
        {
            "amount": "1 cup", 
            "ingredient": "dark brown sugar"
        }, 
        {
            "amount": "1/4 cup", 
            "ingredient": "half-and-half cream"
        }, 
        {
            "amount": "1 pinch", 
            "ingredient": "salt"
        }, 
        {
            "amount": "1 teaspoon", 
            "ingredient": "vanilla extract"
        }, 
        {
            "amount": "2 cups", 
            "ingredient": "confectioners' sugar"
        }, 
        {
            "amount": "1/3 cup", 
            "ingredient": "chopped pecans"
        }
    ], 
    "prep_steps": [
        "Melt the butter in a saucepan over medium heat. Stir in brown sugar and bring the mixture to a boil. Reduce the heat and continue to simmer for 2 minutes, stirring constantly. Stir in half-and-half cream and salt and return to a boil, continuing to stir. Remove the caramel from the heat and allow to cool to lukewarm, then add vanilla.", 
        "Gradually beat in confectioners' sugar with an electric mixer until smooth, being careful not to over-beat. If the frosting becomes too thick, hot water can be added to thin it out. Spread over a cooled cake and sprinkle with pecans. Allow the frosting to set before serving, about 15 minutes."
    ], 
    "prep_time": "40 mins", 
    "recipe_name": "Scrumptious Penuche Frosting"
}