{
    "ingredients": [
        {
            "amount": "1 fluid ounce", 
            "ingredient": "lemon juice"
        }, 
        {
            "amount": "2 fluid ounces", 
            "ingredient": "vodka"
        }, 
        {
            "amount": "4 fluid ounces", 
            "ingredient": "cranberry juice"
        }, 
        {
            "amount": "3 1/2 fluid ounces", 
            "ingredient": "ginger ale"
        }
    ], 
    "prep_steps": [
        "In a tall glass over ice combine lemon juice, vodka, cranberry juice and ginger ale. Stir and serve."
    ], 
    "prep_time": "5 mins", 
    "recipe_name": "Cedarwood"
}