{
    "ingredients": [
        {
            "amount": "1 head", 
            "ingredient": "cauliflower, broken into florets"
        }, 
        {
            "amount": "1", 
            "ingredient": "parsnip, peeled and sliced"
        }, 
        {
            "amount": "1/4 cup", 
            "ingredient": "milk"
        }, 
        {
            "amount": "2 tablespoons", 
            "ingredient": "butter"
        }
    ], 
    "prep_steps": [
        "Place a steamer insert into a saucepan, and fill with water to just below the bottom of the steamer. Cover, and bring the water to a boil over high heat. Add cauliflower and parsnips, recover, and steam until soft, about 15 minutes.", 
        "Drain the vegetables. Mash using a hand masher or electric mixer. Gradually add milk and butter and mash to desired consistency. Season to taste with salt and pepper; serve warm."
    ], 
    "prep_time": "25 mins", 
    "recipe_name": "Cauliflower With a Kick"
}