{
    "ingredients": [
        {
            "amount": "1/2 cup", 
            "ingredient": "white sugar"
        }, 
        {
            "amount": "1/4 cup", 
            "ingredient": "cornstarch"
        }, 
        {
            "amount": "1/4 teaspoon", 
            "ingredient": "salt"
        }, 
        {
            "amount": "2", 
            "ingredient": "egg yolks"
        }, 
        {
            "amount": "3/4 cup", 
            "ingredient": "water"
        }, 
        {
            "amount": "1/3 cup", 
            "ingredient": "lemon juice"
        }, 
        {
            "amount": "2 tablespoons", 
            "ingredient": "butter"
        }
    ], 
    "prep_steps": [
        "In a large saucepan or double boiler combine sugar, cornstarch and salt. Mix well. Beat the egg yolks and water together, then whisk into sugar mixture. Cook over medium heat, stirring constantly, until mixture is thickened. Remove from heat and stir in lemon juice and butter. Cover with plastic wrap until completely cooled."
    ], 
    "prep_time": "40 mins", 
    "recipe_name": "Lemon Custard Filling"
}