{
    "ingredients": [
        {
            "amount": "1 pound", 
            "ingredient": "dry lentils"
        }, 
        {
            "amount": "1", 
            "ingredient": "small bay leaf"
        }, 
        {
            "amount": "2 cups", 
            "ingredient": "water"
        }, 
        {
            "amount": "2 (14.5 ounce) cans", 
            "ingredient": "chicken broth"
        }, 
        {
            "amount": "2 teaspoons", 
            "ingredient": "salt"
        }, 
        {
            "amount": "1 teaspoon", 
            "ingredient": "dry mustard"
        }, 
        {
            "amount": "1/4 teaspoon", 
            "ingredient": "ground ginger"
        }, 
        {
            "amount": "1 tablespoon", 
            "ingredient": "soy sauce"
        }, 
        {
            "amount": "1/2 cup", 
            "ingredient": "chopped onion"
        }, 
        {
            "amount": "1 cup", 
            "ingredient": "water"
        }, 
        {
            "amount": "1/2 cup", 
            "ingredient": "honey"
        }
    ], 
    "prep_steps": [
        "Combine the lentils, bay leaf, 2 cups water, chicken broth, and salt together in a dutch oven or oven-proof saucepan; bring the mixture to a boil. Place a cover on the pan, reduce heat to medium-low, and allow the lentils to simmer for 30 minutes. Remove and discard the bay leaf.", 
        "Preheat an oven to 350 degrees F (175 degrees C).", 
        "Stir the dry mustard, ginger, soy sauce, onion, and 1 cup water together in a bowl; stir the mixture into the lentils. Drizzle the honey over the mixture. Return the cover to the pan.", 
        "Bake in the preheated oven until the lentils are tender, about 1 hour."
    ], 
    "prep_time": "1\u00be hrs", 
    "recipe_name": "Honey Baked Lentils"
}