{
    "ingredients": [
        {
            "amount": "1/4 cup", 
            "ingredient": "butter"
        }, 
        {
            "amount": "1 (10 ounce) package", 
            "ingredient": "frozen chopped spinach, partially thawed"
        }, 
        {
            "amount": "1 (14 ounce) can", 
            "ingredient": "artichoke hearts, drained and chopped"
        }, 
        {
            "amount": "2 (8 ounce) packages", 
            "ingredient": "cream cheese, softened"
        }, 
        {
            "amount": "2  (16 ounce) containers", 
            "ingredient": "sour cream"
        }, 
        {
            "amount": "1 cup", 
            "ingredient": "grated Parmesan cheese"
        }
    ], 
    "prep_steps": [
        "Melt butter in a large saucepan over medium heat. Stir in the spinach and artichoke hearts. Cook until tender, about 5 minutes.", 
        "Mix cream cheese and sour cream into the spinach mixture. Stir in Parmesan cheese and garlic salt. Cook, stirring occasionally, until thickened, 10 to 15 minutes. Serve warm."
    ], 
    "prep_time": "35 mins", 
    "recipe_name": "Artichoke Spinach Dip"
}