{
    "ingredients": [
        {
            "amount": "2 tablespoons", 
            "ingredient": "ghee (clarified butter)"
        }, 
        {
            "amount": "1", 
            "ingredient": "onion, finely chopped"
        }, 
        {
            "amount": "4 cloves", 
            "ingredient": "garlic, minced"
        }, 
        {
            "amount": "1 tablespoon", 
            "ingredient": "ground cumin"
        }, 
        {
            "amount": "1 teaspoon", 
            "ingredient": "salt"
        }, 
        {
            "amount": "1 teaspoon", 
            "ingredient": "ground ginger"
        }, 
        {
            "amount": "1 teaspoon", 
            "ingredient": "cayenne pepper"
        }, 
        {
            "amount": "1/2 teaspoon", 
            "ingredient": "ground cinnamon"
        }, 
        {
            "amount": "1/4 teaspoon", 
            "ingredient": "ground turmeric"
        }, 
        {
            "amount": "1 (14 ounce) can", 
            "ingredient": "tomato sauce"
        }, 
        {
            "amount": "1 cup", 
            "ingredient": "heavy whipping cream"
        }, 
        {
            "amount": "2 teaspoons", 
            "ingredient": "paprika"
        }, 
        {
            "amount": "1 tablespoon", 
            "ingredient": "white sugar"
        }, 
        {
            "amount": "1 tablespoon", 
            "ingredient": "vegetable oil"
        }, 
        {
            "amount": "4", 
            "ingredient": "skinless, boneless chicken breast halves, cut into bite-size pieces"
        }, 
        {
            "amount": "1/2 teaspoon", 
            "ingredient": "curry powder"
        }, 
        {
            "amount": "1/2 teaspoon", 
            "ingredient": "salt, or to taste"
        }, 
        {
            "amount": "1 teaspoon", 
            "ingredient": "white sugar, or to taste"
        }
    ], 
    "prep_steps": [
        "Heat ghee in a large skillet over medium heat and cook and stir onion until translucent, about 5 minutes. Stir in garlic; cook and stir just until fragrant, about 1 minute. Stir cumin, 1 teaspoon salt, ginger, cayenne pepper, cinnamon, and turmeric into the onion mixture; fry until fragrant, about 2 minutes.", 
        "Stir tomato sauce into the onion and spice mixture, bring to a boil, and reduce heat to low. Simmer sauce for 10 minutes, then mix in cream, paprika, and 1 tablespoon sugar. Bring sauce back to a simmer and cook, stirring often, until sauce is thickened, 10 to 15 minutes.", 
        "Heat vegetable oil in a separate skillet over medium heat. Stir chicken into the hot oil, sprinkle with curry powder, and sear chicken until lightly browned but still pink inside, about 3 minutes; stir often. Transfer chicken and any pan juices into the sauce. Simmer chicken in sauce until no longer pink, about 30 minutes; adjust salt and sugar to taste."
    ], 
    "prep_time": "1\u00bd hrs", 
    "recipe_name": "Curry Stand Chicken Tikka Masala Sauce"
}