{
    "ingredients": [
        {
            "amount": "1 (15 ounce) package", 
            "ingredient": "pastry for a 9 inch double crust pie"
        }, 
        {
            "amount": "3/4 cup", 
            "ingredient": "white sugar"
        }, 
        {
            "amount": "1/3 cup", 
            "ingredient": "all-purpose flour"
        }, 
        {
            "amount": "3/4 teaspoon", 
            "ingredient": "ground cinnamon"
        }, 
        {
            "amount": "4 cups", 
            "ingredient": "blackberries"
        }, 
        {
            "amount": "3/4 cup", 
            "ingredient": "semisweet chocolate chips"
        }, 
        {
            "amount": "1/2 tablespoon", 
            "ingredient": "lemon juice"
        }
    ], 
    "prep_steps": [
        "Preheat oven to 425 degrees F (220 degrees C). Place one of the pie crusts into the bottom of a 9 inch pie plate.", 
        "In a bowl, mix the sugar, flour, and cinnamon. Gently stir in the blackberries and chocolate chips. Sprinkle with lemon juice. Transfer to the pie crust in the pie plate. Place remaining pie crust over the top, and secure to the bottom crust by pressing with a fork, or fluting with your fingers.", 
        "Bake 35 minutes in the preheated oven, until top is golden brown. Cool slightly before slicing."
    ], 
    "prep_time": "1 hr", 
    "recipe_name": "Blackberry-Chocolate Chip Pie"
}