{
    "ingredients": [
        {
            "amount": "3 tablespoons", 
            "ingredient": "vegetable oil"
        }, 
        {
            "amount": "1 1/2 cups", 
            "ingredient": "cider vinegar"
        }, 
        {
            "amount": "1 tablespoon", 
            "ingredient": "salt"
        }, 
        {
            "amount": "1/4 teaspoon", 
            "ingredient": "ground black pepper"
        }, 
        {
            "amount": "2 teaspoons", 
            "ingredient": "poultry seasoning"
        }, 
        {
            "amount": "2 pounds", 
            "ingredient": "cut up chicken pieces"
        }
    ], 
    "prep_steps": [
        "Heat grill to medium heat.", 
        "In a small skillet combine the oil, vinegar, salt and pepper and put over low heat. Add the poultry seasoning while stirring constantly; when sauce mixes well and starts to bubble, it is done.", 
        "Place chicken on hot grill and brush with sauce. Grill for 45 to 60 minutes, turning every 5 to 10 minutes, and brush chicken with sauce after each turning. Grill until chicken is done and juices run clear. (Note: Be sure to keep an eye on the chicken as it cooks, as it tends to have flair ups due to the oil and chicken drippings!)"
    ], 
    "recipe_name": "BBQ Chicken"
}