{
    "ingredients": [
        {
            "amount": "1 cup", 
            "ingredient": "self-rising flour"
        }, 
        {
            "amount": "1/2 cup", 
            "ingredient": "butter, softened"
        }, 
        {
            "amount": "1/2 cup", 
            "ingredient": "sour cream"
        }
    ], 
    "prep_steps": [
        "Preheat an oven to 350 degrees F (175 degrees C).", 
        "Stir the flour, butter, and sour cream together in a bowl until blended. Scoop the batter into ungreased cupcake tins.", 
        "Bake in the preheated oven until puffed and golden brown, 20 to 30 minutes."
    ], 
    "prep_time": "35 mins", 
    "recipe_name": "Super Simple Biscuits"
}