{
    "ingredients": [
        {
            "amount": "2 pounds", 
            "ingredient": "dried pinto beans, washed"
        }, 
        {
            "amount": "1 pound", 
            "ingredient": "bacon, cut into small pieces"
        }, 
        {
            "amount": "1 cup", 
            "ingredient": "diced onion"
        }, 
        {
            "amount": "6", 
            "ingredient": "jalapeno peppers, seeded and diced"
        }, 
        {
            "amount": "3", 
            "ingredient": "carrots, minced"
        }, 
        {
            "amount": "1 gallon", 
            "ingredient": "chicken stock"
        }, 
        {
            "amount": "1 (15 ounce) can", 
            "ingredient": "tomato sauce"
        }, 
        {
            "amount": "1 teaspoon", 
            "ingredient": "garlic powder"
        }, 
        {
            "amount": "1 bunch", 
            "ingredient": "fresh cilantro, chopped"
        }
    ], 
    "prep_steps": [
        "Place the pinto beans into a large container and cover with several inches of cool water; let stand 4 hours. Drain and rinse.", 
        "Place the bacon in a large stock pot and cook and stir over medium-high heat until evenly browned, about 10 minutes. Add the onion, jalapeno peppers, and carrots; cook and stir until the carrots are soft. Pour in the chicken stock and bring to a boil. Stir in the drained beans, tomato sauce, garlic powder, cilantro, salt, and pepper; simmer until the beans are tender, 3 to 4 hours."
    ], 
    "prep_time": "7 hrs", 
    "recipe_name": "Spicy Bean with Bacon Soup"
}