{
    "ingredients": [
        {
            "amount": "1/2 cup", 
            "ingredient": "butter flavored shortening"
        }, 
        {
            "amount": "1 tablespoon", 
            "ingredient": "water"
        }, 
        {
            "amount": "1/2 cup", 
            "ingredient": "white sugar"
        }, 
        {
            "amount": "1 cup", 
            "ingredient": "packed brown sugar"
        }, 
        {
            "amount": "1 1/2 teaspoons", 
            "ingredient": "vanilla extract"
        }, 
        {
            "amount": "2", 
            "ingredient": "egg whites"
        }, 
        {
            "amount": "1 3/4 cups", 
            "ingredient": "unbleached all-purpose flour"
        }, 
        {
            "amount": "1 teaspoon", 
            "ingredient": "baking soda"
        }, 
        {
            "amount": "1/2 teaspoon", 
            "ingredient": "salt"
        }, 
        {
            "amount": "1/2 cup", 
            "ingredient": "rolled oats"
        }, 
        {
            "amount": "1/2 cup", 
            "ingredient": "miniature semisweet chocolate chips"
        }
    ], 
    "prep_steps": [
        "Preheat oven to 350 degrees F (175 degrees C). Grease cookie sheets.", 
        "In a large bowl, cream together the butter flavored shortening, water, white sugar and brown sugar until smooth. Beat in the egg whites and vanilla. Combine the flour, baking soda and salt; stir into the creamed mixture. Blend in the oats and mini chocolate chips. Drop dough by half-teaspoonfuls onto the prepared cookie sheets.", 
        "Bake for 7 to 9 minutes in the preheated oven, until the edges begin to brown. Remove from baking sheets to cool on wire racks. Cool at least 10 minutes before eating."
    ], 
    "prep_time": "24 mins", 
    "recipe_name": "Oatmeal Chocolate Chip Cookies IV "
}