{
    "ingredients": [
        {
            "amount": "2 1/2 cups", 
            "ingredient": "shredded cooked chicken meat"
        }, 
        {
            "amount": "1/2 cup", 
            "ingredient": "cracker crumbs"
        }, 
        {
            "amount": "1/4 cup", 
            "ingredient": "minced onion"
        }, 
        {
            "amount": "1/4 cup", 
            "ingredient": "mayonnaise"
        }, 
        {
            "amount": "1/4 cup", 
            "ingredient": "tartar sauce"
        }, 
        {
            "amount": "1 teaspoon", 
            "ingredient": "dried parsley"
        }, 
        {
            "amount": "1/4 teaspoon", 
            "ingredient": "salt"
        }, 
        {
            "amount": "1/4 teaspoon", 
            "ingredient": "black pepper"
        }, 
        {
            "amount": "2 dashes", 
            "ingredient": "hot sauce"
        }, 
        {
            "amount": "1 cup", 
            "ingredient": "seasoned bread crumbs"
        }, 
        {
            "amount": "1/4 cup", 
            "ingredient": "olive oil for frying"
        }
    ], 
    "prep_steps": [
        "In a bowl, mix the chicken, cracker crumbs, onion, mayonnaise, tartar sauce, parsley, salt, pepper, and hot sauce. Form the mixture into 6 cakes. Place the bread crumbs in a bowl. Dip the cakes into the bread crumbs to evenly coat.", 
        "Heat the olive oil in a skillet over medium heat, and cook the cakes until evenly browned, about 5 minutes on each side. Drain on paper towels before serving."
    ], 
    "prep_time": "25 mins", 
    "recipe_name": "Crabless Chicken Cakes"
}