{
    "ingredients": [
        {
            "amount": "1/2 cup", 
            "ingredient": "all-purpose flour"
        }, 
        {
            "amount": "1/2 teaspoon", 
            "ingredient": "garlic powder"
        }, 
        {
            "amount": "3/4 teaspoon", 
            "ingredient": "lemon pepper"
        }, 
        {
            "amount": "1/4 teaspoon", 
            "ingredient": "celery salt"
        }, 
        {
            "amount": "1/2 teaspoon", 
            "ingredient": "onion powder"
        }, 
        {
            "amount": "1/4 teaspoon", 
            "ingredient": "seasoning salt"
        }, 
        {
            "amount": "4", 
            "ingredient": "potatoes, unpeeled and cut into 1/2 inch thick wedges"
        }, 
        {
            "amount": "1", 
            "ingredient": "egg, beaten"
        }
    ], 
    "prep_steps": [
        "In a shallow dish mix flour, garlic powder, lemon pepper, celery salt, onion powder and seasoning salt.", 
        "Dip potato wedges in egg, then in spice mixture.", 
        "Heat deep fryer to 375 degrees F (190 degrees C). Place potatoes in hot oil, and fry until golden brown, about 5 to 7 minutes. Cook in batches to maintain oil temperature. Drain briefly on paper towels. Serve hot."
    ], 
    "prep_time": "50 mins", 
    "recipe_name": "Jo Jo Potatoes"
}