{
    "ingredients": [
        {
            "amount": "1 cup", 
            "ingredient": "yogurt"
        }, 
        {
            "amount": "1 tablespoon", 
            "ingredient": "lemon juice"
        }, 
        {
            "amount": "2 teaspoons", 
            "ingredient": "ground cumin"
        }, 
        {
            "amount": "1 teaspoon", 
            "ingredient": "ground cinnamon"
        }, 
        {
            "amount": "2 teaspoons", 
            "ingredient": "cayenne pepper"
        }, 
        {
            "amount": "2 teaspoons", 
            "ingredient": "freshly ground black pepper"
        }, 
        {
            "amount": "1 tablespoon", 
            "ingredient": "minced fresh ginger"
        }, 
        {
            "amount": "4 teaspoons", 
            "ingredient": "salt, or to taste"
        }, 
        {
            "amount": "3", 
            "ingredient": "boneless skinless chicken breasts, cut into bite-size pieces"
        }, 
        {
            "amount": "4", 
            "ingredient": "long skewers"
        }, 
        {
            "amount": "1 tablespoon", 
            "ingredient": "butter"
        }, 
        {
            "amount": "1 clove", 
            "ingredient": "garlic, minced"
        }, 
        {
            "amount": "1", 
            "ingredient": "jalapeno pepper, finely chopped"
        }, 
        {
            "amount": "2 teaspoons", 
            "ingredient": "ground cumin"
        }, 
        {
            "amount": "2 teaspoons", 
            "ingredient": "paprika"
        }, 
        {
            "amount": "3 teaspoons", 
            "ingredient": "salt, or to taste"
        }, 
        {
            "amount": "1 (8 ounce) can", 
            "ingredient": "tomato sauce"
        }, 
        {
            "amount": "1 cup", 
            "ingredient": "heavy cream"
        }, 
        {
            "amount": "1/4 cup", 
            "ingredient": "chopped fresh cilantro"
        }
    ], 
    "prep_steps": [
        "In a large bowl, combine yogurt, lemon juice, 2 teaspoons cumin, cinnamon, cayenne, black pepper, ginger, and 4 teaspoons salt. Stir in chicken, cover, and refrigerate for 1 hour.", 
        "Preheat a grill for high heat.", 
        "Lightly oil the grill grate. Thread chicken onto skewers, and discard marinade. Grill until juices run clear, about 5 minutes on each side.", 
        "Melt butter in a large heavy skillet over medium heat. Saute garlic and jalapeno for 1 minute. Season with 2 teaspoons cumin, paprika, and 3 teaspoons salt. Stir in tomato sauce and cream. Simmer on low heat until sauce thickens, about 20 minutes. Add grilled chicken, and simmer for 10 minutes. Transfer to a serving platter, and garnish with fresh cilantro."
    ], 
    "prep_time": "2\u00bd hrs", 
    "recipe_name": "Chicken Tikka Masala"
}