{
    "ingredients": [
        {
            "amount": "1 pound", 
            "ingredient": "lean ground beef"
        }, 
        {
            "amount": "4", 
            "ingredient": "jalapeno peppers, seeded and minced"
        }, 
        {
            "amount": "3 cloves", 
            "ingredient": "garlic, minced"
        }, 
        {
            "amount": "3 tablespoons", 
            "ingredient": "tomato paste"
        }, 
        {
            "amount": "1 teaspoon", 
            "ingredient": "cilantro"
        }, 
        {
            "amount": "4 tablespoons", 
            "ingredient": "Cajun seasoning"
        }
    ], 
    "prep_steps": [
        "In a medium bowl combine ground beef, jalapenos, garlic, tomato paste and cilantro. Form mixture into 6 patties.", 
        "Generously sprinkle both sides of patties with desired amount of Cajun seasoning", 
        "Grill 4 to 5 minutes each side."
    ], 
    "prep_time": "25 mins", 
    "recipe_name": "Jalapeno Hamburgers"
}