{
    "ingredients": [
        {
            "amount": "2 tablespoons", 
            "ingredient": "butter"
        }, 
        {
            "amount": "1 teaspoon", 
            "ingredient": "crushed garlic"
        }, 
        {
            "amount": "2 tablespoons", 
            "ingredient": "slivered almonds"
        }, 
        {
            "amount": "1 (8 ounce) can", 
            "ingredient": "sliced mushrooms, drained"
        }, 
        {
            "amount": "1 tablespoon", 
            "ingredient": "brandy"
        }, 
        {
            "amount": "1 teaspoon", 
            "ingredient": "dried tarragon"
        }, 
        {
            "amount": "1 (8 ounce) wedge", 
            "ingredient": "Brie cheese, coating removed"
        }
    ], 
    "prep_steps": [
        "Preheat oven to 350 degrees F (175 degrees C).", 
        "Melt the butter in a medium saucepan over medium heat. Mix in garlic and almonds, heating until almonds are lightly browned. Stir in mushrooms and cook until tender, about 5 minutes. Cover with brandy and sprinkle with tarragon.", 
        "Place Brie in a small baking dish. Pour the mushroom and brandy mixture over Brie. Bake in the preheated oven 20 minutes, or until bubbly."
    ], 
    "prep_time": "30 mins", 
    "recipe_name": "Baked Brie with Mushrooms and Almonds"
}