{
    "ingredients": [
        {
            "amount": "4", 
            "ingredient": "eggplant, peeled and cut into 1/2-inch slices"
        }, 
        {
            "amount": "1 tablespoon", 
            "ingredient": "salt, or as needed"
        }, 
        {
            "amount": "1 cup", 
            "ingredient": "extra-virgin olive oil, or as needed"
        }, 
        {
            "amount": "2", 
            "ingredient": "eggs"
        }, 
        {
            "amount": "1/3 cup", 
            "ingredient": "water"
        }, 
        {
            "amount": "3 tablespoons", 
            "ingredient": "all-purpose flour"
        }, 
        {
            "amount": "1/3 cup", 
            "ingredient": "seasoned bread crumbs"
        }, 
        {
            "amount": "1/2 cup", 
            "ingredient": "grated Parmesan cheese"
        }, 
        {
            "amount": "1 (32 ounce) jar", 
            "ingredient": "prepared marinara sauce"
        }, 
        {
            "amount": "1 (16 ounce) package", 
            "ingredient": "mozzarella cheese, sliced"
        }
    ], 
    "prep_steps": [
        "Place eggplant slices in a large bowl in layers, sprinkling each layer with salt. Let stand for 30 minutes to drain. Rinse and dry on paper towels.", 
        "Heat olive oil in a large skillet over medium heat. Whisk eggs with water and flour until smooth. Dip eggplant slices in batter and fry in the hot oil until golden brown, working in batches of 2 to 3 slices at a time.", 
        "Mix seasoned bread crumbs with Parmesan cheese in a bowl. Place 1/4 of the eggplant slices into a slow cooker and top with 1/4 of the crumbs, 1/4 of the marinara sauce, and 1/4 of the mozzarella cheese. Repeat layers three more times.", 
        "Cover and cook on Low until tender and flavors have blended, 4 to 5 hours."
    ], 
    "prep_time": "5 hrs", 
    "recipe_name": "Eggplant Parmesan For the Slow Cooker"
}