{
    "ingredients": [
        {
            "amount": "1 head", 
            "ingredient": "cauliflower, cut into florets"
        }, 
        {
            "amount": "1/2 cup", 
            "ingredient": "whipped cream cheese"
        }, 
        {
            "amount": "2 cloves", 
            "ingredient": "garlic, minced"
        }, 
        {
            "amount": "1 teaspoon", 
            "ingredient": "seasoned salt (such as LAWRY'S\u00ae), or to taste"
        }
    ], 
    "prep_steps": [
        "Bring a large pot of lightly salted water to a boil. Cook cauliflower in boiling water until tender, about 6 minutes; drain. Pat cauliflower dry with paper towel to remove as much moisture as possible.", 
        "Blend cauliflower, cream cheese, garlic, and seasoned salt in a food processor until mostly smooth."
    ], 
    "prep_time": "20 mins", 
    "recipe_name": "Low-Carb Mashed Cauliflower"
}