{
    "ingredients": [
        {
            "amount": "2 tablespoons", 
            "ingredient": "olive oil"
        }, 
        {
            "amount": "1/2", 
            "ingredient": "white onion, diced"
        }, 
        {
            "amount": "3 cloves", 
            "ingredient": "garlic, minced"
        }, 
        {
            "amount": "1 tablespoon", 
            "ingredient": "capers"
        }, 
        {
            "amount": "1 tablespoon", 
            "ingredient": "caper juice"
        }, 
        {
            "amount": "1 cup", 
            "ingredient": "cherry tomatoes, halved"
        }, 
        {
            "amount": "1/3 cup", 
            "ingredient": "pitted, sliced green olives (such as Castelvetrano)"
        }, 
        {
            "amount": "1", 
            "ingredient": "jalapeno pepper, seeded and chopped"
        }, 
        {
            "amount": "2 teaspoons", 
            "ingredient": "chopped fresh oregano"
        }, 
        {
            "amount": "2 teaspoons", 
            "ingredient": "olive oil"
        }, 
        {
            "amount": "2 (7 ounce)", 
            "ingredient": "red snapper fillets, cut in half"
        }, 
        {
            "amount": "1/2 teaspoon", 
            "ingredient": "cayenne pepper, or more to taste"
        }, 
        {
            "amount": "2", 
            "ingredient": "limes, juiced"
        }
    ], 
    "prep_steps": [
        "Preheat oven to 425 degrees F (220 degrees C).", 
        "Heat olive oil in a skillet over medium heat. Stir in onion; cook and stir until onions begin to turn translucent, 6 to 7 minutes.", 
        "Cook and stir in garlic until fragrant, about 30 seconds. Add capers and caper juice; stir to combine.", 
        "Stir in tomatoes, olives, jalapeno pepper, . Cook and stir until jalapeno pepper softens and tomatoes begin to collapse, about 3 minutes. Remove from heat; stir in oregano.", 
        "Drizzle 1 teaspoon olive oil into a small baking dish. Sprinkle in 1 tablespoon of the tomato-olive mixture. Top with 1 snapper fillet, salt, black pepper, and cayenne pepper. Top with more filling and juice from 1 lime. Repeat with remaining snapper fillet, seasoning, and lime juice in a second baking dish.", 
        "Bake in the preheated oven until fish is flaky and no longer translucent, 15 to 20 minutes."
    ], 
    "prep_time": "40 mins", 
    "recipe_name": "Veracruz-Style Red Snapper"
}