{
    "ingredients": [
        {
            "amount": "1 cup", 
            "ingredient": "packed brown sugar"
        }, 
        {
            "amount": "1", 
            "ingredient": "egg"
        }, 
        {
            "amount": "2", 
            "ingredient": "egg yolks"
        }, 
        {
            "amount": "1 tablespoon", 
            "ingredient": "all-purpose flour"
        }, 
        {
            "amount": "1 1/2 cups", 
            "ingredient": "milk"
        }, 
        {
            "amount": "6", 
            "ingredient": "bananas, peeled and sliced"
        }, 
        {
            "amount": "1 (16 ounce) package", 
            "ingredient": "vanilla wafer cookies"
        }, 
        {
            "amount": "2", 
            "ingredient": "egg whites"
        }, 
        {
            "amount": "3 1/2 tablespoons", 
            "ingredient": "white sugar"
        }
    ], 
    "prep_steps": [
        "Preheat the oven to 425 degrees F (220 degrees C).", 
        "Line the bottom of a 1 1/2 quart casserole dish with vanilla wafer cookies. Top with a layer of banana slices. Repeat layers until you reach the top of the dish or run out of bananas. Set aside.", 
        "In a large saucepan, stir together the brown sugar and flour so there are no lumps. Mix in the egg and egg yolks. Gradually stir in the milk while warming over low heat, stirring constantly until the mixture becomes thick enough to coat the back of a metal spoon. Remove from the heat and allow to cool for about 1 minute. Then, pour the hot pudding evenly over the layers of banana and cookie in the casserole dish.", 
        "In a separate clean bowl, whip the egg whites with an electric mixer until they can hold a soft peak. Gradually sprinkle in the sugar while continuing to whip until they can hold a firm peak. Use a spatula to spread the meringue over the top of the casserole.", 
        "Bake in the preheated oven until the meringue has browned, 5 to 10 minutes. Serve warm or at room temperature."
    ], 
    "prep_time": "35 mins", 
    "recipe_name": "Banana Pudding with Meringue"
}