{
    "ingredients": [
        {
            "amount": "2 cups", 
            "ingredient": "dry potato flakes"
        }, 
        {
            "amount": "6", 
            "ingredient": "hard taco shells"
        }, 
        {
            "amount": "2 tablespoons", 
            "ingredient": "butter"
        }, 
        {
            "amount": "1/2 cup", 
            "ingredient": "sour cream"
        }, 
        {
            "amount": "1/2 cup", 
            "ingredient": "shredded Cheddar cheese"
        }, 
        {
            "amount": "1/2 cup", 
            "ingredient": "French-fried onions"
        }
    ], 
    "prep_steps": [
        "Prepare the dry potato flakes according to package directions. Warm the taco shells according to package directions.", 
        "In a bowl, mix the prepared mashed potatoes, butter, sour cream, Cheddar cheese, and French-fried onions.", 
        "Fill the taco shells with the mashed potato mixture, and serve with taco sauce."
    ], 
    "prep_time": "25 mins", 
    "recipe_name": "Mashed Potato Tacos"
}