{
    "ingredients": [
        {
            "amount": "10", 
            "ingredient": "pork spareribs"
        }, 
        {
            "amount": "1/2 cup", 
            "ingredient": "soy sauce"
        }, 
        {
            "amount": "10 cloves", 
            "ingredient": "garlic, crushed"
        }, 
        {
            "amount": "1 tablespoon", 
            "ingredient": "dried rosemary"
        }, 
        {
            "amount": "1 tablespoon", 
            "ingredient": "dried oregano"
        }, 
        {
            "amount": "2", 
            "ingredient": "bay leaves"
        }, 
        {
            "amount": "1", 
            "ingredient": "lime, juiced"
        }, 
        {
            "amount": "10 sprigs", 
            "ingredient": "fresh parsley"
        }, 
        {
            "amount": "2", 
            "ingredient": "limes, cut into wedges"
        }
    ], 
    "prep_steps": [
        "Place the spareribs into a large pot, and fill with just enough water to cover. Add the soy sauce, garlic, rosemary, oregano, bay leaves, lime juice and 3/4 of the parsley. Bring to a boil, then simmer uncovered over medium heat until the water has completely evaporated, about 25 minutes.", 
        "When all of the water is gone, remove the bay leaves, and allow meat to brown, turning occasionally. Use a spatula to scrape up browned bits and softened garlic from the bottom of the pot, and toss them with the pork. The garlic will dissolve onto the meat. Remove the meat, and drain on paper towels. Season with black pepper and garnish with lime wedges and remaining parsley."
    ], 
    "prep_time": "1 hr", 
    "recipe_name": "Mom's Stovetop Pork Ribs"
}