{
    "ingredients": [
        {
            "amount": "2 tablespoons", 
            "ingredient": "vegetable oil"
        }, 
        {
            "amount": "1 cup", 
            "ingredient": "chopped onion"
        }, 
        {
            "amount": "3 tablespoons", 
            "ingredient": "all-purpose flour"
        }, 
        {
            "amount": "1 cup", 
            "ingredient": "chicken broth"
        }, 
        {
            "amount": "1 1/2 cups", 
            "ingredient": "milk"
        }, 
        {
            "amount": "1 (4 ounce) can", 
            "ingredient": "diced green chiles"
        }, 
        {
            "amount": "1 (10 ounce) can", 
            "ingredient": "diced tomatoes with green chile peppers"
        }, 
        {
            "amount": "1 1/2 cups", 
            "ingredient": "cubed, cooked chicken meat"
        }, 
        {
            "amount": "10 (6 inch)", 
            "ingredient": "corn tortillas, cut into strips"
        }, 
        {
            "amount": "1 (8 ounce) package", 
            "ingredient": "sharp Cheddar cheese, shredded"
        }
    ], 
    "prep_steps": [
        "In a medium sauce pan, cook onion in oil over medium heat until soft. Stir in flour. Add broth and milk; cook, stirring constantly, until thickened. Stir in chilies and tomatoes.", 
        "Coat a 9 x 13 inch baking pan with nonstick spray. Place 1 cup sauce in bottom of pan. Layer half the chicken, half the tortilla strips, and 1 1/4 cups sauce. Repeat with remaining ingredients. Top casserole with shredded cheese.", 
        "Bake at 350 degrees F (175 degrees C) for 40 to 45 minutes."
    ], 
    "recipe_name": "Spicy Chile Casserole"
}