{
    "ingredients": [
        {
            "amount": "1 (16 ounce) package", 
            "ingredient": "shredded coleslaw mix"
        }, 
        {
            "amount": "1/4 cup", 
            "ingredient": "lime juice"
        }, 
        {
            "amount": "1/4 cup", 
            "ingredient": "rice wine vinegar"
        }, 
        {
            "amount": "1 tablespoon", 
            "ingredient": "fish sauce"
        }, 
        {
            "amount": "2 tablespoons", 
            "ingredient": "sesame oil"
        }, 
        {
            "amount": "2 tablespoons", 
            "ingredient": "honey"
        }, 
        {
            "amount": "1/4 cup", 
            "ingredient": "chopped peanuts"
        }
    ], 
    "prep_steps": [
        "Pour the coleslaw mix into a large bowl. Pour in the lime juice, rice vinegar, fish sauce, sesame oil, honey, and peanuts. Stir until well blended. If you have a bowl with a lid, put the lid on and shake thoroughly. Taste, and season with salt and pepper. Refrigerate for a few hours, stirring or shaking occasionally, to allow the flavors to blend before serving."
    ], 
    "prep_time": "3 hrs", 
    "recipe_name": "Quick and Easy Thai Style Coleslaw"
}