{
    "ingredients": [
        {
            "amount": "1 (8 ounce) package", 
            "ingredient": "cream cheese"
        }, 
        {
            "amount": "1 cup", 
            "ingredient": "shredded Cheddar cheese"
        }, 
        {
            "amount": "1 cup", 
            "ingredient": "extra sharp Cheddar cheese, shredded"
        }, 
        {
            "amount": "1 cup", 
            "ingredient": "shredded Pepper Jack cheese"
        }, 
        {
            "amount": "1/4 teaspoon", 
            "ingredient": "onion powder"
        }, 
        {
            "amount": "1/4 teaspoon", 
            "ingredient": "garlic powder"
        }, 
        {
            "amount": "2 tablespoons", 
            "ingredient": "mayonnaise"
        }, 
        {
            "amount": "1 tablespoon", 
            "ingredient": "Worcestershire sauce"
        }, 
        {
            "amount": "1 cup", 
            "ingredient": "chopped pecans"
        }
    ], 
    "prep_steps": [
        "In a large bowl, stir together cream cheese, Cheddar, sharp Cheddar and Pepper Jack cheeses, onion powder, garlic powder, mayonnaise, and Worcestershire sauce. Cover and refrigerate mixture 1 hour.", 
        "Shape mixture into a ball. Roll ball in chopped pecans."
    ], 
    "prep_time": "1\u00bc hrs", 
    "recipe_name": "Hot Pepper Cheese Ball"
}