{
    "ingredients": [
        {
            "amount": "4", 
            "ingredient": "skinless, boneless chicken breast halves"
        }, 
        {
            "amount": "1 tablespoon", 
            "ingredient": "vegetable oil"
        }, 
        {
            "amount": "1 small", 
            "ingredient": "onion, diced"
        }, 
        {
            "amount": "1 (16 ounce) jar", 
            "ingredient": "mild picante sauce"
        }, 
        {
            "amount": "1 cup", 
            "ingredient": "shredded Monterey Jack cheese"
        }, 
        {
            "amount": "8 (8 inch)", 
            "ingredient": "flour tortillas"
        }, 
        {
            "amount": "1/2 cup", 
            "ingredient": "sliced black olives"
        }, 
        {
            "amount": "1/2 cup", 
            "ingredient": "sour cream"
        }
    ], 
    "prep_steps": [
        "Place chicken breasts in a saucepan with enough water just to cover. Bring to a boil, and cook until meat shreds easily. Remove chicken from water, shred, and set aside. Reserve water.", 
        "Heat oil in a large heavy skillet over medium heat. Add onion, and cook until transparent. Add shredded chicken meat, and stir in the picante sauce, and 1/2 cup of the reserved chicken water. Reduce heat to low, and simmer 30 minutes, or until the sauce is thick. Remove the pan from heat, and sprinkle cheese over the chicken mixture.", 
        "Serve over flour tortillas and garnish with sliced olives and sour cream."
    ], 
    "prep_time": "1 hr", 
    "recipe_name": "Marylou's Chicken El Toro"
}