{
    "ingredients": [
        {
            "amount": "1", 
            "ingredient": "potato, cubed"
        }, 
        {
            "amount": "1/2 pound", 
            "ingredient": "chicken thighs, cut into pieces"
        }, 
        {
            "amount": "2 tablespoons", 
            "ingredient": "vegetable oil"
        }, 
        {
            "amount": "1", 
            "ingredient": "green bell pepper, seeded and cubed"
        }, 
        {
            "amount": "1 small", 
            "ingredient": "onion, chopped"
        }, 
        {
            "amount": "1/2 cup", 
            "ingredient": "coconut milk"
        }, 
        {
            "amount": "5 tablespoons", 
            "ingredient": "curry sauce"
        }, 
        {
            "amount": "1/2 teaspoon", 
            "ingredient": "salt"
        }, 
        {
            "amount": "1 cup", 
            "ingredient": "water, divided"
        }, 
        {
            "amount": "1 teaspoon", 
            "ingredient": "cornstarch"
        }
    ], 
    "prep_steps": [
        "Place cubed potatoes in a microwave-safe dish and heat in the microwave on High for 5 minutes.", 
        "Heat oil in a large skillet over medium heat. Place chicken in oil and cook to brown. Then stir in green peppers and onions; cook about 4 minutes. Stir in potato, coconut milk, curry sauce, salt, and 3/4 cup water.", 
        "Mix together cornstarch and 1/4 cup water. Stir into skillet, and simmer 10 minutes."
    ], 
    "prep_time": "45 mins", 
    "recipe_name": "Goof Proof Coconut Curry Chicken"
}