{
    "ingredients": [
        {
            "amount": "1 (1 pound) loaf", 
            "ingredient": "white bread, cut into cubes"
        }, 
        {
            "amount": "8", 
            "ingredient": "eggs, beaten"
        }, 
        {
            "amount": "1 cup", 
            "ingredient": "diced prosciutto"
        }, 
        {
            "amount": "1 cup", 
            "ingredient": "diced salami"
        }, 
        {
            "amount": "4 ounces", 
            "ingredient": "diced pepperoni"
        }, 
        {
            "amount": "16 ounces", 
            "ingredient": "mozzarella cheese, cubed"
        }, 
        {
            "amount": "1/4 cup", 
            "ingredient": "grated Parmesan cheese"
        }, 
        {
            "amount": "2 tablespoons", 
            "ingredient": "chopped fresh parsley"
        }
    ], 
    "prep_steps": [
        "Place bread cubes in a large bowl and sprinkle with enough water to moisten.", 
        "Add the eggs, prosciutto, salami, pepperoni, Mozzarella, Parmesan, parsley and pepper; mix well.", 
        "Place stuffing in a fowl or casserole dish. If using a casserole dish, bake uncovered at 375 degrees F (190 degrees C) for 35 to 45 minutes."
    ], 
    "recipe_name": "Grandpa's Special Stuffing"
}