{
    "ingredients": [
        {
            "amount": "3/4 cup", 
            "ingredient": "butter flavored shortening"
        }, 
        {
            "amount": "1 1/4 cups", 
            "ingredient": "brown sugar"
        }, 
        {
            "amount": "1", 
            "ingredient": "egg"
        }, 
        {
            "amount": "1/3 cup", 
            "ingredient": "milk"
        }, 
        {
            "amount": "1 1/2 teaspoons", 
            "ingredient": "vanilla extract"
        }, 
        {
            "amount": "3 cups", 
            "ingredient": "rolled oats"
        }, 
        {
            "amount": "1 cup", 
            "ingredient": "all-purpose flour"
        }, 
        {
            "amount": "1/2 teaspoon", 
            "ingredient": "baking soda"
        }, 
        {
            "amount": "1/4 teaspoon", 
            "ingredient": "ground cinnamon"
        }, 
        {
            "amount": "1 cup", 
            "ingredient": "chopped walnuts"
        }, 
        {
            "amount": "1 cup", 
            "ingredient": "raisins"
        }
    ], 
    "prep_steps": [
        "Preheat the oven to 375 degrees F (190 degrees C). Grease cookie sheets.", 
        "In a large bowl, cream together the butter flavored shortening and brown sugar until smooth. Beat in the egg then stir in the milk and vanilla. Mix in the flour, oats, baking soda and cinnamon until well blended. Fold in the walnuts and if desired, raisins. Drop by rounded spoonfuls onto the prepared cookie sheet.", 
        "Bake for 8 to 10 minutes in the preheated oven. Allow cookies to cool on baking sheet for 5 minutes before removing to a wire rack to cool completely."
    ], 
    "prep_time": "30 mins", 
    "recipe_name": "Chewy Oatmeal Cookies II"
}