{
    "ingredients": [
        {
            "amount": "3/4 cup", 
            "ingredient": "all-purpose flour"
        }, 
        {
            "amount": "2 tablespoons", 
            "ingredient": "unsweetened cocoa powder"
        }, 
        {
            "amount": "1/4 teaspoon", 
            "ingredient": "baking powder"
        }, 
        {
            "amount": "1/4 teaspoon", 
            "ingredient": "salt"
        }, 
        {
            "amount": "1/2 cup", 
            "ingredient": "butter"
        }, 
        {
            "amount": "3/4 cup", 
            "ingredient": "white sugar"
        }, 
        {
            "amount": "2", 
            "ingredient": "eggs"
        }, 
        {
            "amount": "1 teaspoon", 
            "ingredient": "vanilla extract"
        }, 
        {
            "amount": "2 cups", 
            "ingredient": "miniature marshmallows"
        }, 
        {
            "amount": "1 cup", 
            "ingredient": "semisweet chocolate chips"
        }, 
        {
            "amount": "1 cup", 
            "ingredient": "peanut butter"
        }, 
        {
            "amount": "1 1/2 cups", 
            "ingredient": "crisp rice cereal"
        }
    ], 
    "prep_steps": [
        "Preheat oven to 350 degrees F (175 degrees C). Grease a 9x13 inch baking pan.", 
        "In a small mixing bowl combine flour, cocoa, baking powder and salt.", 
        "In a large bowl cream butter and sugar; beat in eggs and vanilla. Stir flour mixture into the creamed egg mixture. Spread batter into the greased 9x13 inch pan.", 
        "Bake for 15 to 20 minutes.", 
        "Sprinkle marshmallows over top of the baked bars; bake 3 minutes more. Cool.", 
        "Place chocolate chips and peanut butter in a microwave safe bowl. Melt chocolate chips and peanut butter in a microwave on high until melted together. Cook one minute at a time, stirring after each minute.", 
        "Stir cereal into the chocolate mixture. Spread the chocolate mixture over the cooled bars. Chill, cut into bars and refrigerate."
    ], 
    "recipe_name": "Double Chocolate Crumble Bars"
}