{
    "ingredients": [
        {
            "amount": "2", 
            "ingredient": "eggs, lightly beaten"
        }, 
        {
            "amount": "1/4 cup", 
            "ingredient": "canola oil"
        }, 
        {
            "amount": "2 cups", 
            "ingredient": "buttermilk"
        }, 
        {
            "amount": "2 teaspoons", 
            "ingredient": "baking soda"
        }, 
        {
            "amount": "1/2 cup", 
            "ingredient": "wheat germ"
        }, 
        {
            "amount": "1/2 teaspoon", 
            "ingredient": "salt"
        }, 
        {
            "amount": "1 1/2 cups", 
            "ingredient": "whole wheat pastry flour"
        }
    ], 
    "prep_steps": [
        "In a medium bowl, mix eggs with oil and buttermilk. Stir in baking soda, wheat germ, salt and flour; mix until blended.", 
        "Heat a lightly oiled griddle or frying pan over medium-high heat. Pour or scoop the batter onto the griddle, using approximately 1/4 cup for each pancake. Brown on both sides, turning once."
    ], 
    "prep_time": "20 mins", 
    "recipe_name": "Wheat Germ Whole-Wheat Buttermilk Pancakes"
}