{
    "ingredients": [
        {
            "amount": "4 cups", 
            "ingredient": "water"
        }, 
        {
            "amount": "1 1/3 (6 ounce) cans", 
            "ingredient": "tomato paste"
        }, 
        {
            "amount": "1 teaspoon", 
            "ingredient": "salt"
        }, 
        {
            "amount": "1 teaspoon", 
            "ingredient": "ground black pepper"
        }, 
        {
            "amount": "1/2 teaspoon", 
            "ingredient": "ground cayenne pepper"
        }, 
        {
            "amount": "1", 
            "ingredient": "green bell pepper, chopped"
        }, 
        {
            "amount": "1", 
            "ingredient": "red bell pepper, chopped"
        }, 
        {
            "amount": "2 cups", 
            "ingredient": "fresh corn kernels"
        }, 
        {
            "amount": "1 tablespoon", 
            "ingredient": "vegetable oil"
        }, 
        {
            "amount": "1/2", 
            "ingredient": "onion, chopped"
        }, 
        {
            "amount": "4 cloves", 
            "ingredient": "garlic, minced"
        }, 
        {
            "amount": "1/2 pound", 
            "ingredient": "ground beef"
        }
    ], 
    "prep_steps": [
        "In a large pot over high heat, combine the water, tomato paste, salt, ground black pepper, cayenne pepper, green bell pepper, red bell pepper and corn. Bring to a boil, reduce heat to medium low and allow to simmer at a slow boil for 35 minutes.", 
        "In a large saucepan over medium heat, combine the oil, onion and garlic and saute for 3 to 5 minutes. Add to the simmering soup. In the same saucepan over medium heat, saute the ground beef for 10 minutes or until well browned, and add to the soup. Stir well and simmer for 10 more minutes."
    ], 
    "recipe_name": "Cajun Style Corn Soup"
}