{
    "ingredients": [
        {
            "amount": "2", 
            "ingredient": "eggs"
        }, 
        {
            "amount": "1/2 cup", 
            "ingredient": "unsweetened applesauce"
        }, 
        {
            "amount": "1/4 cup", 
            "ingredient": "vegetable oil"
        }, 
        {
            "amount": "3/4 cup", 
            "ingredient": "packed brown sugar"
        }, 
        {
            "amount": "1 teaspoon", 
            "ingredient": "vanilla extract"
        }, 
        {
            "amount": "3", 
            "ingredient": "bananas, mashed"
        }, 
        {
            "amount": "2 cups", 
            "ingredient": "whole wheat flour"
        }, 
        {
            "amount": "1 teaspoon", 
            "ingredient": "baking soda"
        }, 
        {
            "amount": "1 tablespoon", 
            "ingredient": "ground cinnamon"
        }, 
        {
            "amount": "1 cup", 
            "ingredient": "frozen sliced strawberries"
        }
    ], 
    "prep_steps": [
        "Preheat the oven to 375 degrees F (190 degrees C). Grease 12 large muffin cups, or line with paper liners.", 
        "In a large bowl, whisk together the eggs, applesauce, oil, brown sugar, vanilla and bananas. Combine the flour, baking soda and cinnamon; Stir into the banana mixture until moistened. Stir in the strawberries until evenly distributed. Spoon batter into muffin cups until completely filled.", 
        "Bake for 20 minutes in the preheated oven, or until the tops of the muffins spring back when pressed lightly. Cool before removing from the muffin tins."
    ], 
    "prep_time": "35 mins", 
    "recipe_name": "Mimi's Giant Whole-Wheat Banana-Strawberry Muffins"
}