{
    "ingredients": [
        {
            "amount": "4 cups", 
            "ingredient": "cranberry juice"
        }, 
        {
            "amount": "4 cups", 
            "ingredient": "pineapple juice"
        }, 
        {
            "amount": "1 1/2 cups", 
            "ingredient": "white sugar"
        }, 
        {
            "amount": "1 teaspoon", 
            "ingredient": "almond extract"
        }, 
        {
            "amount": "1 liter", 
            "ingredient": "ginger ale soda"
        }
    ], 
    "prep_steps": [
        "In a large punch bowl, combine cranberry juice, pineapple juice and sugar. Stir until sugar is dissolved. Add almond extract and pour in the ginger ale."
    ], 
    "prep_time": "20 mins", 
    "recipe_name": "Nonalco Punch"
}