{
    "ingredients": [
        {
            "amount": "2 tablespoons", 
            "ingredient": "olive oil"
        }, 
        {
            "amount": "2 medium", 
            "ingredient": "yellow bell peppers, seeded and diced"
        }, 
        {
            "amount": "2 medium", 
            "ingredient": "red bell peppers, seeded and diced"
        }, 
        {
            "amount": "1 pound", 
            "ingredient": "fresh mushrooms, sliced"
        }, 
        {
            "amount": "1 small", 
            "ingredient": "onion, chopped"
        }, 
        {
            "amount": "2 medium", 
            "ingredient": "zucchini, cubed"
        }, 
        {
            "amount": "3 tablespoons", 
            "ingredient": "minced garlic"
        }, 
        {
            "amount": "1 tablespoon", 
            "ingredient": "steak seasoning"
        }, 
        {
            "amount": "1 tablespoon", 
            "ingredient": "onion powder"
        }, 
        {
            "amount": "1 (16 ounce) package", 
            "ingredient": "turkey kielbasa, sliced"
        }, 
        {
            "amount": "1 tablespoon", 
            "ingredient": "balsamic vinegar, or to taste"
        }
    ], 
    "prep_steps": [
        "Heat the olive oil in a large skillet over medium-high heat. Add the red and yellow bell peppers, mushrooms, zucchini, onion and garlic, and stir to cook evenly. Season with steak seasoning and onion powder. Cover, and cook for about 10 minutes.", 
        "Add the sausage to the skillet, and cook, stirring occasionally, for another 10 minutes. Just before serving, add a splash of balsamic vinegar, and sprinkle liberally with Parmesan cheese."
    ], 
    "prep_time": "55 mins", 
    "recipe_name": "Turkey Polish Sausage and Peppers"
}