{
    "ingredients": [
        {
            "amount": "4 ounces", 
            "ingredient": "macaroni"
        }, 
        {
            "amount": "1 pound", 
            "ingredient": "lean ground beef"
        }, 
        {
            "amount": "1", 
            "ingredient": "onion, chopped"
        }, 
        {
            "amount": "1/2 cup", 
            "ingredient": "mayonnaise"
        }, 
        {
            "amount": "1 (28 ounce) jar", 
            "ingredient": "spaghetti sauce"
        }, 
        {
            "amount": "1/2 cup", 
            "ingredient": "shredded Cheddar cheese"
        }
    ], 
    "prep_steps": [
        "In a medium pot with boiling salted water cook macaroni pasta until al dente. Drain.", 
        "In a large skillet cook hamburger and onion until brown. Drain grease. Add mayonnaise and spaghetti sauce; mix well. Add drained and cooked macaroni, cook on medium heat stirring occasionally until heated through. Mix thoroughly.", 
        "To serve, pour mixture into a large serving bowl and top with shredded Cheddar cheese. Serve warm."
    ], 
    "recipe_name": "Lori's Beef and Spaghetti Macaroni"
}