{
    "ingredients": [
        {
            "amount": "1 tablespoon", 
            "ingredient": "peanut oil"
        }, 
        {
            "amount": "4 cloves", 
            "ingredient": "garlic, minced"
        }, 
        {
            "amount": "1", 
            "ingredient": "red bell pepper, seeded and sliced into strips"
        }, 
        {
            "amount": "2 crowns", 
            "ingredient": "broccoli, cut into florets"
        }, 
        {
            "amount": "1/3 cup", 
            "ingredient": "chicken broth"
        }, 
        {
            "amount": "3 tablespoons", 
            "ingredient": "soy sauce"
        }, 
        {
            "amount": "1 tablespoon", 
            "ingredient": "dry sherry"
        }, 
        {
            "amount": "2 teaspoons", 
            "ingredient": "cornstarch"
        }, 
        {
            "amount": "8 ounces", 
            "ingredient": "extra firm tofu, diced"
        }, 
        {
            "amount": "2 tablespoons", 
            "ingredient": "cashew pieces"
        }
    ], 
    "prep_steps": [
        "Heat peanut oil in a wok or large skillet over high heat. Stir in garlic and cook for a few seconds until it begins to brown. Add the bell pepper and broccoli; cook until the pepper begins to brown and soften, about 5 minutes.", 
        "Stir together the chicken broth, soy sauce, sherry, and cornstarch until dissolved. Pour the sauce into the wok and bring to a boil. Stir in the tofu, and cook until hot, about 1 minute. Garnish with cashew pieces to serve."
    ], 
    "prep_time": "30 mins", 
    "recipe_name": "Broccoli and Tofu Stir Fry"
}