{
    "ingredients": [
        {
            "amount": "5 tablespoons", 
            "ingredient": "olive oil"
        }, 
        {
            "amount": "2 cloves", 
            "ingredient": "minced garlic"
        }, 
        {
            "amount": "1 teaspoon", 
            "ingredient": "ground ginger"
        }, 
        {
            "amount": "1/2 teaspoon", 
            "ingredient": "hot sauce"
        }, 
        {
            "amount": "16 large", 
            "ingredient": "shrimp, peeled and deveined, without tails"
        }, 
        {
            "amount": "4 (8 inch)", 
            "ingredient": "flour tortillas"
        }, 
        {
            "amount": "3/4 cup", 
            "ingredient": "shredded Cheddar and Monterey cheese blend"
        }, 
        {
            "amount": "2 cups", 
            "ingredient": "fresh salsa"
        }
    ], 
    "prep_steps": [
        "In a mixing bowl, combine 4 tablespoons olive oil, garlic, ginger, hot sauce, and shrimp. Coat shrimp well with mixture, and marinate 2 hours.", 
        "Preheat oven to 350 degrees F (175 degrees C).", 
        "Grease a 9 inch glass pie dish with the remaining 1 tablespoon of olive oil. Fill flour tortillas with marinated shrimp, cheese blend and salsa. Fold tortillas into a roll and place in the greased pie dish. Spread a thin layer of salsa on top of the tortillas.", 
        "Bake in a preheated oven for 20 minutes or until shrimp are pink."
    ], 
    "prep_time": "2\u00bd hrs", 
    "recipe_name": "Shrimp Enchiladas"
}