{
    "ingredients": [
        {
            "amount": "2 teaspoons", 
            "ingredient": "olive oil"
        }, 
        {
            "amount": "1 large", 
            "ingredient": "onion, finely chopped"
        }, 
        {
            "amount": "3 cloves", 
            "ingredient": "garlic, minced"
        }, 
        {
            "amount": "1 pound", 
            "ingredient": "ground turkey"
        }, 
        {
            "amount": "2 tablespoons", 
            "ingredient": "chili powder"
        }, 
        {
            "amount": "2 teaspoons", 
            "ingredient": "ground cumin"
        }, 
        {
            "amount": "1 teaspoon", 
            "ingredient": "dried oregano"
        }, 
        {
            "amount": "1 dash", 
            "ingredient": "cayenne pepper"
        }, 
        {
            "amount": "1 (19 ounce) can", 
            "ingredient": "kidney beans, rinsed and drained"
        }, 
        {
            "amount": "1 cup", 
            "ingredient": "salsa"
        }, 
        {
            "amount": "2 cups", 
            "ingredient": "shredded iceberg lettuce"
        }, 
        {
            "amount": "2 small", 
            "ingredient": "carrots, julienned"
        }, 
        {
            "amount": "2", 
            "ingredient": "red bell peppers, cut into thin strips"
        }
    ], 
    "prep_steps": [
        "Heat the olive oil in a skillet over medium heat. Stir in the onion and garlic; cook and stir until the onion has softened and turned translucent, about 5 minutes. Add the turkey, and stir until crumbly and no longer pink. Season with chili powder, cumin, oregano, cayenne pepper, kidney beans, and salsa. Cook over medium-high heat until the mixture is simmering and the beans are hot, about 5 minutes.", 
        "Divide the lettuce, carrots, and red bell peppers among 4 serving plates. Spoon the turkey mixture overtop to serve."
    ], 
    "prep_time": "45 mins", 
    "recipe_name": "Mexican-Style Taco Salad"
}