{
    "ingredients": [
        {
            "amount": "1 tablespoon", 
            "ingredient": "olive oil"
        }, 
        {
            "amount": "1 1/2 cups", 
            "ingredient": "chopped onion"
        }, 
        {
            "amount": "3 cloves", 
            "ingredient": "garlic, minced"
        }, 
        {
            "amount": "2 teaspoons", 
            "ingredient": "dried oregano"
        }, 
        {
            "amount": "1 1/2 teaspoons", 
            "ingredient": "ground cumin"
        }, 
        {
            "amount": "1/2 teaspoon", 
            "ingredient": "ground ginger"
        }, 
        {
            "amount": "1/2 cup", 
            "ingredient": "low-sodium chicken broth"
        }, 
        {
            "amount": "1/2 cup", 
            "ingredient": "dry white wine"
        }, 
        {
            "amount": "1", 
            "ingredient": "bay leaf"
        }, 
        {
            "amount": "2 cups", 
            "ingredient": "shredded cooked turkey"
        }, 
        {
            "amount": "2 cups", 
            "ingredient": "white kidney beans (cannellini), undrained"
        }, 
        {
            "amount": "2", 
            "ingredient": "fresh jalapeno peppers, chopped"
        }, 
        {
            "amount": "1 1/2 cups", 
            "ingredient": "shredded Monterey Jack cheese"
        }, 
        {
            "amount": "1/2 teaspoon", 
            "ingredient": "salt"
        }, 
        {
            "amount": "1/2 teaspoon", 
            "ingredient": "coarsely ground black pepper"
        }, 
        {
            "amount": "2 tablespoons", 
            "ingredient": "lime juice"
        }
    ], 
    "prep_steps": [
        "Heat the olive oil in a skillet over medium heat. Cook onion in oil until the onion has softened and turned translucent, about 5 minutes. Stir in garlic, oregano, cumin, and ginger; cook for another minute. Pour in chicken broth and white wine, and then add the bay leaf. Cook uncovered until slightly reduced, about 5 to 8 minutes.", 
        "Stir in turkey, beans, and jalapeno. Simmer uncovered for 10 minutes, stirring occasionally.", 
        "Using back of spoon, mash 1/4 of beans to thicken sauce. Reduce heat to low, and begin stirring in cheese 1/2 cup at a time. Stir until cheese is completely melted. Season with salt and pepper. Remove from heat, and stir in lime juice. Serve hot."
    ], 
    "prep_time": "50 mins", 
    "recipe_name": "White Turkey Chili"
}