{
    "ingredients": [
        {
            "amount": "2 tablespoons", 
            "ingredient": "butter"
        }, 
        {
            "amount": "1/2 teaspoon", 
            "ingredient": "ground black pepper"
        }, 
        {
            "amount": "1/2 teaspoon", 
            "ingredient": "cayenne pepper"
        }, 
        {
            "amount": "1/2 teaspoon", 
            "ingredient": "dried thyme"
        }, 
        {
            "amount": "1 teaspoon", 
            "ingredient": "dried oregano"
        }, 
        {
            "amount": "1/2 teaspoon", 
            "ingredient": "dry mustard powder"
        }, 
        {
            "amount": "2 cloves", 
            "ingredient": "garlic, minced"
        }, 
        {
            "amount": "1 (3 pound)", 
            "ingredient": "boneless pork loin roast"
        }, 
        {
            "amount": "1 stalk", 
            "ingredient": "celery, diced"
        }, 
        {
            "amount": "2 medium", 
            "ingredient": "carrots, diced"
        }, 
        {
            "amount": "1 large", 
            "ingredient": "onion, diced"
        }, 
        {
            "amount": "3 tablespoons", 
            "ingredient": "flour"
        }, 
        {
            "amount": "1/2 cup", 
            "ingredient": "pork stock"
        }
    ], 
    "prep_steps": [
        "Preheat oven to 300 degrees F (150 degrees C).", 
        "Melt the butter in a skillet over medium heat, and stir in the black pepper, cayenne pepper, thyme, oregano, dry mustard powder, and garlic. Cook and stir until the garlic is fragrant, about 1 minute. Remove from heat.", 
        "With a sharp knife, make several small slits in the pork roast. Place the roast into a roasting pan, and spread the spice mixture all over the roast and in the incisions. Surround the roast with celery, carrots, and onion, and season to taste with salt and black pepper.", 
        "Roast in the preheated oven until the pork roast is browned and an instant-read meat thermometer inserted into the center of the roast reads at least 150 degrees F (65 degrees C), about 2 hours. About 15 minutes before the end of cooking, turn the oven temperature up to 425 to help brown the roast.", 
        "Remove pork roast from oven, and allow to stand for about 10 minutes before slicing. Check temperature again; roast temperature should be at least 160 degrees F (75 degrees C) before serving.", 
        "While roast is resting, place the roasting pan containing vegetables and pan drippings over a stove burner set to medium heat. Whisk in the flour, and simmer the drippings and flour for about 3 minutes to remove raw taste from flour. Whisk in the pork stock, a little at a time, until the gravy is thickened. Strain the gravy, and serve with the roast."
    ], 
    "prep_time": "2\u00bd hrs", 
    "recipe_name": "Roasted Loin of Pork with Pan Gravy"
}