{
    "ingredients": [
        {
            "amount": "3 tablespoons", 
            "ingredient": "olive oil"
        }, 
        {
            "amount": "1", 
            "ingredient": "white onion, chopped"
        }, 
        {
            "amount": "1/2 cup", 
            "ingredient": "dry white wine"
        }, 
        {
            "amount": "1/2 cup", 
            "ingredient": "cooking sherry"
        }, 
        {
            "amount": "5 tablespoons", 
            "ingredient": "all-purpose flour"
        }, 
        {
            "amount": "1/2 (6 ounce) can", 
            "ingredient": "tomato paste"
        }, 
        {
            "amount": "1 1/2 cups", 
            "ingredient": "chicken broth"
        }, 
        {
            "amount": "5 cups", 
            "ingredient": "milk"
        }, 
        {
            "amount": "1/4 teaspoon", 
            "ingredient": "cayenne pepper, or to taste"
        }, 
        {
            "amount": "1/8 teaspoon", 
            "ingredient": "ground black pepper"
        }, 
        {
            "amount": "1/2 teaspoon", 
            "ingredient": "seafood seasoning (such as Old Bay\u00ae)"
        }, 
        {
            "amount": "2 tablespoons", 
            "ingredient": "Worcestershire sauce"
        }, 
        {
            "amount": "1", 
            "ingredient": "green onion, finely chopped"
        }, 
        {
            "amount": "1 1/2 cups", 
            "ingredient": "cooked lobster claw, cut into bite-sized pieces"
        }
    ], 
    "prep_steps": [
        "Heat the olive oil in a large saucepan over medium heat. Stir in the chopped onion, and cook until the onion has softened and turned translucent, about 5 minutes. Stir in the white wine and sherry. Cook and stir until the liquid has reduced by half. Sprinkle in the flour while stirring to ensure there are no lumps. Once a thick paste has formed, stir in the tomato paste, then pour in the chicken broth and milk. Season with cayenne pepper, black pepper, seafood seasoning, Worcestershire sauce, and green onion.", 
        "Cook and stir over medium heat until the bisque begins to simmer, about 15 minutes. Stir in the lobster meat, and reheat before serving."
    ], 
    "prep_time": "1 hr", 
    "recipe_name": "Annie's Lobster Bisque"
}