{
    "ingredients": [
        {
            "amount": "1/2 cup", 
            "ingredient": "all-purpose flour"
        }, 
        {
            "amount": "1 1/2 pounds", 
            "ingredient": "monkfish fillets, roughly chopped"
        }, 
        {
            "amount": "2 tablespoons", 
            "ingredient": "olive oil"
        }, 
        {
            "amount": "1/4 cup", 
            "ingredient": "butter"
        }, 
        {
            "amount": "3 cloves", 
            "ingredient": "garlic, minced"
        }, 
        {
            "amount": "1 large", 
            "ingredient": "tomato, diced"
        }, 
        {
            "amount": "1 (8 ounce) package", 
            "ingredient": "sliced fresh mushrooms"
        }, 
        {
            "amount": "1/4 cup", 
            "ingredient": "dry white wine"
        }, 
        {
            "amount": "1 tablespoon", 
            "ingredient": "chopped fresh parsley"
        }
    ], 
    "prep_steps": [
        "In a resealable plastic bag, mix the salt, pepper, Cajun seasoning, and flour. Place the monkfish in the bag, seal, and shake to lightly coat.", 
        "Heat the oil and melt the butter in a skillet over medium heat. Place the monkfish in the skillet, and cook for about 3 minutes. Mix in the garlic, tomato, and mushrooms, and continue cooking 3 minutes. Mix in the wine and parsley. Continue to cook and stir 2 minutes, or until the monkfish flakes easily with a fork."
    ], 
    "prep_time": "25 mins", 
    "recipe_name": "Monkfish Provincial"
}