{
    "ingredients": [
        {
            "amount": "2 cups", 
            "ingredient": "water"
        }, 
        {
            "amount": "1 tablespoon", 
            "ingredient": "butter"
        }, 
        {
            "amount": "1 cup", 
            "ingredient": "long-grain white rice"
        }, 
        {
            "amount": "1 teaspoon", 
            "ingredient": "lime zest"
        }, 
        {
            "amount": "2 tablespoons", 
            "ingredient": "fresh lime juice"
        }, 
        {
            "amount": "1/2 cup", 
            "ingredient": "chopped cilantro"
        }
    ], 
    "prep_steps": [
        "Bring the water to a boil; stir the butter and rice into the water. Cover, reduce heat to low, and simmer until the rice is tender, about 20 minutes.", 
        "Stir the lime zest, lime juice, and cilantro into the cooked rice just before serving."
    ], 
    "prep_time": "30 mins", 
    "recipe_name": "Lime Cilantro Rice"
}