{
    "ingredients": [
        {
            "amount": "1", 
            "ingredient": "egg"
        }, 
        {
            "amount": "1 (18.25 ounce) package", 
            "ingredient": "yellow cake mix"
        }, 
        {
            "amount": "1/2 cup", 
            "ingredient": "butter, softened"
        }, 
        {
            "amount": "8 ounces", 
            "ingredient": "cream cheese, softened"
        }, 
        {
            "amount": "1 (16 ounce) package", 
            "ingredient": "confectioners' sugar, sifted"
        }, 
        {
            "amount": "2", 
            "ingredient": "eggs"
        }, 
        {
            "amount": "1 teaspoon", 
            "ingredient": "vanilla extract"
        }
    ], 
    "prep_steps": [
        "Preheat oven to 350 degrees F (175 degrees C). Grease and flour one 9x13 inch pan.", 
        "Beat together 1 egg, cake mix, and butter for 5 minutes. Mix and pour into prepared pan.", 
        "Cream together cream cheese, confectioners' sugar, 2 eggs, and vanilla extract. Pour this on top of the cake base.", 
        "Bake 35-40 minutes until browned. Cool 15 minutes and cut into squares."
    ], 
    "recipe_name": "Philadelphia Style Butter Cake"
}