{
    "ingredients": [
        {
            "amount": "1 1/2 cups", 
            "ingredient": "all-purpose flour"
        }, 
        {
            "amount": "1/4 cup", 
            "ingredient": "white sugar"
        }, 
        {
            "amount": "2 teaspoons", 
            "ingredient": "baking powder"
        }, 
        {
            "amount": "1/2 teaspoon", 
            "ingredient": "salt"
        }, 
        {
            "amount": "1/4 cup", 
            "ingredient": "shortening"
        }, 
        {
            "amount": "1/4 cup", 
            "ingredient": "rolled oats"
        }, 
        {
            "amount": "1", 
            "ingredient": "egg, beaten"
        }, 
        {
            "amount": "1/2 cup", 
            "ingredient": "milk"
        }, 
        {
            "amount": "1/2 cup", 
            "ingredient": "real maple syrup"
        }
    ], 
    "prep_steps": [
        "Preheat oven to 400 degrees F (205 degrees C). Grease the cups of a 12-cup muffin pan.", 
        "Sift together flour, sugar, baking powder and salt. Cut in shortening until mixture resembles coarse crumbs. Stir in oats. Add egg, milk, and syrup. Stir only until dry ingredients are moistened. Fill greased muffin tins 3/4 full.", 
        "Bake for 18 to 20 minutes. Remove from oven, and let stand a few minutes before removing muffins from the pan."
    ], 
    "prep_time": "30 mins", 
    "recipe_name": "Maple Muffins"
}