{
    "ingredients": [
        {
            "amount": "1/3 cup", 
            "ingredient": "water"
        }, 
        {
            "amount": "1 tablespoon", 
            "ingredient": "granulated garlic"
        }, 
        {
            "amount": "1 tablespoon", 
            "ingredient": "paprika"
        }, 
        {
            "amount": "1 pound", 
            "ingredient": "sliced bacon"
        }
    ], 
    "prep_steps": [
        "In a large skillet, stir together the water, garlic, and paprika. Separate the bacon slices, and place in the skillet. Turn the heat to high. The water will evaporate leaving the bacon coated with the garlic and paprika. Reduce the heat to medium-high, and continue to fry to your desired crispness, turning as needed."
    ], 
    "prep_time": "20 mins", 
    "recipe_name": "Bill's Fried Bacon"
}