{
    "ingredients": [
        {
            "amount": "6 ears", 
            "ingredient": "fresh corn, kernels cut from cob"
        }, 
        {
            "amount": "2", 
            "ingredient": "fresh jalapeno peppers, seeded and diced"
        }, 
        {
            "amount": "1/3 cup", 
            "ingredient": "diced onion"
        }, 
        {
            "amount": "2 tablespoons", 
            "ingredient": "chopped pimento peppers"
        }, 
        {
            "amount": "2 tablespoons", 
            "ingredient": "butter, cut into pieces"
        }
    ], 
    "prep_steps": [
        "Combine corn, jalapenos, onion, pimentos, and butter in microwave safe bowl. Cover, and cook in the microwave on 100% power until heated through, about 4 minutes depending on your microwave. Stir every minute. Serve hot."
    ], 
    "prep_time": "21 mins", 
    "recipe_name": "Corn with Jalapenos"
}