{
    "ingredients": [
        {
            "amount": "1 (11 ounce) log", 
            "ingredient": "goat cheese, crumbled"
        }, 
        {
            "amount": "1 (7 ounce) jar", 
            "ingredient": "roasted red peppers, drained and chopped"
        }, 
        {
            "amount": "1 cup", 
            "ingredient": "chopped sun-dried tomatoes marinated in olive oil, drained"
        }, 
        {
            "amount": "4", 
            "ingredient": "pita bread rounds"
        }, 
        {
            "amount": "1 cup", 
            "ingredient": "fresh basil leaves, torn"
        }, 
        {
            "amount": "1/2 cup", 
            "ingredient": "balsamic vinegar, or to taste"
        }
    ], 
    "prep_steps": [
        "Preheat the oven to 400 degrees F (200 degrees C). Separate the pita breads by cutting around the outer edge, and carefully prying the halves apart to make two rounds out of each one.", 
        "Place the separated pita rounds onto cookie sheets. Generously sprinkle goat cheese, roasted red peppers and sun-dried tomatoes onto each one.", 
        "Bake the pizzas for 16 minutes in the preheated oven, or until the crust is crisp. As soon as the pizzas come out of the oven, sprinkle with torn basil, and drizzle with balsamic vinegar. Cut into quarters, and serve hot or warm."
    ], 
    "prep_time": "55 mins", 
    "recipe_name": "Goat Cheese Pizzas"
}