{
    "ingredients": [
        {
            "amount": "4 pounds", 
            "ingredient": "sliced peeled peaches"
        }, 
        {
            "amount": "1 cup", 
            "ingredient": "raisins"
        }, 
        {
            "amount": "2 cloves", 
            "ingredient": "garlic, minced"
        }, 
        {
            "amount": "1/2 cup", 
            "ingredient": "chopped onion"
        }, 
        {
            "amount": "5 ounces", 
            "ingredient": "chopped preserved ginger"
        }, 
        {
            "amount": "1 1/2 tablespoons", 
            "ingredient": "chili powder"
        }, 
        {
            "amount": "1 tablespoon", 
            "ingredient": "mustard seed"
        }, 
        {
            "amount": "1 teaspoon", 
            "ingredient": "curry powder"
        }, 
        {
            "amount": "4 cups", 
            "ingredient": "packed brown sugar"
        }, 
        {
            "amount": "4 cups", 
            "ingredient": "apple cider vinegar"
        }, 
        {
            "amount": "1/4 cup", 
            "ingredient": "pickling spice"
        }
    ], 
    "prep_steps": [
        "In a large heavy pot, stir together the peaches, raisins, garlic, onion, preserved ginger, chili powder, mustard seed, curry powder, brown sugar and cider vinegar. Wrap the pickling spice in a cheesecloth bag, and place in the pot.", 
        "Bring to a boil, and cook over medium heat uncovered until the mixture reaches your desired consistency. It will take about 1 1/2 hours to get a good thick sauce. Stir frequently to prevent scorching on the bottom.", 
        "Remove the spice bag, and ladle into hot sterilized jars. Wipe the rims with a clean moist cloth. Seal with lids and rings, and process in a barely simmering water bath for 10 minutes, or the time recommended by your local extension for your area. The water should cover the jars completely."
    ], 
    "prep_time": "10 hr", 
    "recipe_name": "Spicy Peach Chutney"
}