{
    "ingredients": [
        {
            "amount": "2 cups", 
            "ingredient": "buttermilk"
        }, 
        {
            "amount": "1 1/2 cups", 
            "ingredient": "rolled oats"
        }, 
        {
            "amount": "1/2 cup", 
            "ingredient": "all-purpose flour"
        }, 
        {
            "amount": "1/2 cup", 
            "ingredient": "cornmeal"
        }, 
        {
            "amount": "2 teaspoons", 
            "ingredient": "baking powder"
        }, 
        {
            "amount": "1 1/2 teaspoons", 
            "ingredient": "white sugar"
        }, 
        {
            "amount": "1/2 teaspoon", 
            "ingredient": "baking soda"
        }, 
        {
            "amount": "1/2 teaspoon", 
            "ingredient": "salt"
        }, 
        {
            "amount": "2", 
            "ingredient": "eggs, beaten"
        }, 
        {
            "amount": "1/4 cup", 
            "ingredient": "vegetable oil"
        }
    ], 
    "prep_steps": [
        "Mix buttermilk and oats in a large bowl; allow to rest about 5 minutes. Stir flour, cornmeal, baking powder, sugar, baking soda, and salt into oat mixture. Add eggs and vegetable oil; mix until just combined.", 
        "Heat a lightly oiled griddle over medium-high heat. Drop batter by large spoonfuls onto the griddle; cook until bubbles form and the edges are dry, about 3 minutes. Flip and cook until browned on the other side, about 3 minutes more. Repeat with remaining batter."
    ], 
    "prep_time": "25 mins", 
    "recipe_name": "Buttermilk Oatmeal Pancakes"
}