{
    "ingredients": [
        {
            "amount": "20", 
            "ingredient": "fresh asparagus spears, trimmed"
        }, 
        {
            "amount": "4 cups", 
            "ingredient": "low-sodium chicken broth"
        }, 
        {
            "amount": "2 tablespoons", 
            "ingredient": "olive oil"
        }, 
        {
            "amount": "1 small", 
            "ingredient": "onion, diced"
        }, 
        {
            "amount": "1 stalk", 
            "ingredient": "celery, diced"
        }, 
        {
            "amount": "1/4 teaspoon", 
            "ingredient": "salt"
        }, 
        {
            "amount": "1/4 teaspoon", 
            "ingredient": "ground black pepper"
        }, 
        {
            "amount": "1 clove", 
            "ingredient": "garlic, minced"
        }, 
        {
            "amount": "1 cup", 
            "ingredient": "arborio rice"
        }, 
        {
            "amount": "1/2 cup", 
            "ingredient": "dry white wine"
        }, 
        {
            "amount": "1/4 cup", 
            "ingredient": "freshly grated Parmesan cheese"
        }, 
        {
            "amount": "2 tablespoons", 
            "ingredient": "lemon juice"
        }, 
        {
            "amount": "1/2 teaspoon", 
            "ingredient": "lemon zest"
        }
    ], 
    "prep_steps": [
        "Place a steamer insert into a saucepan and fill with water to just below the bottom of the steamer. Bring water to a boil. Add asparagus, cover, and steam until tender, about 5 minutes. Cut asparagus into 1-inch pieces; set aside.", 
        "Heat chicken broth in a saucepan over medium heat; keep at a simmer while preparing risotto.", 
        "Heat olive oil in a large skillet over medium heat. Cook and stir onion and celery until vegetables are tender, about 5 minutes. Season with salt and black pepper. Stir in garlic and arborio rice; cook and stir until rice is lightly toasted, about 5 more minutes.", 
        "Pour white wine into rice mixture, stirring constantly, until liquid is evaporated, about 5 minutes. Stir chicken broth into rice, one ladleful at a time, allowing liquid to absorb completely before adding more while stirring constantly, about 20 minutes. Add asparagus and stir.", 
        "Remove from heat and mix in Parmesan cheese, lemon juice and lemon zest. Serve immediately."
    ], 
    "prep_time": "1 hr", 
    "recipe_name": "Lemon Asparagus Risotto"
}