{
    "ingredients": [
        {
            "amount": "1/2 cup", 
            "ingredient": "canola oil"
        }, 
        {
            "amount": "1/2 cup", 
            "ingredient": "white sugar"
        }, 
        {
            "amount": "1/4 cup", 
            "ingredient": "water"
        }, 
        {
            "amount": "1/4 cup", 
            "ingredient": "balsamic vinegar"
        }, 
        {
            "amount": "2 (3 ounce) packages", 
            "ingredient": "chicken-flavored ramen noodles, crushed, seasoning packets reserved"
        }, 
        {
            "amount": "1 (12 ounce) package", 
            "ingredient": "broccoli coleslaw mix"
        }, 
        {
            "amount": "1 bunch", 
            "ingredient": "green onions, sliced"
        }, 
        {
            "amount": "1 cup", 
            "ingredient": "roasted cashews"
        }, 
        {
            "amount": "1/4 cup", 
            "ingredient": "roasted sunflower seed kernels"
        }
    ], 
    "prep_steps": [
        "Whisk canola oil, sugar, water, balsamic vinegar, and seasoning packets from ramen noodles in a bowl until thoroughly combined and sugar and seasoning packets have dissolved.", 
        "Toss ramen noodles in a large salad bowl with broccoli slaw mix and green onions. Pour dressing over the salad and let stand 1/2 hour to 4 hours - shorter for crunchier noodles, longer for softer ones. Just before serving, toss salad again with cashews and sunflower seeds."
    ], 
    "prep_time": "50 mins", 
    "recipe_name": "Lawn Mower Salad"
}