{
    "ingredients": [
        {
            "amount": "2", 
            "ingredient": "hamburger buns, split and cut into 3/4 inch strips*"
        }, 
        {
            "amount": "1/2 small", 
            "ingredient": "red onion, chopped"
        }, 
        {
            "amount": "1 pound", 
            "ingredient": "lean ground beef"
        }, 
        {
            "amount": "1 cup", 
            "ingredient": "ketchup"
        }, 
        {
            "amount": "1/2 cup", 
            "ingredient": "finely chopped dill pickle"
        }, 
        {
            "amount": "1 tablespoon", 
            "ingredient": "prepared yellow mustard"
        }, 
        {
            "amount": "1/2 small", 
            "ingredient": "red onion, sliced"
        }, 
        {
            "amount": "8 cups", 
            "ingredient": "chopped lettuce"
        }, 
        {
            "amount": "2", 
            "ingredient": "plum tomatoes, chopped"
        }, 
        {
            "amount": "1 cup", 
            "ingredient": "shredded Cheddar cheese"
        }
    ], 
    "prep_steps": [
        "Preheat an oven to 425 degrees F (220 degrees C).", 
        "Arrange the strips in a single layer on a baking sheet, and bake for 8 to 10 minutes, until the strips are lightly toasted. Set the strips aside.", 
        "Place the ground beef into a skillet over medium heat, and brown the meat for about 10 to 12 minutes, breaking the beef apart as it cooks, until the meat is well browned and no longer pink inside. Stir the chopped onion, ketchup, dill pickle, and mustard into the beef mixture and mix well.", 
        "Arrange the chopped lettuce on a large serving platter, and spoon the beef mixture over the lettuce. Top the salad with the sliced onion, plum tomatoes, and shredded cheese, and arrange the hamburger bun croutons around the platter."
    ], 
    "prep_time": "40 mins", 
    "recipe_name": "Cheeseburger Salad"
}