{
    "ingredients": [
        {
            "amount": "5 tablespoons", 
            "ingredient": "butter"
        }, 
        {
            "amount": "1 cup", 
            "ingredient": "heavy cream"
        }, 
        {
            "amount": "3 tablespoons", 
            "ingredient": "brown sugar"
        }, 
        {
            "amount": "1/2 teaspoon", 
            "ingredient": "maple flavored extract"
        }, 
        {
            "amount": "1/2 teaspoon", 
            "ingredient": "ground cinnamon"
        }
    ], 
    "prep_steps": [
        "In a small saucepan, melt butter over medium heat. Stir in cream, brown sugar, maple extract and cinnamon. Cook, whisking constantly, until sugar dissolves and mixture thickens slightly, about 3 to 4 minutes. Serve warm."
    ], 
    "prep_time": "7 mins", 
    "recipe_name": "Cinnamon Cream Syrup"
}