{
    "ingredients": [
        {
            "amount": "1", 
            "ingredient": "Gala apple, peeled, cored, and thinly sliced"
        }, 
        {
            "amount": "1/2 teaspoon", 
            "ingredient": "white sugar"
        }, 
        {
            "amount": "1/2 teaspoon", 
            "ingredient": "ground cinnamon"
        }, 
        {
            "amount": "8 tablespoons", 
            "ingredient": "creamy peanut butter"
        }, 
        {
            "amount": "8 slices", 
            "ingredient": "whole wheat bread"
        }, 
        {
            "amount": "1/4 cup", 
            "ingredient": "unsalted butter"
        }
    ], 
    "prep_steps": [
        "Mix cinnamon and sugar together in a small bowl. Spread one tablespoon of peanut butter onto one side of 8 slices of bread.", 
        "Arrange apple slices on 4 slices of bread. Sprinkle the cinnamon/sugar mixture evenly over the apples. Top with the remaining 4 slices of bread, peanut butter face down.", 
        "Melt the butter in a large skillet over medium heat. Fry sandwiches until browned, about 1 to 2 minutes on each side."
    ], 
    "prep_time": "15 mins", 
    "recipe_name": "Grilled Peanut Butter Apple Sandwiches"
}