{
    "ingredients": [
        {
            "amount": "4", 
            "ingredient": "skinless, boneless chicken breast halves"
        }, 
        {
            "amount": "1 tablespoon", 
            "ingredient": "olive oil"
        }, 
        {
            "amount": "1 tablespoon", 
            "ingredient": "butter"
        }, 
        {
            "amount": "1 (14 ounce) can", 
            "ingredient": "marinated quartered artichoke hearts, drained, liquid reserved"
        }, 
        {
            "amount": "1 cup", 
            "ingredient": "sliced fresh mushrooms"
        }, 
        {
            "amount": "1 cup", 
            "ingredient": "white wine"
        }, 
        {
            "amount": "1 tablespoon", 
            "ingredient": "capers"
        }
    ], 
    "prep_steps": [
        "Season chicken with salt and pepper. Heat oil and butter in a large skillet over medium heat. Brown chicken in oil and butter for 5 to 7 minutes per side; remove from skillet, and set aside.", 
        "Place artichoke hearts and mushrooms in the skillet, and saute until mushrooms are brown and tender. Return chicken to skillet, and pour in reserved artichoke liquid and wine. Reduce heat to low, and simmer for about 10 to 15 minutes, until chicken is no longer pink and juices run clear.", 
        "Stir in capers, and simmer for another 5 minutes. Remove from heat; serve immediately."
    ], 
    "prep_time": "45 mins", 
    "recipe_name": "Romantic Chicken with Artichokes and Mushrooms"
}