{
    "ingredients": [
        {
            "amount": "1 (8 ounce) package", 
            "ingredient": "cream cheese, softened"
        }, 
        {
            "amount": "2 cups", 
            "ingredient": "shredded Cheddar cheese"
        }, 
        {
            "amount": "2 (4.5 ounce) cans", 
            "ingredient": "shrimp, rinsed and drained"
        }, 
        {
            "amount": "4 tablespoons", 
            "ingredient": "mayonnaise"
        }, 
        {
            "amount": "2 tablespoons", 
            "ingredient": "minced onion"
        }, 
        {
            "amount": "1 teaspoon", 
            "ingredient": "prepared horseradish"
        }, 
        {
            "amount": "1/2 teaspoon", 
            "ingredient": "dried dill weed"
        }, 
        {
            "amount": "1 dash", 
            "ingredient": "vinegar-based hot pepper sauce"
        }, 
        {
            "amount": "1 teaspoon", 
            "ingredient": "lemon pepper"
        }, 
        {
            "amount": "1/2 teaspoon", 
            "ingredient": "paprika"
        }
    ], 
    "prep_steps": [
        "Preheat oven to 350 degrees F (175 degrees C).", 
        "In a medium-size mixing bowl, combine cream cheese, Cheddar cheese, shrimp, mayonnaise, onion, horseradish, dill, and hot pepper sauce. Pour mixture into an 8x8 inch baking dish. Sprinkle with lemon pepper seasoning and paprika.", 
        "Bake at 350 degrees F (175 degrees C) for 25 minutes; or until the mixture is bubbly."
    ], 
    "prep_time": "30 mins", 
    "recipe_name": "Shrimp Spread II"
}