{
    "ingredients": [
        {
            "amount": "1 pound", 
            "ingredient": "carrots, grated"
        }, 
        {
            "amount": "1 cup", 
            "ingredient": "crushed pineapple"
        }, 
        {
            "amount": "1/2 cup", 
            "ingredient": "raisins"
        }, 
        {
            "amount": "1 tablespoon", 
            "ingredient": "honey"
        }, 
        {
            "amount": "2 tablespoons", 
            "ingredient": "mayonnaise, or to taste"
        }, 
        {
            "amount": "1 dash", 
            "ingredient": "lemon juice"
        }
    ], 
    "prep_steps": [
        "In a large bowl, mix together the carrots, pineapple and raisins. Stir in the honey, mayonnaise and lemon juice until evenly coated. Refrigerate for at least 30 minutes before serving to let the flavors meld."
    ], 
    "prep_time": "40 mins", 
    "recipe_name": "Sweet Carrot Salad"
}