{
    "ingredients": [
        {
            "amount": "1 3/4 cups", 
            "ingredient": "water"
        }, 
        {
            "amount": "3/4 cup", 
            "ingredient": "white rice"
        }, 
        {
            "amount": "3 tablespoons", 
            "ingredient": "butter"
        }, 
        {
            "amount": "3 tablespoons", 
            "ingredient": "all-purpose flour"
        }, 
        {
            "amount": "2 cups", 
            "ingredient": "milk"
        }, 
        {
            "amount": "2 cups", 
            "ingredient": "shredded Swiss cheese"
        }, 
        {
            "amount": "1 teaspoon", 
            "ingredient": "hot pepper sauce"
        }, 
        {
            "amount": "2 (10 ounce) packages", 
            "ingredient": "frozen chopped spinach, thawed and drained"
        }, 
        {
            "amount": "2 tablespoons", 
            "ingredient": "vegetable oil"
        }, 
        {
            "amount": "1", 
            "ingredient": "onion, chopped"
        }, 
        {
            "amount": "2 cloves", 
            "ingredient": "garlic"
        }, 
        {
            "amount": "1", 
            "ingredient": "red bell pepper, chopped"
        }, 
        {
            "amount": "1 (15 ounce) can", 
            "ingredient": "white corn, drained"
        }, 
        {
            "amount": "1/2 cup", 
            "ingredient": "dried bread crumbs, seasoned"
        }, 
        {
            "amount": "2 tablespoons", 
            "ingredient": "butter, diced"
        }
    ], 
    "prep_steps": [
        "Combine water and rice in a small saucepan, and bring to a boil. Cover, reduce heat, and simmer for 20 minutes.", 
        "Melt 3 tablespoons butter in a large saucepan over medium heat. Mix flour into the butter slowly, stirring constantly. Whisk in milk a small amount at time until smooth. Cook over a medium heat until thickened, stirring constantly. Stir in 1 1/2 cups shredded Swiss cheese, salt, pepper, and hot sauce; stir until the cheese melts. Stir in spinach.", 
        "Meanwhile, heat oil in a skillet over medium heat. Cook onion, garlic, bell pepper, and corn in oil until tender, stirring frequently.", 
        "Preheat oven to 350 degrees F (175 degrees C). In a large casserole dish, combine rice, spinach-cheese mixture, and onion mixture. Sprinkle breadcrumbs over the top of the casserole, dot with 2 tablespoons butter, and top with remaining 1/2 cup of cheese.", 
        "Bake, uncovered, in the preheated oven for approximately 20 minutes, or until cheese topping melts."
    ], 
    "prep_time": "1\u00bc hrs", 
    "recipe_name": "Spinach Veggie Casserole"
}