{
    "ingredients": [
        {
            "amount": "2 cups", 
            "ingredient": "rolled oats"
        }, 
        {
            "amount": "1/2 cup", 
            "ingredient": "raisins"
        }, 
        {
            "amount": "1/2 cup", 
            "ingredient": "chopped walnuts, toasted"
        }, 
        {
            "amount": "1 1/2 teaspoons", 
            "ingredient": "ground cardamom"
        }, 
        {
            "amount": "6 tablespoons", 
            "ingredient": "butter"
        }, 
        {
            "amount": "1/3 cup", 
            "ingredient": "packed brown sugar"
        }, 
        {
            "amount": "3 tablespoons", 
            "ingredient": "honey"
        }
    ], 
    "prep_steps": [
        "Preheat oven to 350 degrees F.", 
        "Line a 9-inch square pan with foil, extending the foil over the sides.", 
        "Grease the foil with shortening or butter.", 
        "Mix the first 4 ingredients in a bowl.", 
        "Heat the butter, brown sugar and honey in a saucepan until the butter melts and begins to boil.", 
        "Pour this mixture over the dry ingredients and mix until well coated. Transfer to the prepared pan and press evenly with a spatula.", 
        "Bake about 30 minutes or until the top is golden brown.", 
        "Cool on rack. Using the foil, lift out of the pan and place on cutting board. Cut into 18 bars."
    ], 
    "recipe_name": "Cardamom Granola Bars"
}