{
    "ingredients": [
        {
            "amount": "1 1/2 cups", 
            "ingredient": "cake flour"
        }, 
        {
            "amount": "1 cup", 
            "ingredient": "white sugar"
        }, 
        {
            "amount": "2 teaspoons", 
            "ingredient": "baking powder"
        }, 
        {
            "amount": "1/2 teaspoon", 
            "ingredient": "salt"
        }, 
        {
            "amount": "1/3 cup", 
            "ingredient": "shortening"
        }, 
        {
            "amount": "2/3 cup", 
            "ingredient": "milk"
        }, 
        {
            "amount": "1 teaspoon", 
            "ingredient": "vanilla extract"
        }, 
        {
            "amount": "1", 
            "ingredient": "egg"
        }
    ], 
    "prep_steps": [
        "Preheat oven to 350 degrees F (175 degrees C), grease and flour an 8x8 inch pan.", 
        "Sift flour, sugar, baking powder and salt into a large bowl. Add shortening and milk. Mix until smooth, then add vanilla and egg. Mix well.", 
        "Pour into an 8x8 inch pan. Bake at 350 degrees F (175 degrees C) for 30 to 35 minutes or until a toothpick inserted into the cake comes out clean."
    ], 
    "recipe_name": "Dinette Cake"
}