{
    "ingredients": [
        {
            "amount": "1 cup", 
            "ingredient": "sifted cake flour"
        }, 
        {
            "amount": "1 1/2 teaspoons", 
            "ingredient": "baking powder"
        }, 
        {
            "amount": "1/4 teaspoon", 
            "ingredient": "salt"
        }, 
        {
            "amount": "2", 
            "ingredient": "eggs"
        }, 
        {
            "amount": "3/4 cup", 
            "ingredient": "white sugar"
        }, 
        {
            "amount": "1/2 teaspoon", 
            "ingredient": "vanilla extract"
        }, 
        {
            "amount": "2 tablespoons", 
            "ingredient": "2% milk"
        }, 
        {
            "amount": "1/2 cup", 
            "ingredient": "confectioners' sugar for dusting"
        }, 
        {
            "amount": "1 cup", 
            "ingredient": "strawberry jam"
        }
    ], 
    "prep_steps": [
        "Preheat the oven to 375 degrees F (190 degrees C). Line a 10x15 inch jellyroll pan with parchment paper.", 
        "Sift together the flour, baking powder and salt. Set aside. In a large bowl, beat eggs and sugar with an electric mixer until thick and pale, about 5 minutes. Stir in the vanilla and milk. Stir in the dry ingredients gradually. The batter will be thin. Pour into the prepared pan.", 
        "Bake for 8 to 10 minutes in the preheated oven, until the center springs back when pressed lightly. Don't over bake, or it may crack.", 
        "Generously dust a clean dish towel with confectioners' sugar. Turn the cake out onto the towel, and peel off the parchment paper. Gently roll up the cake using the towel, and let cool for about 10 minutes.", 
        "Unroll the cake, and spread an even coating of jam onto the top. Roll the cake back up into a tight spiral, and remove the towel. Dust with confectioners' sugar before serving."
    ], 
    "prep_time": "20 mins", 
    "recipe_name": "Jelly Roll"
}