{
    "ingredients": [
        {
            "amount": "2 large", 
            "ingredient": "sweet potatoes, peeled and cubed"
        }, 
        {
            "amount": "1 large", 
            "ingredient": "russet potato, peeled and cubed"
        }, 
        {
            "amount": "2 large", 
            "ingredient": "carrots, peeled and diced"
        }, 
        {
            "amount": "1/4 cup", 
            "ingredient": "egg substitute"
        }, 
        {
            "amount": "1/3 cup", 
            "ingredient": "light sour cream"
        }, 
        {
            "amount": "1 tablespoon", 
            "ingredient": "olive oil"
        }, 
        {
            "amount": "1 pound", 
            "ingredient": "ground turkey"
        }, 
        {
            "amount": "1/2 cup", 
            "ingredient": "chopped onion"
        }, 
        {
            "amount": "1 stalk", 
            "ingredient": "celery, chopped"
        }, 
        {
            "amount": "1 clove", 
            "ingredient": "garlic, minced"
        }, 
        {
            "amount": "1 teaspoon", 
            "ingredient": "crumbled dried thyme"
        }, 
        {
            "amount": "3/4 teaspoon", 
            "ingredient": "poultry seasoning"
        }, 
        {
            "amount": "1/2 cup", 
            "ingredient": "chicken stock"
        }, 
        {
            "amount": "1/2 cup", 
            "ingredient": "hot milk"
        }, 
        {
            "amount": "1 tablespoon", 
            "ingredient": "all-purpose flour"
        }, 
        {
            "amount": "1 dash", 
            "ingredient": "Worcestershire sauce"
        }, 
        {
            "amount": "1 dash", 
            "ingredient": "browning sauce"
        }, 
        {
            "amount": "1 1/3 cups", 
            "ingredient": "herb-seasoned stuffing mix"
        }, 
        {
            "amount": "1 cup", 
            "ingredient": "peas"
        }, 
        {
            "amount": "3/4 cup", 
            "ingredient": "corn"
        }, 
        {
            "amount": "1/2 teaspoon", 
            "ingredient": "crumbled dried thyme"
        }, 
        {
            "amount": "1 teaspoon", 
            "ingredient": "ground nutmeg"
        }
    ], 
    "prep_steps": [
        "Preheat oven to 375 degrees F (190 degrees C). Lightly grease a 2-quart, deep-dish casserole pan.", 
        "Place the sweet potato, russet potato, and carrot each in separate saucepans. Pour enough water into each saucepan to cover the vegetables. Place each saucepan over medium heat and bring to a boil. Cook each until tender enough to pierce with a fork, 5 to 7 minutes; drain. Set the carrots aside.", 
        "Place the drained sweet potato and russet potato in a large mixing bowl; mash lightly. Add the egg substitute and sour cream. Blend the potato mixture with an electric hand mixer set to medium until smooth and fluffy, about 2 minutes. Season with salt and pepper. Set aside.", 
        "Heat the oil in a large skillet over medium heat. Cook the turkey in the hot oil until browned, 4 to 5 minutes. Add the onion, celery, garlic, 1 teaspoon thyme, and poultry seasoning. Cook until the turkey is cooked through and no longer pink. Increase the heat to medium-high. Pour the chicken stock into the turkey mixture. Whisk together the hot milk and flour until smooth. When the chicken stock begins to boil, add the flour mixture to the stock and stir until it thickens. Remove from heat and stir in Worcestershire sauce and browning sauce.", 
        "Pour the turkey mixture into the bottom of the prepared casserole dish. Sprinkle the stuffing mix over the turkey mixture. Arrange the carrots, peas, and corn atop the stuffing mix. Season with thyme, salt and pepper. Spoon the potato mixture over the vegetables, spreading to cover all the way to the edges of the dish. Sprinkle with nutmeg.", 
        "Bake in preheated oven until top is slightly browned, about 35 minutes. Allow to rest 30 minutes before serving."
    ], 
    "prep_time": "2\u00bd hrs", 
    "recipe_name": "Sweet Potato and Turkey Shepherd's Pie"
}