{
    "ingredients": [
        {
            "amount": "1/2 (8 ounce) package", 
            "ingredient": "cream cheese"
        }, 
        {
            "amount": "1 cup", 
            "ingredient": "confectioners' sugar"
        }, 
        {
            "amount": "1/3 cup", 
            "ingredient": "smooth peanut butter"
        }, 
        {
            "amount": "1 cup", 
            "ingredient": "frozen whipped topping, thawed"
        }, 
        {
            "amount": "1 (9 inch)", 
            "ingredient": "prepared graham cracker crust"
        }, 
        {
            "amount": "1/4 cup", 
            "ingredient": "finely chopped peanuts"
        }
    ], 
    "prep_steps": [
        "Whip the cream cheese until soft and fluffy. Beat in the sugar and peanut butter.", 
        "Fold whipped topping into the peanut butter mixture. Pour filling into the pie shell. Sprinkle pie with chopped peanuts. Chill until firm."
    ], 
    "prep_time": "2 hr", 
    "recipe_name": "Peanut Butter Cream Pie"
}