{
    "ingredients": [
        {
            "amount": "3 tablespoons", 
            "ingredient": "extra virgin olive oil"
        }, 
        {
            "amount": "2 cloves", 
            "ingredient": "garlic, peeled and chopped"
        }, 
        {
            "amount": "1 (14.5 ounce) can", 
            "ingredient": "diced tomatoes, drained"
        }, 
        {
            "amount": "14 ounces", 
            "ingredient": "fusilli (spiral) pasta"
        }, 
        {
            "amount": "3 tablespoons", 
            "ingredient": "pesto"
        }, 
        {
            "amount": "3 tablespoons", 
            "ingredient": "freshly grated Parmesan cheese"
        }, 
        {
            "amount": "3 tablespoons", 
            "ingredient": "fresh basil leaves for garnish"
        }
    ], 
    "prep_steps": [
        "Heat oil in a medium skillet over medium heat. Saute garlic for 2 minutes, then add tomatoes and simmer for 10 minutes.", 
        "Meanwhile, bring a large pot of lightly salted water to a boil. Add pasta and cook for 8 to 10 minutes or until al dente; drain and return to pot.", 
        "Season tomato sauce with salt and pepper; stir in pesto. Pour sauce over hot cooked pasta and mix well. Sprinkle with cheese, garnish with basil leaves and serve immediately."
    ], 
    "prep_time": "30 mins", 
    "recipe_name": "Easy Fusilli with Tomato Pesto Sauce"
}