{
    "ingredients": [
        {
            "amount": "1 (8 ounce) package", 
            "ingredient": "penne pasta"
        }, 
        {
            "amount": "1/2 pound", 
            "ingredient": "spicy Italian sausage"
        }, 
        {
            "amount": "1/4", 
            "ingredient": "red onion, diced"
        }, 
        {
            "amount": "4 cloves", 
            "ingredient": "garlic, minced"
        }, 
        {
            "amount": "2 tablespoons", 
            "ingredient": "olive oil"
        }, 
        {
            "amount": "1/4 teaspoon", 
            "ingredient": "dried oregano"
        }, 
        {
            "amount": "1/4 teaspoon", 
            "ingredient": "salt"
        }, 
        {
            "amount": "1/8 teaspoon", 
            "ingredient": "ground black pepper"
        }, 
        {
            "amount": "1/8 teaspoon", 
            "ingredient": "crushed red pepper flakes"
        }, 
        {
            "amount": "1/4 cup", 
            "ingredient": "Marsala wine"
        }, 
        {
            "amount": "1", 
            "ingredient": "yellow bell pepper, chopped"
        }, 
        {
            "amount": "1", 
            "ingredient": "red bell pepper, diced"
        }, 
        {
            "amount": "1", 
            "ingredient": "zucchini, diced"
        }, 
        {
            "amount": "1/2 cup", 
            "ingredient": "fresh sliced mushrooms"
        }, 
        {
            "amount": "2 cups", 
            "ingredient": "chicken stock"
        }, 
        {
            "amount": "1/4 cup", 
            "ingredient": "blanched green peas"
        }, 
        {
            "amount": "3 tablespoons", 
            "ingredient": "grated Parmesan cheese"
        }
    ], 
    "prep_steps": [
        "In a large pot with boiling salted water cook penne pasta until al dente. Drain.", 
        "Meanwhile, in a large skillet cook sausage until brown. Remove from pan. Saute the red onion and garlic in the olive oil until soft and transparent. Add the oregano, salt, ground black pepper, red pepper flakes, 1/2 of the wine, yellow bell pepper, red bell pepper, zucchini, mushrooms, and saute until tender. Add remaining wine and chicken stock and cook until liquid has reduced to a thick sauce, about 20 minutes.", 
        "After sauce has reduced, add cooked sausage and thawed peas to the sauce and stir to heat through.", 
        "Toss pasta with the sauce to coat evenly. Sprinkle with the grated Parmesan cheese. Serve warm."
    ], 
    "recipe_name": "Sausage, Zucchini and Two Pepper Pasta"
}