{
    "ingredients": [
        {
            "amount": "1 pound", 
            "ingredient": "prepared pie dough, cut into 4 pieces"
        }, 
        {
            "amount": "2 large", 
            "ingredient": "green apples, peeled and cored"
        }, 
        {
            "amount": "2 tablespoons", 
            "ingredient": "butter"
        }, 
        {
            "amount": "1/4 teaspoon", 
            "ingredient": "salt"
        }, 
        {
            "amount": "1/4 cup", 
            "ingredient": "white sugar"
        }, 
        {
            "amount": "2 tablespoons", 
            "ingredient": "brown sugar"
        }, 
        {
            "amount": "1 1/2 teaspoons", 
            "ingredient": "ground cinnamon, or to taste"
        }, 
        {
            "amount": "1 teaspoon", 
            "ingredient": "water, or more if needed"
        }, 
        {
            "amount": "1", 
            "ingredient": "egg"
        }, 
        {
            "amount": "2 teaspoons", 
            "ingredient": "milk"
        }, 
        {
            "amount": "1 teaspoon", 
            "ingredient": "white sugar, or as needed - divided"
        }
    ], 
    "prep_steps": [
        "Line a baking sheet with a silicone mat or parchment paper.", 
        "Cut peeled and cored apples into quarters, cut each quarter into 3 wedges, and cut wedges into chunks.", 
        "Melt butter in a large skillet over medium heat; let butter brown to a light golden color and until butter smells toasted, about 1 minute. Stir apples into hot butter; sprinkle with salt, white sugar, and brown sugar. Cook and stir apple mixture until apples are softened, about 5 minutes. Mix in cinnamon and water; continue cooking until apples are soft and sticky, 1 to 2 more minutes. Spread apple filling onto a plate to cool.", 
        "Preheat oven to 400 degrees F (200 degrees C).", 
        "Form a dough piece into a ball, place on a floured work surface, and roll into a circle about 8 inches in diameter. Spoon 1/3 to 1/2 cup apple filling in the center. Fold dough over filling, leaving about 1 inch of dough on the bottom side visible below the top side. Gently press dough closed around filling, using your fingertips.", 
        "Fold the overhanging bottom part of the dough up over the top edge, working your way around the crust, and pinch the overhang tightly to the top part of the crust.", 
        "Crimp the edge tightly closed, pinching a little bit of dough with the thumb and forefinger of one hand and using your index finger on the other hand to push a small notch into the pinched dough. Continue pinching and notching all the way around until the crust is tightly crimped together. Repeat with remaining dough and filling. Transfer pies onto prepared baking sheet.", 
        "Whisk egg with milk in a small bowl until thoroughly combined. Brush top of each hand pie with egg mixture and sprinkle with about 1/4 teaspoon white sugar. Cut 3 small vent holes in the top of each pie.", 
        "Bake in the preheated oven until pies are golden brown and filling is bubbling, 25 to 30 minutes. Let cool for at least 15 minutes before serving."
    ], 
    "prep_time": "1\u00bc hrs", 
    "recipe_name": "Apple Hand Pies"
}