{
    "ingredients": [
        {
            "amount": "1 1/2 cups", 
            "ingredient": "all-purpose flour"
        }, 
        {
            "amount": "3 tablespoons", 
            "ingredient": "white sugar"
        }, 
        {
            "amount": "1/2 teaspoon", 
            "ingredient": "salt"
        }, 
        {
            "amount": "1/2 cup", 
            "ingredient": "butter, chilled and diced"
        }, 
        {
            "amount": "1", 
            "ingredient": "egg yolk"
        }, 
        {
            "amount": "3 tablespoons", 
            "ingredient": "ice water"
        }, 
        {
            "amount": "1 1/2 cups", 
            "ingredient": "pecan halves"
        }, 
        {
            "amount": "3", 
            "ingredient": "eggs"
        }, 
        {
            "amount": "1 cup", 
            "ingredient": "light corn syrup"
        }, 
        {
            "amount": "3/4 cup", 
            "ingredient": "white sugar"
        }, 
        {
            "amount": "2 tablespoons", 
            "ingredient": "all-purpose flour"
        }, 
        {
            "amount": "3 tablespoons", 
            "ingredient": "milk"
        }, 
        {
            "amount": "3 tablespoons", 
            "ingredient": "butter, melted"
        }, 
        {
            "amount": "1 teaspoon", 
            "ingredient": "vanilla extract"
        }
    ], 
    "prep_steps": [
        "In a large bowl, combine 1 1/2 cups flour, 3 tablespoons sugar and salt. Cut in butter until mixture resembles coarse crumbs. Mix yolk with water and stir in until mixture forms a ball. Wrap in plastic and refrigerate for 1 hour or overnight. Roll out and place in a 9 inch pie plate.", 
        "Preheat oven to 450 degrees F (230 degrees C.)", 
        "Place pecans in the bottom of pie crust. In a large bowl, Stir together 3/4 cup of sugar and flour. Mix in the eggs, corn syrup, milk, melted butter and vanilla. Blend well and pour over pecans in crust.", 
        "Bake in the preheated oven for 10 minutes. Reduce temperature to 350 degrees F (175 degrees C) and bake for 40 to 50 minutes, or until golden brown and filling is set."
    ], 
    "prep_time": "4 hr", 
    "recipe_name": "Southern Pecan Pie II"
}