{
    "ingredients": [
        {
            "amount": "1", 
            "ingredient": "egg"
        }, 
        {
            "amount": "1/2 cup", 
            "ingredient": "brown sugar"
        }, 
        {
            "amount": "1/8 teaspoon", 
            "ingredient": "salt"
        }, 
        {
            "amount": "1/2 teaspoon", 
            "ingredient": "vanilla extract"
        }, 
        {
            "amount": "1/4 teaspoon", 
            "ingredient": "lemon extract"
        }, 
        {
            "amount": "1 tablespoon", 
            "ingredient": "melted butter"
        }, 
        {
            "amount": "1/2 cup", 
            "ingredient": "raisins"
        }, 
        {
            "amount": "8 (3 inch)", 
            "ingredient": "unbaked tart shells"
        }
    ], 
    "prep_steps": [
        "Preheat oven to 400 degrees F (200 degrees C.)", 
        "In a large bowl, beat the egg, then beat in brown sugar and salt. Stir in vanilla and lemon extract. Beat until light and bubbly, then stir in melted butter. Fold in raisins. Drop filling by spoonfuls into tart shells.", 
        "Bake in preheated oven for 10 minutes. Reduce oven temperature to 350 degrees F (175 degrees C) and bake an additional 20 to 25 minutes, until filling is set and pastry is golden brown."
    ], 
    "prep_time": "30 mins", 
    "recipe_name": "Butter Tarts II"
}