{
    "ingredients": [
        {
            "amount": "1 (8 ounce) slice", 
            "ingredient": "feta cheese"
        }, 
        {
            "amount": "2 teaspoons", 
            "ingredient": "olive oil"
        }, 
        {
            "amount": "2 tablespoons", 
            "ingredient": "crushed red pepper flakes, or as needed"
        }, 
        {
            "amount": "1 pinch", 
            "ingredient": "dried oregano"
        }
    ], 
    "prep_steps": [
        "Preheat an oven to 300 degrees F (150 degrees C).", 
        "Place the feta in an ovenproof baking dish. Drizzle with olive oil. Cover liberally with pepper flakes, and sprinkle with oregano.", 
        "Bake, uncovered, in the preheated oven until feta is soft, about 10 minutes."
    ], 
    "prep_time": "15 mins", 
    "recipe_name": "Spicy Baked Feta (Feta Psiti)"
}