{
    "ingredients": [
        {
            "amount": "1 (18.25 ounce) package", 
            "ingredient": "yellow cake mix"
        }, 
        {
            "amount": "4", 
            "ingredient": "eggs"
        }, 
        {
            "amount": "2 (3.5 ounce) packages", 
            "ingredient": "instant vanilla pudding mix"
        }, 
        {
            "amount": "1/2 cup", 
            "ingredient": "vegetable oil"
        }, 
        {
            "amount": "2 teaspoons", 
            "ingredient": "orange extract"
        }, 
        {
            "amount": "1 (11 ounce) can", 
            "ingredient": "mandarin orange segments"
        }, 
        {
            "amount": "1 (12 ounce) container", 
            "ingredient": "frozen whipped topping, thawed"
        }, 
        {
            "amount": "1 (8 ounce) can", 
            "ingredient": "crushed pineapple, drained"
        }
    ], 
    "prep_steps": [
        "Combine cake mix, eggs, 1 package of pudding, vegetable oil, orange extract, and mandarin oranges and beat well for about 3 minutes.", 
        "Bake in 3 - 9 inch greased and floured round cake pans for 20-25 minutes in a pre-heated 350 degree F (175 degrees C) oven.", 
        "To Make Frosting: Fold pudding and pineapple into whipped topping and frost cake. Keep refrigerated."
    ], 
    "recipe_name": "Orange Sunshine Cake"
}