{
    "ingredients": [
        {
            "amount": "3 cups", 
            "ingredient": "all-purpose flour"
        }, 
        {
            "amount": "1/2 cup", 
            "ingredient": "white sugar"
        }, 
        {
            "amount": "3 teaspoons", 
            "ingredient": "baking powder"
        }, 
        {
            "amount": "1/2 teaspoon", 
            "ingredient": "baking soda"
        }, 
        {
            "amount": "1 teaspoon", 
            "ingredient": "salt"
        }, 
        {
            "amount": "3/4 teaspoon", 
            "ingredient": "ground cinnamon"
        }, 
        {
            "amount": "1 cup", 
            "ingredient": "raisins"
        }, 
        {
            "amount": "1", 
            "ingredient": "egg"
        }, 
        {
            "amount": "1/4 cup", 
            "ingredient": "melted butter"
        }, 
        {
            "amount": "1 cup", 
            "ingredient": "milk"
        }
    ], 
    "prep_steps": [
        "Preheat oven to 350 degrees F (175 degrees C). Grease one 9x5x3 inch loaf pan.", 
        "In large bowl measure flour, sugar, baking powder, soda, salt, cinnamon, and raisins. Stir thoroughly. Make a well in center.", 
        "In small bowl beat egg until frothy. Mix in melted butter and milk. Pour into well. Stir just enough to moisten. Scrape into greased 9x5x3 inch loaf pan.", 
        "Bake in 350 degree F (175 degree C) oven for 1 hour. Serve plain or toasted with butter."
    ], 
    "prep_time": "1\u00bc hrs", 
    "recipe_name": "Raisin Bread I"
}