{
    "ingredients": [
        {
            "amount": "1 cup", 
            "ingredient": "sour cream"
        }, 
        {
            "amount": "1 teaspoon", 
            "ingredient": "salt"
        }, 
        {
            "amount": "1/2 cup", 
            "ingredient": "white sugar"
        }, 
        {
            "amount": "1/2 cup", 
            "ingredient": "butter, melted"
        }, 
        {
            "amount": "2 (.25 ounce) packages", 
            "ingredient": "active dry yeast"
        }, 
        {
            "amount": "2", 
            "ingredient": "eggs, beaten"
        }, 
        {
            "amount": "4 cups", 
            "ingredient": "all-purpose flour"
        }, 
        {
            "amount": "1/4 cup", 
            "ingredient": "chopped fresh chives"
        }, 
        {
            "amount": "1/2 cup", 
            "ingredient": "warm water (110 degrees F/45 degrees C)"
        }
    ], 
    "prep_steps": [
        "In a small saucepan, heat sour cream until very hot. Add salt, sugar, and melted butter. Cool until lukewarm.", 
        "In a large bowl, dissolve yeast in warm water. Mix in sour cream mixture, eggs, flour, and chives. Cover, and refrigerate overnight.", 
        "Preheat oven to 375 degrees F (190 degrees C). Grease baking sheets or line them with parchment paper.", 
        "Divide dough into 4 parts; shape each piece into a ball. Cover dough rounds with plastic wrap when not working with them.", 
        "Roll a ball into a 10-inch circle. Let dough rest while you roll out another circle. Cut first circle into 12 thin pie-shaped pieces. Starting at the wide end, roll up each triangle, ending with the point. Curl the edges in toward the point. Place point-side down on prepared baking sheets. Repeat with remaining dough. Allow crescent rolls to rise until doubled in size, about 30 minutes.", 
        "Bake in preheated oven until golden brown, 12 to 15 minutes."
    ], 
    "prep_time": "1 days", 
    "recipe_name": "Sour Cream and Chive Rolls"
}