{
    "ingredients": [
        {
            "amount": "1/2 cup", 
            "ingredient": "shortening"
        }, 
        {
            "amount": "1/2 cup", 
            "ingredient": "butter"
        }, 
        {
            "amount": "2 cups", 
            "ingredient": "white sugar"
        }, 
        {
            "amount": "6", 
            "ingredient": "eggs"
        }, 
        {
            "amount": "3 cups", 
            "ingredient": "milk"
        }, 
        {
            "amount": "3 cups", 
            "ingredient": "self-rising flour"
        }, 
        {
            "amount": "2 teaspoons", 
            "ingredient": "vanilla extract"
        }, 
        {
            "amount": "3 cups", 
            "ingredient": "white sugar"
        }, 
        {
            "amount": "1 cup", 
            "ingredient": "butter"
        }, 
        {
            "amount": "1/2 cup", 
            "ingredient": "unsweetened cocoa powder"
        }, 
        {
            "amount": "1/4 cup", 
            "ingredient": "water"
        }, 
        {
            "amount": "2 cups", 
            "ingredient": "evaporated milk"
        }
    ], 
    "prep_steps": [
        "Preheat oven to 350 degrees F (175 degrees C). Grease and flour 4 or 5 - 8 inch round cake pans.", 
        "In a large bowl, cream together the shortening, 1/2 cup butter and 2 cups sugar until light and fluffy. Add the eggs one at a time, beating well with each addition, then stir in the vanilla. Add the flour alternately with the 3 cups milk; beat well. Pour 1/4 cup of batter into each prepared pan, and spread evenly. You will need to bake the layers in two or three batches.", 
        "Bake for 5 to 7 minutes in the preheated oven, just until the layers are dried out. Do not brown.", 
        "To make the frosting: In a saucepan over medium heat, combine 3 cups sugar, 1 cup butter, cocoa, water and 2 cups evaporated milk. Bring the mixture to a rolling boil, stirring frequently, then boil for 2 minutes. Remove from heat and beat for one minute with an electric mixer. Stack cake layers with icing in between, letting the icing run down the sides of the cake. Smooth the sides and top with the remaining icing."
    ], 
    "prep_time": "50 mins", 
    "recipe_name": "Fourteen Layer Chocolate Cake"
}