{
    "ingredients": [
        {
            "amount": "2 cups", 
            "ingredient": "cubed, cooked chicken"
        }, 
        {
            "amount": "1", 
            "ingredient": "unpeeled red apple, chopped"
        }, 
        {
            "amount": "3/4 cup", 
            "ingredient": "dried cranberries"
        }, 
        {
            "amount": "1/2 cup", 
            "ingredient": "thinly sliced celery"
        }, 
        {
            "amount": "1/4 cup", 
            "ingredient": "chopped pecans"
        }, 
        {
            "amount": "2 tablespoons", 
            "ingredient": "thinly sliced green onions"
        }, 
        {
            "amount": "3/4 cup", 
            "ingredient": "mayonnaise"
        }, 
        {
            "amount": "2 teaspoons", 
            "ingredient": "lime juice"
        }, 
        {
            "amount": "1/2 teaspoon", 
            "ingredient": "curry powder"
        }, 
        {
            "amount": "12 slices", 
            "ingredient": "bread"
        }, 
        {
            "amount": "12", 
            "ingredient": "lettuce leaves"
        }
    ], 
    "prep_steps": [
        "Combine chicken, apple, cranberries, celery, pecans, and green onions in a bowl. Mix mayonnaise, lime juice, and curry powder in a small bowl. Fold mayonnaise mixture into chicken mixture; stir to coat. Cover and refrigerate until ready to serve.", 
        "Cut each bread slice with a 3-inch heart-shaped cookie cutter; top with a lettuce leaf and chicken salad."
    ], 
    "prep_time": "20 mins", 
    "recipe_name": "Curried Chicken Tea Sandwiches"
}