{
    "ingredients": [
        {
            "amount": "11 ounces", 
            "ingredient": "lasagna noodles"
        }, 
        {
            "amount": "1 pound", 
            "ingredient": "lean ground beef"
        }, 
        {
            "amount": "24 ounces", 
            "ingredient": "tomato sauce"
        }, 
        {
            "amount": "1/2 cup", 
            "ingredient": "water"
        }, 
        {
            "amount": "1 (1 ounce) package", 
            "ingredient": "taco seasoning mix"
        }, 
        {
            "amount": "8 cups", 
            "ingredient": "shredded Cheddar cheese"
        }, 
        {
            "amount": "1/2 cup", 
            "ingredient": "crushed tortilla chips"
        }
    ], 
    "prep_steps": [
        "Bring a large pot of lightly salted water to a boil. Add pasta and cook for 8 to 10 minutes or until al dente; drain.", 
        "Meanwhile, in a large skillet, brown beef over medium heat until no longer pink; drain. Add tomato sauce, water and taco seasoning. Lower heat and simmer for 5 minutes.", 
        "In a 9x13 inch glass baking dish, layer noodles then meat mixture and cheese; repeat 2 more times. There will be 3 layers.", 
        "Cover with plastic wrap and microwave for 10 minutes. Remove from microwave, uncover and let stand for 5 minutes.", 
        "Sprinkle tortilla chips over the top; serve."
    ], 
    "prep_time": "25 mins", 
    "recipe_name": "Taco Lasagna"
}