{
    "ingredients": [
        {
            "amount": "1 pound", 
            "ingredient": "lean ground beef"
        }, 
        {
            "amount": "1", 
            "ingredient": "yellow onion"
        }, 
        {
            "amount": "2 cloves", 
            "ingredient": "garlic, chopped"
        }, 
        {
            "amount": "1 (14.5 ounce) can", 
            "ingredient": "stewed tomatoes"
        }, 
        {
            "amount": "1 (15 ounce) can", 
            "ingredient": "creamed corn"
        }, 
        {
            "amount": "1/2 cup", 
            "ingredient": "milk"
        }, 
        {
            "amount": "1 (6 ounce) can", 
            "ingredient": "black olives, chopped"
        }, 
        {
            "amount": "2", 
            "ingredient": "eggs"
        }, 
        {
            "amount": "1 cup", 
            "ingredient": "cornmeal"
        }, 
        {
            "amount": "1 cup", 
            "ingredient": "shredded Cheddar cheese"
        }
    ], 
    "prep_steps": [
        "Preheat oven to 350 degrees F (175 degrees C).", 
        "In a large skillet, cook meat, onion and garlic until done. Drain fat.", 
        "Add tomatoes and creamed corn. Add milk, olives, eggs and cornmeal. Bring to a boil.", 
        "Pour into a greased 2 quart casserole dish. Bake at 350 degrees F (175 degrees C) for 25 minutes. Put the cheese on top for the last 5 minutes of baking."
    ], 
    "recipe_name": "Tamale Pie I"
}