{
    "ingredients": [
        {
            "amount": "1/2 cup", 
            "ingredient": "unsalted butter"
        }, 
        {
            "amount": "1 1/2 cups", 
            "ingredient": "graham cracker crumbs"
        }, 
        {
            "amount": "1 cup", 
            "ingredient": "semisweet chocolate chips"
        }, 
        {
            "amount": "1 cup", 
            "ingredient": "butterscotch chips"
        }, 
        {
            "amount": "1 cup", 
            "ingredient": "chopped walnuts"
        }, 
        {
            "amount": "1 (14 ounce) can", 
            "ingredient": "sweetened condensed milk"
        }, 
        {
            "amount": "1 1/3 cups", 
            "ingredient": "shredded coconut"
        }
    ], 
    "prep_steps": [
        "Preheat oven to 350 degrees F (180 degrees C).", 
        "Place butter in 13 x 9 inch pan and melt in oven. Swirl to coat bottom and sides with butter.", 
        "Spread graham cracker crumbs evenly over bottom of pan. Layer chocolate chips, butterscotch chips, and nuts over crumbs. Pour condensed milk over nuts. Sprinkle coconut over condensed milk.", 
        "Bake until edges are golden brown, about 25 minutes. Let cool before cutting into bars."
    ], 
    "prep_time": "1 hr", 
    "recipe_name": "Seven Layer Bars"
}