{
    "ingredients": [
        {
            "amount": "1/2 cup", 
            "ingredient": "fat-free mayonnaise"
        }, 
        {
            "amount": "2 tablespoons", 
            "ingredient": "sweet pickle relish"
        }, 
        {
            "amount": "1 large", 
            "ingredient": "green onion, chopped"
        }, 
        {
            "amount": "1 1/2 teaspoons", 
            "ingredient": "red wine vinegar"
        }
    ], 
    "prep_steps": [
        "Mix together the mayonnaise, sweet pickle relish, green onion, and red wine vinegar. For best results, refrigerate for 1 hour before serving."
    ], 
    "prep_time": "10 mins", 
    "recipe_name": "Fat Free Tartar Sauce"
}