{
    "ingredients": [
        {
            "amount": "1 1/2 cups", 
            "ingredient": "all-purpose flour"
        }, 
        {
            "amount": "3/4 cup", 
            "ingredient": "white sugar"
        }, 
        {
            "amount": "1/2 teaspoon", 
            "ingredient": "salt"
        }, 
        {
            "amount": "2 teaspoons", 
            "ingredient": "baking powder"
        }, 
        {
            "amount": "1 teaspoon", 
            "ingredient": "ground cinnamon"
        }, 
        {
            "amount": "1/3 cup", 
            "ingredient": "vegetable oil"
        }, 
        {
            "amount": "1", 
            "ingredient": "egg"
        }, 
        {
            "amount": "1/3 cup", 
            "ingredient": "milk"
        }, 
        {
            "amount": "2", 
            "ingredient": "apples - peeled, cored and chopped"
        }, 
        {
            "amount": "1/2 cup", 
            "ingredient": "white sugar"
        }, 
        {
            "amount": "1/3 cup", 
            "ingredient": "all-purpose flour"
        }, 
        {
            "amount": "1/2 cup", 
            "ingredient": "butter, cubed"
        }, 
        {
            "amount": "1 1/2 teaspoons", 
            "ingredient": "ground cinnamon"
        }
    ], 
    "prep_steps": [
        "Preheat oven to 400 degrees F (200 degrees C). Grease six muffin cups or line with paper muffin liners.", 
        "Stir together 1 1/2 cup flour, 3/4 cup sugar, salt, baking powder and 1 teaspoon cinnamon. Mix in oil, egg and milk. Fold in apples. Spoon batter into prepared muffin cups, filling to the top of the cup.", 
        "In a small bowl, stir together 1/2 cup sugar, 1/3 cup flour, butter and 1 1/2 teaspoons cinnamon. Mix together with fork and sprinkle over unbaked muffins.", 
        "Bake in preheated oven for 20 to 25 minutes, until a toothpick inserted into center of a muffin comes out clean."
    ], 
    "prep_time": "45 mins", 
    "recipe_name": "Easy Apple Cinnamon Muffins"
}