{
    "ingredients": [
        {
            "amount": "2 (15 ounce) cans", 
            "ingredient": "whole kernel corn, drained"
        }, 
        {
            "amount": "3/4 cup", 
            "ingredient": "cucumber slices, for garnish"
        }, 
        {
            "amount": "1/4 cup", 
            "ingredient": "diced onion"
        }, 
        {
            "amount": "2 small", 
            "ingredient": "tomatoes, coarsely chopped"
        }, 
        {
            "amount": "1/4 cup", 
            "ingredient": "sour cream"
        }, 
        {
            "amount": "2 tablespoons", 
            "ingredient": "mayonnaise"
        }, 
        {
            "amount": "1 tablespoon", 
            "ingredient": "distilled white vinegar"
        }, 
        {
            "amount": "1/2 teaspoon", 
            "ingredient": "salt"
        }, 
        {
            "amount": "1/4 teaspoon", 
            "ingredient": "dry mustard"
        }, 
        {
            "amount": "1/4 teaspoon", 
            "ingredient": "celery seed"
        }
    ], 
    "prep_steps": [
        "In a large mixing bowl, combine the corn, cucumbers, onions and tomatoes.", 
        "Prepare the dressing by whisking together the sour cream, mayonnaise, vinegar, salt, mustard and celery seeds. Add to corn mixture and toss until all ingredients are evenly coated."
    ], 
    "prep_time": "15 mins", 
    "recipe_name": "Corn Salad II"
}