{
    "ingredients": [
        {
            "amount": "2 (3 ounce) packages", 
            "ingredient": "blackberry Jell-O\u00ae"
        }, 
        {
            "amount": "2 cups", 
            "ingredient": "boiling water"
        }, 
        {
            "amount": "1 (15 ounce) can", 
            "ingredient": "blueberries"
        }, 
        {
            "amount": "1 (8 ounce) can", 
            "ingredient": "crushed pineapple, drained with juice reserved"
        }, 
        {
            "amount": "1 (8 ounce) package", 
            "ingredient": "cream cheese, softened"
        }, 
        {
            "amount": "1/2 cup", 
            "ingredient": "white sugar"
        }, 
        {
            "amount": "1 cup", 
            "ingredient": "sour cream"
        }, 
        {
            "amount": "1/2 teaspoon", 
            "ingredient": "vanilla extract"
        }, 
        {
            "amount": "1/2 cup", 
            "ingredient": "chopped pecans"
        }
    ], 
    "prep_steps": [
        "In a large bowl, dissolve the gelatin in boiling water. Drain the liquid from the blueberry and pineapple cans into a measuring cup and add enough water to make 1 cup of liquid. Stir the juice mixture, blueberries and crushed pineapple into the gelatin and pour into a 2 quart mold. Refrigerate until firm.", 
        "Mix together softened cream cheese, sugar, sour cream and vanilla and spread over the congealed gelatin mixture. Sprinkle cream cheese layer with chopped pecans. Chill for approximately 30 more minutes, invert and serve."
    ], 
    "prep_time": "1\u00bc hrs", 
    "recipe_name": "Blueberry Congealed Salad"
}