{
    "ingredients": [
        {
            "amount": "2 cups", 
            "ingredient": "self-rising flour"
        }, 
        {
            "amount": "2 cups", 
            "ingredient": "white sugar"
        }, 
        {
            "amount": "1 cup", 
            "ingredient": "water"
        }, 
        {
            "amount": "1/2 cup", 
            "ingredient": "butter"
        }, 
        {
            "amount": "1/2 cup", 
            "ingredient": "shortening"
        }, 
        {
            "amount": "4 tablespoons", 
            "ingredient": "unsweetened cocoa powder"
        }, 
        {
            "amount": "1/2 cup", 
            "ingredient": "buttermilk"
        }, 
        {
            "amount": "1 teaspoon", 
            "ingredient": "baking soda"
        }, 
        {
            "amount": "1 teaspoon", 
            "ingredient": "vanilla extract"
        }, 
        {
            "amount": "2", 
            "ingredient": "eggs"
        }, 
        {
            "amount": "1/2 cup", 
            "ingredient": "whiskey"
        }, 
        {
            "amount": "4 fluid ounces", 
            "ingredient": "strong brewed coffee"
        }, 
        {
            "amount": "1/2 cup", 
            "ingredient": "butter"
        }, 
        {
            "amount": "1/3 cup", 
            "ingredient": "buttermilk"
        }, 
        {
            "amount": "3 tablespoons", 
            "ingredient": "unsweetened cocoa powder"
        }, 
        {
            "amount": "3/4 cup", 
            "ingredient": "confectioners' sugar"
        }, 
        {
            "amount": "1 teaspoon", 
            "ingredient": "vanilla extract"
        }
    ], 
    "prep_steps": [
        "Preheat oven to 350 degrees F (175 degrees C). Grease a 9x13 inch pan with cooking spray.", 
        "Combine flour and white sugar in a large bowl and set aside.", 
        "Put 1/2 cup buttermilk into a large glass and add baking soda, stir until combined, set aside.", 
        "In medium sauce pan over medium heat combine water, shortening, 1/2 cup butter and 4 tablespoons cocoa. Stir until shortening and butter are melted. Allow to boil on medium heat for 5 minutes.", 
        "Add chocolate mixture to dry ingredients and mix until well combined. Add buttermilk baking soda mixture, stir until blended. Add eggs and mix. Add the whiskey and the espresso and keep mixing. Add 1 teaspoon vanilla and mix well. Pour into a 9 x 13 inch pan that has been sprayed with cooking spray.", 
        "Bake at 350 degrees F (175 degrees C) for 25 minutes.", 
        "To Make Frosting: Combine 1/2 cup butter, 1/3 cup buttermilk, and 3 tablespoons cocoa in medium sauce pan, allow to come to a boil over medium heat. Remove from heat and add confectioners sugar and mix well, add 1 teaspoon vanilla and chopped nuts. Pour over hot cake. Allow cake to cool. The longer this sets, the better it gets!"
    ], 
    "recipe_name": "Secret Midnight Moon Better than Chocolate Sex Cake"
}