{
    "ingredients": [
        {
            "amount": "1 (4 pound)", 
            "ingredient": "whole chicken, deboned and cut into bite size pieces"
        }, 
        {
            "amount": "1/2 cup", 
            "ingredient": "butter"
        }, 
        {
            "amount": "1 teaspoon", 
            "ingredient": "dried sage"
        }, 
        {
            "amount": "1 (6 ounce) package", 
            "ingredient": "herb-seasoned dry bread stuffing mix"
        }, 
        {
            "amount": "1 (10.75 ounce) can", 
            "ingredient": "condensed cream of chicken soup"
        }, 
        {
            "amount": "1 (10.75 ounce) can", 
            "ingredient": "condensed cream of celery soup"
        }, 
        {
            "amount": "2 1/2 cups", 
            "ingredient": "water"
        }
    ], 
    "prep_steps": [
        "Preheat oven to 350 degrees F (175 degrees C).", 
        "In a medium bowl combine the butter or margarine, sage and stuffing mix. Mix together and spread this mixture in the bottom of a 9x13 inch baking dish. Spread cooked chicken over mixture. In the same bowl combine the cream of chicken soup, cream of celery soup and water. Mix well and pour this mixture over the chicken.", 
        "Bake at 350 degrees F (175 degrees C) for 45 minutes or until bubbly."
    ], 
    "prep_time": "1\u00bc hrs", 
    "recipe_name": "Chicken and Dressing Casserole"
}