{
    "ingredients": [
        {
            "amount": "2 tablespoons", 
            "ingredient": "extra virgin olive oil"
        }, 
        {
            "amount": "4", 
            "ingredient": "ripe tomatoes, chopped"
        }, 
        {
            "amount": "4", 
            "ingredient": "eggs"
        }
    ], 
    "prep_steps": [
        "In skillet or frying pan, warm oil over medium heat. Add tomatoes to skillet and cook until juices begin to evaporate, about 3 to 5 minutes.", 
        "Break eggs into skillet and cook to desired firmness without breaking yolks. Season to taste with salt and pepper."
    ], 
    "prep_time": "15 mins", 
    "recipe_name": "Mamma Rita's Eggs and Tomato Sauce"
}