{
    "ingredients": [
        {
            "amount": "1 pound", 
            "ingredient": "ground round"
        }, 
        {
            "amount": "1 cup", 
            "ingredient": "chopped onion"
        }, 
        {
            "amount": "1 cup", 
            "ingredient": "hot water"
        }, 
        {
            "amount": "2 (14.5 ounce) cans", 
            "ingredient": "diced tomatoes with garlic, undrained"
        }, 
        {
            "amount": "1 (15 ounce) can", 
            "ingredient": "kidney beans, rinsed and drained"
        }, 
        {
            "amount": "1 (15 ounce) can", 
            "ingredient": "black beans, rinsed and drained"
        }, 
        {
            "amount": "1 (14.5 ounce) can", 
            "ingredient": "whole kernel corn, drained"
        }, 
        {
            "amount": "1/3 cup", 
            "ingredient": "semisweet chocolate chips"
        }, 
        {
            "amount": "2 teaspoons", 
            "ingredient": "chili powder"
        }, 
        {
            "amount": "1 tablespoon", 
            "ingredient": "ground cumin"
        }, 
        {
            "amount": "1/2 teaspoon", 
            "ingredient": "dried oregano"
        }, 
        {
            "amount": "1 teaspoon", 
            "ingredient": "salt"
        }
    ], 
    "prep_steps": [
        "Combine ground round and onion in a large saucepan over medium-high heat. Cook, stirring, until beef is browned, about 5 minutes.", 
        "Transfer cooked beef and onions to slow cooker. Stir in water, tomatoes, kidney beans, black beans, corn, chocolate chips, chili powder, cumin, oregano, and salt. Cook on High until chili begins to bubble, about 20 minutes. Reduce heat to Low, and cook until thick, about 2 hours."
    ], 
    "prep_time": "2\u00be hrs", 
    "recipe_name": "Mexican Chocolate Chili"
}