{
    "ingredients": [
        {
            "amount": "1 tablespoon", 
            "ingredient": "butter"
        }, 
        {
            "amount": "1/2 cup", 
            "ingredient": "uncooked white rice"
        }, 
        {
            "amount": "1 cup", 
            "ingredient": "water"
        }, 
        {
            "amount": "1/2 cup", 
            "ingredient": "hoisin sauce"
        }, 
        {
            "amount": "1/2 cup", 
            "ingredient": "barbeque sauce"
        }, 
        {
            "amount": "1 tablespoon", 
            "ingredient": "peanut butter"
        }, 
        {
            "amount": "1 1/2 teaspoons", 
            "ingredient": "soy sauce"
        }, 
        {
            "amount": "1 clove", 
            "ingredient": "garlic, minced"
        }, 
        {
            "amount": "1 teaspoon", 
            "ingredient": "grated fresh ginger root"
        }, 
        {
            "amount": "2 teaspoons", 
            "ingredient": "sesame oil"
        }, 
        {
            "amount": "1 cup", 
            "ingredient": "chopped onion"
        }, 
        {
            "amount": "1 cup", 
            "ingredient": "grated carrot"
        }, 
        {
            "amount": "2 cups", 
            "ingredient": "frozen pea pods"
        }, 
        {
            "amount": "2 cups", 
            "ingredient": "frozen chopped broccoli, thawed"
        }, 
        {
            "amount": "2", 
            "ingredient": "eggs"
        }, 
        {
            "amount": "1/4 cup", 
            "ingredient": "sesame seeds, lightly toasted"
        }
    ], 
    "prep_steps": [
        "Melt the butter in a small saucepan over medium heat. Add the uncooked rice, and cook until toasted, stirring occasionally. Pour in the water and bring to a boil. Reduce heat to low, cover, and cook for about 15 minutes, or until tender.", 
        "While the rice is cooking, mix together the hoisin sauce, barbeque sauce, peanut butter, soy sauce, garlic, and ginger. Set aside.", 
        "When the rice is done cooking, heat the sesame oil in a wok or large skillet over medium-high heat. When it begins to smoke, add the onion and fry until clear. Add the carrot, and cook for about 1 minute, then add the rice, and stir fry for about 2 minutes. Add the broccoli and peas; cook and stir for about 1 minute. Push everything to the sides of the wok, and crack the eggs into the center. Scramble until cooked through, trying to keep the raw egg from mixing with everything else. When the eggs are cooked, stir them in with the rice.", 
        "Turn off the heat, and stir in about half of the sauce, tasting and adding more as desired. You may not need all of the sauce, but if you serve this with a meat it makes a good sauce for that too. Sprinkle with sesame seeds before serving."
    ], 
    "prep_time": "35 mins", 
    "recipe_name": "Fried Rice with Ginger, Hoisin, and Sesame"
}