{
    "ingredients": [
        {
            "amount": "1/2 pound", 
            "ingredient": "fresh, ground pork sausage"
        }, 
        {
            "amount": "1 small", 
            "ingredient": "onion, chopped"
        }, 
        {
            "amount": "2 (16 ounce) cans", 
            "ingredient": "baked beans with pork"
        }, 
        {
            "amount": "1/2 teaspoon", 
            "ingredient": "mustard powder"
        }, 
        {
            "amount": "1/2 cup", 
            "ingredient": "brown sugar"
        }, 
        {
            "amount": "1/4 cup", 
            "ingredient": "white sugar"
        }, 
        {
            "amount": "2 tablespoons", 
            "ingredient": "ketchup"
        }, 
        {
            "amount": "2 tablespoons", 
            "ingredient": "barbeque sauce"
        }, 
        {
            "amount": "2 tablespoons", 
            "ingredient": "Worcestershire sauce"
        }
    ], 
    "prep_steps": [
        "Preheat oven to 350 degrees F (175 degrees C).", 
        "Cook sausage and onions in a skillet until sausage is browned. Drain excess fat.", 
        "Add to browned sausage: baked beans with pork, mustard powder, brown sugar, white sugar, ketchup, barbeque sauce and Worcestershire sauce; mix well. Pour into a casserole dish and bake 40 to 50 minutes."
    ], 
    "prep_time": "1\u00bc hrs", 
    "recipe_name": "Belle's Baked Beans"
}