{
    "ingredients": [
        {
            "amount": "2 (8 ounce) packages", 
            "ingredient": "cream cheese, softened"
        }, 
        {
            "amount": "1 (16 ounce) container", 
            "ingredient": "sour cream"
        }, 
        {
            "amount": "3 bunches", 
            "ingredient": "green onions, chopped"
        }, 
        {
            "amount": "1 (8 ounce) jar", 
            "ingredient": "salsa"
        }, 
        {
            "amount": "2", 
            "ingredient": "tomatoes, diced"
        }, 
        {
            "amount": "2 (6 ounce) cans", 
            "ingredient": "sliced black olives, drained"
        }, 
        {
            "amount": "1 (8 ounce) package", 
            "ingredient": "shredded Cheddar cheese"
        }
    ], 
    "prep_steps": [
        "In a medium serving dish, mix the cream cheese, sour cream and green onions. Top with salsa, and layer with tomatoes, black olives and Cheddar cheese."
    ], 
    "prep_time": "20 mins", 
    "recipe_name": "Daryl's Mexican Dip"
}