{
    "ingredients": [
        {
            "amount": "2 cups", 
            "ingredient": "mayonnaise"
        }, 
        {
            "amount": "1 cup", 
            "ingredient": "sour cream"
        }, 
        {
            "amount": "1 cup", 
            "ingredient": "shredded mozzarella cheese"
        }, 
        {
            "amount": "2 tablespoons", 
            "ingredient": "grated Parmesan cheese"
        }, 
        {
            "amount": "1 tablespoon", 
            "ingredient": "minced onion"
        }, 
        {
            "amount": "1 teaspoon", 
            "ingredient": "white sugar"
        }, 
        {
            "amount": "1 dash", 
            "ingredient": "garlic salt"
        }, 
        {
            "amount": "1 dash", 
            "ingredient": "seasoning salt"
        }
    ], 
    "prep_steps": [
        "In a medium bowl, mix together mayonnaise, sour cream, mozzarella cheese, Parmesan cheese, onion, sugar, garlic salt and seasoning salt. Cover and chill in the refrigerator at least 1 hour before serving."
    ], 
    "prep_time": "1\u00bc hrs", 
    "recipe_name": "Mozzarella Dip"
}