{
    "ingredients": [
        {
            "amount": "1 (12 ounce) package", 
            "ingredient": "rice noodles"
        }, 
        {
            "amount": "2 tablespoons", 
            "ingredient": "butter"
        }, 
        {
            "amount": "1 pound", 
            "ingredient": "boneless, skinless chicken breast halves, cut into bite-sized pieces"
        }, 
        {
            "amount": "1/4 cup", 
            "ingredient": "vegetable oil"
        }, 
        {
            "amount": "4", 
            "ingredient": "eggs"
        }, 
        {
            "amount": "1 tablespoon", 
            "ingredient": "white wine vinegar"
        }, 
        {
            "amount": "2 tablespoons", 
            "ingredient": "fish sauce"
        }, 
        {
            "amount": "3 tablespoons", 
            "ingredient": "white sugar"
        }, 
        {
            "amount": "1/8 tablespoon", 
            "ingredient": "crushed red pepper"
        }, 
        {
            "amount": "2 cups", 
            "ingredient": "bean sprouts"
        }, 
        {
            "amount": "1/4 cup", 
            "ingredient": "crushed peanuts"
        }, 
        {
            "amount": "3", 
            "ingredient": "green onions, chopped"
        }, 
        {
            "amount": "1", 
            "ingredient": "lemon, cut into wedges"
        }
    ], 
    "prep_steps": [
        "Soak rice noodles in cold water 30 to 50 minutes, or until soft. Drain, and set aside.", 
        "Heat butter in a wok or large heavy skillet. Saute chicken until browned. Remove, and set aside. Heat oil in wok over medium-high heat. Crack eggs into hot oil, and cook until firm. Stir in chicken, and cook for 5 minutes. Add softened noodles, and vinegar, fish sauce, sugar and red pepper. Adjust seasonings to taste. Mix while cooking, until noodles are tender. Add bean sprouts, and mix for 3 minutes."
    ], 
    "prep_time": "1 hr", 
    "recipe_name": "Pad Thai"
}