{
    "ingredients": [
        {
            "amount": "1 1/2 teaspoons", 
            "ingredient": "salt"
        }, 
        {
            "amount": "1/4 teaspoon", 
            "ingredient": "pepper"
        }, 
        {
            "amount": "1/2 teaspoon", 
            "ingredient": "paprika"
        }, 
        {
            "amount": "1/4 teaspoon", 
            "ingredient": "lemon pepper"
        }, 
        {
            "amount": "1 teaspoon", 
            "ingredient": "garlic powder"
        }, 
        {
            "amount": "6", 
            "ingredient": "skinless, boneless chicken breasts"
        }, 
        {
            "amount": "1 (10.75 ounce) can", 
            "ingredient": "condensed cream of mushroom soup"
        }, 
        {
            "amount": "1 (8 ounce) container", 
            "ingredient": "sour cream"
        }, 
        {
            "amount": "1/2 cup", 
            "ingredient": "dry white wine"
        }, 
        {
            "amount": "1 (8 ounce) package", 
            "ingredient": "sliced fresh mushrooms"
        }
    ], 
    "prep_steps": [
        "Mix the salt, pepper, paprika, lemon pepper, and garlic powder together in a bowl; rub evenly onto all sides of the chicken breasts. Place the seasoned chicken into the bottom of a slow cooker. Add the cream of mushroom soup, sour cream, white wine, and mushrooms to the slow cooker.", 
        "Secure the cover onto the slow cooker and cook on Low for 8 hours."
    ], 
    "prep_time": "8 hrs", 
    "recipe_name": "Mushroom Chicken in Sour Cream Sauce"
}