{
    "ingredients": [
        {
            "amount": "2 pounds", 
            "ingredient": "beef tenderloin, trimmed, cut into 8 (4-ounce) medallions"
        }, 
        {
            "amount": "1 tablespoon", 
            "ingredient": "vegetable oil"
        }, 
        {
            "amount": "8", 
            "ingredient": "sliced fresh mushrooms"
        }, 
        {
            "amount": "1 tablespoon", 
            "ingredient": "unsalted butter"
        }, 
        {
            "amount": "1 tablespoon", 
            "ingredient": "olive oil"
        }, 
        {
            "amount": "1 pinch", 
            "ingredient": "salt"
        }, 
        {
            "amount": "1/2 cup", 
            "ingredient": "tomato sauce"
        }, 
        {
            "amount": "1/3 cup", 
            "ingredient": "Marsala wine"
        }, 
        {
            "amount": "1 cup", 
            "ingredient": "chicken broth"
        }, 
        {
            "amount": "2 teaspoons", 
            "ingredient": "chopped fresh oregano"
        }, 
        {
            "amount": "1 1/2 tablespoons", 
            "ingredient": "chilled unsalted butter, cut into cubes"
        }
    ], 
    "prep_steps": [
        "Season beef medallions with salt and pepper to taste and set aside.", 
        "Heat vegetable oil in a skillet over high heat. Cook beef until browned, about 2 minutes per side. Remove beef to a warm plate.", 
        "Reduce heat to medium; cook and stir mushrooms, 1 tablespoon unsalted butter, olive oil, and a pinch of salt in the skillet until mushrooms are very well browned, about 10 minutes.", 
        "Mix in tomato sauce; cook and stir until tomato sauce thickens, about 5 minutes.", 
        "Pour in Marsala wine and increase heat to high. Cook, scraping browned bits from bottom of skillet. Once most of the wine has evaporated, stir in broth and bring to a boil; cook and stir until broth mixture has reduced by half, about 5 minutes.", 
        "Reduce heat to low and return beef to broth mixture; simmer until beef is cooked to medium-rare, about 2 to 3 minutes. Transfer beef to serving plates.", 
        "Remove skillet from heat. Cook and stir 1 1/2 tablespoons butter and oregano into the sauce until butter melts. Taste for seasoning and adjust if necessary.", 
        "Spoon sauce over beef and serve immediately."
    ], 
    "prep_time": "35 mins", 
    "recipe_name": "Beef Medallions with Caramelized Pan Sauce"
}