{
    "ingredients": [
        {
            "amount": "2 large", 
            "ingredient": "cucumbers, sliced thin"
        }, 
        {
            "amount": "1/2", 
            "ingredient": "onion, sliced thin"
        }, 
        {
            "amount": "1 teaspoon", 
            "ingredient": "salt"
        }, 
        {
            "amount": "1/2 cup", 
            "ingredient": "sour cream"
        }, 
        {
            "amount": "2 tablespoons", 
            "ingredient": "white sugar"
        }, 
        {
            "amount": "2 tablespoons", 
            "ingredient": "white vinegar"
        }, 
        {
            "amount": "1 teaspoon", 
            "ingredient": "dried dill"
        }, 
        {
            "amount": "1 teaspoon", 
            "ingredient": "dried parsley"
        }, 
        {
            "amount": "1 teaspoon", 
            "ingredient": "paprika"
        }
    ], 
    "prep_steps": [
        "Spread cucumbers and onion on a platter; season with salt and let rest for 30 minutes. Squeeze excess moisture from cucumbers.", 
        "Stir sour cream, sugar, vinegar, dill, and parsley together in a large bowl.", 
        "Fold cucumber and onion slices into the sour cream mixture.", 
        "Refrigerate 8 hours to over night; garnish with paprika to serve."
    ], 
    "prep_time": "9 hrs", 
    "recipe_name": "Gurkensalat (German Cucumber Salad)"
}