{
    "ingredients": [
        {
            "amount": "1 cup", 
            "ingredient": "rice"
        }, 
        {
            "amount": "1 1/4 cups", 
            "ingredient": "chicken broth"
        }, 
        {
            "amount": "2 tablespoons", 
            "ingredient": "olive oil"
        }, 
        {
            "amount": "2 cups", 
            "ingredient": "sliced white mushrooms"
        }, 
        {
            "amount": "1 small", 
            "ingredient": "onion, chopped"
        }, 
        {
            "amount": "2 cups", 
            "ingredient": "shredded cooked chicken"
        }, 
        {
            "amount": "1 (10.75 ounce) can", 
            "ingredient": "fat-free cream of chicken soup"
        }, 
        {
            "amount": "1 cup", 
            "ingredient": "light sour cream"
        }, 
        {
            "amount": "1/2 cup", 
            "ingredient": "milk"
        }, 
        {
            "amount": "1/2 cup", 
            "ingredient": "chicken broth"
        }, 
        {
            "amount": "1 tablespoon", 
            "ingredient": "seasoned salt (such as LAWRY'S\u00ae)"
        }, 
        {
            "amount": "1 cup", 
            "ingredient": "shredded Cheddar cheese"
        }, 
        {
            "amount": "1/4 cup", 
            "ingredient": "crushed garlic-and-butter flavor croutons"
        }
    ], 
    "prep_steps": [
        "Preheat oven to 350 degrees F (175 degrees C). Grease a 9-inch square baking dish.", 
        "Bring rice and 1 1/4 cup chicken broth to a boil in a saucepan. Reduce heat to medium-low, cover, and simmer until the rice is tender and the liquid has been absorbed, 20 to 25 minutes.", 
        "Heat olive oil in a saucepan over medium heat. Cook and stir mushrooms and onion in hot oil until mushrooms are soft and onion is translucent, 5 to 7 minutes. Stir chicken, chicken soup, sour cream, milk, 1/2 cup chicken broth, seasoned salt, and black pepper into the mushroom mixture. Reduce heat to low. Add cooked rice to the saucepan; stir until rice is evenly mixed in. Transfer mixture to prepared baking dish.", 
        "Bake in preheated oven 15 minutes. Top casserole with Cheddar cheese and crushed croutons; bake until top begins to brown, about another 10 minutes. Let cool 5 minutes before serving."
    ], 
    "prep_time": "1\u00bc hrs", 
    "recipe_name": "Homey Chicken and Rice Casserole"
}