{
    "ingredients": [
        {
            "amount": "1 cup", 
            "ingredient": "quinoa"
        }, 
        {
            "amount": "4 cups", 
            "ingredient": "water"
        }, 
        {
            "amount": "1/4 teaspoon", 
            "ingredient": "salt"
        }, 
        {
            "amount": "1/4 cup", 
            "ingredient": "dried cranberries"
        }, 
        {
            "amount": "1/4 cup", 
            "ingredient": "fresh lime juice"
        }, 
        {
            "amount": "1/4 cup", 
            "ingredient": "olive oil"
        }, 
        {
            "amount": "2 teaspoons", 
            "ingredient": "honey"
        }, 
        {
            "amount": "2 cloves", 
            "ingredient": "garlic, minced"
        }, 
        {
            "amount": "1 teaspoon", 
            "ingredient": "minced serrano pepper"
        }, 
        {
            "amount": "1/4 cup", 
            "ingredient": "chopped fresh mint"
        }, 
        {
            "amount": "1/4 cup", 
            "ingredient": "minced cilantro"
        }, 
        {
            "amount": "1", 
            "ingredient": "shallot, minced"
        }, 
        {
            "amount": "1/2 cup", 
            "ingredient": "arugula"
        }, 
        {
            "amount": "1 pinch", 
            "ingredient": "salt and black pepper to taste"
        }, 
        {
            "amount": "4 cups", 
            "ingredient": "baby arugula leaves, washed and dried"
        }, 
        {
            "amount": "1", 
            "ingredient": "avocado - peeled, pitted and diced"
        }, 
        {
            "amount": "1/2", 
            "ingredient": "grapefruit, peeled and sectioned"
        }
    ], 
    "prep_steps": [
        "In a dry skillet over medium heat, toast the quinoa until it has a nutty aroma. Remove from heat, rinse and drain in a fine mesh strainer. Bring water to a boil in a saucepan, add salt, and slowly add toasted quinoa. Cook until tender and the outer rings appear on the grains, 15 to 20 minutes. Strain through a fine mesh colander. Place in a large bowl to cool.", 
        "In a small bowl, combine cranberries, lime juice, olive oil, honey, garlic, serrano pepper, mint, cilantro, shallot, and arugula. Stir into the cooled quinoa and add salt and freshly ground pepper to taste. Place 1 cup of baby arugula on each salad plate. Top with quinoa mixture, avocado, and grapefruit."
    ], 
    "prep_time": "1 hr", 
    "recipe_name": "Quinoa Salad with Grapefruit, Avocado, and Arugula"
}