{
    "ingredients": [
        {
            "amount": "1 (14.5 ounce) can", 
            "ingredient": "whole tomatoes, drained, rinsed, patted dry"
        }, 
        {
            "amount": "2", 
            "ingredient": "roma tomatoes, quartered"
        }, 
        {
            "amount": "1", 
            "ingredient": "onion, chopped, divided"
        }, 
        {
            "amount": "1 clove", 
            "ingredient": "garlic, coarsely chopped"
        }, 
        {
            "amount": "1/4 cup", 
            "ingredient": "fresh cilantro"
        }, 
        {
            "amount": "1/2", 
            "ingredient": "jalapeno pepper"
        }, 
        {
            "amount": "4", 
            "ingredient": "avocados, halved with pits removed"
        }, 
        {
            "amount": "12 (6 inch)", 
            "ingredient": "whole wheat tortillas"
        }, 
        {
            "amount": "1 (15 ounce) can", 
            "ingredient": "kidney beans, rinsed and drained"
        }, 
        {
            "amount": "2 cups", 
            "ingredient": "torn romaine lettuce"
        }
    ], 
    "prep_steps": [
        "Preheat an oven to 350 degrees F (175 degrees C).", 
        "Combine the canned tomatoes, fresh tomatoes, 1/2 of the onion, garlic, cilantro, and jalapeno in a food processor. Chop roughly; do not puree.", 
        "Combine the pulp of the avocados and the remaining onion in a large bowl. Mash until almost smooth. Season with salt and pepper.", 
        "Spread tortillas in a single layer on baking sheet. Place in oven until warm, about 5 minutes. Spread tortillas with guacamole. Top with beans, salsa, and lettuce."
    ], 
    "prep_time": "20 mins", 
    "recipe_name": "Guaco-Tacos"
}