{
    "ingredients": [
        {
            "amount": "1/4 cup", 
            "ingredient": "quick cooking oats"
        }, 
        {
            "amount": "1/2 cup", 
            "ingredient": "skim milk"
        }, 
        {
            "amount": "1 teaspoon", 
            "ingredient": "flax seeds"
        }, 
        {
            "amount": "2 tablespoons", 
            "ingredient": "chopped walnuts"
        }, 
        {
            "amount": "3 tablespoons", 
            "ingredient": "honey"
        }, 
        {
            "amount": "1", 
            "ingredient": "banana, peeled"
        }
    ], 
    "prep_steps": [
        "Combine the oats, milk, flax seeds, walnuts, honey, and banana in a microwave-safe bowl. Cook in microwave on High for 2 minutes. Mash the banana with a fork and stir into the mixture. Serve hot."
    ], 
    "prep_time": "7 mins", 
    "recipe_name": "Banana Nut Oatmeal"
}