{
    "ingredients": [
        {
            "amount": "2", 
            "ingredient": "skinless, boneless chicken breast halves"
        }, 
        {
            "amount": "1/2", 
            "ingredient": "red bell pepper, seeded"
        }, 
        {
            "amount": "1/4 cup", 
            "ingredient": "mayonnaise"
        }, 
        {
            "amount": "1 tablespoon", 
            "ingredient": "heavy cream"
        }, 
        {
            "amount": "4 slices", 
            "ingredient": "white bread"
        }
    ], 
    "prep_steps": [
        "Bring a large pot of water to a boil; add chicken and cook until no longer pink in the center and the juices run clear, about 20 minutes. An instant-read thermometer inserted into the center should read at least 165 degrees F (74 degrees C). Drain, cool and chop.", 
        "Bring a small pot of water to a boil; add the bell pepper and cook until soft, about 10 minutes.", 
        "Combine the bell pepper, chicken, cream, and mayonnaise in a food processor. Blend until mostly smooth. Season with salt and pepper. Spread about half of the mixture on each of two slices of bread and sandwich with the remaining bread."
    ], 
    "prep_time": "1 hr", 
    "recipe_name": "Chicken and Red Bell Pepper Salad Sandwiches"
}