{
    "ingredients": [
        {
            "amount": "2 tablespoons", 
            "ingredient": "canola oil"
        }, 
        {
            "amount": "1", 
            "ingredient": "onion, chopped"
        }, 
        {
            "amount": "6 cloves", 
            "ingredient": "garlic, chopped"
        }, 
        {
            "amount": "2 tablespoons", 
            "ingredient": "minced fresh ginger root"
        }, 
        {
            "amount": "2 pounds", 
            "ingredient": "large shrimp, peeled and deveined"
        }, 
        {
            "amount": "1 pinch", 
            "ingredient": "salt"
        }, 
        {
            "amount": "1/2 teaspoon", 
            "ingredient": "ground black pepper"
        }, 
        {
            "amount": "1 tablespoon", 
            "ingredient": "red pepper flakes, or to taste"
        }, 
        {
            "amount": "3/4 cup", 
            "ingredient": "beer"
        }, 
        {
            "amount": "1/4 cup", 
            "ingredient": "ketchup"
        }, 
        {
            "amount": "1 tablespoon", 
            "ingredient": "white sugar"
        }, 
        {
            "amount": "1 tablespoon", 
            "ingredient": "cornstarch"
        }, 
        {
            "amount": "1 tablespoon", 
            "ingredient": "water"
        }, 
        {
            "amount": "1 tablespoon", 
            "ingredient": "toasted sesame oil"
        }, 
        {
            "amount": "3", 
            "ingredient": "green onions, chopped"
        }
    ], 
    "prep_steps": [
        "Heat canola oil in a large skillet over high heat, and cook and stir onion, garlic, and ginger just until fragrant, about 15 seconds. Add the shrimp, salt, and black pepper, and cook and stir until the shrimp is slightly pink, about 5 minutes. Stir in the beer, ketchup, and sugar, and bring the sauce to a boil.", 
        "Dissolve the cornstarch in the water, and stir into the boiling sauce. Cook until the sauce returns to a boil and thickens, the shrimp are bright pink on the outside, and the meat is no longer transparent in the center, about 5 minutes. Stir in the sesame oil; remove from heat. Sprinkle with the green onions."
    ], 
    "prep_time": "35 mins", 
    "recipe_name": "Drunken Shrimp"
}