{
    "ingredients": [
        {
            "amount": "1", 
            "ingredient": "egg"
        }, 
        {
            "amount": "2 tablespoons", 
            "ingredient": "vegetable oil"
        }, 
        {
            "amount": "1 cup", 
            "ingredient": "milk"
        }, 
        {
            "amount": "1 cup", 
            "ingredient": "all-purpose flour"
        }, 
        {
            "amount": "1/2 teaspoon", 
            "ingredient": "baking soda"
        }, 
        {
            "amount": "1/2 teaspoon", 
            "ingredient": "salt"
        }, 
        {
            "amount": "1/2 cup", 
            "ingredient": "light brown sugar"
        }, 
        {
            "amount": "1 packet", 
            "ingredient": "instant, banana-flavored oatmeal"
        }
    ], 
    "prep_steps": [
        "Whisk together egg, oil, and milk until smooth. Sift together flour, baking soda, and salt; add to egg mixture along with brown sugar, and oatmeal; stir until just combined.", 
        "Heat a lightly oiled griddle or frying pan over medium high heat. Pour or spoon the batter onto the griddle, using approximately 1/4 cup for each pancake. Brown on both sides and serve hot."
    ], 
    "prep_time": "25 mins", 
    "recipe_name": "Banana Brown Sugar Pancakes"
}