{
    "ingredients": [
        {
            "amount": "3 cups", 
            "ingredient": "cooked and mashed sweet potatoes"
        }, 
        {
            "amount": "1 cup", 
            "ingredient": "white sugar"
        }, 
        {
            "amount": "2", 
            "ingredient": "eggs"
        }, 
        {
            "amount": "1/2 cup", 
            "ingredient": "butter"
        }, 
        {
            "amount": "1/2 teaspoon", 
            "ingredient": "vanilla extract"
        }, 
        {
            "amount": "1 cup", 
            "ingredient": "flaked coconut"
        }, 
        {
            "amount": "1 cup", 
            "ingredient": "packed brown sugar"
        }, 
        {
            "amount": "1/3 cup", 
            "ingredient": "all-purpose flour"
        }, 
        {
            "amount": "1 cup", 
            "ingredient": "chopped pecans"
        }, 
        {
            "amount": "1/3 cup", 
            "ingredient": "butter"
        }
    ], 
    "prep_steps": [
        "Preheat oven to 350 degrees F (175 degrees C).", 
        "Mix the mashed sweet potatoes, white sugar, eggs, 1/2 cup of the butter or margarine, vanilla and flaked coconut. Place in heat proof 2 quart sized casserole dish.", 
        "With a fork mix the brown sugar, flour, pecans and the remaining 1/3 cup of butter or margarine. Sprinkle over the top of the potato mixture. Bake at 350 degrees F (175 degrees C) for 30 minutes."
    ], 
    "recipe_name": "Sweet Potato Fluff"
}