{
    "ingredients": [
        {
            "amount": "3 cups", 
            "ingredient": "stuffing"
        }, 
        {
            "amount": "1 (6 ounce) can", 
            "ingredient": "French fried onions"
        }, 
        {
            "amount": "1 (10.75 ounce) can", 
            "ingredient": "condensed cream of celery soup"
        }, 
        {
            "amount": "3/4 cup", 
            "ingredient": "milk"
        }, 
        {
            "amount": "1 1/2 cups", 
            "ingredient": "cooked turkey, cubed"
        }, 
        {
            "amount": "1 (10 ounce) package", 
            "ingredient": "frozen green peas, thawed"
        }
    ], 
    "prep_steps": [
        "Combine stuffing and 1/2 can onions. Spoon stuffing mixture into a 9 inch shallow baking dish. Press stuffing across bottom and up sides of dish to form a shell.", 
        "Combine undiluted soup, milk, turkey, and peas; pour into stuffing shell.", 
        "Bake, covered, at 350 degrees F (175 degrees C) for 30 minutes. Top with remaining onions. Bake, uncovered, 5 minutes longer. Serve hot."
    ], 
    "recipe_name": "Turkey 'n Stuffing Bake"
}