{
    "ingredients": [
        {
            "amount": "1 1/2 cups", 
            "ingredient": "all-purpose flour"
        }, 
        {
            "amount": "1 teaspoon", 
            "ingredient": "ground cinnamon"
        }, 
        {
            "amount": "1/2 teaspoon", 
            "ingredient": "baking soda"
        }, 
        {
            "amount": "1/2 teaspoon", 
            "ingredient": "salt"
        }, 
        {
            "amount": "1 3/4 cups", 
            "ingredient": "rolled oats"
        }, 
        {
            "amount": "1 cup", 
            "ingredient": "white sugar"
        }, 
        {
            "amount": "1/2 cup", 
            "ingredient": "raisins"
        }, 
        {
            "amount": "1/2 cup", 
            "ingredient": "semisweet chocolate chips"
        }, 
        {
            "amount": "1/2 cup", 
            "ingredient": "chopped walnuts"
        }, 
        {
            "amount": "1/2 cup", 
            "ingredient": "melted shortening"
        }, 
        {
            "amount": "1/2 cup", 
            "ingredient": "melted butter"
        }, 
        {
            "amount": "1", 
            "ingredient": "egg"
        }, 
        {
            "amount": "1/4 cup", 
            "ingredient": "milk"
        }, 
        {
            "amount": "1 tablespoon", 
            "ingredient": "molasses"
        }
    ], 
    "prep_steps": [
        "Preheat oven to 350 degrees F (175 degrees C).", 
        "In large bowl stir together flour, cinnamon, baking soda and salt. Stir in remaining ingredients.", 
        "Drop by teaspoon 1-1/2 inches apart on ungreased sheets (Make the cookies small). Bake for 12 minutes or until brown."
    ], 
    "recipe_name": "Cape Cod Oatmeal Cookies"
}