{
    "ingredients": [
        {
            "amount": "2", 
            "ingredient": "egg whites"
        }, 
        {
            "amount": "3/4 cup", 
            "ingredient": "white sugar"
        }, 
        {
            "amount": "1/3 cup", 
            "ingredient": "corn syrup"
        }, 
        {
            "amount": "2 tablespoons", 
            "ingredient": "water"
        }, 
        {
            "amount": "1/4 teaspoon", 
            "ingredient": "cream of tartar"
        }, 
        {
            "amount": "1/4 teaspoon", 
            "ingredient": "salt"
        }, 
        {
            "amount": "1 teaspoon", 
            "ingredient": "vanilla extract"
        }
    ], 
    "prep_steps": [
        "Combine the egg whites, sugar, corn syrup, water, cream of tartar, and salt in the top of a double boiler over water that is at a hard boil. Start beating right away with a beater until the mixture stands in stiff peaks. Remove from heat and add vanilla or your favorite flavoring and keep beating until it is thick enough to spread easily."
    ], 
    "recipe_name": "Angel Icing"
}