{
    "ingredients": [
        {
            "amount": "1 3/4 cups", 
            "ingredient": "uncooked Arborio rice"
        }, 
        {
            "amount": "1/2 cup", 
            "ingredient": "unsalted butter, divided"
        }, 
        {
            "amount": "1 1/2 quarts", 
            "ingredient": "beef stock"
        }, 
        {
            "amount": "3 tablespoons", 
            "ingredient": "beef marrow"
        }, 
        {
            "amount": "1", 
            "ingredient": "onion, thinly sliced"
        }, 
        {
            "amount": "1 teaspoon", 
            "ingredient": "saffron powder"
        }, 
        {
            "amount": "3/4 cup", 
            "ingredient": "dry white wine"
        }, 
        {
            "amount": "1 1/2 cups", 
            "ingredient": "grated Parmesan cheese"
        }
    ], 
    "prep_steps": [
        "Melt half of the butter in a medium saucepan over low heat. Simmer the onion and beef marrow in the butter for about 10 minutes. When the onion is soft, remove the onion and marrow from the pan using a slotted spoon, and set aside. (I like to leave the onions in.)", 
        "Saute the rice in the pan over medium heat for 5 to 7 minutes, or until lightly toasted. Stir constantly so the rice will not stick and burn. Stir in one ladle of beef stock, and keep stirring until it is mostly absorbed, ladling and stirring in more of the broth as well as the white wine in the same manner, until the rice is almost al dente. Stir in the saffron, remaining butter, and 3/4 cup of Parmesan cheese. Turn off the heat, cover and let sit for 4 or 5 minutes.", 
        "Serve as a bed for ossibuchi or by itself with as much of the remaining Parmesan cheese sprinkled over as you like."
    ], 
    "prep_time": "40 mins", 
    "recipe_name": "Risotto alla Milanese"
}