{
    "ingredients": [
        {
            "amount": "1 1/8 cups", 
            "ingredient": "water"
        }, 
        {
            "amount": "1 1/2 tablespoons", 
            "ingredient": "flaxseed oil"
        }, 
        {
            "amount": "3 tablespoons", 
            "ingredient": "honey"
        }, 
        {
            "amount": "1/2 tablespoon", 
            "ingredient": "liquid lecithin"
        }, 
        {
            "amount": "3 cups", 
            "ingredient": "whole wheat flour"
        }, 
        {
            "amount": "1/2 cup", 
            "ingredient": "flax seed"
        }, 
        {
            "amount": "2 tablespoons", 
            "ingredient": "bread flour"
        }, 
        {
            "amount": "3 tablespoons", 
            "ingredient": "whey powder"
        }, 
        {
            "amount": "1 1/2 teaspoons", 
            "ingredient": "sea salt"
        }, 
        {
            "amount": "2 teaspoons", 
            "ingredient": "active dry yeast"
        }
    ], 
    "prep_steps": [
        "Put all the ingredients in the pan of the bread machine in the order suggested by the manufacturer.", 
        "Select Wheat Cycle, and Start."
    ], 
    "recipe_name": "Honey and Flaxseed Bread"
}