{
    "ingredients": [
        {
            "amount": "4 pounds", 
            "ingredient": "potatoes, peeled"
        }, 
        {
            "amount": "15 slices", 
            "ingredient": "bacon"
        }, 
        {
            "amount": "1 (16 ounce) container", 
            "ingredient": "reduced-fat sour cream"
        }, 
        {
            "amount": "2 tablespoons", 
            "ingredient": "mayonnaise"
        }, 
        {
            "amount": "2 cups", 
            "ingredient": "shredded Cheddar cheese"
        }, 
        {
            "amount": "2 tablespoons", 
            "ingredient": "dried chives"
        }, 
        {
            "amount": "1 teaspoon", 
            "ingredient": "salt"
        }, 
        {
            "amount": "1 teaspoon", 
            "ingredient": "ground black pepper"
        }
    ], 
    "prep_steps": [
        "Place the potatoes into a large pot and cover with lightly salted water. Bring to a boil over high heat, then reduce heat to medium-low, cover, and simmer until just tender, about 15 minutes. Drain the potatoes, and allow to cool to room temperature. Dice once cooled.", 
        "Place the bacon in a large, deep skillet, and cook over medium-high heat, turning occasionally, until evenly browned, about 10 minutes. Drain the bacon slices on a paper towel-lined plate. Allow to cool, and crumble the bacon into a large bowl.", 
        "Place the cooled potatoes into the bowl with the bacon, and mix in the sour cream, mayonnaise, Cheddar cheese, chives, salt, and pepper. Refrigerate overnight before serving."
    ], 
    "prep_time": "9 hrs", 
    "recipe_name": "Baked Potato Salad"
}