{
    "ingredients": [
        {
            "amount": "1 pound", 
            "ingredient": "skinless, boneless chicken breast meat - cubed"
        }, 
        {
            "amount": "2 tablespoons", 
            "ingredient": "vegetable oil"
        }, 
        {
            "amount": "1/2 cup", 
            "ingredient": "sliced green bell pepper"
        }, 
        {
            "amount": "1/2 cup", 
            "ingredient": "sliced red bell pepper"
        }, 
        {
            "amount": "1 cup", 
            "ingredient": "carrot strips"
        }, 
        {
            "amount": "1 clove", 
            "ingredient": "garlic, minced"
        }, 
        {
            "amount": "1 tablespoon", 
            "ingredient": "cornstarch"
        }, 
        {
            "amount": "1/4 cup", 
            "ingredient": "low sodium soy sauce"
        }, 
        {
            "amount": "1 (8 ounce) can", 
            "ingredient": "pineapple chunks, juice reserved"
        }, 
        {
            "amount": "1 tablespoon", 
            "ingredient": "vinegar"
        }, 
        {
            "amount": "1 tablespoon", 
            "ingredient": "brown sugar"
        }, 
        {
            "amount": "1/2 teaspoon", 
            "ingredient": "ground ginger"
        }
    ], 
    "prep_steps": [
        "Brown chicken in oil in a large skillet over medium high heat. Add green bell pepper, red bell pepper, carrot and garlic and stir fry for 1 to 2 minutes.", 
        "In a small bowl, combine cornstarch and soy sauce and mix together; pour mixture into the skillet, along with the pineapple and liquid, vinegar, sugar and ginger. Stir together and bring to a full boil."
    ], 
    "prep_time": "20 mins", 
    "recipe_name": "Sweet and Sour Chicken III"
}