{
    "ingredients": [
        {
            "amount": "1/2 cup", 
            "ingredient": "Kikkoman Teriyaki Marinade & Sauce"
        }, 
        {
            "amount": "1/4 cup", 
            "ingredient": "Kikkoman Hoisin Sauce"
        }, 
        {
            "amount": "1/4 cup", 
            "ingredient": "honey"
        }, 
        {
            "amount": "2 1/2 pounds", 
            "ingredient": "chicken drumsticks"
        }, 
        {
            "amount": "1", 
            "ingredient": "green onion, thinly sliced"
        }
    ], 
    "prep_steps": [
        "Combine first 3 ingredients; pour over chicken in large plastic food storage bag. Press air out of bag; close top securely. Turn bag over several times to coat all pieces well. Refrigerate 2 hours or overnight, turning bag over occasionally.", 
        "Bake chicken in 350 degrees F oven 1 hour, turning pieces over and basting with pan juices once.", 
        "Sprinkle on green onion before serving."
    ], 
    "recipe_name": "Honey-Glazed Chinese Chicken"
}