{
    "ingredients": [
        {
            "amount": "6", 
            "ingredient": "Yukon Gold potatoes"
        }, 
        {
            "amount": "1 small", 
            "ingredient": "sweet onion, diced"
        }, 
        {
            "amount": "3", 
            "ingredient": "hard-cooked eggs, chopped"
        }, 
        {
            "amount": "1/2 cup", 
            "ingredient": "diced celery"
        }, 
        {
            "amount": "1/4 cup", 
            "ingredient": "chopped sweet pickles"
        }, 
        {
            "amount": "1 cup", 
            "ingredient": "mayonnaise"
        }, 
        {
            "amount": "1/3 cup", 
            "ingredient": "sweet pickle juice"
        }, 
        {
            "amount": "1 teaspoon", 
            "ingredient": "prepared yellow mustard"
        }
    ], 
    "prep_steps": [
        "Place potatoes into a large pot and cover with salted water; bring to a boil. Reduce heat to medium-low and simmer until tender, about 20 minutes. Drain and transfer potatoes to a large bowl.", 
        "Mash potatoes with a potato masher. Stir in onion, eggs, celery, pickles, salt, and black pepper. Mix mayonnaise, pickle juice, and mustard in a separate bowl; pour over potatoes and mix well. Cover and refrigerate at least 1 hour before serving."
    ], 
    "prep_time": "1\u00be hrs", 
    "recipe_name": "Mom's Mashed Potato Salad"
}