{
    "ingredients": [
        {
            "amount": "2 tablespoons", 
            "ingredient": "vegetable oil"
        }, 
        {
            "amount": "2 pounds", 
            "ingredient": "sirloin tips, cubed"
        }, 
        {
            "amount": "4 1/3 cups", 
            "ingredient": "water, divided"
        }, 
        {
            "amount": "1 tablespoon", 
            "ingredient": "salt"
        }, 
        {
            "amount": "1 teaspoon", 
            "ingredient": "lemon juice"
        }, 
        {
            "amount": "1/4 teaspoon", 
            "ingredient": "paprika"
        }, 
        {
            "amount": "1 clove", 
            "ingredient": "garlic, crushed"
        }, 
        {
            "amount": "1 teaspoon", 
            "ingredient": "white sugar"
        }, 
        {
            "amount": "1 teaspoon", 
            "ingredient": "Worcestershire sauce"
        }, 
        {
            "amount": "1", 
            "ingredient": "bay leaf"
        }, 
        {
            "amount": "4", 
            "ingredient": "potatoes, quartered"
        }, 
        {
            "amount": "6", 
            "ingredient": "carrots, cut into 2 inch pieces"
        }, 
        {
            "amount": "1 (14.5 ounce) can", 
            "ingredient": "tiny whole onions"
        }, 
        {
            "amount": "1/4 cup", 
            "ingredient": "all-purpose flour"
        }, 
        {
            "amount": "1/2 (10 ounce) package", 
            "ingredient": "frozen green peas, thawed"
        }
    ], 
    "prep_steps": [
        "In a large pot over medium heat, cook sirloin in oil until quite brown. Pour 1 cup of water over the meat and drippings and cook, stirring, 2 minutes, until a dark gravy forms. Stir in 3 cups water with the salt, lemon juice, paprika, garlic, sugar, Worcestershire and bay leaf. Cover, reduce heat and simmer 2 1/2 hours.", 
        "Stir potatoes and carrots into simmering stew and cook until tender, 20 minutes.", 
        "Stir in onions. In a small bowl, combine flour with remaining 1/3 cup water. Stir flour mixture into stew and cook until stew thickens. Top with peas just before serving."
    ], 
    "prep_time": "3 hrs", 
    "recipe_name": "Rocky Mountain Stew"
}