{
    "ingredients": [
        {
            "amount": "5 slices", 
            "ingredient": "bacon"
        }, 
        {
            "amount": "3", 
            "ingredient": "onions, chopped"
        }, 
        {
            "amount": "2", 
            "ingredient": "carrots, chopped"
        }, 
        {
            "amount": "1", 
            "ingredient": "red bell pepper, chopped"
        }, 
        {
            "amount": "2 stalks", 
            "ingredient": "celery, chopped"
        }, 
        {
            "amount": "4 cloves", 
            "ingredient": "garlic, minced"
        }, 
        {
            "amount": "1 teaspoon", 
            "ingredient": "white sugar"
        }, 
        {
            "amount": "1/2 teaspoon", 
            "ingredient": "ground black pepper"
        }, 
        {
            "amount": "1/4 teaspoon", 
            "ingredient": "ground cayenne pepper"
        }, 
        {
            "amount": "1 teaspoon", 
            "ingredient": "garlic powder"
        }, 
        {
            "amount": "1 teaspoon", 
            "ingredient": "onion powder"
        }, 
        {
            "amount": "1", 
            "ingredient": "bay leaf"
        }, 
        {
            "amount": "1 teaspoon", 
            "ingredient": "dried thyme"
        }, 
        {
            "amount": "1 tablespoon", 
            "ingredient": "Worcestershire sauce"
        }, 
        {
            "amount": "4 cups", 
            "ingredient": "chicken broth"
        }, 
        {
            "amount": "2 (15 ounce) cans", 
            "ingredient": "cannellini beans, with liquid"
        }, 
        {
            "amount": "1/2 cup", 
            "ingredient": "chopped parsley"
        }
    ], 
    "prep_steps": [
        "In a large pot over medium high heat, saute the bacon until crisp. Drain the fat, leaving about 2 tablespoons in the pot. Crumble the bacon, reserving for later for garnish. Add the onions, carrots, red bell pepper, celery and garlic to the pot and saute in the bacon fat for 10 minutes.", 
        "Stir in the sugar, ground black pepper, cayenne pepper, garlic powder, onion powder, bay leaf, thyme and Worcestershire sauce. Now pour in just a small amount of chicken stock to deglaze the pan. (Note: This removes all of the caramelized particles from the bottom of the pan.)", 
        "Add the beans and the rest of the stock and continue to cook over medium high heat for 10 to 15 minutes, or until all vegetables are tender.", 
        "In a food processor or blender, puree 3 cups of soup at a time, adjusting seasoning if necessary. Return all pureed soup to the pot, stir in the parsley and crumbled bacon and simmer for 10 more minutes."
    ], 
    "recipe_name": "Bean, Bacon and Pepper Soup"
}