{
    "ingredients": [
        {
            "amount": "2 tablespoons", 
            "ingredient": "butter"
        }, 
        {
            "amount": "1 pound", 
            "ingredient": "sea scallops, rinsed and drained"
        }, 
        {
            "amount": "1 small", 
            "ingredient": "onion, finely chopped"
        }, 
        {
            "amount": "1/2 pound", 
            "ingredient": "mushrooms, thinly sliced"
        }, 
        {
            "amount": "1 clove", 
            "ingredient": "garlic, minced"
        }, 
        {
            "amount": "2 medium", 
            "ingredient": "tomatoes, peeled and chopped"
        }, 
        {
            "amount": "1/4 cup", 
            "ingredient": "dry white wine"
        }, 
        {
            "amount": "2 tablespoons", 
            "ingredient": "ketchup"
        }, 
        {
            "amount": "1/2 teaspoon", 
            "ingredient": "salt"
        }, 
        {
            "amount": "1/2 teaspoon", 
            "ingredient": "chopped dried tarragon"
        }, 
        {
            "amount": "1/4 teaspoon", 
            "ingredient": "dried rosemary"
        }, 
        {
            "amount": "1 pinch", 
            "ingredient": "white pepper"
        }, 
        {
            "amount": "1/4 pound", 
            "ingredient": "frozen, small, cooked shrimp"
        }, 
        {
            "amount": "2 teaspoons", 
            "ingredient": "white wine vinegar"
        }
    ], 
    "prep_steps": [
        "Heat butter in a large skillet over medium-high heat. Without crowding, lightly brown scallops in batches. Remove scallops to individual casseroles or lightly buttered baking shells.", 
        "Stir onion and mushrooms into the skillet, and cook until the onion is soft and begins to brown. Stir in garlic, tomatoes, wine, ketchup, salt, tarragon, rosemary, and white pepper. Bring to a boil; cover, reduce heat to low, and simmer 15 minutes. Uncover, and cook until thick, about 3 minutes. Mix in shrimp and vinegar.", 
        "Preheat oven to 400 degrees F (200 degrees C).", 
        "Spoon sauce evenly over scallops.", 
        "Bake in a preheated oven until sauce bubbles and begins to brown at the edges, about 10 minutes. Sprinkle parsley over tops, and serve."
    ], 
    "prep_time": "1\u00bd hrs", 
    "recipe_name": "Scallops Provencale"
}