{
    "ingredients": [
        {
            "amount": "3 cloves", 
            "ingredient": "garlic, minced"
        }, 
        {
            "amount": "1/2 cup", 
            "ingredient": "soy sauce"
        }, 
        {
            "amount": "2 tablespoons", 
            "ingredient": "vegetable oil"
        }, 
        {
            "amount": "2 tablespoons", 
            "ingredient": "ketchup"
        }, 
        {
            "amount": "1 teaspoon", 
            "ingredient": "dried oregano"
        }, 
        {
            "amount": "1 teaspoon", 
            "ingredient": "ground black pepper"
        }, 
        {
            "amount": "1 (2 pound)", 
            "ingredient": "flank steak or round steak"
        }
    ], 
    "prep_steps": [
        "In a small bowl, mix together garlic, soy sauce, oil, ketchup, oregano, and black pepper. Pierce meat with a fork on both sides. Place meat and marinade in a large resealable plastic bag. Refrigerate 8 hours, or overnight.", 
        "Preheat grill for medium-high heat.", 
        "Lightly oil the grill grate. Place steak on the grill, and discard marinade. Cook for 5 to 8 minutes per side, depending on thickness. Do not overcook, as it is better on the rare side."
    ], 
    "prep_time": "8 hrs", 
    "recipe_name": "London Broil I"
}