{
    "ingredients": [
        {
            "amount": "1 1/2 cups", 
            "ingredient": "shortening"
        }, 
        {
            "amount": "1 teaspoon", 
            "ingredient": "distilled white vinegar"
        }, 
        {
            "amount": "2 tablespoons", 
            "ingredient": "milk"
        }, 
        {
            "amount": "1/2 cup", 
            "ingredient": "hot water"
        }, 
        {
            "amount": "4 cups", 
            "ingredient": "all-purpose flour"
        }, 
        {
            "amount": "2 teaspoons", 
            "ingredient": "salt"
        }, 
        {
            "amount": "1 tablespoon", 
            "ingredient": "cornstarch"
        }
    ], 
    "prep_steps": [
        "In a large bowl, combine shortening, vinegar, and milk. Pour in hot water and whip until mixture is smooth.", 
        "In a separate bowl, mix together flour, salt, and cornstarch. Add flour mixture to shortening mixture and stir just until dough comes together. Roll out dough between sheets of wax paper. If dough is difficult to work with, refrigerate before rolling."
    ], 
    "recipe_name": "Hot Water Pie Crust II"
}