{
    "ingredients": [
        {
            "amount": "1 pound", 
            "ingredient": "ground beef"
        }, 
        {
            "amount": "1", 
            "ingredient": "onion, chopped"
        }, 
        {
            "amount": "2 cloves", 
            "ingredient": "garlic, minced"
        }, 
        {
            "amount": "1 (11 ounce) can", 
            "ingredient": "whole kernel corn, with liquid"
        }, 
        {
            "amount": "1 (2.25 ounce) can", 
            "ingredient": "sliced black olives, with liquid"
        }, 
        {
            "amount": "1 (14.5 ounce) can", 
            "ingredient": "tomatoes with juice, chopped"
        }, 
        {
            "amount": "1 (15 ounce) can", 
            "ingredient": "chili beans, drained"
        }, 
        {
            "amount": "1/2 cup", 
            "ingredient": "chopped green onions"
        }, 
        {
            "amount": "1 (1.25 ounce) package", 
            "ingredient": "taco seasoning mix"
        }, 
        {
            "amount": "1/2 teaspoon", 
            "ingredient": "salt"
        }, 
        {
            "amount": "1 (16 ounce) package", 
            "ingredient": "uncooked egg noodles"
        }, 
        {
            "amount": "1/2 cup", 
            "ingredient": "sour cream, for topping"
        }
    ], 
    "prep_steps": [
        "In a large skillet over medium heat, cook the ground beef, onion, and garlic until beef is evenly brown. Drain.", 
        "Mix the corn, olives, tomatoes, chili beans, and green onions into the skillet. Season with taco seasoning and salt. Cover, and cook 15 minutes.", 
        "Mix the egg noodles into the skillet. Cover, and continue cooking 12 minutes, or until egg noodles are tender. Top each serving with a dollop of sour cream."
    ], 
    "prep_time": "45 mins", 
    "recipe_name": "Noodles Mexicana"
}