{
    "ingredients": [
        {
            "amount": "1 1/2 cups", 
            "ingredient": "flaked coconut"
        }, 
        {
            "amount": "3 tablespoons", 
            "ingredient": "butter"
        }
    ], 
    "prep_steps": [
        "Mix coconut and butter or margarine together. Press mixture into an 8 or 9 inch pie plate.", 
        "Bake at 325 degrees F (165 degrees C) for 15 minutes, or until golden."
    ], 
    "recipe_name": "Coconut Crust"
}