{
    "ingredients": [
        {
            "amount": "1 (12 fluid ounce) can", 
            "ingredient": "evaporated milk"
        }, 
        {
            "amount": "2", 
            "ingredient": "eggs, beaten"
        }, 
        {
            "amount": "1 1/2 teaspoons", 
            "ingredient": "vanilla extract"
        }, 
        {
            "amount": "3/4 cup", 
            "ingredient": "white sugar"
        }, 
        {
            "amount": "1 gallon", 
            "ingredient": "snow"
        }
    ], 
    "prep_steps": [
        "In a large bowl, combine evaporated milk, eggs, vanilla and sugar until smooth. Gradually stir in snow until mixture reaches desired consistency. Eat at once."
    ], 
    "prep_time": "15 mins", 
    "recipe_name": "Snow Ice Cream I"
}