{
    "ingredients": [
        {
            "amount": "1/4 cup", 
            "ingredient": "mayonnaise"
        }, 
        {
            "amount": "1/4 cup", 
            "ingredient": "minced red onion"
        }, 
        {
            "amount": "1/2 cup", 
            "ingredient": "finely chopped tomato"
        }, 
        {
            "amount": "2 tablespoons", 
            "ingredient": "dill pickle relish"
        }, 
        {
            "amount": "1/2 teaspoon", 
            "ingredient": "ground piri piri chile pepper"
        }, 
        {
            "amount": "2 (4 ounce) fillets", 
            "ingredient": "tilapia fillets"
        }, 
        {
            "amount": "1 teaspoon", 
            "ingredient": "seafood seasoning (such as Old Bay\u00ae)"
        }, 
        {
            "amount": "1/2 teaspoon", 
            "ingredient": "garlic powder"
        }, 
        {
            "amount": "2 tablespoons", 
            "ingredient": "butter"
        }, 
        {
            "amount": "4 slices", 
            "ingredient": "pepperjack cheese"
        }, 
        {
            "amount": "4 slices", 
            "ingredient": "whole wheat bread, toasted"
        }
    ], 
    "prep_steps": [
        "Stir together the mayonnaise, onion, tomato, relish, and piri piri in a small bowl. Season to taste with salt and pepper, and set aside.", 
        "Season the tilapia fillets on both sides with the seafood seasoning and garlic powder. Melt the butter in a skillet over medium heat. Cook the tilapia fillets until they are golden brown on both sides and no longer translucent in the center, 2 to 3 minutes per side. Place two slices of pepperjack cheese on top of each fillet, cover the skillet, and cook until the cheese has melted.", 
        "Place each tilapia fillet onto a slice of toasted bread, spread with the reserved sauce, then top with the remaining slices of bread."
    ], 
    "prep_time": "20 mins", 
    "recipe_name": "Pan Fried Tilapia Sandwich"
}