{
    "ingredients": [
        {
            "amount": "1 (14 ounce) bottle", 
            "ingredient": "ketchup"
        }, 
        {
            "amount": "1/2 cup", 
            "ingredient": "water"
        }, 
        {
            "amount": "1/4 cup", 
            "ingredient": "white sugar"
        }, 
        {
            "amount": "1 tablespoon", 
            "ingredient": "brown sugar"
        }, 
        {
            "amount": "1 tablespoon", 
            "ingredient": "red wine vinegar"
        }, 
        {
            "amount": "1 tablespoon", 
            "ingredient": "prepared yellow mustard"
        }, 
        {
            "amount": "1 teaspoon", 
            "ingredient": "salt"
        }, 
        {
            "amount": "1/4 teaspoon", 
            "ingredient": "ground black pepper"
        }, 
        {
            "amount": "1/4 teaspoon", 
            "ingredient": "paprika"
        }, 
        {
            "amount": "2 pounds", 
            "ingredient": "ground beef"
        }, 
        {
            "amount": "2 teaspoons", 
            "ingredient": "minced onion"
        }, 
        {
            "amount": "12", 
            "ingredient": "hamburger buns, split"
        }
    ], 
    "prep_steps": [
        "Whisk together the ketchup, water, white sugar, brown sugar, vinegar, mustard, salt, pepper, and paprika in a large saucepan. Bring to a simmer over medium-high heat; reduce heat to medium-low and simmer 15 minutes.", 
        "Meanwhile, heat a large skillet over medium-high heat; cook and stir the ground beef and onion in the hot skillet until the beef is crumbly, evenly browned, and no longer pink; drain and discard any excess grease. Stir the beef into the simmering barbeque sauce. Simmer together for 10 minutes. Spoon into the buns to serve."
    ], 
    "prep_time": "40 mins", 
    "recipe_name": "Nonie's Best BBQ"
}