{
    "ingredients": [
        {
            "amount": "1", 
            "ingredient": "egg"
        }, 
        {
            "amount": "1 slice", 
            "ingredient": "ham"
        }, 
        {
            "amount": "2", 
            "ingredient": "leftover buttermilk pancakes"
        }, 
        {
            "amount": "1 slice", 
            "ingredient": "Cheddar cheese"
        }, 
        {
            "amount": "2 tablespoons", 
            "ingredient": "maple syrup"
        }
    ], 
    "prep_steps": [
        "Heat frying pan over medium heat and lightly spray with cooking spray. Crack the egg into the pan and break the yolk. Cook the egg to desired firmness. Warm sliced ham in the pan while assembling sandwich.", 
        "Toast pancakes in toaster and place one pancake on plate. Place egg on top of pancake. Pour 1 tablespoon of maple syrup over egg, place the cheese on top of egg, and a slice of warmed ham on top of the cheese. Top the sandwich with the second pancake and pour another 1 tablespoon of maple syrup over the top of the sandwich."
    ], 
    "prep_time": "15 mins", 
    "recipe_name": "Leftover Pancake Breakfast Sandwich"
}