{
    "ingredients": [
        {
            "amount": "1 3/4 cups", 
            "ingredient": "white sugar"
        }, 
        {
            "amount": "1/2 cup", 
            "ingredient": "milk"
        }, 
        {
            "amount": "1/2 cup", 
            "ingredient": "margarine (such as Country Crock\u00ae)"
        }, 
        {
            "amount": "1/4 cup", 
            "ingredient": "unsweetened cocoa powder"
        }, 
        {
            "amount": "3 cups", 
            "ingredient": "quick-cooking oats"
        }, 
        {
            "amount": "1/2 cup", 
            "ingredient": "creamy peanut butter"
        }, 
        {
            "amount": "1 teaspoon", 
            "ingredient": "vanilla extract"
        }
    ], 
    "prep_steps": [
        "Line a baking sheet with waxed paper.", 
        "Bring sugar, milk, margarine, and cocoa powder to a boil in a large saucepan for 1 1/2 minutes. Remove from heat and stir in oats, peanut butter, and vanilla extract until dough is evenly mixed.", 
        "Drop tablespoonfuls of dough on prepared baking dish and let rest until cooled and set, about 50 minutes."
    ], 
    "prep_time": "1\u00bc hrs", 
    "recipe_name": "No Bake Chocolate Peanut Butter Cookies"
}