{
    "ingredients": [
        {
            "amount": "4", 
            "ingredient": "eggs"
        }, 
        {
            "amount": "1/2", 
            "ingredient": "avocado - peeled, pitted and diced"
        }, 
        {
            "amount": "2 stalks", 
            "ingredient": "celery, finely chopped"
        }, 
        {
            "amount": "2 tablespoons", 
            "ingredient": "prepared mustard"
        }, 
        {
            "amount": "1 teaspoon", 
            "ingredient": "salt"
        }, 
        {
            "amount": "1 teaspoon", 
            "ingredient": "ground black pepper"
        }, 
        {
            "amount": "1 teaspoon", 
            "ingredient": "garlic powder"
        }
    ], 
    "prep_steps": [
        "Place eggs in a saucepan and cover with water. Boil for 10 minutes, then transfer eggs to a bowl of warm water. Allow eggs to rest in the warm water for 10 more minutes.", 
        "Peel and rinse eggs under cold water to cool; cube eggs.", 
        "Mash eggs, avocado, celery, and mustard in a bowl with a fork until well mixed but still chunky. Season with salt, black pepper, and garlic powder."
    ], 
    "prep_time": "30 mins", 
    "recipe_name": "Delicious Avocado Egg Salad"
}