{
    "ingredients": [
        {
            "amount": "2 (28 ounce) cans", 
            "ingredient": "peeled ground tomatoes"
        }, 
        {
            "amount": "1/2 cup", 
            "ingredient": "water, divided"
        }, 
        {
            "amount": "2/3 cup", 
            "ingredient": "white sugar"
        }, 
        {
            "amount": "3/4 cup", 
            "ingredient": "distilled white vinegar"
        }, 
        {
            "amount": "1 teaspoon", 
            "ingredient": "onion powder"
        }, 
        {
            "amount": "1/2 teaspoon", 
            "ingredient": "garlic powder"
        }, 
        {
            "amount": "1 3/4 teaspoons", 
            "ingredient": "salt"
        }, 
        {
            "amount": "1/8 teaspoon", 
            "ingredient": "celery salt"
        }, 
        {
            "amount": "1/8 teaspoon", 
            "ingredient": "mustard powder"
        }, 
        {
            "amount": "1/4 teaspoon", 
            "ingredient": "finely ground black pepper"
        }, 
        {
            "amount": "1", 
            "ingredient": "whole clove"
        }
    ], 
    "prep_steps": [
        "Pour ground tomatoes into slow cooker. Swirl 1/4 cup water in each emptied can and pour into slow cooker. Add sugar, vinegar, onion powder, garlic powder, salt, celery salt, mustard powder, black pepper, cayenne pepper, and whole clove; whisk to combine.", 
        "Cook on high, uncovered, until mixture is reduced by half and very thick, 10 to 12 hours. Stir every hour or so.", 
        "Smooth the texture of the ketchup using an immersion blender, about 20 seconds.", 
        "Ladle the ketchup into a fine strainer and press mixture with the back of a ladle to strain out any skins and seeds.", 
        "Transfer the strained ketchup to a bowl. Cool completely before tasting to adjust salt, black pepper, or cayenne pepper."
    ], 
    "prep_time": "12 hrs", 
    "recipe_name": "Homemade Ketchup"
}