{
    "ingredients": [
        {
            "amount": "1 (8 ounce) package", 
            "ingredient": "linguine pasta"
        }, 
        {
            "amount": "1/2 cup", 
            "ingredient": "butter"
        }, 
        {
            "amount": "1/4 cup", 
            "ingredient": "olive oil"
        }, 
        {
            "amount": "1 clove", 
            "ingredient": "garlic, crushed"
        }, 
        {
            "amount": "1 cup", 
            "ingredient": "sliced mushrooms"
        }, 
        {
            "amount": "1 pound", 
            "ingredient": "crawfish tails"
        }, 
        {
            "amount": "1/2 cup", 
            "ingredient": "chopped green onions"
        }, 
        {
            "amount": "1 cup", 
            "ingredient": "half-and-half cream"
        }, 
        {
            "amount": "1/3 cup", 
            "ingredient": "grated Parmesan cheese"
        }, 
        {
            "amount": "1/4 cup", 
            "ingredient": "chopped fresh parsley"
        }
    ], 
    "prep_steps": [
        "Bring a large pot of lightly salted water to a boil. Cook pasta for 8 to 10 minutes, or until al dente; drain.", 
        "Melt butter with olive oil in a large skillet over medium heat. Saute garlic and mushrooms until tender. Stir in crawfish and green onions; reduce heat to low, and cook 5 minutes. Stir in half and half, Parmesan cheese, and parsley. Simmer for 5 minutes. Season with salt and pepper, and serve over hot linguine."
    ], 
    "prep_time": "25 mins", 
    "recipe_name": "Crawfish Linguine"
}