{
    "ingredients": [
        {
            "amount": "1 (9 inch)", 
            "ingredient": "prepared graham cracker crust"
        }, 
        {
            "amount": "1 (5.9 ounce) package", 
            "ingredient": "instant chocolate pudding mix"
        }, 
        {
            "amount": "1 (8 ounce) container", 
            "ingredient": "frozen whipped topping, thawed"
        }, 
        {
            "amount": "10", 
            "ingredient": "gummi worms"
        }
    ], 
    "prep_steps": [
        "Make instant pudding according to directions on box.", 
        "Dump pudding into pie crust.", 
        "Spread whipped topping on top of the pudding.", 
        "Refrigerate until not too gooey.", 
        "Garnish with gummy worms."
    ], 
    "prep_time": "1 hr", 
    "recipe_name": "Chocolate Pudding Pie"
}