{
    "ingredients": [
        {
            "amount": "1 1/2 pounds", 
            "ingredient": "cod fillets"
        }, 
        {
            "amount": "1 1/2 cups", 
            "ingredient": "1% milk"
        }, 
        {
            "amount": "1", 
            "ingredient": "onion, chopped"
        }, 
        {
            "amount": "1 teaspoon", 
            "ingredient": "lemon pepper"
        }, 
        {
            "amount": "1 teaspoon", 
            "ingredient": "dried parsley"
        }, 
        {
            "amount": "1 tablespoon", 
            "ingredient": "lemon juice"
        }
    ], 
    "prep_steps": [
        "Preheat oven to 350 degrees F (175 degrees C). Lightly coat an 8x8 baking dish with cooking spray.", 
        "Rinse cod filets and pat dry. Place fish in a single layer in the baking dish. Mix together milk, onion, lemon pepper, parsley and salt; pour over fish filets. Drizzle filets with lemon juice.", 
        "Bake in preheated oven for 15 minutes, or until fish is firm and can be flaked with a fork."
    ], 
    "prep_time": "25 mins", 
    "recipe_name": "Baked Milk Fish"
}