{
    "ingredients": [
        {
            "amount": "2 (10 ounce) cans", 
            "ingredient": "chunk chicken, undrained"
        }, 
        {
            "amount": "2 (16 ounce) cans", 
            "ingredient": "chili beans, drained"
        }, 
        {
            "amount": "3 (14.5 ounce) cans", 
            "ingredient": "Mexican-style stewed tomatoes"
        }, 
        {
            "amount": "1 (12 ounce) jar", 
            "ingredient": "sliced jalapeno peppers"
        }, 
        {
            "amount": "1 large", 
            "ingredient": "onion, chopped"
        }, 
        {
            "amount": "2 large", 
            "ingredient": "green bell peppers, seeded and chopped"
        }, 
        {
            "amount": "1 1/2 tablespoons", 
            "ingredient": "chili powder"
        }, 
        {
            "amount": "2 tablespoons", 
            "ingredient": "ground cumin"
        }, 
        {
            "amount": "10 cups", 
            "ingredient": "water, or as needed"
        }, 
        {
            "amount": "1 (14.5 ounce) can", 
            "ingredient": "chicken broth"
        }
    ], 
    "prep_steps": [
        "In a large stockpot, combine the chicken, chili beans, tomatoes, jalapenos, onion and green bell pepper. Season with chili powder and cumin. Pour in the chicken broth, and enough water to cover the ingredients. Stir well, and bring to a boil. Reduce heat to medium, and let simmer for one hour. Season with salt to taste."
    ], 
    "prep_time": "1\u00be hrs", 
    "recipe_name": "Amateur's Light Breeze Chicken Chili"
}