{
    "ingredients": [
        {
            "amount": "1/2 cup", 
            "ingredient": "chopped green onions"
        }, 
        {
            "amount": "1 cup", 
            "ingredient": "sliced celery"
        }, 
        {
            "amount": "1 cup", 
            "ingredient": "sliced carrots"
        }, 
        {
            "amount": "8 ounces", 
            "ingredient": "fresh mushrooms, sliced"
        }, 
        {
            "amount": "3/4 cup", 
            "ingredient": "butter"
        }, 
        {
            "amount": "1/2 cup", 
            "ingredient": "all-purpose flour"
        }, 
        {
            "amount": "1 teaspoon", 
            "ingredient": "mustard powder"
        }, 
        {
            "amount": "5 cups", 
            "ingredient": "chicken broth"
        }, 
        {
            "amount": "1 small head", 
            "ingredient": "cauliflower"
        }, 
        {
            "amount": "1 (12 fluid ounce) can or bottle", 
            "ingredient": "beer"
        }, 
        {
            "amount": "8 ounces", 
            "ingredient": "sharp Cheddar cheese, shredded"
        }, 
        {
            "amount": "2 tablespoons", 
            "ingredient": "grated Parmesan cheese"
        }
    ], 
    "prep_steps": [
        "Saute green onions, celery, carrots, and mushrooms in butter. Mix flour and dry mustard into sauteed vegetables. Add chicken broth, bring to a boil.", 
        "Break up cauliflower into bite-size pieces, steam until just tender.", 
        "Reduce heat of sauteed vegetables to a simmer, add cauliflower, beer, and cheeses. Simmer 15-20 minutes. Add salt and pepper to taste. Check seasonings."
    ], 
    "prep_time": "55 mins", 
    "recipe_name": "Beer Cheese Soup I"
}