{
    "ingredients": [
        {
            "amount": "5 tablespoons", 
            "ingredient": "butter"
        }, 
        {
            "amount": "5 tablespoons", 
            "ingredient": "all-purpose flour"
        }, 
        {
            "amount": "1 small", 
            "ingredient": "white onion, grated"
        }, 
        {
            "amount": "1 stalk", 
            "ingredient": "celery, grated"
        }, 
        {
            "amount": "2 cloves", 
            "ingredient": "garlic, minced"
        }, 
        {
            "amount": "2 quarts", 
            "ingredient": "half-and-half cream"
        }, 
        {
            "amount": "1 pint", 
            "ingredient": "heavy cream"
        }, 
        {
            "amount": "1 cup", 
            "ingredient": "chicken broth"
        }, 
        {
            "amount": "1 teaspoon", 
            "ingredient": "hot pepper sauce"
        }, 
        {
            "amount": "2 teaspoons", 
            "ingredient": "Worcestershire sauce"
        }, 
        {
            "amount": "2 tablespoons", 
            "ingredient": "chopped fresh dill"
        }, 
        {
            "amount": "1 pound", 
            "ingredient": "lump crabmeat"
        }, 
        {
            "amount": "2 tablespoons", 
            "ingredient": "chopped fresh chives"
        }, 
        {
            "amount": "1/2 cup", 
            "ingredient": "sherry wine"
        }
    ], 
    "prep_steps": [
        "Melt butter in a large stockpot over medium heat. Stir in flour to make a smooth paste, and cook for about 3 minutes, stirring constantly. Mix in the onion, celery, and garlic; season with salt and pepper. Continue to cook and stir for about 4 minutes.", 
        "Gradually whisk in the half and half cream so that no lumps form. Stir in chicken broth and heavy cream. Bring to a simmer, and pour in half of the sherry. Season with dill, Worcestershire sauce and hot sauce. Cover, and simmer for about 30 minutes, until soup has reduced by 1/3. Add crabmeat, and simmer for another 10 minutes.", 
        "Ladle soup into bowls, and top off with a splash of the remaining sherry and a sprinkle of fresh chives."
    ], 
    "prep_time": "1 hr", 
    "recipe_name": "South Carolina She-Crab Soup"
}