{
    "ingredients": [
        {
            "amount": "1 cup", 
            "ingredient": "dried cranberries"
        }, 
        {
            "amount": "1/2 cup", 
            "ingredient": "orange juice"
        }, 
        {
            "amount": "1/2 cup", 
            "ingredient": "diced red onion"
        }, 
        {
            "amount": "1/2 cup", 
            "ingredient": "chopped fresh cilantro"
        }, 
        {
            "amount": "1 teaspoon", 
            "ingredient": "minced garlic"
        }, 
        {
            "amount": "1", 
            "ingredient": "jalapeno pepper, seeded and minced"
        }, 
        {
            "amount": "1/4 cup", 
            "ingredient": "fresh lime juice"
        }, 
        {
            "amount": "1/2 teaspoon", 
            "ingredient": "ground cumin"
        }, 
        {
            "amount": "1/2 teaspoon", 
            "ingredient": "salt"
        }
    ], 
    "prep_steps": [
        "In a mixing bowl, combine the cranberries, orange juice, onion, cilantro, garlic, jalapeno, lime juice, cumin and salt.", 
        "Stir together and chill 2 hours before serving."
    ], 
    "recipe_name": "Cranberry-Jalapeno Relish"
}