{
    "ingredients": [
        {
            "amount": "2 cups", 
            "ingredient": "sifted all-purpose flour"
        }, 
        {
            "amount": "1 teaspoon", 
            "ingredient": "salt"
        }, 
        {
            "amount": "1 tablespoon", 
            "ingredient": "baking powder"
        }, 
        {
            "amount": "3", 
            "ingredient": "potatoes - peeled, boiled and mashed"
        }, 
        {
            "amount": "1", 
            "ingredient": "onion, chopped"
        }, 
        {
            "amount": "2", 
            "ingredient": "eggs"
        }, 
        {
            "amount": "1 cup", 
            "ingredient": "milk"
        }, 
        {
            "amount": "1/4 cup", 
            "ingredient": "light corn syrup"
        }, 
        {
            "amount": "1 teaspoon", 
            "ingredient": "ground nutmeg"
        }, 
        {
            "amount": "2 tablespoons", 
            "ingredient": "shortening"
        }
    ], 
    "prep_steps": [
        "In a medium bowl, mix together flour, salt, and baking powder. Stir in mashed potatoes and onion until thoroughly combined. In a separate bowl, whisk together eggs and milk, and stir lightly into potato mixture.", 
        "Stir in corn syrup and nutmeg, mixing well. Heat a large griddle to medium-high heat. Coat with shortening and spoon potato mixture onto griddle in 12 equal portions. Fry until brown on both sides. Serve hot."
    ], 
    "prep_time": "40 mins", 
    "recipe_name": "Ellen Szaller's Mashed Potato Pancakes"
}