{
    "ingredients": [
        {
            "amount": "1 cup", 
            "ingredient": "mayonnaise"
        }, 
        {
            "amount": "1/2 cup", 
            "ingredient": "light corn syrup"
        }, 
        {
            "amount": "1/8 teaspoon", 
            "ingredient": "salt"
        }, 
        {
            "amount": "1/4 teaspoon", 
            "ingredient": "ground black pepper"
        }, 
        {
            "amount": "1 1/2 teaspoons", 
            "ingredient": "soy sauce"
        }, 
        {
            "amount": "1/2 teaspoon", 
            "ingredient": "ground ginger"
        }, 
        {
            "amount": "1 pinch", 
            "ingredient": "white sugar"
        }
    ], 
    "prep_steps": [
        "In a food processor or blender, mix the mayonnaise, corn syrup, salt and pepper until blended. Mix in the soy sauce, ginger and sugar. Blend well and adjust seasoning to taste. Chill 2 hours to blend flavors."
    ], 
    "prep_time": "2\u00bc hrs", 
    "recipe_name": "Creamy Oriental Dressing"
}