{
    "ingredients": [
        {
            "amount": "2 1/2 pounds", 
            "ingredient": "pork spareribs"
        }, 
        {
            "amount": "2 (18 ounce) bottles", 
            "ingredient": "barbeque sauce"
        }, 
        {
            "amount": "1", 
            "ingredient": "onion, quartered"
        }, 
        {
            "amount": "1 teaspoon", 
            "ingredient": "salt"
        }, 
        {
            "amount": "1/2 teaspoon", 
            "ingredient": "ground black pepper"
        }
    ], 
    "prep_steps": [
        "Place spareribs in a large stock pot with barbeque sauce, onion, salt, and pepper. Pour in enough water to cover. Bring to a low boil, and cook approximately 40 minutes.", 
        "Preheat grill for high heat.", 
        "Lightly oil grate. Remove spareribs from the stock pot, and place on the prepared grill. Use the barbeque sauce in the saucepan to baste ribs while cooking. Grill ribs, basting and turning frequently, for 20 minutes, or until nicely browned."
    ], 
    "prep_time": "1\u00bc hrs", 
    "recipe_name": "Simple Country Ribs"
}