{
    "ingredients": [
        {
            "amount": "1 (18.25 ounce) package", 
            "ingredient": "yellow cake mix"
        }, 
        {
            "amount": "1 cup", 
            "ingredient": "vegetable oil"
        }, 
        {
            "amount": "1 cup", 
            "ingredient": "sour cream"
        }, 
        {
            "amount": "1/4 cup", 
            "ingredient": "poppy seeds"
        }, 
        {
            "amount": "1/2 cup", 
            "ingredient": "white sugar"
        }, 
        {
            "amount": "4", 
            "ingredient": "eggs"
        }
    ], 
    "prep_steps": [
        "Preheat oven to 325 degrees F (165 degrees C). Grease and sugar a 10 inch Bundt pan.", 
        "In a large bowl, combine cake mix, oil, sour cream, poppy seeds and sugar. Mix until smooth. Beat in eggs one at a time. Pour batter into prepared pan.", 
        "Bake in the preheated oven for 60 minutes, or until a toothpick inserted into the center of the cake comes out clean."
    ], 
    "prep_time": "1\u00bc hrs", 
    "recipe_name": "Poppy Seed Bundt Cake II"
}