{
    "ingredients": [
        {
            "amount": "10 tablespoons", 
            "ingredient": "butter"
        }, 
        {
            "amount": "1 1/2 cups", 
            "ingredient": "white sugar"
        }, 
        {
            "amount": "3", 
            "ingredient": "eggs"
        }, 
        {
            "amount": "1 tablespoon", 
            "ingredient": "grated lemon zest"
        }, 
        {
            "amount": "2 1/2 cups", 
            "ingredient": "sifted all-purpose flour"
        }, 
        {
            "amount": "1/2 teaspoon", 
            "ingredient": "salt"
        }, 
        {
            "amount": "1/2 teaspoon", 
            "ingredient": "baking soda"
        }, 
        {
            "amount": "1 teaspoon", 
            "ingredient": "baking powder"
        }, 
        {
            "amount": "1 cup", 
            "ingredient": "buttermilk"
        }, 
        {
            "amount": "3/4 teaspoon", 
            "ingredient": "lemon extract"
        }, 
        {
            "amount": "1/2 cup", 
            "ingredient": "golden raisins"
        }, 
        {
            "amount": "1/3 cup", 
            "ingredient": "white sugar"
        }, 
        {
            "amount": "1/3 cup", 
            "ingredient": "butter"
        }, 
        {
            "amount": "1 1/2 tablespoons", 
            "ingredient": "water"
        }, 
        {
            "amount": "2 tablespoons", 
            "ingredient": "fresh lemon juice"
        }
    ], 
    "prep_steps": [
        "Preheat oven to 325 degrees F (165 degrees C). Grease and flour a Bundt pan.", 
        "Cream 1/2 cup plus 2 tablespoons butter and 1 1/2 cups sugar until fluffy. Add eggs one at a time beating after each addition. Blend in the lemon peel.", 
        "In a separate bowl, mix flour, salt, soda and baking powder. Add flour mixture alternately with buttermilk to creamed butter mixture. Add lemon extract and raisins.", 
        "Bake at 325 degrees F (165 degrees C) for 50 minutes cool 5 minutes, then turn out onto serving plate. Prick hot cake with skewer or fork and pour on lemon topping.", 
        "Combine 1/3 cup sugar, 1/3 cup butter and water in a saucepan and heat until butter melts. Add lemon juice . Spoon over hot cake."
    ], 
    "recipe_name": "Lemon Fiesta Cake"
}