{
    "ingredients": [
        {
            "amount": "1 cup", 
            "ingredient": "milk"
        }, 
        {
            "amount": "1", 
            "ingredient": "egg"
        }, 
        {
            "amount": "2 tablespoons", 
            "ingredient": "margarine"
        }, 
        {
            "amount": "1/3 cup", 
            "ingredient": "white sugar"
        }, 
        {
            "amount": "3/4 teaspoon", 
            "ingredient": "salt"
        }, 
        {
            "amount": "3 cups", 
            "ingredient": "bread flour"
        }, 
        {
            "amount": "2 1/2 teaspoons", 
            "ingredient": "active dry yeast"
        }
    ], 
    "prep_steps": [
        "Add ingredients in order suggested by your manufacturer.", 
        "Select \"sweet bread\" setting."
    ], 
    "prep_time": "3 hrs", 
    "recipe_name": "Portuguese Sweet Bread I"
}