{
    "ingredients": [
        {
            "amount": "1/2 cup", 
            "ingredient": "butter flavored shortening"
        }, 
        {
            "amount": "2/3 cup", 
            "ingredient": "brown sugar"
        }, 
        {
            "amount": "1/3 cup", 
            "ingredient": "white sugar"
        }, 
        {
            "amount": "1", 
            "ingredient": "egg"
        }, 
        {
            "amount": "1/4 teaspoon", 
            "ingredient": "vanilla extract"
        }, 
        {
            "amount": "1/4 teaspoon", 
            "ingredient": "almond extract"
        }, 
        {
            "amount": "1 1/2 cups", 
            "ingredient": "rolled oats"
        }, 
        {
            "amount": "1 cup", 
            "ingredient": "all-purpose flour"
        }, 
        {
            "amount": "1/2 teaspoon", 
            "ingredient": "baking powder"
        }, 
        {
            "amount": "1/2 teaspoon", 
            "ingredient": "salt"
        }, 
        {
            "amount": "1 cup", 
            "ingredient": "candy-coated milk chocolate pieces"
        }
    ], 
    "prep_steps": [
        "Preheat the oven to 375 degrees F (190 degrees C).", 
        "In a large bowl, cream together the shortening, brown sugar and white sugar until smooth. Beat in the egg and vanilla until well blended. Combine the oats, flour, baking powder and salt; stir into the creamed mixture. Mix in the candy-coated chocolate pieces. Drop by rounded tablespoonfuls onto ungreased cookie sheets.", 
        "Bake for 10 minutes in the preheated oven, until light golden brown."
    ], 
    "prep_time": "40 mins", 
    "recipe_name": "Oatmeal MM Cookies"
}