{
    "ingredients": [
        {
            "amount": "1 (8 ounce) package", 
            "ingredient": "cream cheese, softened"
        }, 
        {
            "amount": "1/4 cup", 
            "ingredient": "white sugar"
        }, 
        {
            "amount": "1", 
            "ingredient": "egg"
        }, 
        {
            "amount": "1 cup", 
            "ingredient": "semisweet chocolate chips"
        }, 
        {
            "amount": "1/4 cup", 
            "ingredient": "butter"
        }, 
        {
            "amount": "1 cup", 
            "ingredient": "semisweet chocolate chips"
        }, 
        {
            "amount": "1/2 cup", 
            "ingredient": "white sugar"
        }, 
        {
            "amount": "2", 
            "ingredient": "eggs"
        }, 
        {
            "amount": "2/3 cup", 
            "ingredient": "all-purpose flour"
        }, 
        {
            "amount": "1/2 teaspoon", 
            "ingredient": "baking powder"
        }, 
        {
            "amount": "1/4 teaspoon", 
            "ingredient": "salt"
        }
    ], 
    "prep_steps": [
        "Preheat oven to 350 degrees F (175 degrees C). Grease a 9-inch square baking pan.", 
        "Combine cream cheese with 1/4 cup sugar and 1 egg in a mixing bowl; beat until smooth. Stir 1 cup chocolate chips into the cream cheese mixture. Set aside.", 
        "Fill a saucepan with water and bring to a boil. Turn the heat off, and set a heatproof mixing bowl over the water. In the mixing bowl, combine butter with the remaining cup of chocolate chips; stir until just melted and blended together. Stir in the remaining 1/2 cup sugar and 2 eggs, then sift together flour, baking powder, and salt; stir into chocolate until evenly blended.", 
        "Pour half of the batter into the prepared baking pan. Spread the cream cheese mixture over the chocolate layer. Top with remaining chocolate mixture (this doesn't need to completely cover the cream cheese layer). Using a knife, swirl the top chocolate layer into the cream cheese to make a marble pattern.", 
        "Bake in preheated oven at 350 degrees F (175 degrees C) for 25 to 30 minutes, or until top is crinkled and edges pull away from sides of the pan. Cool thoroughly. Cut into 12 to 16 squares. Store in the refrigerator or freeze."
    ], 
    "prep_time": "55 mins", 
    "recipe_name": "Chunky Cheesecake Brownies"
}