{
    "ingredients": [
        {
            "amount": "1/2 cup", 
            "ingredient": "vegetable oil"
        }, 
        {
            "amount": "1/4 cup", 
            "ingredient": "cider vinegar"
        }, 
        {
            "amount": "1 tablespoon", 
            "ingredient": "garlic powder"
        }, 
        {
            "amount": "1 teaspoon", 
            "ingredient": "ground black pepper"
        }, 
        {
            "amount": "1/2 teaspoon", 
            "ingredient": "salt"
        }, 
        {
            "amount": "1/2 teaspoon", 
            "ingredient": "dried basil"
        }, 
        {
            "amount": "1/2 teaspoon", 
            "ingredient": "dried thyme"
        }, 
        {
            "amount": "4", 
            "ingredient": "skinless, boneless chicken breast halves"
        }, 
        {
            "amount": "4 large", 
            "ingredient": "potatoes, peeled and cut into 1/4-inch slices"
        }, 
        {
            "amount": "2 large", 
            "ingredient": "onions, cut into 1/4 inch thick slices"
        }, 
        {
            "amount": "2 large", 
            "ingredient": "green bell pepper, cut into 1/4 inch strips"
        }, 
        {
            "amount": "2 cups", 
            "ingredient": "sliced button mushrooms"
        }
    ], 
    "prep_steps": [
        "Preheat an outdoor grill for medium-high heat.", 
        "Stir together the vegetable oil, cider vinegar, garlic powder, black pepper, salt, basil, and thyme in a bowl; set aside.", 
        "Lay out 4 12x12 inch squares of aluminum foil. Place 1 chicken breast in the center of each square, top with potatoes, onions, bell peppers, and mushrooms. Ladle 1/4 of the sauce on each and fold the foil around the ingredients to form four sealed packets.", 
        "Grill the packets on the preheated grill for 30 to 40 minutes, until the internal temperature of the chicken breasts reaches 170 degrees F (75 degrees C)."
    ], 
    "prep_time": "50 mins", 
    "recipe_name": "Grilled Chicken and Potato Foil Packs"
}