{
    "ingredients": [
        {
            "amount": "1 cup", 
            "ingredient": "uncooked long grain white rice"
        }, 
        {
            "amount": "2 cups", 
            "ingredient": "water"
        }, 
        {
            "amount": "2/3 cup", 
            "ingredient": "plum sauce"
        }, 
        {
            "amount": "1/2 cup", 
            "ingredient": "light corn syrup"
        }, 
        {
            "amount": "2 tablespoons", 
            "ingredient": "soy sauce"
        }, 
        {
            "amount": "2 cloves", 
            "ingredient": "garlic, minced"
        }, 
        {
            "amount": "4 packets", 
            "ingredient": "chicken bouillon granules"
        }, 
        {
            "amount": "2 tablespoons", 
            "ingredient": "vegetable oil"
        }, 
        {
            "amount": "4", 
            "ingredient": "skinless, boneless chicken breast halves - cut into bite-size pieces"
        }, 
        {
            "amount": "4 tablespoons", 
            "ingredient": "cornstarch"
        }, 
        {
            "amount": "3/4 teaspoon", 
            "ingredient": "minced fresh ginger root"
        }, 
        {
            "amount": "2 cups", 
            "ingredient": "snow peas, trimmed"
        }, 
        {
            "amount": "1 cup", 
            "ingredient": "sliced fresh mushrooms"
        }
    ], 
    "prep_steps": [
        "Bring the rice and water to a boil in a pot. Cover, reduce heat to low, and simmer 20 minutes.", 
        "Mix the plum sauce, corn syrup, soy sauce, garlic, and bouillon in a small bowl.", 
        "Heat oil in a skillet over medium heat. Coat the chicken in cornstarch, and cook 5 minutes in the skillet, or until juices run clear. Mix in ginger, snow peas, and mushrooms, and continue cooking until tender. Stir in the plum sauce mixture. Cook until heated through."
    ], 
    "prep_time": "40 mins", 
    "recipe_name": "Plum and Ginger Chicken"
}