{
    "ingredients": [
        {
            "amount": "1 tablespoon", 
            "ingredient": "olive oil"
        }, 
        {
            "amount": "1 small", 
            "ingredient": "onion, sliced"
        }, 
        {
            "amount": "1 pound", 
            "ingredient": "lean ground beef"
        }, 
        {
            "amount": "1 small", 
            "ingredient": "tomato, diced"
        }, 
        {
            "amount": "1 teaspoon", 
            "ingredient": "garlic powder"
        }, 
        {
            "amount": "1/2 teaspoon", 
            "ingredient": "ground coriander"
        }, 
        {
            "amount": "1 teaspoon", 
            "ingredient": "dried oregano"
        }, 
        {
            "amount": "1/4 teaspoon", 
            "ingredient": "cayenne pepper"
        }, 
        {
            "amount": "1", 
            "ingredient": "egg, beaten"
        }, 
        {
            "amount": "1 cup", 
            "ingredient": "feta cheese"
        }, 
        {
            "amount": "2 (9 inch)", 
            "ingredient": "frozen pie crusts, thawed"
        }
    ], 
    "prep_steps": [
        "Heat oil in a large skillet over medium high heat. Saute onion until soft, about 2 minutes. Add beef and brown slightly; drain excess fat. Stir in tomato, garlic powder, coriander, oregano, cayenne pepper, salt and pepper and cook until meat is evenly browned, 10 to 15 minutes. Remove from heat and set aside.", 
        "Preheat oven to 400 degrees F (200 degrees C).", 
        "Remove one pie crust from pan and roll out on a lightly floured surface. Cut pastry into four 6 inch circles; place circles on lined cookie sheet and lightly brush with egg beat. Place 1/4 cup of feta cheese onto each circle and top with some beef mixture, leaving enough room to seal dough 'pockets'.", 
        "Remove second pie crust from pan and roll out on lightly floured surface. Cut pastry into four 6 inch circles, as with first pie crust. Brush one side of each circle with egg beat and place, egg-side-down, on top of prepared pie circles. Pinch crusts together to seal around the edges. Use dough scraps to fill any holes or tears in the pie 'pockets'. Brush tops with egg beat and make a small slit in the top of each pie (to allow steam to escape).", 
        "Bake in the preheated oven for 15 to 25 minutes, or until cooked through and golden brown."
    ], 
    "prep_time": "50 mins", 
    "recipe_name": "Savory Feta Pies"
}