{
    "ingredients": [
        {
            "amount": "3 slices", 
            "ingredient": "bacon"
        }, 
        {
            "amount": "1 bunch", 
            "ingredient": "collard greens - rinsed, trimmed and chopped"
        }, 
        {
            "amount": "1", 
            "ingredient": "onion, diced"
        }, 
        {
            "amount": "1 (6 ounce)", 
            "ingredient": "smoked pork chop, diced"
        }, 
        {
            "amount": "1/2 teaspoon", 
            "ingredient": "cayenne pepper"
        }, 
        {
            "amount": "1 (14.5 ounce) can", 
            "ingredient": "chicken broth"
        }, 
        {
            "amount": "1 (12 fluid ounce) can", 
            "ingredient": "beer"
        }
    ], 
    "prep_steps": [
        "Heat a large pot over medium-high heat. Add bacon, and fry until crisp. Remove bacon, and drain off excess fat. Add the onion; cook and stir until slightly browned. Add the pork chop, and season with cayenne pepper. Cook until pork is browned.", 
        "Add the collard greens, and pour in the chicken broth and beer. Cook over medium-low heat for 30 to 40 minutes, until collards are tender. Crumble bacon on top, and season with salt and pepper before serving."
    ], 
    "prep_time": "50 mins", 
    "recipe_name": "Drunken Collard Greens"
}