{
    "ingredients": [
        {
            "amount": "1 cup", 
            "ingredient": "heavy cream"
        }, 
        {
            "amount": "4 tablespoons", 
            "ingredient": "distilled white vinegar"
        }, 
        {
            "amount": "1 pinch", 
            "ingredient": "dried dill, or to taste"
        }, 
        {
            "amount": "2 large", 
            "ingredient": "cucumbers, sliced"
        }
    ], 
    "prep_steps": [
        "In a small bowl combine cream, vinegar, salt, pepper, and dill. Place cucumbers in a medium bowl and pour sauce over them."
    ], 
    "prep_time": "10 mins", 
    "recipe_name": "Cucumbers with Sour Cream"
}