{
    "ingredients": [
        {
            "amount": "24", 
            "ingredient": "pimento-stuffed green olives"
        }, 
        {
            "amount": "1 (17.25 ounce) package", 
            "ingredient": "frozen puff pastry, thawed"
        }
    ], 
    "prep_steps": [
        "Preheat oven to 400 degrees F (200 degrees C).", 
        "Cut pastry into strips about 6 inches long and 1/2 inch wide. Wrap a belt of pastry around each olive. Place on an ungreased baking sheet.", 
        "Bake for 20 minutes, or until golden brown."
    ], 
    "prep_time": "40 mins", 
    "recipe_name": "Olive Puffs"
}