{
    "ingredients": [
        {
            "amount": "1 pound", 
            "ingredient": "ground beef"
        }, 
        {
            "amount": "1/2 cup", 
            "ingredient": "chopped onion"
        }, 
        {
            "amount": "1 (4.5 ounce) can", 
            "ingredient": "mushrooms, drained"
        }, 
        {
            "amount": "1/2 teaspoon", 
            "ingredient": "garlic powder"
        }, 
        {
            "amount": "1/2 teaspoon", 
            "ingredient": "mustard powder"
        }, 
        {
            "amount": "1/2 cup", 
            "ingredient": "sour cream"
        }, 
        {
            "amount": "1/2 cup", 
            "ingredient": "mayonnaise"
        }, 
        {
            "amount": "1/2 cup", 
            "ingredient": "beef broth"
        }, 
        {
            "amount": "1 (8 ounce) package", 
            "ingredient": "wide egg noodles"
        }
    ], 
    "prep_steps": [
        "Break up ground meat into a large skillet, and add onion, mushrooms, garlic powder, and mustard powder. Cook and stir over medium heat until the meat is browned and onion is tender. Drain off excess fat.", 
        "In a small bowl, combine sour cream, mayonnaise, and beef broth. Stir into beef mixture, and cook over low heat for 10 to 15 minutes. Do not stir too much.", 
        "Meanwhile, cook pasta in a large pot of boiling water until done. Drain. Serve sauce over hot noodles."
    ], 
    "prep_time": "30 mins", 
    "recipe_name": "Ground Beef Stroganoff"
}