{
    "ingredients": [
        {
            "amount": "2", 
            "ingredient": "chipotle chilies in adobo sauce"
        }, 
        {
            "amount": "2/3 cup", 
            "ingredient": "maple syrup"
        }, 
        {
            "amount": "2 cloves", 
            "ingredient": "garlic, peeled"
        }, 
        {
            "amount": "1 tablespoon", 
            "ingredient": "soy sauce"
        }
    ], 
    "prep_steps": [
        "Place chilies, maple syrup, garlic, and soy sauce into a blender. Puree until smooth."
    ], 
    "prep_time": "5 mins", 
    "recipe_name": "Sweet Chipotle Grilling Sauce"
}