{
    "ingredients": [
        {
            "amount": "6 fluid ounces", 
            "ingredient": "lemon-lime flavored carbonated beverage"
        }, 
        {
            "amount": "1 dash", 
            "ingredient": "grenadine syrup"
        }, 
        {
            "amount": "1", 
            "ingredient": "maraschino cherry"
        }
    ], 
    "prep_steps": [
        "Into a tall glass, pour soda and grenadine over ice. Add cherry and straw."
    ], 
    "prep_time": "2 mins", 
    "recipe_name": "Shirley Temple "
}