{
    "ingredients": [
        {
            "amount": "2 teaspoons", 
            "ingredient": "white sugar"
        }, 
        {
            "amount": "2 tablespoons", 
            "ingredient": "soy sauce"
        }, 
        {
            "amount": "1 teaspoon", 
            "ingredient": "ground black pepper"
        }, 
        {
            "amount": "2 cloves", 
            "ingredient": "garlic, minced"
        }, 
        {
            "amount": "2 stalks", 
            "ingredient": "lemon grass, minced"
        }, 
        {
            "amount": "2 teaspoons", 
            "ingredient": "sesame seeds"
        }, 
        {
            "amount": "1 1/2 pounds", 
            "ingredient": "sirloin tip, thinly sliced"
        }, 
        {
            "amount": "12 leaves", 
            "ingredient": "romaine lettuce"
        }
    ], 
    "prep_steps": [
        "In a medium bowl, mix the sugar, soy sauce, pepper, garlic, lemon grass, and sesame seeds. Place the meat in the dish, and stir to coat. Cover, and refrigerate for 4 hours.", 
        "Preheat grill for high heat. Discard marinade, and thread meat onto skewers accordion style.", 
        "Brush grill grate with oil, and discard marinade. Arrange skewers on the grill. Cook 5 minutes per side. Serve hot from skewers, or remove from skewers and serve on lettuce leaves. Garnish with cilantro, mint, basil, and sliced green onions."
    ], 
    "prep_time": "4 hrs", 
    "recipe_name": "Bo Nuong Xa"
}