{
    "ingredients": [
        {
            "amount": "1 tablespoon", 
            "ingredient": "olive oil"
        }, 
        {
            "amount": "1 (2 pound)", 
            "ingredient": "ham steak, cubed"
        }, 
        {
            "amount": "1", 
            "ingredient": "onion, chopped"
        }, 
        {
            "amount": "1 (15 ounce) can", 
            "ingredient": "pineapple chunks with juice, divided"
        }, 
        {
            "amount": "1", 
            "ingredient": "apple, cored and chopped"
        }, 
        {
            "amount": "1 tablespoon", 
            "ingredient": "brown sugar"
        }
    ], 
    "prep_steps": [
        "Heat the oil in a large skillet over medium heat. Saute the ham and onion in the skillet for 5 minutes. Add 1/2 the amount of juice from the can of pineapple and allow it to be absorbed by the ham, about 1 to 2 minutes.", 
        "Stir in the pineapple chunks, apple and brown sugar. Pour in any remaining pineapple juice only if mixture is getting too thick. Stir all ingredients together well and allow to heat through, about 5 minutes. Season with salt and pepper to taste."
    ], 
    "prep_time": "35 mins", 
    "recipe_name": "Ham and Fruit Stir-Fry"
}