{
    "ingredients": [
        {
            "amount": "1/4 cup", 
            "ingredient": "lemon juice"
        }, 
        {
            "amount": "1/4 cup", 
            "ingredient": "soy sauce"
        }, 
        {
            "amount": "1/2 teaspoon", 
            "ingredient": "ground ginger"
        }, 
        {
            "amount": "1/2 teaspoon", 
            "ingredient": "garlic powder"
        }, 
        {
            "amount": "1 pound", 
            "ingredient": "cubed pork meat"
        }, 
        {
            "amount": "2 teaspoons", 
            "ingredient": "peanut oil, or sesame oil"
        }, 
        {
            "amount": "1 large", 
            "ingredient": "onion, diced"
        }, 
        {
            "amount": "1 large", 
            "ingredient": "carrot, sliced"
        }, 
        {
            "amount": "1 cup", 
            "ingredient": "broccoli florets"
        }, 
        {
            "amount": "1 (15 ounce) can", 
            "ingredient": "sliced peaches, with juice"
        }, 
        {
            "amount": "1 tablespoon", 
            "ingredient": "all-purpose flour"
        }
    ], 
    "prep_steps": [
        "In a glass bowl or casserole dish, combine the lemon juice, soy sauce, ground ginger, and garlic powder. Place the pork into the dish, cover and refrigerate for several hours or overnight.", 
        "Heat the oil in a wok over medium-high heat. Add the pork, marinade and onion, and cook stirring constantly until the meat is cooked through. Throw in the carrot and broccoli, and cook for a few minutes, then add the peaches with the juice, and bring the mixture to a boil. Sprinkle the flour over the mixture, and stir in. Cook, stirring, until the sauce thickens. Serve over rice or noodles."
    ], 
    "prep_time": "5 hrs", 
    "recipe_name": "Pork with Peaches Stir-Fry"
}