{
    "ingredients": [
        {
            "amount": "2 tablespoons", 
            "ingredient": "brown sugar"
        }, 
        {
            "amount": "1 teaspoon", 
            "ingredient": "garlic powder"
        }, 
        {
            "amount": "1/2 teaspoon", 
            "ingredient": "onion powder"
        }, 
        {
            "amount": "1 tablespoon", 
            "ingredient": "chili powder"
        }, 
        {
            "amount": "1 1/2 teaspoons", 
            "ingredient": "ancho chile powder"
        }, 
        {
            "amount": "1 teaspoon", 
            "ingredient": "chipotle chile powder"
        }, 
        {
            "amount": "1 tablespoon", 
            "ingredient": "salt-free seasoning blend"
        }, 
        {
            "amount": "1 (2 pound)", 
            "ingredient": "flat iron steak"
        }, 
        {
            "amount": "1/4 cup", 
            "ingredient": "vegetable oil"
        }
    ], 
    "prep_steps": [
        "Mix the brown sugar, garlic powder, onion powder, chili powder, ancho chile powder, chipotle chile powder, salt-free seasoning blend, salt, and pepper together in a bowl until thoroughly blended. Sprinkle over both sides of the steak, and rub into the meat. Cover, and refrigerate at least 30 minutes, or up to 2 days.", 
        "Before cooking, drizzle steak with vegetable oil, and rub the oil into the meat. Cook as desired."
    ], 
    "prep_time": "40 mins", 
    "recipe_name": "Spicy Flat Iron Steak Rub"
}