{
    "ingredients": [
        {
            "amount": "1 cup", 
            "ingredient": "all-purpose flour"
        }, 
        {
            "amount": "1 teaspoon", 
            "ingredient": "white sugar"
        }, 
        {
            "amount": "1/4 teaspoon", 
            "ingredient": "salt"
        }, 
        {
            "amount": "3", 
            "ingredient": "eggs"
        }, 
        {
            "amount": "2 cups", 
            "ingredient": "milk"
        }, 
        {
            "amount": "2 tablespoons", 
            "ingredient": "butter, melted"
        }
    ], 
    "prep_steps": [
        "Sift together flour, sugar and salt; set aside. In a large bowl, beat eggs and milk together with an electric mixer. Beat in flour mixture until smooth; stir in melted butter.", 
        "Heat a lightly oiled griddle or frying pan over medium high heat. Pour or scoop the batter onto the griddle, using approximately 2 tablespoons for each crepe. Tip and rotate pan to spread batter as thinly as possible. Brown on both sides and serve hot."
    ], 
    "prep_time": "35 mins", 
    "recipe_name": "French Crepes"
}