{
    "ingredients": [
        {
            "amount": "1 cup", 
            "ingredient": "bread crumbs"
        }, 
        {
            "amount": "1 tablespoon", 
            "ingredient": "all-purpose flour"
        }, 
        {
            "amount": "2 tablespoons", 
            "ingredient": "vegetable oil"
        }, 
        {
            "amount": "4", 
            "ingredient": "pork steaks or cutlets, pounded thin"
        }, 
        {
            "amount": "1", 
            "ingredient": "egg, beaten"
        }, 
        {
            "amount": "1 medium", 
            "ingredient": "onion, diced"
        }, 
        {
            "amount": "1 (8 ounce) can", 
            "ingredient": "sliced mushrooms"
        }, 
        {
            "amount": "1 1/2 cups", 
            "ingredient": "water"
        }, 
        {
            "amount": "1 cube", 
            "ingredient": "beef bouillon"
        }, 
        {
            "amount": "1 tablespoon", 
            "ingredient": "cornstarch"
        }, 
        {
            "amount": "1/2 cup", 
            "ingredient": "sour cream"
        }
    ], 
    "prep_steps": [
        "In a shallow dish, mix together the bread crumbs and flour. Season with salt and pepper. Place the egg in a separate dish. Heat oil in a large skillet over medium-high heat. Dip pork steaks in egg, then coat with the bread crumb mixture. Fry in the hot oil until browned on both sides and cooked through, about 5 minutes per side.", 
        "Remove the pork to a platter and keep warm. Add onion and mushrooms to the skillet and cook until lightly browned. Pour in water and dissolve the bouillon cube. Simmer for about 20 minutes. Stir together the cornstarch and sour cream; stir into the skillet. Cook over low heat until thickened but do not boil. Spoon over the pork cutlets and serve immediately."
    ], 
    "prep_time": "40 mins", 
    "recipe_name": "Jagerschnitzel"
}