{
    "ingredients": [
        {
            "amount": "1 (8.25 ounce) can", 
            "ingredient": "cream-style corn"
        }, 
        {
            "amount": "1 cup", 
            "ingredient": "yellow cornmeal"
        }, 
        {
            "amount": "3/4 cup", 
            "ingredient": "buttermilk"
        }, 
        {
            "amount": "1/2 cup", 
            "ingredient": "corn oil"
        }, 
        {
            "amount": "3 ounces", 
            "ingredient": "shredded Cheddar cheese"
        }, 
        {
            "amount": "3", 
            "ingredient": "eggs"
        }, 
        {
            "amount": "2", 
            "ingredient": "jalapeno peppers, minced"
        }, 
        {
            "amount": "1 teaspoon", 
            "ingredient": "salt"
        }, 
        {
            "amount": "1/2 teaspoon", 
            "ingredient": "baking soda"
        }, 
        {
            "amount": "2 tablespoons", 
            "ingredient": "butter"
        }
    ], 
    "prep_steps": [
        "Preheat oven to 400 degrees F (200 degrees C). Move an oven rack to the center position in oven.", 
        "Mix cream-style corn, cornmeal, buttermilk, corn oil, Cheddar cheese, eggs, jalapeno peppers, salt, and baking soda in a large mixing bowl.", 
        "Put butter into a 9-inch square baking dish.", 
        "Melt butter in preheated oven, 2 to 3 minutes.", 
        "Pour corn bread batter into the baking dish over melted butter.", 
        "Bake in preheated oven until golden brown, about 35 minutes."
    ], 
    "prep_time": "55 mins", 
    "recipe_name": "Jalapeno Corn Bread"
}