{
    "ingredients": [
        {
            "amount": "1 (8 ounce) package", 
            "ingredient": "egg noodles"
        }, 
        {
            "amount": "1 pound", 
            "ingredient": "ground beef"
        }, 
        {
            "amount": "1 (6 ounce) can", 
            "ingredient": "tomato paste"
        }, 
        {
            "amount": "1 teaspoon", 
            "ingredient": "Worcestershire sauce"
        }, 
        {
            "amount": "2 drops", 
            "ingredient": "hot pepper sauce"
        }, 
        {
            "amount": "1 pinch", 
            "ingredient": "dried oregano"
        }, 
        {
            "amount": "2 tablespoons", 
            "ingredient": "butter"
        }, 
        {
            "amount": "1", 
            "ingredient": "onion, chopped"
        }, 
        {
            "amount": "1 (8 ounce) container", 
            "ingredient": "creamed cottage cheese"
        }, 
        {
            "amount": "1/2 (8 ounce) package", 
            "ingredient": "cream cheese, softened"
        }, 
        {
            "amount": "1/2 cup", 
            "ingredient": "sour cream"
        }, 
        {
            "amount": "1/2 cup", 
            "ingredient": "butter, melted"
        }
    ], 
    "prep_steps": [
        "Preheat oven to 350 degrees F (175 degrees C). Bring a large pot of lightly salted water to a boil. Add pasta and cook for 8 to 10 minutes or until al dente; drain.", 
        "In a skillet over medium heat, brown the ground beef until no pink shows; drain excess fat. Stir in tomato paste, Worcestershire sauce, hot sauce and oregano; set aside.", 
        "In a separate skillet, melt 2 tablespoons butter over medium heat. Saute the chopped onion until translucent. In a medium bowl, combine cottage cheese, cream cheese, sour cream and sauteed onions.", 
        "Place 1/2 of cooked noodles in the bottom of a 2 quart casserole dish. Drizzle with 1/2 of the melted butter. Cover with cheese mixture. Toss remaining noodles with remaining melted butter, and spread over cheese mixture. Cover with meat mixture.", 
        "Bake in preheated oven for 40 minutes, or until bubbly."
    ], 
    "prep_time": "1\u00bc hrs", 
    "recipe_name": "Divine Casserole"
}