{
    "ingredients": [
        {
            "amount": "4 cups", 
            "ingredient": "peanut oil for frying"
        }, 
        {
            "amount": "1 (10 ounce) package", 
            "ingredient": "washed fresh spinach"
        }
    ], 
    "prep_steps": [
        "Heat oil in deep-fryer to 375 degrees F (190 degrees C). Place a large handful of fresh spinach in fryer basket, and submerge to cook for about thirty seconds. Drain spinach on paper towels, and repeat with remaining batches. Add a little salt and pepper to taste."
    ], 
    "prep_time": "15 mins", 
    "recipe_name": "Deep Fried Spinach"
}