{
    "ingredients": [
        {
            "amount": "1 tablespoon", 
            "ingredient": "olive oil"
        }, 
        {
            "amount": "1/2", 
            "ingredient": "onion, diced"
        }, 
        {
            "amount": "2 teaspoons", 
            "ingredient": "minced garlic"
        }, 
        {
            "amount": "1 pound", 
            "ingredient": "boneless venison roast"
        }, 
        {
            "amount": "1/2 cup", 
            "ingredient": "ketchup"
        }, 
        {
            "amount": "1/4 cup", 
            "ingredient": "Worcestershire sauce"
        }, 
        {
            "amount": "1/4 cup", 
            "ingredient": "soy sauce"
        }, 
        {
            "amount": "1/4 cup", 
            "ingredient": "chile-garlic sauce"
        }, 
        {
            "amount": "1/4 teaspoon", 
            "ingredient": "liquid smoke"
        }, 
        {
            "amount": "1/3 cup", 
            "ingredient": "water"
        }, 
        {
            "amount": "2 teaspoons", 
            "ingredient": "salt"
        }, 
        {
            "amount": "1 tablespoon", 
            "ingredient": "pepper"
        }
    ], 
    "prep_steps": [
        "Heat olive oil in a skillet over medium heat. Stir in onion and cook until softened, about 3 minutes. Stir in garlic and cook 2 more minutes until softened.", 
        "Place venison roast into a slow cooker, and sprinkle with onion mixture. Stir together ketchup, Worcestershire sauce, soy sauce, chile-garlic sauce, water, salt, and pepper. Pour over the venison.", 
        "Cover and cook on Low until tender and no longer pink, 4 to 5 hours."
    ], 
    "prep_time": "5 hrs", 
    "recipe_name": "Slow Cooked Venison"
}