{
    "ingredients": [
        {
            "amount": "1/2 cup", 
            "ingredient": "butter"
        }, 
        {
            "amount": "1", 
            "ingredient": "onion, chopped"
        }, 
        {
            "amount": "1 (16 ounce) package", 
            "ingredient": "frozen chopped broccoli"
        }, 
        {
            "amount": "4 (14.5 ounce) cans", 
            "ingredient": "chicken broth"
        }, 
        {
            "amount": "1 (1 pound) loaf", 
            "ingredient": "processed cheese food, cubed"
        }, 
        {
            "amount": "2 cups", 
            "ingredient": "milk"
        }, 
        {
            "amount": "1 tablespoon", 
            "ingredient": "garlic powder"
        }, 
        {
            "amount": "2/3 cup", 
            "ingredient": "cornstarch"
        }, 
        {
            "amount": "1 cup", 
            "ingredient": "water"
        }
    ], 
    "prep_steps": [
        "In a stockpot, melt butter over medium heat. Cook onion in butter until softened. Stir in broccoli, and cover with chicken broth. Simmer until broccoli is tender, 10 to 15 minutes.", 
        "Reduce heat, and stir in cheese cubes until melted. Mix in milk and garlic powder.", 
        "In a small bowl, stir cornstarch into water until dissolved. Stir into soup; cook, stirring frequently, until thick."
    ], 
    "prep_time": "40 mins", 
    "recipe_name": "Broccoli Cheese Soup"
}