{
    "ingredients": [
        {
            "amount": "1 pound", 
            "ingredient": "ground beef"
        }, 
        {
            "amount": "1 tablespoon", 
            "ingredient": "vegetable oil"
        }, 
        {
            "amount": "3 medium", 
            "ingredient": "yellow squash, sliced"
        }, 
        {
            "amount": "1 small", 
            "ingredient": "yellow onion, sliced"
        }, 
        {
            "amount": "1 (14.5 ounce) can", 
            "ingredient": "diced tomatoes, drained"
        }, 
        {
            "amount": "1/2 cup", 
            "ingredient": "water"
        }, 
        {
            "amount": "1 teaspoon", 
            "ingredient": "chili powder"
        }, 
        {
            "amount": "1/4 teaspoon", 
            "ingredient": "cumin"
        }, 
        {
            "amount": "1 dash", 
            "ingredient": "garlic powder"
        }
    ], 
    "prep_steps": [
        "In a large skillet over medium heat, cook the ground beef until evenly brown. Drain, and set aside.", 
        "Heat the oil in the skillet over medium heat. Mix in the squash and onion, and saute until tender.", 
        "Mix the tomatoes and water into the skillet. Season with chili powder, cumin, garlic powder, salt, and pepper. Bring the mixture to a boil. Cover skillet, reduce heat to low, and simmer 30 minutes, stirring occasionally."
    ], 
    "prep_time": "1 hr", 
    "recipe_name": "Spanish Squash"
}