{
    "ingredients": [
        {
            "amount": "1 large", 
            "ingredient": "spaghetti squash, halved lengthwise and seeded"
        }, 
        {
            "amount": "1 pound", 
            "ingredient": "ground turkey sausage"
        }, 
        {
            "amount": "1/2 cup", 
            "ingredient": "diced onion"
        }, 
        {
            "amount": "1 cup", 
            "ingredient": "pizza sauce"
        }, 
        {
            "amount": "1 cup", 
            "ingredient": "coarsely chopped baby spinach leaves"
        }, 
        {
            "amount": "1/2 cup", 
            "ingredient": "diced red bell pepper"
        }, 
        {
            "amount": "1/4 cup", 
            "ingredient": "unsweetened applesauce"
        }, 
        {
            "amount": "1 teaspoon", 
            "ingredient": "dried basil"
        }, 
        {
            "amount": "1/2 teaspoon", 
            "ingredient": "garlic powder"
        }, 
        {
            "amount": "1/2 teaspoon", 
            "ingredient": "dried oregano"
        }, 
        {
            "amount": "1/4 teaspoon", 
            "ingredient": "ground black pepper"
        }, 
        {
            "amount": "3", 
            "ingredient": "eggs, beaten"
        }
    ], 
    "prep_steps": [
        "Preheat oven to 400 degrees F (200 degrees C). Place spaghetti squash, cut-side down, on a baking sheet.", 
        "Bake squash in the preheated oven until cooked through, about 25 minutes. When cool enough to handle, scoop out the strands of squash with a spoon and place in an 8-inch square baking dish.", 
        "Reduce oven temperature to 350 degrees F (175 degrees C).", 
        "Cook and stir turkey sausage and onion in a large skillet over medium-high heat until turkey is browned, 4 to 6 minutes. Remove from heat and stir pizza sauce, spinach, red bell pepper, applesauce, basil, garlic powder, oregano, and black pepper into turkey mixture. Spread mixture over squash in baking dish.", 
        "Pour eggs over turkey mixture and toss egg, turkey mixture, and squash together until egg is just combined.", 
        "Bake in the preheated oven until mixture is bubbling and eggs are set, about 1 hour."
    ], 
    "prep_time": "1\u00be hrs", 
    "recipe_name": "Paleo Spaghetti Pie (Grain, Gluten, and Dairy Free)"
}