{
    "ingredients": [
        {
            "amount": "1/2 cup", 
            "ingredient": "uncooked brown rice"
        }, 
        {
            "amount": "1 3/8 cups", 
            "ingredient": "water"
        }, 
        {
            "amount": "1 pound", 
            "ingredient": "ground beef"
        }, 
        {
            "amount": "1 (10.75 ounce) can", 
            "ingredient": "condensed cream of mushroom soup"
        }, 
        {
            "amount": "1/2 cup", 
            "ingredient": "chopped green onion"
        }, 
        {
            "amount": "1 tablespoon", 
            "ingredient": "Worcestershire sauce"
        }, 
        {
            "amount": "1 teaspoon", 
            "ingredient": "soy sauce"
        }, 
        {
            "amount": "1/4 teaspoon", 
            "ingredient": "ground black pepper"
        }
    ], 
    "prep_steps": [
        "In a medium saucepan, bring water and brown rice to a boil. Reduce heat, cover and simmer for 45 to 50 minutes.", 
        "Meanwhile, in a medium skillet over high heat, brown the ground beef and drain fat.", 
        "Stir the mushroom soup, green onion, Worcestershire sauce, soy sauce and pepper into the skillet with the beef. Simmer on medium low heat for 10 minutes. Serve over the rice."
    ], 
    "prep_time": "45 mins", 
    "recipe_name": "Poor Man's Shepherd's Pie"
}