{
    "ingredients": [
        {
            "amount": "16 ounces", 
            "ingredient": "Italian bread"
        }, 
        {
            "amount": "2 tablespoons", 
            "ingredient": "olive oil"
        }, 
        {
            "amount": "1 (16 ounce) jar", 
            "ingredient": "marinated roasted sweet red peppers"
        }, 
        {
            "amount": "3 cloves", 
            "ingredient": "garlic, chopped"
        }, 
        {
            "amount": "1", 
            "ingredient": "tomato, seeded and chopped"
        }, 
        {
            "amount": "1 cup", 
            "ingredient": "chopped fresh basil"
        }, 
        {
            "amount": "1", 
            "ingredient": "onion, chopped"
        }, 
        {
            "amount": "3 teaspoons", 
            "ingredient": "balsamic vinegar"
        }
    ], 
    "prep_steps": [
        "Preheat your oven's broiler.", 
        "Slice bread loaf into 1-inch thick portions. Brush each slice on one side with olive oil. Broil, oil-side up, until barely golden. Remove from broiler pan and cool.", 
        "In a medium bowl, mix together roasted pepper, garlic, tomato, basil, and onion. Sprinkle mixture evenly on each toast portion. Drizzle with balsamic vinegar. Serve immediately."
    ], 
    "prep_time": "15 mins", 
    "recipe_name": "Bruschetta with Roasted Sweet Red Peppers"
}