{
    "ingredients": [
        {
            "amount": "1/2 cup", 
            "ingredient": "shortening"
        }, 
        {
            "amount": "1 1/2 cups", 
            "ingredient": "white sugar"
        }, 
        {
            "amount": "2", 
            "ingredient": "eggs"
        }, 
        {
            "amount": "2 tablespoons", 
            "ingredient": "cocoa"
        }, 
        {
            "amount": "4 tablespoons", 
            "ingredient": "red food coloring"
        }, 
        {
            "amount": "1 teaspoon", 
            "ingredient": "salt"
        }, 
        {
            "amount": "1 teaspoon", 
            "ingredient": "vanilla extract"
        }, 
        {
            "amount": "1 cup", 
            "ingredient": "buttermilk"
        }, 
        {
            "amount": "2 1/2 cups", 
            "ingredient": "sifted all-purpose flour"
        }, 
        {
            "amount": "1 1/2 teaspoons", 
            "ingredient": "baking soda"
        }, 
        {
            "amount": "1 tablespoon", 
            "ingredient": "distilled white vinegar"
        }, 
        {
            "amount": "5 tablespoons", 
            "ingredient": "all-purpose flour"
        }, 
        {
            "amount": "1 cup", 
            "ingredient": "milk"
        }, 
        {
            "amount": "1 cup", 
            "ingredient": "white sugar"
        }, 
        {
            "amount": "1 cup", 
            "ingredient": "butter, room temperature"
        }, 
        {
            "amount": "1 teaspoon", 
            "ingredient": "vanilla extract"
        }
    ], 
    "prep_steps": [
        "Preheat oven to 350 degrees F (175 degrees C). Grease two 9-inch round pans.", 
        "Beat shortening and 1 1/2 cups sugar until very light and fluffy. Add eggs and beat well.", 
        "Make a paste of cocoa and red food coloring; add to creamed mixture. Mix salt, 1 teaspoon vanilla, and buttermilk together. Add the flour to the batter, alternating with the buttermilk mixture, mixing just until incorporated. Mix soda and vinegar and gently fold into cake batter. Don't beat or stir the batter after this point.", 
        "Pour batter into prepared pans. Bake in preheated oven until a tester inserted into the cake comes out clean, about 30 minutes. Cool cakes completely on wire rack.", 
        "To Make Icing: Cook 5 tablespoons flour and milk over low heat till thick, stirring constantly. Let cool completely! While mixture is cooling, beat 1 cup sugar, butter, and 1 teaspoon vanilla until light and fluffy. Add cooled flour mixture and beat until frosting is a good spreading consistency. Frost cake layers when completely cool."
    ], 
    "prep_time": "2\u00bd hrs", 
    "recipe_name": "Red Velvet Cake"
}