{
    "ingredients": [
        {
            "amount": "1 cup", 
            "ingredient": "finely chopped fresh cilantro"
        }, 
        {
            "amount": "1/2 cup", 
            "ingredient": "finely chopped fresh mint leaves"
        }, 
        {
            "amount": "1 tablespoon", 
            "ingredient": "ginger garlic paste"
        }, 
        {
            "amount": "1 tablespoon", 
            "ingredient": "lemon juice"
        }, 
        {
            "amount": "1 tablespoon", 
            "ingredient": "green chile paste"
        }, 
        {
            "amount": "1 tablespoon", 
            "ingredient": "salt"
        }, 
        {
            "amount": "1 pound", 
            "ingredient": "skinless, boneless chicken breast halves - cut into chunks"
        }
    ], 
    "prep_steps": [
        "In a large bowl, grind together the cilantro, mint leaves, ginger garlic paste, lemon juice, green chile paste, and salt. Place the chicken in the bowl, and rub with the mixture. Cover, and refrigerate 2 to 3 hours.", 
        "Preheat the oven broiler. Lightly grease a baking dish.", 
        "Place the chicken in the baking dish, and broil 20 minutes, or until chicken juices run clear."
    ], 
    "prep_time": "3 hrs", 
    "recipe_name": "Chicken Hariyali Tikka"
}