{
    "ingredients": [
        {
            "amount": "1 medium", 
            "ingredient": "onion, diced"
        }, 
        {
            "amount": "3 cloves", 
            "ingredient": "garlic, minced"
        }, 
        {
            "amount": "1 pound", 
            "ingredient": "skinless, boneless chicken breast halves - cut into strips"
        }, 
        {
            "amount": "1 teaspoon", 
            "ingredient": "lemon pepper"
        }, 
        {
            "amount": "1/2 teaspoon", 
            "ingredient": "dried oregano"
        }, 
        {
            "amount": "1/4 teaspoon", 
            "ingredient": "allspice"
        }, 
        {
            "amount": "1/4 cup", 
            "ingredient": "plain yogurt"
        }, 
        {
            "amount": "1/4 cup", 
            "ingredient": "sour cream"
        }, 
        {
            "amount": "1/2 cup", 
            "ingredient": "cucumber, peeled and diced"
        }, 
        {
            "amount": "4", 
            "ingredient": "pita bread rounds, cut in half"
        }
    ], 
    "prep_steps": [
        "Place onion and garlic in a slow cooker. Season chicken with lemon pepper, oregano, and allspice; place on top of onions.", 
        "Cover, and cook on High for 6 hours.", 
        "In a small bowl, stir together yogurt, sour cream, and cucumber. Refrigerate until chicken is done cooking.", 
        "When chicken is done, fill pita halves with chicken, and top with the yogurt sauce."
    ], 
    "prep_time": "6 hrs", 
    "recipe_name": "Greek Chicken Pitas"
}