{
    "ingredients": [
        {
            "amount": "1/3 cup", 
            "ingredient": "shortening"
        }, 
        {
            "amount": "1 cup", 
            "ingredient": "packed brown sugar"
        }, 
        {
            "amount": "1 1/2 cups", 
            "ingredient": "dark molasses"
        }, 
        {
            "amount": "2/3 cup", 
            "ingredient": "cold water"
        }, 
        {
            "amount": "7 cups", 
            "ingredient": "all-purpose flour"
        }, 
        {
            "amount": "2 teaspoons", 
            "ingredient": "baking soda"
        }, 
        {
            "amount": "1 teaspoon", 
            "ingredient": "salt"
        }, 
        {
            "amount": "1 teaspoon", 
            "ingredient": "ground allspice"
        }, 
        {
            "amount": "1 teaspoon", 
            "ingredient": "ground ginger"
        }, 
        {
            "amount": "1 teaspoon", 
            "ingredient": "crushed cloves"
        }, 
        {
            "amount": "1 teaspoon", 
            "ingredient": "ground cinnamon"
        }, 
        {
            "amount": "2", 
            "ingredient": "egg yolks"
        }, 
        {
            "amount": "10 drops", 
            "ingredient": "food coloring"
        }, 
        {
            "amount": "1/2 teaspoon", 
            "ingredient": "water"
        }, 
        {
            "amount": "3/4 cup", 
            "ingredient": "raisins"
        }
    ], 
    "prep_steps": [
        "Mix shortening, brown sugar, and molasses thoroughly. Stir in 2/3 cup water. Blend flour, soda, salt, and spices; stir into molasses mixture. Chill for about 1 hour.", 
        "Roll the dough about 1/4 inch thick. Cut with boy and girl cookie cutters.", 
        "Make egg yolk paint by blending egg yolks and 1/2 teaspoon water. Divide the yolk among a few small bowls, and add food coloring to each cup for desired color. Paint the clothes and decorations on the cookies as desired. Carefully transfer to a lightly greased baking sheet. Using a toothpick, make a hole in the top of each cookie. Press raisins into dough for eyes, nose, mouth. Use bits of candied cherries for coat buttons, and strips of citron for ties.", 
        "Bake at 350 degrees F (175 degrees C) for 10 to 12 minutes. Cool slightly, then carefully remove from baking sheet."
    ], 
    "recipe_name": "Gingerbread Boys And Girls"
}