{
    "ingredients": [
        {
            "amount": "3 1/2 cups", 
            "ingredient": "all-purpose flour"
        }, 
        {
            "amount": "1 cup", 
            "ingredient": "shortening"
        }, 
        {
            "amount": "1 cup", 
            "ingredient": "white sugar"
        }, 
        {
            "amount": "2 teaspoons", 
            "ingredient": "baking powder"
        }, 
        {
            "amount": "2", 
            "ingredient": "eggs"
        }, 
        {
            "amount": "2 teaspoons", 
            "ingredient": "vanilla extract"
        }, 
        {
            "amount": "1 teaspoon", 
            "ingredient": "salt"
        }, 
        {
            "amount": "1 cup", 
            "ingredient": "confectioners' sugar"
        }, 
        {
            "amount": "2 tablespoons", 
            "ingredient": "water"
        }, 
        {
            "amount": "1/2 teaspoon", 
            "ingredient": "vanilla extract"
        }
    ], 
    "prep_steps": [
        "Mix together flour, shortening, white sugar, baking powder and eggs. Stir in 2 teaspoons vanilla and salt.", 
        "Refrigerate dough for easier roll-out. Bake at 375 degrees F (190 degrees C) for 8-10 minutes (watch carefully). Add glaze to cooled cookies.", 
        "To Make Glaze: Mix 1 cup confectioners' sugar, water (to desired consistency), 1/2 tsp. vanilla and preferred food color for cookie icing. Decorate with favorite sprinkles."
    ], 
    "recipe_name": "Cut-Out Cookies"
}