{
    "ingredients": [
        {
            "amount": "6 ounces", 
            "ingredient": "cream cheese"
        }, 
        {
            "amount": "2 cups", 
            "ingredient": "all-purpose flour"
        }, 
        {
            "amount": "1 cup", 
            "ingredient": "butter"
        }, 
        {
            "amount": "1 (14 ounce) package", 
            "ingredient": "individually wrapped caramels"
        }, 
        {
            "amount": "1/2 cup", 
            "ingredient": "evaporated milk"
        }, 
        {
            "amount": "1/2 cup", 
            "ingredient": "white sugar"
        }, 
        {
            "amount": "1 cup", 
            "ingredient": "shortening"
        }, 
        {
            "amount": "1/3 cup", 
            "ingredient": "evaporated milk"
        }, 
        {
            "amount": "1 teaspoon", 
            "ingredient": "vanilla extract"
        }
    ], 
    "prep_steps": [
        "Preheat oven to 350 degrees F (175 degrees C).", 
        "Combine the cream cheese, butter or margarine and flour. Mix to form a dough. Pinch off 48 equal pieces and press into mini tassie pans.", 
        "Bake at 350 degrees F (175 degrees C) for 15 minutes or until lightly brown. Cool slightly. Be careful taking out of pans, they break easily.", 
        "In the microwave on medium high heat. Melt the caramels and 1/2 cup evaporated milk. Stir until creamy. Pour into melted caramel into shells and top with frosting.", 
        "To Make Frosting: Beat the sugar, 1/3 cup evaporated milk, shortening and vanilla until light and creamy."
    ], 
    "prep_time": "45 mins", 
    "recipe_name": "Caramel Cups"
}