{
    "ingredients": [
        {
            "amount": "1 medium head", 
            "ingredient": "bok choy, diced"
        }, 
        {
            "amount": "1 bunch", 
            "ingredient": "green onions, chopped"
        }, 
        {
            "amount": "1 (3 ounce) package", 
            "ingredient": "ramen noodles"
        }, 
        {
            "amount": "1/2 cup", 
            "ingredient": "blanched slivered almonds"
        }, 
        {
            "amount": "2 tablespoons", 
            "ingredient": "sesame seeds, toasted"
        }, 
        {
            "amount": "1/3 cup", 
            "ingredient": "olive oil"
        }, 
        {
            "amount": "3 teaspoons", 
            "ingredient": "lemon juice"
        }
    ], 
    "prep_steps": [
        "Combine bok choy and green onions; cover and chill.", 
        "Whisk together the olive oil, lemon juice and ramen noodle seasoning packet. Refrigerate until chilled.", 
        "Break ramen noodles into small pieces; combine with toasted almonds and sesame seeds.", 
        "Before serving, combine the cabbage mixture and noodle mixture; add dressing and toss to coat."
    ], 
    "prep_time": "45 mins", 
    "recipe_name": "Bok Choy Salad"
}