{
    "ingredients": [
        {
            "amount": "1/2 cup", 
            "ingredient": "mayonnaise"
        }, 
        {
            "amount": "1 tablespoon", 
            "ingredient": "lemon juice"
        }, 
        {
            "amount": "1/4 teaspoon", 
            "ingredient": "ground black pepper"
        }, 
        {
            "amount": "2 cups", 
            "ingredient": "chopped, cooked chicken meat"
        }, 
        {
            "amount": "1/2 cup", 
            "ingredient": "blanched slivered almonds"
        }, 
        {
            "amount": "1 stalk", 
            "ingredient": "celery, chopped"
        }
    ], 
    "prep_steps": [
        "Place almonds in a frying pan. Toast over medium-high heat, shaking frequently. Watch carefully, as they burn easily.", 
        "In a medium bowl, mix together mayonnaise, lemon juice, and pepper. Toss with chicken, almonds, and celery."
    ], 
    "prep_time": "10 mins", 
    "recipe_name": "Basic Chicken Salad"
}