{
    "ingredients": [
        {
            "amount": "4 (6.5 ounce) packages", 
            "ingredient": "dry corn bread mix"
        }, 
        {
            "amount": "6 cups", 
            "ingredient": "dry bread crumbs"
        }, 
        {
            "amount": "1 pound", 
            "ingredient": "sausage"
        }, 
        {
            "amount": "1/2 cup", 
            "ingredient": "margarine"
        }, 
        {
            "amount": "2 cups", 
            "ingredient": "chopped onion"
        }, 
        {
            "amount": "4 cloves", 
            "ingredient": "garlic"
        }, 
        {
            "amount": "1/3 cup", 
            "ingredient": "chopped green bell pepper"
        }, 
        {
            "amount": "3 cups", 
            "ingredient": "chopped celery"
        }, 
        {
            "amount": "2/3 cup", 
            "ingredient": "chopped fresh parsley"
        }, 
        {
            "amount": "2 tablespoons", 
            "ingredient": "poultry seasoning"
        }, 
        {
            "amount": "1 teaspoon", 
            "ingredient": "dried sage"
        }, 
        {
            "amount": "1 teaspoon", 
            "ingredient": "salt"
        }, 
        {
            "amount": "8 cups", 
            "ingredient": "chicken broth"
        }, 
        {
            "amount": "2", 
            "ingredient": "eggs, beaten"
        }
    ], 
    "prep_steps": [
        "Prepare the cornbread according to package instructions. Once cornbread is cooled, crumble it into a large bowl. Stir in the bread crumbs.", 
        "Preheat oven to 350 degrees F (175 degrees C).", 
        "In a large pot, saute sausage in margarine with the onion, garlic, green bell pepper and celery until tender. Stir parsley, poultry seasoning, sage and salt into the mixture. Pour broth, eggs and cornbread/breadcrumbs into the mixture; mix until the ingredients stick together easily. Transfer to a 9x13 inch pan.", 
        "Bake covered in a preheated 350 degrees F (175 degrees C) oven for 30 minutes."
    ], 
    "prep_time": "1\u00bd hrs", 
    "recipe_name": "Mama's Cornbread and Sausage Turkey Dressing"
}