{
    "ingredients": [
        {
            "amount": "1 pound", 
            "ingredient": "zucchini, sliced"
        }, 
        {
            "amount": "2 teaspoons", 
            "ingredient": "salt"
        }, 
        {
            "amount": "2 tablespoons", 
            "ingredient": "vegetable oil"
        }, 
        {
            "amount": "2", 
            "ingredient": "onions, chopped"
        }, 
        {
            "amount": "2 cloves", 
            "ingredient": "garlic, minced"
        }, 
        {
            "amount": "4 cups", 
            "ingredient": "chicken broth"
        }, 
        {
            "amount": "1 large", 
            "ingredient": "tomato, chopped"
        }, 
        {
            "amount": "2 teaspoons", 
            "ingredient": "lemon juice"
        }, 
        {
            "amount": "1/2 teaspoon", 
            "ingredient": "white sugar"
        }, 
        {
            "amount": "1/2 teaspoon", 
            "ingredient": "dried oregano"
        }, 
        {
            "amount": "1/2 teaspoon", 
            "ingredient": "dried basil"
        }, 
        {
            "amount": "1/2 teaspoon", 
            "ingredient": "dried parsley"
        }, 
        {
            "amount": "1/4 teaspoon", 
            "ingredient": "ground nutmeg"
        }, 
        {
            "amount": "1/4 teaspoon", 
            "ingredient": "Worcestershire sauce"
        }, 
        {
            "amount": "1/4 teaspoon", 
            "ingredient": "hot pepper sauce"
        }
    ], 
    "prep_steps": [
        "In a large colander, sprinkle salt over zucchini slices. Let stand 30 minutes to drain then pat dry.", 
        "In a stockpot, heat vegetable oil over medium high heat. Sautee zucchini onion and garlic in the hot oil for about 10 minutes or until onions are translucent. Stir in the chicken broth and tomato; simmer for 20 minutes. Remove the vegetables from the broth using a slotted spoon and puree them in a blender or food processor.", 
        "Return the pureed vegetables to the stockpot and stir in the lemon juice, sugar, oregano, basil, parsley and nutmeg. Season with Worcestershire sauce, hot pepper sauce and salt and pepper to taste. Simmer for an additional 5 minutes."
    ], 
    "prep_time": "1\u00bc hrs", 
    "recipe_name": "Zucchini Tomato Soup II"
}