{
    "ingredients": [
        {
            "amount": "1 1/2 quarts", 
            "ingredient": "milk"
        }, 
        {
            "amount": "1 cup", 
            "ingredient": "uncooked white rice"
        }, 
        {
            "amount": "1 cup", 
            "ingredient": "white sugar"
        }, 
        {
            "amount": "2", 
            "ingredient": "eggs, beaten"
        }
    ], 
    "prep_steps": [
        "In a large saucepan over high heat combine sugar and milk. When bubbles form at the edges, stir in rice and reduce heat to medium-low. Cook 60 minutes, stirring often, until rice is tender. Do not allow to boil.", 
        "Remove from heat and vigorously stir in beaten eggs, a little at a time, until well incorporated. Serve warm."
    ], 
    "prep_time": "1\u00bc hrs", 
    "recipe_name": "Portuguese Sweet Rice"
}