{
    "ingredients": [
        {
            "amount": "2 cups", 
            "ingredient": "powdered non-dairy creamer"
        }, 
        {
            "amount": "1 1/2 cups", 
            "ingredient": "instant hot chocolate mix"
        }, 
        {
            "amount": "1 1/2 cups", 
            "ingredient": "instant coffee granules"
        }, 
        {
            "amount": "1 teaspoon", 
            "ingredient": "ground cinnamon"
        }, 
        {
            "amount": "1/2 teaspoon", 
            "ingredient": "ground nutmeg"
        }
    ], 
    "prep_steps": [
        "Sift together creamer, hot chocolate mix, instant coffee, cinnamon and nutmeg. Pour into a jar and seal with a lid.", 
        "To prepare: Stir 3 teaspoons of mixture into 1 cup of hot water. Adjust to taste."
    ], 
    "prep_time": "5 mins", 
    "recipe_name": "Fire Side Coffee"
}