{
    "ingredients": [
        {
            "amount": "1 pound", 
            "ingredient": "lean ground lamb"
        }, 
        {
            "amount": "1 1/2 cups", 
            "ingredient": "finely chopped onion"
        }, 
        {
            "amount": "1/2 cup", 
            "ingredient": "chopped green bell pepper"
        }, 
        {
            "amount": "1 teaspoon", 
            "ingredient": "minced garlic"
        }, 
        {
            "amount": "1 (14.5 ounce) can", 
            "ingredient": "peeled and diced tomatoes"
        }, 
        {
            "amount": "1 (6 ounce) can", 
            "ingredient": "tomato paste"
        }, 
        {
            "amount": "1/2 cup", 
            "ingredient": "chopped fresh Italian parsley"
        }, 
        {
            "amount": "1 teaspoon", 
            "ingredient": "chopped fresh basil"
        }, 
        {
            "amount": "1 tablespoon", 
            "ingredient": "chopped fresh mint leaves"
        }, 
        {
            "amount": "1/2 teaspoon", 
            "ingredient": "ground cumin"
        }, 
        {
            "amount": "1 pinch", 
            "ingredient": "cayenne pepper"
        }, 
        {
            "amount": "4", 
            "ingredient": "pita breads, or fluffy tortillas"
        }
    ], 
    "prep_steps": [
        "Place ground lamb in a large skillet over medium-high heat. Cook and break into small pieces until mostly browned. Drain any excess grease. Add the onion, green pepper, and garlic. Cook until onion is translucent. Stir in diced tomatoes and tomato paste, then season with parsley, basil, mint, cumin, and if using, cayenne. Simmer for about 5 minutes. Remove from heat, cover, and refrigerate overnight to blend the flavors.", 
        "Preheat the oven to 450 degrees F (230 degrees C). Distribute the lamb mixture evenly over the tortillas, and spread out to the edges. Place the tortillas onto a baking sheet.", 
        "Bake for about 20 minutes in the preheated oven. Remove from the oven and place the lahmahjoons onto a large piece of aluminum foil so that two of them are meat side to meat side, then stack the pairs together, and bring the foil up over the top to keep warm. These can be served hot or cold. Cut into small wedges."
    ], 
    "recipe_name": "Lahmahjoon (Armenian Pizza)"
}