{
    "ingredients": [
        {
            "amount": "2", 
            "ingredient": "acorn squash, halved and seeded"
        }, 
        {
            "amount": "2 tablespoons", 
            "ingredient": "olive oil"
        }, 
        {
            "amount": "1 1/2 pounds", 
            "ingredient": "spicy turkey sausage, casings removed"
        }, 
        {
            "amount": "1 cup", 
            "ingredient": "brown sugar"
        }
    ], 
    "prep_steps": [
        "Preheat an oven to 350 degrees F (175 degrees C).", 
        "Place the squash halves face-down in a baking dish in 1 inch of water and bake until flesh is tender, about 45 minutes. Meanwhile, heat the olive oil in a large skillet over medium heat; cook the sausage in the oil until brown, breaking the meat into small pieces as it cooks; set aside.", 
        "Once the squash halves are tender, discard the water. Generously sprinkle brown sugar into the cavity of each squash half, reserving about 1/4 cup for later use. Fill the squash halves with the browned sausage, and top with the reserved brown sugar. Return squash to the baking dish and bake until the sugar begins to melt, about 15 minutes."
    ], 
    "prep_time": "1\u00bd hrs", 
    "recipe_name": "Acorn Squash with Sweet Spicy Sausage"
}