{
    "ingredients": [
        {
            "amount": "1/2 cup", 
            "ingredient": "butter-flavored popcorn oil (such as Orville Redenbacher \u00ae)"
        }, 
        {
            "amount": "1 (1 ounce) package", 
            "ingredient": "ranch dressing mix (such as Hidden Valley Ranch \u00ae)"
        }, 
        {
            "amount": "1 tablespoon", 
            "ingredient": "dried dill weed"
        }, 
        {
            "amount": "1/2 teaspoon", 
            "ingredient": "garlic powder"
        }, 
        {
            "amount": "1/2 teaspoon", 
            "ingredient": "lemon pepper"
        }, 
        {
            "amount": "1/4 teaspoon", 
            "ingredient": "cayenne pepper"
        }, 
        {
            "amount": "6 cups", 
            "ingredient": "mini pretzels"
        }, 
        {
            "amount": "3 (6 ounce) packages", 
            "ingredient": "bite-size Cheddar cheese fish crackers"
        }
    ], 
    "prep_steps": [
        "Preheat oven to 250 degrees F (120 degrees C).", 
        "Stir the popcorn oil, ranch dressing mix, dill weed, garlic powder, lemon pepper, and cayenne pepper in a large bowl; add the pretzels and fish crackers and stir to coat evenly. Spread the mixture onto two jelly roll pans.", 
        "Bake in the preheated oven, stirring once, until lightly toasted, 15 to 20 minutes. Transfer mixture to a flat surface lined with waxed paper to cool."
    ], 
    "prep_time": "40 mins", 
    "recipe_name": "Ranch Pretzels and Goldfish"
}