{
    "ingredients": [
        {
            "amount": "1 pound", 
            "ingredient": "boneless pork chops, cut into stir-fry strips"
        }, 
        {
            "amount": "1 tablespoon", 
            "ingredient": "hoisin sauce"
        }, 
        {
            "amount": "1 tablespoon", 
            "ingredient": "cornstarch"
        }, 
        {
            "amount": "2 tablespoons", 
            "ingredient": "hoisin sauce"
        }, 
        {
            "amount": "1/4 cup", 
            "ingredient": "chicken broth"
        }, 
        {
            "amount": "1 tablespoon", 
            "ingredient": "cornstarch"
        }, 
        {
            "amount": "1 tablespoon", 
            "ingredient": "rice vinegar"
        }, 
        {
            "amount": "1 tablespoon", 
            "ingredient": "white sugar"
        }, 
        {
            "amount": "1 teaspoon", 
            "ingredient": "red pepper flakes, or to taste"
        }, 
        {
            "amount": "1 tablespoon", 
            "ingredient": "sesame oil"
        }, 
        {
            "amount": "2 cloves", 
            "ingredient": "garlic, minced"
        }, 
        {
            "amount": "2 teaspoons", 
            "ingredient": "minced fresh ginger root"
        }, 
        {
            "amount": "1", 
            "ingredient": "carrot, peeled and sliced"
        }, 
        {
            "amount": "1", 
            "ingredient": "green bell pepper, sliced"
        }, 
        {
            "amount": "1 (4 ounce) can", 
            "ingredient": "sliced water chestnuts, drained"
        }, 
        {
            "amount": "2", 
            "ingredient": "green onions, sliced"
        }
    ], 
    "prep_steps": [
        "Mix the sliced pork, 1 tablespoon hoisin sauce, and 1 tablespoon cornstarch together in a bowl. Set aside. Combine the remaining 2 tablespoons hoisin sauce, chicken broth, and 1 tablespoon cornstarch with rice vinegar, sugar, and cayenne pepper in small bowl. Set aside.", 
        "Heat the sesame oil in a skillet over medium-high heat. Stir in the pork; cook and stir until the pork begins to brown, about 5 minutes. Add the garlic and ginger; cook and stir until fragrant. Mix in the carrot, bell pepper, and water chestnuts, cooking until the carrots are tender. Stir in the reserved hoisin sauce mixture and continue cooking and stirring until the flavors are combined, about 3 minutes."
    ], 
    "prep_time": "50 mins", 
    "recipe_name": "Hoisin Pork Stir Fry"
}