{
    "ingredients": [
        {
            "amount": "2 3/4 cups", 
            "ingredient": "low-sodium chicken broth"
        }, 
        {
            "amount": "2 cups", 
            "ingredient": "water"
        }, 
        {
            "amount": "1 1/2 cups", 
            "ingredient": "milk"
        }, 
        {
            "amount": "3 cloves", 
            "ingredient": "garlic, minced"
        }, 
        {
            "amount": "1 1/2 teaspoons", 
            "ingredient": "chopped fresh rosemary"
        }, 
        {
            "amount": "1 teaspoon", 
            "ingredient": "salt"
        }, 
        {
            "amount": "1 1/2 cups", 
            "ingredient": "yellow cornmeal"
        }, 
        {
            "amount": "1/2 cup", 
            "ingredient": "shredded Parmesan cheese, or more if desired"
        }
    ], 
    "prep_steps": [
        "In a saucepan, bring to a boil the chicken broth, water, milk, garlic, rosemary, and salt. Gradually whisk in cornmeal, set heat to medium-low, and simmer the cornmeal mixture until thick and creamy, stirring often to prevent lumps, about 15 minutes. Remove from the heat, and stir in the Parmesan cheese until well combined.", 
        "Preheat oven to 375 degrees F (190 degrees C). Grease a 2-quart casserole. Spoon the polenta into the prepared casserole, adding more Parmesan cheese if desired. Sprinkle the top with salt and pepper.", 
        "Bake in the preheated oven until the polenta is bubbling and golden brown on top, about 30 minutes."
    ], 
    "prep_time": "1 hr", 
    "recipe_name": "Polenta with Rosemary and Parmesan"
}