{
    "ingredients": [
        {
            "amount": "1 tablespoon", 
            "ingredient": "chopped carrot"
        }, 
        {
            "amount": "1 tablespoon", 
            "ingredient": "chopped parsley"
        }, 
        {
            "amount": "1 tablespoon", 
            "ingredient": "chopped onion"
        }, 
        {
            "amount": "1 clove", 
            "ingredient": "garlic"
        }, 
        {
            "amount": "1/4 teaspoon", 
            "ingredient": "lemon zest"
        }, 
        {
            "amount": "1 teaspoon", 
            "ingredient": "salt"
        }, 
        {
            "amount": "1/4 teaspoon", 
            "ingredient": "ground black pepper"
        }, 
        {
            "amount": "4", 
            "ingredient": "skinless, boneless chicken breast halves - cubed"
        }, 
        {
            "amount": "2 tablespoons", 
            "ingredient": "butter"
        }, 
        {
            "amount": "4 ounces", 
            "ingredient": "Neufchatel cheese"
        }, 
        {
            "amount": "8 ounces", 
            "ingredient": "natural cream of chicken soup"
        }, 
        {
            "amount": "1 cup", 
            "ingredient": "frozen peas"
        }
    ], 
    "prep_steps": [
        "Combine the carrot, parsley, onion, garlic, lemon zest, salt, and ground pepper in a small blender or food processor. Process until finely chopped and transfer to slow cooker. Add chicken and butter and mix. Cook on Low for 5 to 6 hours.", 
        "Stir in Neufchatel cheese, chicken soup, and peas. Cook on High until heated through, about 30 minutes."
    ], 
    "prep_time": "5 hrs", 
    "recipe_name": "Healthier Slow Cooker Chicken Stroganoff"
}