{
    "ingredients": [
        {
            "amount": "1 1/2 pounds", 
            "ingredient": "lean ground beef"
        }, 
        {
            "amount": "1/2", 
            "ingredient": "onion, finely chopped"
        }, 
        {
            "amount": "1/2 cup", 
            "ingredient": "shredded Colby or Monterey Jack cheese"
        }, 
        {
            "amount": "1 teaspoon", 
            "ingredient": "soy sauce"
        }, 
        {
            "amount": "1 teaspoon", 
            "ingredient": "Worcestershire sauce"
        }, 
        {
            "amount": "1", 
            "ingredient": "egg"
        }, 
        {
            "amount": "1 (1 ounce) envelope", 
            "ingredient": "dry onion soup mix"
        }, 
        {
            "amount": "1 clove", 
            "ingredient": "garlic, minced"
        }, 
        {
            "amount": "1 tablespoon", 
            "ingredient": "garlic powder"
        }, 
        {
            "amount": "1 teaspoon", 
            "ingredient": "dried parsley"
        }, 
        {
            "amount": "1 teaspoon", 
            "ingredient": "dried basil"
        }, 
        {
            "amount": "1 teaspoon", 
            "ingredient": "dried oregano"
        }, 
        {
            "amount": "1/2 teaspoon", 
            "ingredient": "crushed dried rosemary"
        }
    ], 
    "prep_steps": [
        "Preheat a grill for high heat.", 
        "In a large bowl, mix together the ground beef, onion, cheese, soy sauce, Worcestershire sauce, egg, onion soup mix, garlic, garlic powder, parsley, basil, oregano, rosemary, salt, and pepper. Form into 4 patties.", 
        "Grill patties for 5 minutes per side on the hot grill, or until well done. Serve on buns with your favorite condiments."
    ], 
    "prep_time": "30 mins", 
    "recipe_name": "Best Hamburger Ever"
}