{
    "ingredients": [
        {
            "amount": "2 cups", 
            "ingredient": "egg noodles"
        }, 
        {
            "amount": "3 tablespoons", 
            "ingredient": "butter"
        }, 
        {
            "amount": "1/4 cup", 
            "ingredient": "chopped onion"
        }, 
        {
            "amount": "1/4 cup", 
            "ingredient": "chopped celery"
        }, 
        {
            "amount": "1/4 cup", 
            "ingredient": "chopped carrots"
        }, 
        {
            "amount": "1/4 cup", 
            "ingredient": "chopped red bell pepper"
        }, 
        {
            "amount": "2 (10.75 ounce) cans", 
            "ingredient": "condensed cream of chicken soup"
        }, 
        {
            "amount": "1/2 cup", 
            "ingredient": "sour cream, or more to taste"
        }, 
        {
            "amount": "2 cups", 
            "ingredient": "shredded Cheddar cheese"
        }, 
        {
            "amount": "1 (8 ounce) can", 
            "ingredient": "whole kernel corn, drained"
        }, 
        {
            "amount": "3 cups", 
            "ingredient": "cubed cooked pork"
        }, 
        {
            "amount": "1 teaspoon", 
            "ingredient": "salt"
        }, 
        {
            "amount": "1/4 teaspoon", 
            "ingredient": "ground black pepper"
        }, 
        {
            "amount": "1/2 cup", 
            "ingredient": "dry bread crumbs"
        }
    ], 
    "prep_steps": [
        "Fill a large pot with lightly salted water and bring to a rolling boil over high heat. Once the water is boiling, stir in the egg noodles, and return to a boil. Cook the pasta uncovered, stirring occasionally, until the noodles have cooked through, but are still firm to the bite, about 5 minutes. Drain well in a colander set in the sink.", 
        "Preheat an oven to 350 degrees F (175 degrees C). Spray a 9x13-inch baking pan with cooking spray.", 
        "Melt the butter in a skillet over medium heat. Stir in the onion, celery, carrots, and red bell pepper; cook and stir until the onion has softened and turned translucent, about 5 minutes. Stir in the noodles, cream of chicken soup, sour cream, Cheddar cheese, corn, and cooked pork, then season with salt and black pepper. Transfer mixture into the prepared baking dish. Sprinkle bread crumbs on top.", 
        "Bake in the preheated oven until bubbly, 30 to 35 minutes."
    ], 
    "prep_time": "1 hr", 
    "recipe_name": "Yummy Pork Noodle Casserole"
}