{
    "ingredients": [
        {
            "amount": "1 (20 ounce) can", 
            "ingredient": "unsweetened pineapple chunks in juice, undrained"
        }, 
        {
            "amount": "2 1/2 pounds", 
            "ingredient": "cubed beef stew meat"
        }, 
        {
            "amount": "2 large", 
            "ingredient": "onions, cut into wedges"
        }, 
        {
            "amount": "1/2 cup", 
            "ingredient": "beef broth"
        }, 
        {
            "amount": "3 tablespoons", 
            "ingredient": "red wine vinegar"
        }, 
        {
            "amount": "2", 
            "ingredient": "garlic cloves, crushed"
        }, 
        {
            "amount": "3/4 teaspoon", 
            "ingredient": "seasoned salt"
        }, 
        {
            "amount": "3/4 teaspoon", 
            "ingredient": "ground paprika"
        }, 
        {
            "amount": "1/4 teaspoon", 
            "ingredient": "ground black pepper"
        }, 
        {
            "amount": "1", 
            "ingredient": "green bell pepper, diced"
        }, 
        {
            "amount": "1", 
            "ingredient": "red bell pepper, diced"
        }, 
        {
            "amount": "3 tablespoons", 
            "ingredient": "brown sugar"
        }, 
        {
            "amount": "1 1/2 tablespoons", 
            "ingredient": "cornstarch"
        }, 
        {
            "amount": "2 tablespoons", 
            "ingredient": "soy sauce"
        }, 
        {
            "amount": "2 tablespoons", 
            "ingredient": "red wine vinegar"
        }, 
        {
            "amount": "2 large", 
            "ingredient": "tomatoes, cut into wedges"
        }
    ], 
    "prep_steps": [
        "Drain the pineapple juice into a slow cooker, reserving the pineapple chunks. Place the beef, onions, beef broth, 3 tablespoons red wine vinegar, garlic, seasoned salt, paprika, and black pepper into the slow cooker with the juice. Mix well, cover, and cook on Low until the beef is tender, 6 to 6 1/2 hours.", 
        "Increase the setting to High and stir in green bell pepper, red bell pepper, and brown sugar. In a small bowl, mix together the cornstarch, soy sauce, and 2 tablespoons red wine vinegar until smooth; stir the mixture into the slow cooker, blending well. Cover and cook for 1 more hour. Just before serving, lightly stir in the tomatoes and reserved pineapple chunks."
    ], 
    "prep_time": "7 hrs", 
    "recipe_name": "Slow Cooker Island Beef"
}