{
    "ingredients": [
        {
            "amount": "1 cup", 
            "ingredient": "mayonnaise"
        }, 
        {
            "amount": "2 tablespoons", 
            "ingredient": "mayonnaise"
        }, 
        {
            "amount": "1/4 cup", 
            "ingredient": "white sugar"
        }, 
        {
            "amount": "1/2 teaspoon", 
            "ingredient": "salt"
        }, 
        {
            "amount": "1/8 teaspoon", 
            "ingredient": "paprika"
        }, 
        {
            "amount": "1/4 teaspoon", 
            "ingredient": "ground mustard"
        }, 
        {
            "amount": "1/2 teaspoon", 
            "ingredient": "onion powder"
        }, 
        {
            "amount": "1/2 cup", 
            "ingredient": "ketchup"
        }, 
        {
            "amount": "2 tablespoons", 
            "ingredient": "red wine vinegar"
        }, 
        {
            "amount": "1 1/2 teaspoons", 
            "ingredient": "Worcestershire sauce"
        }
    ], 
    "prep_steps": [
        "Whisk together 1 cup mayonnaise with 2 tablespoons mayonnaise, sugar, salt, paprika, ground mustard, and onion powder until smooth. Stir in the ketchup, vinegar, and Worcestershire sauce until well blended. Cover and refrigerate until chilled, about 30 minutes. Store covered in refrigerator."
    ], 
    "prep_time": "40 mins", 
    "recipe_name": "Idaho Fry Sauce"
}