{
    "ingredients": [
        {
            "amount": "1 pound", 
            "ingredient": "crimini mushrooms, sliced"
        }, 
        {
            "amount": "2", 
            "ingredient": "fresh shiitake mushrooms, stemmed and sliced"
        }, 
        {
            "amount": "1", 
            "ingredient": "large portobello mushrooms, sliced"
        }, 
        {
            "amount": "2 cloves", 
            "ingredient": "crushed garlic"
        }, 
        {
            "amount": "1/4 cup", 
            "ingredient": "olive oil"
        }, 
        {
            "amount": "2 tablespoons", 
            "ingredient": "pesto"
        }, 
        {
            "amount": "1 cup", 
            "ingredient": "milk"
        }, 
        {
            "amount": "2 tablespoons", 
            "ingredient": "cream cheese"
        }, 
        {
            "amount": "12 ounces", 
            "ingredient": "dry fettuccine pasta"
        }
    ], 
    "prep_steps": [
        "Cook the pasta according to package directions.", 
        "Meanwhile, saute mushrooms and garlic in olive oil over low heat until tender. Mix in pesto mix, milk, and cream cheese; bring to a boil over medium heat. Reduce heat, and simmer while stirring until cream cheese has melted and mixture has thickened.", 
        "Drain pasta. Pour sauce over noodles, and toss to coat. Serve."
    ], 
    "recipe_name": "Fettuccini al Fungi"
}