{
    "ingredients": [
        {
            "amount": "1 (16 ounce) container", 
            "ingredient": "sour cream"
        }, 
        {
            "amount": "1 (8 ounce) package", 
            "ingredient": "cream cheese"
        }, 
        {
            "amount": "1 (10.75 ounce) can", 
            "ingredient": "condensed cream of shrimp soup"
        }, 
        {
            "amount": "1 dash", 
            "ingredient": "Worcestershire sauce"
        }, 
        {
            "amount": "1 pinch", 
            "ingredient": "garlic salt"
        }
    ], 
    "prep_steps": [
        "Melt sour cream, cream cheese, shrimp soup, Worcestershire sauce and garlic salt over a low heat in a medium size pot. Cook until melted together and the mixture has a creamy texture. Pour mixture into a serving bowl. Serve hot."
    ], 
    "prep_time": "15 mins", 
    "recipe_name": "Shrimp Fondue"
}