{
    "ingredients": [
        {
            "amount": "1 (12 ounce) package", 
            "ingredient": "firm tofu"
        }, 
        {
            "amount": "1 cup", 
            "ingredient": "chopped fresh pineapple"
        }, 
        {
            "amount": "2 cups", 
            "ingredient": "teriyaki sauce"
        }
    ], 
    "prep_steps": [
        "Cut tofu into bite sized pieces and place it in a deep baking dish; add pineapple. Pour in teriyaki sauce. Refrigerate for at least 1 hour.", 
        "Preheat oven to 350 degrees F (175 degrees C).", 
        "Bake in preheated oven for 20 minutes, or until hot and bubbly."
    ], 
    "prep_time": "1 days", 
    "recipe_name": "Teriyaki Tofu with Pineapple"
}