{
    "ingredients": [
        {
            "amount": "1 cup", 
            "ingredient": "chopped onion"
        }, 
        {
            "amount": "1 teaspoon", 
            "ingredient": "vegetable oil"
        }, 
        {
            "amount": "1 pound", 
            "ingredient": "dried split peas"
        }, 
        {
            "amount": "1 pound", 
            "ingredient": "ham bone"
        }, 
        {
            "amount": "1 pinch", 
            "ingredient": "salt and pepper to taste"
        }
    ], 
    "prep_steps": [
        "In a medium pot, saute onions in oil. Add the split peas, ham bone, and enough water to cover ingredients; season with salt and pepper.", 
        "Cover, and cook until there are no peas left, just a green liquid, 2 hours. While it is cooking, check to see if water has evaporated. You may need to add more water as the soup continues to cook.", 
        "Once the soup is a green liquid remove from heat, and let stand so it will thicken. Once thickened you may need to heat through to serve."
    ], 
    "prep_time": "2\u00bd hrs", 
    "recipe_name": "Split Pea and Ham Soup I"
}