{
    "ingredients": [
        {
            "amount": "2 1/2 cups", 
            "ingredient": "cake flour"
        }, 
        {
            "amount": "3 teaspoons", 
            "ingredient": "baking powder"
        }, 
        {
            "amount": "1 teaspoon", 
            "ingredient": "salt"
        }, 
        {
            "amount": "1 cup", 
            "ingredient": "ube (purple yam), cooked and finely grated"
        }, 
        {
            "amount": "3/4 cup", 
            "ingredient": "milk"
        }, 
        {
            "amount": "1 teaspoon", 
            "ingredient": "vanilla extract"
        }, 
        {
            "amount": "1/2 cup", 
            "ingredient": "corn syrup"
        }, 
        {
            "amount": "7", 
            "ingredient": "egg yolks, lightly beaten"
        }, 
        {
            "amount": "1/2 cup", 
            "ingredient": "vegetable oil"
        }, 
        {
            "amount": "7", 
            "ingredient": "egg whites"
        }, 
        {
            "amount": "1 teaspoon", 
            "ingredient": "cream of tartar"
        }, 
        {
            "amount": "1 cup", 
            "ingredient": "white sugar"
        }, 
        {
            "amount": "6 drops", 
            "ingredient": "red food color"
        }, 
        {
            "amount": "6 drops", 
            "ingredient": "blue food coloring"
        }, 
        {
            "amount": "1 (12 ounce) jar", 
            "ingredient": "macapuno (coconut preserves)"
        }, 
        {
            "amount": "1 cup", 
            "ingredient": "evaporated milk, chilled"
        }, 
        {
            "amount": "3/4 cup", 
            "ingredient": "white sugar"
        }, 
        {
            "amount": "1 cup", 
            "ingredient": "butter, softened"
        }, 
        {
            "amount": "1 drop", 
            "ingredient": "violet food coloring"
        }
    ], 
    "prep_steps": [
        "Preheat oven to 325 degrees F (165 degrees C). Line bottoms of 3 - 9 inch pans with parchment paper, but do not grease. Mix together the flour, baking powder, and salt; set aside.", 
        "Place grated ube in a large bowl. Mix together 3/4 cup milk and 1 teaspoon vanilla; gradually blend into ube until smooth. Blend in corn syrup, egg yolks, and oil. Beat in flour mixture until smooth; set aside.", 
        "In a large glass or metal mixing bowl, beat egg whites with cream of tartar until foamy. Gradually add sugar, then red and blue food coloring, continuing to beat until stiff peaks form. Fold 1/3 of the whites into the batter, then quickly fold in remaining whites until no streaks remain. Pour batter into prepared pans.", 
        "Bake in the preheated oven for 30 to 35 minutes, or until the center of cake bounces back when lightly tapped. Invert pans on a wire rack and let cool upside down. When cool, run a knife around the edges to loosen cake from pans. Fill between layers with coconut preserves, then frost top and sides with butter icing.", 
        "To make Butter Icing: Combine evaporated milk and 3/4 cup sugar. set aside. Cream butter until light and fluffy; gradually add sugar mixture, and continue beating to desired spreading consistency. Add food color, one drop at a time until desired tint is achieved."
    ], 
    "prep_time": "1 hr", 
    "recipe_name": "Ube-Macapuno Cake"
}