{
    "ingredients": [
        {
            "amount": "1 cup", 
            "ingredient": "white sugar"
        }, 
        {
            "amount": "1/2 cup", 
            "ingredient": "brown sugar"
        }, 
        {
            "amount": "2 1/4 cups", 
            "ingredient": "all-purpose flour"
        }, 
        {
            "amount": "1/4 teaspoon", 
            "ingredient": "salt"
        }, 
        {
            "amount": "1 teaspoon", 
            "ingredient": "baking soda"
        }, 
        {
            "amount": "2 teaspoons", 
            "ingredient": "ground cinnamon"
        }, 
        {
            "amount": "1/2 cup", 
            "ingredient": "vegetable oil"
        }, 
        {
            "amount": "2", 
            "ingredient": "eggs, beaten"
        }, 
        {
            "amount": "1 cup", 
            "ingredient": "sour milk"
        }, 
        {
            "amount": "2 cups", 
            "ingredient": "apples - peeled, cored and chopped"
        }, 
        {
            "amount": "1/4 cup", 
            "ingredient": "brown sugar"
        }, 
        {
            "amount": "1/4 cup", 
            "ingredient": "white sugar"
        }, 
        {
            "amount": "1/2 cup", 
            "ingredient": "chopped walnuts"
        }, 
        {
            "amount": "1/2 teaspoon", 
            "ingredient": "ground cinnamon"
        }
    ], 
    "prep_steps": [
        "Preheat oven to 350 degrees F (175 degrees C). Grease and flour a 9x13 inch pan. Make the topping by mixing together 1/4 cup brown sugar, 1/4 cup white sugar, chopped walnuts and 1/2 teaspoon cinnamon. Set aside.", 
        "In large bowl, mix together 1 cup white sugar, 1/2 cup brown sugar, flour, salt, baking soda and cinnamon. Make a well in the center, and pour in the oil, eggs and sour milk. Beat until smooth, then fold in chopped apples.", 
        "Pour batter into prepared pan. Sprinkle with topping mixture. Bake in the preheated oven for 45 minutes, or until a toothpick inserted into the center of the cake comes out clean."
    ], 
    "prep_time": "1\u00bc hrs", 
    "recipe_name": "Mom's Prize Winning Raw Apple Cake"
}