{
    "ingredients": [
        {
            "amount": "1 (21 ounce) can", 
            "ingredient": "apple pie filling"
        }, 
        {
            "amount": "2 teaspoons", 
            "ingredient": "ground cinnamon"
        }, 
        {
            "amount": "3 cups", 
            "ingredient": "all-purpose flour"
        }, 
        {
            "amount": "1 cup", 
            "ingredient": "white sugar"
        }, 
        {
            "amount": "1 1/2 cups", 
            "ingredient": "milk"
        }, 
        {
            "amount": "1/2 cup", 
            "ingredient": "butter, softened"
        }, 
        {
            "amount": "3 teaspoons", 
            "ingredient": "baking powder"
        }, 
        {
            "amount": "1 teaspoon", 
            "ingredient": "salt"
        }, 
        {
            "amount": "3", 
            "ingredient": "eggs"
        }, 
        {
            "amount": "1/4 cup", 
            "ingredient": "packed brown sugar"
        }, 
        {
            "amount": "1/4 cup", 
            "ingredient": "chopped walnuts"
        }, 
        {
            "amount": "2 tablespoons", 
            "ingredient": "butter, melted"
        }, 
        {
            "amount": "3/4 cup", 
            "ingredient": "confectioners' sugar"
        }, 
        {
            "amount": "1 tablespoon", 
            "ingredient": "butter, melted"
        }, 
        {
            "amount": "3/4 teaspoon", 
            "ingredient": "vanilla extract"
        }, 
        {
            "amount": "2 1/2 teaspoons", 
            "ingredient": "hot water"
        }
    ], 
    "prep_steps": [
        "Preheat oven to 350 degrees F (175 degrees C). Grease a 9x13 pan.", 
        "Mix pie filling and cinnamon, set aside.", 
        "Beat flour, white sugar, milk, 1/2 cup softened butter, baking powder, salt and eggs in mixing bowl on low speed for 30 seconds. Beat on medium speed for 2 minutes.", 
        "Pour half of the batter into prepared pan. Spoon half of the pie filling over the batter. Spread remaining cake batter over pie filling, and top with the remaining half of the pie filling.", 
        "Mix brown sugar and nuts together and sprinkle over top of cake. Drizzle with 2 tablespoons melted butter.", 
        "Bake at 350 degrees F (175 degrees C) for 45 to 55 minutes. Allow cake to cool 20 minutes.", 
        "Combine confectioners sugar, 1 tablespoon butter, 3/4 teaspoon vanilla, 2 to 3 teaspoons hot water. Beat until smooth. Drizzle over cake."
    ], 
    "recipe_name": "Aunt Dee Dee's Apple Coffee Cake"
}