{
    "ingredients": [
        {
            "amount": "4", 
            "ingredient": "Rock Cornish hens"
        }, 
        {
            "amount": "2", 
            "ingredient": "lemons, halved"
        }, 
        {
            "amount": "2", 
            "ingredient": "sliced leeks, white part only"
        }, 
        {
            "amount": "2 tablespoons", 
            "ingredient": "poultry seasoning"
        }
    ], 
    "prep_steps": [
        "Preheat oven to 350 degrees F (175 degrees C).", 
        "Place hens in a lightly greased 9x13 inch baking dish. Stuff each hen with 1 lemon half and 1/4 of the sliced leeks, then sprinkle with seasoning.", 
        "Bake at 350 degrees F 9175 degrees C) for 1 hour, or until hens are cooked through and juices run clear. Let stand 10 minutes, then remove lemon and leeks."
    ], 
    "prep_time": "1\u00bd hrs", 
    "recipe_name": "Lemon Leek Roasted Cornish Hens"
}