{
    "ingredients": [
        {
            "amount": "3 heads", 
            "ingredient": "garlic"
        }, 
        {
            "amount": "2 tablespoons", 
            "ingredient": "olive oil"
        }, 
        {
            "amount": "1 (1 pound) loaf", 
            "ingredient": "Italian bread"
        }, 
        {
            "amount": "1/2 cup", 
            "ingredient": "butter"
        }, 
        {
            "amount": "1 tablespoon", 
            "ingredient": "chopped fresh parsley"
        }, 
        {
            "amount": "2 tablespoons", 
            "ingredient": "grated Parmesan cheese"
        }
    ], 
    "prep_steps": [
        "Preheat the oven to 350 degrees F (175 degrees C). Slice the tops off of garlic heads so the tip of each clove is exposed. Place garlic on a baking sheet and drizzle with olive oil. Bake until garlic is soft, about 30 minutes.", 
        "Set the oven to broil. Slice the loaf of bread in half horizontally, and place cut-side up on a baking sheet.", 
        "Squeeze the cloves of garlic from their skins into a medium bowl. Stir in the butter, parsley, and Parmesan cheese until well blended. Spread onto the cut sides of the bread.", 
        "Broil bread until toasted, about 5 minutes."
    ], 
    "prep_time": "50 mins", 
    "recipe_name": "Roasted Garlic Bread"
}