{
    "ingredients": [
        {
            "amount": "1 (16 ounce) package", 
            "ingredient": "rigatoni pasta"
        }, 
        {
            "amount": "1 pound", 
            "ingredient": "ground beef"
        }, 
        {
            "amount": "2 cloves", 
            "ingredient": "garlic, minced"
        }, 
        {
            "amount": "1", 
            "ingredient": "yellow onion, chopped"
        }, 
        {
            "amount": "1/2", 
            "ingredient": "green bell pepper, chopped"
        }, 
        {
            "amount": "2 (14 ounce) cans", 
            "ingredient": "tomato sauce"
        }, 
        {
            "amount": "2/3 cup", 
            "ingredient": "chunky salsa"
        }, 
        {
            "amount": "1 cup", 
            "ingredient": "shredded mild Cheddar cheese"
        }, 
        {
            "amount": "1/3 cup", 
            "ingredient": "heavy cream"
        }, 
        {
            "amount": "1/3 cup", 
            "ingredient": "sour cream"
        }
    ], 
    "prep_steps": [
        "Bring a large pot of lightly salted water to a rolling boil; stir in the rigatoni and cook at a boil uncovered, stirring occasionally, until the pasta has cooked through, but is still firm to the bite, about 13 minutes. Drain.", 
        "Meanwhile, cook the ground beef, garlic, onion, and bell pepper in a large pot over medium-high heat until the ground beef has browned and the vegetables are tender, about 7 minutes. Pour in the tomato sauce and salsa; season to taste with salt and pepper. Bring to a simmer. Reduce heat to medium-low and continue cooking 15 minutes.", 
        "Stir in the Cheddar cheese and cream; cook and stir 3 minutes, then stir in the sour cream until evenly blended. Add the drained pasta and stir until heated through."
    ], 
    "prep_time": "55 mins", 
    "recipe_name": "Rigatoni Surprise"
}