{
    "ingredients": [
        {
            "amount": "6 (4 ounce)", 
            "ingredient": "pork chops"
        }, 
        {
            "amount": "12 slices", 
            "ingredient": "bacon"
        }, 
        {
            "amount": "1 (12 ounce) bottle", 
            "ingredient": "tomato-based chili sauce"
        }, 
        {
            "amount": "3 tablespoons", 
            "ingredient": "brown sugar"
        }, 
        {
            "amount": "2 tablespoons", 
            "ingredient": "Dijon mustard"
        }, 
        {
            "amount": "1 (8 ounce) can", 
            "ingredient": "pineapple chunks, drained"
        }
    ], 
    "prep_steps": [
        "Preheat the oven's broiler and set the oven rack about 6 inches from the heat source.", 
        "Wrap each pork chop in 2 bacon slices to completely cover the pork chop, and secure with toothpicks. Place the wrapped chops onto a broiler pan, and broil until browned, about 5 minutes per side.", 
        "Mix together the chili sauce, brown sugar, and Dijon mustard in a bowl. Place the browned pork chops into the bottom of a slow cooker, and pour the chili sauce mixture over the chops. Spread pineapple chunks over the chops, set the cooker to Low, and cook until very tender, about 6 hours."
    ], 
    "prep_time": "6 hrs", 
    "recipe_name": "Bacon Wrapped Pork Chops in Zesty Sauce"
}