{
    "ingredients": [
        {
            "amount": "2 1/2 cups", 
            "ingredient": "all-purpose flour"
        }, 
        {
            "amount": "1/4 cup", 
            "ingredient": "unsweetened cocoa powder"
        }, 
        {
            "amount": "1 teaspoon", 
            "ingredient": "baking soda"
        }, 
        {
            "amount": "1 teaspoon", 
            "ingredient": "salt"
        }, 
        {
            "amount": "1 cup", 
            "ingredient": "butter, room temperature"
        }, 
        {
            "amount": "3/4 cup", 
            "ingredient": "brown sugar"
        }, 
        {
            "amount": "3/4 cup", 
            "ingredient": "white sugar"
        }, 
        {
            "amount": "2", 
            "ingredient": "large eggs"
        }, 
        {
            "amount": "2 tablespoons", 
            "ingredient": "vanilla extract"
        }, 
        {
            "amount": "1/2 cup", 
            "ingredient": "chocolate-hazelnut spread, such as Nutella\u00ae"
        }, 
        {
            "amount": "1/2 cup", 
            "ingredient": "chopped toasted hazelnuts"
        }, 
        {
            "amount": "1 cup", 
            "ingredient": "chocolate chips"
        }
    ], 
    "prep_steps": [
        "Preheat oven to 350 degrees F (175 degrees C). Grease a baking sheet or line it with parchment paper.", 
        "Combine flour, cocoa powder, baking soda, and salt in a bowl. Mix with a whisk to break up any lumps.", 
        "Beat butter, brown sugar, and white sugar with an electric mixer in a large bowl until smooth. Beat in eggs one at a time until completely incorporated. Mix in vanilla and chocolate-hazelnut spread.", 
        "Slowly add in flour mixture and stir just until combined. Fold in chopped hazelnuts and chocolate chips. Drop the dough onto prepared baking sheet by tablespoons or with a cookie scoop.", 
        "Bake in preheated oven until edges look dry and cookies are fragrant, about 12 minutes. Allow to cool for 1 minute on baking sheet before transferring to a wire rack."
    ], 
    "prep_time": "57 mins", 
    "recipe_name": "Nutella\u00ae Hazelnut Cookies"
}