{
    "ingredients": [
        {
            "amount": "1/2 cup", 
            "ingredient": "white sugar"
        }, 
        {
            "amount": "2", 
            "ingredient": "eggs, beaten"
        }, 
        {
            "amount": "1 (15 ounce) can", 
            "ingredient": "pure pumpkin (such as Libby's\u00ae)"
        }, 
        {
            "amount": "3/4 cup", 
            "ingredient": "evaporated milk"
        }, 
        {
            "amount": "1 teaspoon", 
            "ingredient": "orange extract"
        }, 
        {
            "amount": "1 teaspoon", 
            "ingredient": "ground cinnamon"
        }, 
        {
            "amount": "1/2 teaspoon", 
            "ingredient": "ground ginger"
        }, 
        {
            "amount": "1/4 teaspoon", 
            "ingredient": "ground cloves"
        }, 
        {
            "amount": "1/4 teaspoon", 
            "ingredient": "salt"
        }, 
        {
            "amount": "1 (9 ounce) package", 
            "ingredient": "yellow cake mix (such as Jiffy\u00ae Golden Yellow cake mix)"
        }, 
        {
            "amount": "1/4 cup", 
            "ingredient": "butter, melted"
        }
    ], 
    "prep_steps": [
        "Preheat oven to 350 degrees F (175 degrees C). Spray an 8-inch square baking dish with cooking spray.", 
        "Whisk sugar and eggs together in a bowl until light; stir pumpkin, evaporated milk, orange extract, cinnamon, ginger, cloves, and salt into egg mixture. Pour pumpkin mixture into the prepared baking dish. Lightly sprinkle cake mix over the top, covering pumpkin mixture completely. Slowly drizzle melted butter over the cake mix so it doesn't puddle.", 
        "Bake in the preheated oven until the pumpkin mixture is set and topping is golden brown, 50 minutes to 1 hour."
    ], 
    "prep_time": "1 hr", 
    "recipe_name": "Pumpkin Cobbler"
}