{
    "ingredients": [
        {
            "amount": "1 splash", 
            "ingredient": "grenadine syrup"
        }, 
        {
            "amount": "1 (1.5 fluid ounce) jigger", 
            "ingredient": "cake-flavored vodka"
        }, 
        {
            "amount": "3 ounces", 
            "ingredient": "pineapple juice"
        }, 
        {
            "amount": "1", 
            "ingredient": "maraschino cherry"
        }
    ], 
    "prep_steps": [
        "Fill a glass with ice.", 
        "Splash grenadine over ice.", 
        "Pour cake-flavored vodka and pineapple juice over the ice; stir.", 
        "Garnish with maraschino cherry to serve."
    ], 
    "prep_time": "5 mins", 
    "recipe_name": "Pineapple Upside-Down Cake in a Glass"
}