{
    "ingredients": [
        {
            "amount": "1 tablespoon", 
            "ingredient": "butter"
        }, 
        {
            "amount": "1 cup", 
            "ingredient": "chopped green bell pepper"
        }, 
        {
            "amount": "1 cup", 
            "ingredient": "chopped onion"
        }, 
        {
            "amount": "1 (10.75 ounce) can", 
            "ingredient": "condensed tomato soup"
        }, 
        {
            "amount": "1 (10.5 ounce) can", 
            "ingredient": "condensed chicken and rice soup"
        }, 
        {
            "amount": "1/2 cup", 
            "ingredient": "water"
        }, 
        {
            "amount": "1 pound", 
            "ingredient": "ground beef"
        }, 
        {
            "amount": "1", 
            "ingredient": "egg"
        }, 
        {
            "amount": "1/8 cup", 
            "ingredient": "milk"
        }, 
        {
            "amount": "2 slices", 
            "ingredient": "bread"
        }
    ], 
    "prep_steps": [
        "Melt butter in a large saucepan over medium heat. Saute green pepper and onion for 5 minutes, or until tender. Stir in the tomato soup, chicken & rice soup and the water and bring to boil. Reduce heat to low and allow to simmer.", 
        "Meanwhile, in a separate bowl, combine the ground beef, egg and milk. Break the bread into very small pieces and add to the bowl. Mix together well. (Note: The kids love to use their hands to mix this. Be sure they wash them well before AND afterward to avoid any contamination.)", 
        "Shape the meat mixture into meatballs and drop them into the soup mixture. Continue to simmer over low heat, uncovered, for 45 to 60 minutes. Stir occasionally, but be very careful not to break the meatballs."
    ], 
    "prep_time": "1\u00bd hrs", 
    "recipe_name": "Kid's Favorite Meatballs"
}