{
    "ingredients": [
        {
            "amount": "2 pounds", 
            "ingredient": "beef chuck roast, cubed"
        }, 
        {
            "amount": "4 tablespoons", 
            "ingredient": "olive oil"
        }, 
        {
            "amount": "1", 
            "ingredient": "onion, chopped"
        }, 
        {
            "amount": "1/4 pound", 
            "ingredient": "fresh mushrooms, sliced"
        }, 
        {
            "amount": "4", 
            "ingredient": "carrots, coarsely chopped"
        }, 
        {
            "amount": "4 large", 
            "ingredient": "russet potatoes, cut into quarters"
        }, 
        {
            "amount": "2 stalks", 
            "ingredient": "celery, chopped"
        }, 
        {
            "amount": "4 cloves", 
            "ingredient": "garlic, minced"
        }, 
        {
            "amount": "2 tablespoons", 
            "ingredient": "all-purpose flour"
        }, 
        {
            "amount": "1", 
            "ingredient": "bay leaf"
        }, 
        {
            "amount": "2 cups", 
            "ingredient": "beef broth"
        }, 
        {
            "amount": "1/2 cup", 
            "ingredient": "red wine"
        }, 
        {
            "amount": "1/4 cup", 
            "ingredient": "tomato paste"
        }
    ], 
    "prep_steps": [
        "Preheat oven to 450 degrees F (230 degrees C). Place beef cubes in a metal roasting pan and stir in 2 tablespoons olive oil. Put in the oven, on the middle rung and cook for 30 minutes, turning occasionally, until brown and tender.", 
        "Meanwhile, put onions, mushrooms, carrots, potatoes, celery, and garlic in a roasting pan. Stir in 2 tablespoons olive oil. Place in oven underneath beef. Bake for 35 to 40 minutes, stirring occasionally, until tender. Remove both beef and vegetable mixture from oven.", 
        "Remove beef from roasting pan and set aside. Place roasting pan, on medium high heat. Add wine and bring to a boil, scraping up the bits of drippings, stirring. When the bottom of the pan is clear of all browned pieces, remove from heat.", 
        "Put beef and wine mixture in a Dutch oven and stir in beef broth and add bay leaf and tomato paste. Bring to a boil. Reduce heat and simmer, covered, for 40 minutes.", 
        "Add 2 tablespoons flour to cooked vegetables and toss until all vegetables are coated. Add vegetables to beef stew. Simmer, covered, for 20 minutes, or until vegetables are heated through and tender. Serve hot."
    ], 
    "prep_time": "2 hr", 
    "recipe_name": "Roasted Vegetable and Beef Stew"
}