{
    "ingredients": [
        {
            "amount": "1 pound", 
            "ingredient": "lean ground beef"
        }, 
        {
            "amount": "1 1/2 cups", 
            "ingredient": "macaroni"
        }, 
        {
            "amount": "1 quart", 
            "ingredient": "stewed tomatoes"
        }, 
        {
            "amount": "2 teaspoons", 
            "ingredient": "paprika"
        }, 
        {
            "amount": "1 tablespoon", 
            "ingredient": "chili powder"
        }, 
        {
            "amount": "1/2 cup", 
            "ingredient": "chopped onion"
        }, 
        {
            "amount": "1 clove", 
            "ingredient": "garlic, minced"
        }, 
        {
            "amount": "6 ounces", 
            "ingredient": "tomato paste"
        }
    ], 
    "prep_steps": [
        "In large saucepan brown ground chuck, drain.", 
        "Add tomatoes, onions, garlic, paprika, chili powder, macaroni and tomato paste, if desired. Add water, a tablespoon at a time, if mixture seems too dry. Simmer until macaroni is tender."
    ], 
    "recipe_name": "Goulash Supreme"
}