{
    "ingredients": [
        {
            "amount": "3/4 cup", 
            "ingredient": "orange marmalade"
        }, 
        {
            "amount": "2 teaspoons", 
            "ingredient": "lemon juice"
        }, 
        {
            "amount": "1/2 teaspoon", 
            "ingredient": "ground ginger"
        }, 
        {
            "amount": "1/2 teaspoon", 
            "ingredient": "dry mustard"
        }, 
        {
            "amount": "2 pounds", 
            "ingredient": "boneless pork roast"
        }
    ], 
    "prep_steps": [
        "Preheat oven to 350 degrees F (175 degrees C).", 
        "In a small bowl, mix orange marmalade, lemon juice, ginger, and mustard. Place pork in a medium baking dish.", 
        "Bake 20 to 25 minutes in the preheated oven, then baste with the orange glaze. Continue baking to an internal temperature of 145 degrees F (63 degrees C), about 40 minutes more. Baste with the glaze every 10 minutes while baking. Let stand 10 minutes before carving."
    ], 
    "prep_time": "1\u00bd hrs", 
    "recipe_name": "Orange Ginger Pork Roast"
}