{
    "ingredients": [
        {
            "amount": "5 large", 
            "ingredient": "potatoes - peeled and cubed"
        }, 
        {
            "amount": "1/2 cup", 
            "ingredient": "milk"
        }, 
        {
            "amount": "1 tablespoon", 
            "ingredient": "butter"
        }, 
        {
            "amount": "1 pound", 
            "ingredient": "lean ground beef"
        }, 
        {
            "amount": "1 medium", 
            "ingredient": "onion, chopped"
        }, 
        {
            "amount": "1 clove", 
            "ingredient": "garlic, chopped"
        }, 
        {
            "amount": "1 ounce", 
            "ingredient": "margarine"
        }, 
        {
            "amount": "1 ounce", 
            "ingredient": "all-purpose flour"
        }, 
        {
            "amount": "2 tablespoons", 
            "ingredient": "ketchup"
        }, 
        {
            "amount": "2 cups", 
            "ingredient": "beef consomme"
        }, 
        {
            "amount": "2 tablespoons", 
            "ingredient": "browning and seasoning sauce"
        }, 
        {
            "amount": "8 ounces", 
            "ingredient": "shredded Cheddar cheese"
        }
    ], 
    "prep_steps": [
        "Place the potatoes in a pot with enough water to cover. Bring to a boil and cook until tender. Drain and mash with desired amounts of milk and butter. Set aside.", 
        "While the potatoes are cooking, crumble the ground beef into a large skillet over medium heat. Add onion and garlic; cook and stir until meat is no longer pink.", 
        "Preheat the oven to 400 degrees F (200 degrees C). Melt the margarine in a small pan. Stir in the flour. Cook and stir over medium heat until dark brown, about 10 minutes. Let cool off the heat then gradually stir in the consomme, ketchup and browning sauce until smooth. Set over medium heat and simmer until thick.", 
        "Stir the sauce into the ground beef and transfer to a casserole dish. Top with mashed potato, then sprinkle the cheese over the potato.", 
        "Bake for 15 to 20 minutes in the preheated oven, until potatoes are toasted and cheese is melted."
    ], 
    "prep_time": "1\u00bc hrs", 
    "recipe_name": "Linda's Irish Shepherd's Pie"
}