{
    "ingredients": [
        {
            "amount": "2 (15.5 ounce) cans", 
            "ingredient": "garbanzo beans, drained"
        }, 
        {
            "amount": "4 tablespoons", 
            "ingredient": "lemon juice"
        }, 
        {
            "amount": "6 cloves", 
            "ingredient": "garlic, peeled and crushed"
        }, 
        {
            "amount": "3 tablespoons", 
            "ingredient": "tahini"
        }, 
        {
            "amount": "1/4 teaspoon", 
            "ingredient": "crushed red pepper"
        }
    ], 
    "prep_steps": [
        "Place garbanzo beans in a food processor and blend into a spreadable paste. Mix in lemon juice, garlic, tahini and crushed red pepper. Blend until smooth, using more lemon juice if consistency is too thick."
    ], 
    "prep_time": "20 mins", 
    "recipe_name": "Hummus IV"
}