{
    "ingredients": [
        {
            "amount": "1 (8 ounce) package", 
            "ingredient": "cream cheese, softened"
        }, 
        {
            "amount": "1 (8 ounce) jar", 
            "ingredient": "cocktail sauce"
        }, 
        {
            "amount": "3/4 pound", 
            "ingredient": "imitation crabmeat"
        }
    ], 
    "prep_steps": [
        "In a medium bowl, blend the cream cheese and cocktail sauce. Cut the imitation crabmeat into small pieces and combine it with the mixture. Refrigerate 3 hours before serving."
    ], 
    "prep_time": "3 hrs", 
    "recipe_name": "Very Easy Crab Dip"
}