{
    "ingredients": [
        {
            "amount": "4 (6 ounce)", 
            "ingredient": "salmon fillets"
        }, 
        {
            "amount": "1 cup", 
            "ingredient": "cider vinegar"
        }, 
        {
            "amount": "1/2 cup", 
            "ingredient": "olive oil"
        }, 
        {
            "amount": "1/4 cup", 
            "ingredient": "honey"
        }, 
        {
            "amount": "2 tablespoons", 
            "ingredient": "bottled lime juice"
        }, 
        {
            "amount": "2 tablespoons", 
            "ingredient": "bottled lemon juice"
        }, 
        {
            "amount": "2 teaspoons", 
            "ingredient": "grated orange zest"
        }, 
        {
            "amount": "2 teaspoons", 
            "ingredient": "chopped garlic"
        }, 
        {
            "amount": "1/4 cup", 
            "ingredient": "white sugar"
        }, 
        {
            "amount": "2 teaspoons", 
            "ingredient": "ground ginger"
        }, 
        {
            "amount": "2 teaspoons", 
            "ingredient": "chili powder"
        }, 
        {
            "amount": "2 teaspoons", 
            "ingredient": "crushed red pepper flakes"
        }, 
        {
            "amount": "1 teaspoon", 
            "ingredient": "salt"
        }
    ], 
    "prep_steps": [
        "Place salmon in a single layer in a large baking dish. Whisk together vinegar, olive oil, honey, lime juice, lemon juice, orange zest, garlic, white sugar, ground ginger, chili powder, red pepper flakes, and salt in a large bowl. Pour over salmon. Marinate, refrigerated, for 1 to 3 hours.", 
        "Preheat an outdoor grill for medium heat, and lightly oil the grate. Remove fish from marinade. Discard used marinade. Place on preheated grill. Cook just until it flakes easily with a fork, about 5 minutes per side."
    ], 
    "prep_time": "25 mins", 
    "recipe_name": "Ginger Chili Citrus Salmon"
}