{
    "ingredients": [
        {
            "amount": "2 (12 ounce) packages", 
            "ingredient": "extra firm tofu, drained and cubed"
        }, 
        {
            "amount": "1 cup", 
            "ingredient": "white sugar"
        }, 
        {
            "amount": "1 teaspoon", 
            "ingredient": "vanilla extract"
        }, 
        {
            "amount": "1/4 teaspoon", 
            "ingredient": "salt"
        }, 
        {
            "amount": "1/4 cup", 
            "ingredient": "vegetable oil"
        }, 
        {
            "amount": "2 tablespoons", 
            "ingredient": "lemon juice"
        }, 
        {
            "amount": "1 (9 inch)", 
            "ingredient": "prepared graham cracker crust"
        }
    ], 
    "prep_steps": [
        "Preheat an oven to 350 degrees F (175 degrees C).", 
        "In a blender or food processor, combine tofu, sugar, vanilla, salt, vegetable oil, and lemon juice. Blend until smooth. Pour into the pie crust.", 
        "Bake in the preheated oven until slightly brown, 20 to 30 minutes. Remove from the oven to cool. Refrigerate until chilled."
    ], 
    "prep_time": "2\u00bd hrs", 
    "recipe_name": "Tofu Cheesecake"
}