{
    "ingredients": [
        {
            "amount": "1 (15 ounce) can", 
            "ingredient": "butter beans, drained"
        }, 
        {
            "amount": "1 small", 
            "ingredient": "onion, chopped"
        }, 
        {
            "amount": "1 tablespoon", 
            "ingredient": "finely chopped jalapeno pepper"
        }, 
        {
            "amount": "6", 
            "ingredient": "saltine crackers, crushed"
        }, 
        {
            "amount": "1", 
            "ingredient": "egg, beaten"
        }, 
        {
            "amount": "1/2 cup", 
            "ingredient": "shredded Cheddar cheese"
        }, 
        {
            "amount": "1/4 teaspoon", 
            "ingredient": "garlic powder"
        }, 
        {
            "amount": "1/4 cup", 
            "ingredient": "vegetable oil"
        }
    ], 
    "prep_steps": [
        "In a medium bowl, mash butter beans. Mix in onion, jalapeno pepper, crushed crackers, egg, cheese, garlic powder, salt, and pepper. Divide into 4 equal parts, and shape into patties.", 
        "Heat oil in a large skillet over medium-high heat; use more or less oil to reach 1/4 inch in depth. Fry patties until golden, about 5 minutes on each side."
    ], 
    "prep_time": "25 mins", 
    "recipe_name": "Butter Bean Burgers"
}