{
    "ingredients": [
        {
            "amount": "1/2 large", 
            "ingredient": "onion, sliced"
        }, 
        {
            "amount": "3 cloves", 
            "ingredient": "garlic, chopped"
        }, 
        {
            "amount": "1 pound", 
            "ingredient": "beef sirloin, cut into 2-inch strips, or more to taste"
        }, 
        {
            "amount": "1/2 teaspoon", 
            "ingredient": "ground cumin"
        }, 
        {
            "amount": "1/2 teaspoon", 
            "ingredient": "ground black pepper"
        }, 
        {
            "amount": "1/2 teaspoon", 
            "ingredient": "chili powder"
        }, 
        {
            "amount": "1/2 teaspoon", 
            "ingredient": "onion powder"
        }, 
        {
            "amount": "1/2 teaspoon", 
            "ingredient": "garlic powder"
        }, 
        {
            "amount": "1/4 teaspoon", 
            "ingredient": "paprika"
        }, 
        {
            "amount": "1/4 teaspoon", 
            "ingredient": "dried thyme"
        }, 
        {
            "amount": "1/4 teaspoon", 
            "ingredient": "dried marjoram"
        }, 
        {
            "amount": "1/4 teaspoon", 
            "ingredient": "dried basil"
        }, 
        {
            "amount": "2 tablespoons", 
            "ingredient": "bourbon whiskey (such as Jim Beam\u00ae)"
        }, 
        {
            "amount": "1 teaspoon", 
            "ingredient": "soy sauce"
        }, 
        {
            "amount": "1 teaspoon", 
            "ingredient": "prepared mustard"
        }, 
        {
            "amount": "1 teaspoon", 
            "ingredient": "Worcestershire sauce"
        }, 
        {
            "amount": "1/2 teaspoon", 
            "ingredient": "hot sauce (such as Frank's Red Hot \u00ae)"
        }, 
        {
            "amount": "1 (12 fluid ounce) can or bottle", 
            "ingredient": "beer (such as Budweiser\u00ae)"
        }, 
        {
            "amount": "2 cubes", 
            "ingredient": "beef bouillon"
        }
    ], 
    "prep_steps": [
        "Spread onion and garlic into the bottom of a slow cooker; layer beef over onion and garlic. Sprinkle cumin, black pepper, chili powder, onion powder, garlic powder, paprika, thyme, marjoram, and basil over beef; top with bourbon, soy sauce, mustard, Worcestershire sauce, and hot sauce. Pour beer over beef mixture and add beef bouillon cubes.", 
        "Cook on Low, stirring every hour or so, for 8 hours (or High for 4 hours)."
    ], 
    "prep_time": "8 hrs", 
    "recipe_name": "Slow Cooker Philly Steak Sandwich Meat"
}