{
    "ingredients": [
        {
            "amount": "4 slices", 
            "ingredient": "thick-cut bacon, sliced into 1/4-inch strips, or more to taste"
        }, 
        {
            "amount": "1 pound", 
            "ingredient": "Brussels sprouts, trimmed and halved, or more to taste"
        }, 
        {
            "amount": "1 clove", 
            "ingredient": "garlic, thinly sliced, or more to taste"
        }, 
        {
            "amount": "1/2 cup", 
            "ingredient": "chicken stock, or more as needed"
        }, 
        {
            "amount": "1 tablespoon", 
            "ingredient": "butter, or to taste"
        }, 
        {
            "amount": "1 tablespoon", 
            "ingredient": "balsamic vinegar, or more to taste"
        }
    ], 
    "prep_steps": [
        "Place bacon in a large skillet over medium-low heat; cook until just crisp, about 10 minutes. Transfer bacon to a paper towel-lined plate, reserving bacon grease in skillet.", 
        "Increase heat to medium-high under skillet; saute Brussels sprouts in the bacon grease until lightly browned, 2 to 3 minutes. Add garlic to Brussels sprouts; saute until garlic is fragrant, 1 to 2 minutes.", 
        "Pour chicken stock over Brussels sprouts mixture and cover skillet with a lid; simmer until Brussels sprouts are bright green, 4 to 5 minutes. Remove lid and continue simmering until liquid is evaporated and sprouts are tender, about 5 more minutes.", 
        "Remove skillet from heat and stir bacon, butter, vinegar, salt, and pepper into Brussels sprouts mixture until butter is melted."
    ], 
    "prep_time": "40 mins", 
    "recipe_name": "Skillet-Braised Brussels Sprouts"
}