{
    "ingredients": [
        {
            "amount": "1 (12 ounce) package", 
            "ingredient": "English muffins"
        }, 
        {
            "amount": "1 (4.5 ounce) can", 
            "ingredient": "small shrimp, drained"
        }, 
        {
            "amount": "1/2 cup", 
            "ingredient": "butter, softened"
        }, 
        {
            "amount": "1 (5 ounce) jar", 
            "ingredient": "processed cheese spread"
        }, 
        {
            "amount": "1 1/2 teaspoons", 
            "ingredient": "mayonnaise"
        }, 
        {
            "amount": "1/2 teaspoon", 
            "ingredient": "garlic powder"
        }, 
        {
            "amount": "1/2 teaspoon", 
            "ingredient": "seasoned salt"
        }
    ], 
    "prep_steps": [
        "Preheat oven to 450 degrees F (230 degrees C).", 
        "Split the English muffins in half and set aside.", 
        "In a mixing bowl, combine the shrimp, softened butter, cheese spread, mayonnaise, garlic powder and seasoned salt. Spread the mixture onto the English muffin halves. Slice each half into 6 or 8 triangles. Place the triangles on a cookie sheet. Bake for 10 minutes, until the mixture begins to melt. Serve immediately."
    ], 
    "prep_time": "25 mins", 
    "recipe_name": "Cheesy Shrimp Meltaways"
}