{
    "ingredients": [
        {
            "amount": "2/3 cup", 
            "ingredient": "hazelnuts"
        }, 
        {
            "amount": "1/2 cup", 
            "ingredient": "sesame seeds"
        }, 
        {
            "amount": "2 tablespoons", 
            "ingredient": "coriander seeds"
        }, 
        {
            "amount": "2 tablespoons", 
            "ingredient": "cumin seeds"
        }, 
        {
            "amount": "2 tablespoons", 
            "ingredient": "freshly ground black pepper"
        }, 
        {
            "amount": "1 teaspoon", 
            "ingredient": "flaked sea salt"
        }
    ], 
    "prep_steps": [
        "Preheat the oven to 350 degrees F (175 degrees C). Place the hazelnuts on a baking sheet, and bake for about 5 minutes, or until fragrant. While the nuts are still hot, pour them onto a tea towel. Fold the towel over them to cover, and rub vigorously to remove the skins. Set aside to cool.", 
        "In a dry skillet over medium heat, toast the sesame seeds until light golden brown. Pour into a medium bowl as soon as they are done so they will not continue toasting. In the same skillet, toast the coriander and cumin seeds while shaking the pan or stirring occasionally until they begin to pop. Transfer to a food processor. Process until finely ground, then pour into the bowl with the sesame seeds. Place the cooled hazelnuts into the food processor, and process until finely ground. Stir into the bowl with the spices. Season with salt and pepper, and mix well."
    ], 
    "prep_time": "25 mins", 
    "recipe_name": "Dukkah"
}