{
    "ingredients": [
        {
            "amount": "1/2 pound", 
            "ingredient": "ground turkey"
        }, 
        {
            "amount": "1", 
            "ingredient": "egg"
        }, 
        {
            "amount": "1/4 cup", 
            "ingredient": "salsa"
        }, 
        {
            "amount": "1/8 cup", 
            "ingredient": "chopped red bell pepper"
        }, 
        {
            "amount": "1/8 cup", 
            "ingredient": "chopped yellow bell pepper"
        }, 
        {
            "amount": "1/4 cup", 
            "ingredient": "chopped onion"
        }, 
        {
            "amount": "1/4 cup", 
            "ingredient": "dry bread crumbs"
        }
    ], 
    "prep_steps": [
        "Preheat oven to 350 degrees F (175 degrees C).", 
        "In a large bowl combine the turkey, egg, salsa, red bell pepper, yellow bell pepper, onion, bread crumbs and lemon pepper. Mix well with hands until blended. Roll into a small loaf and place on a foil-lined baking sheet.", 
        "Bake in the preheated oven for 25 minutes."
    ], 
    "prep_time": "40 mins", 
    "recipe_name": "Healthy Turkey Loaf"
}