{
    "ingredients": [
        {
            "amount": "1 (16 ounce) package", 
            "ingredient": "uncooked spaghetti"
        }, 
        {
            "amount": "2 tablespoons", 
            "ingredient": "olive oil"
        }, 
        {
            "amount": "2 cloves", 
            "ingredient": "garlic, chopped"
        }, 
        {
            "amount": "2 (6.5 ounce) cans", 
            "ingredient": "chopped clams with juice"
        }, 
        {
            "amount": "1/2 cup", 
            "ingredient": "finely chopped fresh parsley"
        }, 
        {
            "amount": "1/2 cup", 
            "ingredient": "grated Parmesan cheese"
        }
    ], 
    "prep_steps": [
        "Bring a large pot of lightly salted water to a boil. Add spaghetti, cook for 8 to 10 minutes, until al dente, and drain.", 
        "Heat the oil in a skillet over medium heat, and saute the garlic 1 minute, until tender. Mix in the clams and juice. Cook, stirring occasionally, until liquid is reduced to about 1/2 cup.", 
        "In a large bowl, toss the spaghetti with the sauteed clams, chopped parsley, and Parmesan cheese. Garnish with parsley sprigs to serve."
    ], 
    "prep_time": "35 mins", 
    "recipe_name": "Quick Clam Spaghetti"
}