{
    "ingredients": [
        {
            "amount": "1 2/3 cups", 
            "ingredient": "all-purpose flour"
        }, 
        {
            "amount": "1/2 teaspoon", 
            "ingredient": "baking soda"
        }, 
        {
            "amount": "1/4 teaspoon", 
            "ingredient": "salt"
        }, 
        {
            "amount": "3/4 cup", 
            "ingredient": "butter, softened"
        }, 
        {
            "amount": "1 cup", 
            "ingredient": "packed brown sugar"
        }, 
        {
            "amount": "1 teaspoon", 
            "ingredient": "vanilla extract"
        }, 
        {
            "amount": "1", 
            "ingredient": "egg"
        }, 
        {
            "amount": "2 cups", 
            "ingredient": "white chocolate chips"
        }, 
        {
            "amount": "3/4 cup", 
            "ingredient": "chopped almonds"
        }, 
        {
            "amount": "3/4 cup", 
            "ingredient": "dried apricots, chopped"
        }
    ], 
    "prep_steps": [
        "Preheat oven to 350 degrees F (175 degrees C).", 
        "In a medium bowl, stir together the flour, baking soda, and salt. In a large bowl, cream the butter and sugar until smooth. Beat in the egg and vanilla. Stir in the dry ingredients until well blended, then stir in the white chips, almonds, and apricots.", 
        "Drop dough by rounded teaspoonfuls onto an unprepared cookie sheet. Bake for 10 to 12 minutes in the preheated oven. Cookies should be golden brown. Remove from the baking sheet to cool on wire racks."
    ], 
    "recipe_name": "Apricot and White Chip Cookies with Almonds"
}