{
    "ingredients": [
        {
            "amount": "24 small", 
            "ingredient": "onions"
        }, 
        {
            "amount": "10", 
            "ingredient": "fresh mushrooms, sliced"
        }, 
        {
            "amount": "4 tablespoons", 
            "ingredient": "butter"
        }, 
        {
            "amount": "2 tablespoons", 
            "ingredient": "all-purpose flour"
        }, 
        {
            "amount": "2 cups", 
            "ingredient": "whole milk"
        }, 
        {
            "amount": "1 teaspoon", 
            "ingredient": "salt"
        }, 
        {
            "amount": "2 teaspoons", 
            "ingredient": "dried sage"
        }, 
        {
            "amount": "2 teaspoons", 
            "ingredient": "lemon zest"
        }, 
        {
            "amount": "2 teaspoons", 
            "ingredient": "lemon juice"
        }, 
        {
            "amount": "4 tablespoons", 
            "ingredient": "chopped fresh parsley"
        }, 
        {
            "amount": "2 pinches", 
            "ingredient": "paprika"
        }
    ], 
    "prep_steps": [
        "Peel onions and trim slightly at the top and bottom. Boil the onions gently in salted water until tender (about 30 minutes).", 
        "Preheat oven to 350 degrees F (175 degrees C). Butter one shallow baking dish.", 
        "Saute the sliced mushrooms in the butter or margarine. Stir in the flour. Stir in the half and half or milk, salt, sage, 1/2 of the lemon peel and all of the lemon juice. Cook, stirring over medium heat until sauce thickens.", 
        "Place the cooked onions in the prepared baking dish and pour the mushroom sauce over them.", 
        "Bake at 350 degrees F (175 degrees C) for about 20 minutes. Sprinkle the top with the chopped parsley, remaining lemon peel and paprika to taste."
    ], 
    "recipe_name": "Creamed Onions and Sage"
}