{
    "ingredients": [
        {
            "amount": "1/3 cup", 
            "ingredient": "extra-virgin olive oil"
        }, 
        {
            "amount": "3 cloves", 
            "ingredient": "garlic, sliced"
        }, 
        {
            "amount": "1 teaspoon", 
            "ingredient": "red pepper flakes"
        }, 
        {
            "amount": "2 teaspoons", 
            "ingredient": "paprika"
        }, 
        {
            "amount": "2 pounds", 
            "ingredient": "shell-on deveined jumbo shrimp"
        }, 
        {
            "amount": "1/4 cup", 
            "ingredient": "lemon juice"
        }, 
        {
            "amount": "2 tablespoons", 
            "ingredient": "chopped fresh basil"
        }, 
        {
            "amount": "1/2 teaspoon", 
            "ingredient": "salt"
        }, 
        {
            "amount": "1/4 teaspoon", 
            "ingredient": "black pepper"
        }
    ], 
    "prep_steps": [
        "Heat the oil in a large skillet over high heat; cook and stir the garlic in the oil until translucent. Sprinkle the red pepper flakes and paprika into the oil. Add the shrimp and toss to coat. Pour the lemon juice over the shrimp; allow to cook until the shrimp are bright pink on the outside and the meat is no longer transparent in the center, 1 to 2 minutes more. Reduce heat to medium-low; add the basil and toss lightly. Season with salt and pepper to serve."
    ], 
    "prep_time": "20 mins", 
    "recipe_name": "Zippy Summer Shrimp"
}