{
    "ingredients": [
        {
            "amount": "1 (18.25 ounce) package", 
            "ingredient": "butter cake mix"
        }, 
        {
            "amount": "1 (3.5 ounce) package", 
            "ingredient": "instant vanilla pudding mix"
        }, 
        {
            "amount": "4", 
            "ingredient": "eggs"
        }, 
        {
            "amount": "1/4 cup", 
            "ingredient": "water"
        }, 
        {
            "amount": "1/2 cup", 
            "ingredient": "vegetable oil"
        }, 
        {
            "amount": "8 ounces", 
            "ingredient": "sour cream"
        }, 
        {
            "amount": "2 cups", 
            "ingredient": "semisweet chocolate chips"
        }
    ], 
    "prep_steps": [
        "Preheat oven to 350 degrees F (175 degrees C). Grease and flour two 9 inch round cake pans.", 
        "In a large bowl, combine cake mix, pudding mix, eggs, water, oil and sour cream. Beat with a mixer until smooth. Stir in chocolate chips.", 
        "Divide into two 9 inch pans. Bake at 350 degrees F (175 degrees C) for 45 minutes.", 
        "Frost with Cream Cheese Frosting or Sour Cream Chocolate Frosting."
    ], 
    "recipe_name": "Better Than...Cake"
}