{
    "ingredients": [
        {
            "amount": "3/4 cup", 
            "ingredient": "olive oil"
        }, 
        {
            "amount": "2", 
            "ingredient": "onions, thinly sliced"
        }, 
        {
            "amount": "2", 
            "ingredient": "leeks, sliced"
        }, 
        {
            "amount": "3", 
            "ingredient": "tomatoes - peeled, seeded and chopped"
        }, 
        {
            "amount": "4 cloves", 
            "ingredient": "garlic, minced"
        }, 
        {
            "amount": "1 sprig", 
            "ingredient": "fennel leaf"
        }, 
        {
            "amount": "1 sprig", 
            "ingredient": "fresh thyme"
        }, 
        {
            "amount": "1", 
            "ingredient": "bay leaf"
        }, 
        {
            "amount": "1 teaspoon", 
            "ingredient": "orange zest"
        }, 
        {
            "amount": "3/4 pound", 
            "ingredient": "mussels, cleaned and debearded"
        }, 
        {
            "amount": "9 cups", 
            "ingredient": "boiling water"
        }, 
        {
            "amount": "5 pounds", 
            "ingredient": "sea bass"
        }, 
        {
            "amount": "1 pinch", 
            "ingredient": "saffron threads"
        }, 
        {
            "amount": "3/4 pound", 
            "ingredient": "fresh shrimp, peeled and deveined"
        }
    ], 
    "prep_steps": [
        "Heat the olive oil in a large saucepan, and add the onions, leeks, chopped tomatoes, and garlic. Cook and stir over a low heat for a few minutes until all vegetables are soft.", 
        "Stir in the fennel, thyme, bay leaf, and orange zest. Add shellfish and boiling water; stir to combine. Season to taste with salt and black pepper. Turn up the heat to high, and boil for about 3 minutes to allow the oil and water to combine.", 
        "Add fish, and reduce the heat to medium. Continue cooking for 12 to 15 minutes, or until fish is cooked. The fish should be opaque and tender, but still firm. Fish should not be falling apart.", 
        "Taste the bouillabaisse and adjust the seasoning. Stir in saffron, and then pour soup into a warmed tureen or soup dishes. Serve immediately."
    ], 
    "prep_time": "40 mins", 
    "recipe_name": "Bouillabaisse"
}