{
    "ingredients": [
        {
            "amount": "1 pound", 
            "ingredient": "spaghetti"
        }, 
        {
            "amount": "2 pounds", 
            "ingredient": "lean ground beef"
        }, 
        {
            "amount": "1", 
            "ingredient": "onion, minced"
        }, 
        {
            "amount": "1 (6 ounce) can", 
            "ingredient": "tomato paste"
        }, 
        {
            "amount": "2 (10.75 ounce) cans", 
            "ingredient": "condensed tomato soup"
        }, 
        {
            "amount": "2 1/2 cups", 
            "ingredient": "water"
        }
    ], 
    "prep_steps": [
        "Bring a large pot of lightly salted water to a boil. Add pasta and cook for 8 to 10 minutes or until al dente; drain.", 
        "In a large skillet over medium heat, cook ground beef with onion until meat is brown. Drain. Return meat mixture to pan with tomato paste, tomato soup and water. Cook, stirring, until heated through and thickened, 5 to 15 minutes. Serve over cooked pasta."
    ], 
    "prep_time": "25 mins", 
    "recipe_name": "Dad's Spaghetti"
}