{
    "ingredients": [
        {
            "amount": "1 (16 ounce) package", 
            "ingredient": "linguine pasta"
        }, 
        {
            "amount": "1/2 cup", 
            "ingredient": "thinly sliced red onion"
        }, 
        {
            "amount": "3 teaspoons", 
            "ingredient": "garlic powder"
        }, 
        {
            "amount": "1/4 cup", 
            "ingredient": "olive oil"
        }, 
        {
            "amount": "3 cups", 
            "ingredient": "milk"
        }, 
        {
            "amount": "2 teaspoons", 
            "ingredient": "chopped fresh parsley"
        }, 
        {
            "amount": "1/2 cup", 
            "ingredient": "chopped green bell pepper"
        }, 
        {
            "amount": "1/2 cup", 
            "ingredient": "red bell pepper, chopped"
        }, 
        {
            "amount": "1/2 cup", 
            "ingredient": "broccoli florets"
        }, 
        {
            "amount": "1/2 cup", 
            "ingredient": "thinly sliced carrots"
        }, 
        {
            "amount": "1 cup", 
            "ingredient": "sliced fresh mushrooms"
        }, 
        {
            "amount": "1 cup", 
            "ingredient": "canned shrimp"
        }, 
        {
            "amount": "1 cup", 
            "ingredient": "crab meat, drained"
        }, 
        {
            "amount": "1 pound", 
            "ingredient": "scallops"
        }, 
        {
            "amount": "2 tablespoons", 
            "ingredient": "all-purpose flour"
        }
    ], 
    "prep_steps": [
        "Bring a large pot of lightly salted water to a boil. Add linguini pasta, and cook for 6 to 8 minutes, or until al dente. Drain.", 
        "Meanwhile, in an electric frying pan, or large skillet saute the red onion and garlic in olive oil. When onion is translucent, add the milk. Cook until bubbles form around the edges of the pan. Add the parsley, chopped green and red bell pepper, broccoli, carrots, mushrooms, shrimp, crab, and scallops and stir until well incorporated.", 
        "Remove 1/2 cup of milk from the mixture and place in a small bowl with the flour. Stir until smooth. Add back to skillet with seafood and vegetables. Allow mixture to thicken. Season with salt and pepper to taste.", 
        "Pour seafood sauce over drained and cooked linguini noodles. Serve warm."
    ], 
    "recipe_name": "Seafood Linguine"
}