{
    "ingredients": [
        {
            "amount": "2 teaspoons", 
            "ingredient": "instant coffee granules"
        }, 
        {
            "amount": "1 teaspoon", 
            "ingredient": "sugar"
        }, 
        {
            "amount": "3 tablespoons", 
            "ingredient": "warm water"
        }, 
        {
            "amount": "6 fluid ounces", 
            "ingredient": "cold milk"
        }
    ], 
    "prep_steps": [
        "In sealable jar, combine instant coffee, sugar and warm water. Cover the jar and shake until it is foamy. Pour into a glass full of ice. Fill the glass with milk. Adjust to taste if necessary."
    ], 
    "prep_time": "10 mins", 
    "recipe_name": "Easy Iced Coffee"
}