{
    "ingredients": [
        {
            "amount": "8 ounces", 
            "ingredient": "spaghetti"
        }, 
        {
            "amount": "5 tablespoons", 
            "ingredient": "butter"
        }, 
        {
            "amount": "3 cloves", 
            "ingredient": "garlic, chopped"
        }, 
        {
            "amount": "1", 
            "ingredient": "onion, chopped"
        }, 
        {
            "amount": "16 ounces", 
            "ingredient": "fresh mushrooms, sliced"
        }, 
        {
            "amount": "1 (16 ounce) package", 
            "ingredient": "frozen chopped broccoli"
        }, 
        {
            "amount": "1 (6 ounce) can", 
            "ingredient": "black olives, drained"
        }, 
        {
            "amount": "12 slices", 
            "ingredient": "ham, chopped"
        }
    ], 
    "prep_steps": [
        "Bring a large pot of lightly salted water to a boil. Add spaghetti and cook for 8 to 10 minutes or until al dente; drain and set aside.", 
        "In a large skillet over medium heat, melt butter and add garlic, onion, mushrooms, broccoli, olives, and ham. Saute mixture until onions are translucent.", 
        "In a large bowl toss cooked spaghetti with vegetable mixture."
    ], 
    "prep_time": "30 mins", 
    "recipe_name": "Garlic and Ham Spaghetti"
}