{
    "ingredients": [
        {
            "amount": "5 cups", 
            "ingredient": "boiling water"
        }, 
        {
            "amount": "4 (2 g) bags", 
            "ingredient": "green tea"
        }, 
        {
            "amount": "1 cup", 
            "ingredient": "white sugar"
        }, 
        {
            "amount": "1 (16 ounce) can", 
            "ingredient": "frozen lemonade concentrate"
        }, 
        {
            "amount": "1 (16 ounce) can", 
            "ingredient": "frozen orange juice concentrate"
        }, 
        {
            "amount": "2 cups", 
            "ingredient": "brandy"
        }, 
        {
            "amount": "1 (2 liter) bottle", 
            "ingredient": "lemon-lime flavored carbonated beverage"
        }
    ], 
    "prep_steps": [
        "Steep tea in 2 cups boiling water for 10 minutes. Place remaining 3 cups boiling water in a 9x13 inch pan. Stir in sugar until dissolved. Stir in lemonade concentrate, orange juice concentrate, and brandy. Remove tea bags and stir tea into mixture. Freeze overnight.", 
        "To serve, scoop desired amount into glass, then fill glass with lemon-lime soda, and stir."
    ], 
    "prep_time": "30 mins", 
    "recipe_name": "Brandy Slush I"
}