{
    "ingredients": [
        {
            "amount": "2 cups", 
            "ingredient": "all-purpose flour"
        }, 
        {
            "amount": "1/2 teaspoon", 
            "ingredient": "salt"
        }, 
        {
            "amount": "2 teaspoons", 
            "ingredient": "baking powder"
        }, 
        {
            "amount": "1 cup", 
            "ingredient": "white sugar"
        }, 
        {
            "amount": "1/2 cup", 
            "ingredient": "butter"
        }, 
        {
            "amount": "1 cup", 
            "ingredient": "milk"
        }, 
        {
            "amount": "1 teaspoon", 
            "ingredient": "vanilla extract"
        }, 
        {
            "amount": "4 cups", 
            "ingredient": "pitted sour cherries"
        }, 
        {
            "amount": "1/2 cup", 
            "ingredient": "white sugar"
        }, 
        {
            "amount": "1 1/4 cups", 
            "ingredient": "cherry juice"
        }
    ], 
    "prep_steps": [
        "Preheat oven to 375 degrees F (190 degrees C). Grease a 10x10-inch baking dish.", 
        "In large bowl, combine flour, salt, baking powder and 1 cup sugar; stir. Add butter, milk and vanilla; beat with electric mixer for 2 minutes, or until smooth. Pour mixture into pan and cover evenly with cherries.", 
        "Heat cherry juice in microwave or in small saucepan, until just simmering. Sprinkle 1/2 cup of sugar over cherries, and pour hot cherry juice on top. Bake 40 to 45 minutes, or until pick inserted in center comes out clean."
    ], 
    "prep_time": "1 hr", 
    "recipe_name": "Cherry Dump Pudding"
}