{
    "ingredients": [
        {
            "amount": "4", 
            "ingredient": "skinless, boneless chicken breast halves"
        }, 
        {
            "amount": "1 (10.75 ounce) can", 
            "ingredient": "condensed cream of chicken soup"
        }, 
        {
            "amount": "1 (10.75 ounce) can", 
            "ingredient": "condensed cream of celery soup"
        }, 
        {
            "amount": "1/2 cup", 
            "ingredient": "sour cream"
        }
    ], 
    "prep_steps": [
        "Place chicken breasts in a slow cooker. In a medium bowl, mix the cream of chicken soup and cream of celery soup until smooth Pour over the chicken, making sure it is well coated.", 
        "Cover, and cook on Low heat for 7 to 8 hours. Stir in the sour cream about 1/2 hour before serving."
    ], 
    "prep_time": "8 hrs", 
    "recipe_name": "No Time to Cook Chicken"
}