{
    "ingredients": [
        {
            "amount": "1 tablespoon", 
            "ingredient": "olive oil"
        }, 
        {
            "amount": "2 pounds", 
            "ingredient": "small chicken thighs"
        }, 
        {
            "amount": "12 ounces", 
            "ingredient": "Merguez or spicy Italian sausage"
        }, 
        {
            "amount": "1 tablespoon", 
            "ingredient": "minced garlic"
        }, 
        {
            "amount": "2", 
            "ingredient": "onions, minced"
        }, 
        {
            "amount": "2", 
            "ingredient": "carrots, peeled and cut into 1/2-inch rounds"
        }, 
        {
            "amount": "1/2 stalk", 
            "ingredient": "celery, cut into 1/2 inch pieces"
        }, 
        {
            "amount": "1", 
            "ingredient": "rutabaga, parsnip, or turnip - peeled and cut into 1-inch cubes"
        }, 
        {
            "amount": "1/2", 
            "ingredient": "green bell pepper, cut into 1/4 inch strips"
        }, 
        {
            "amount": "1/2", 
            "ingredient": "red bell pepper, cut into 1/4 inch strips"
        }, 
        {
            "amount": "1 (14.5 ounce) can", 
            "ingredient": "diced tomatoes"
        }, 
        {
            "amount": "1 (15.5 ounce) can", 
            "ingredient": "garbanzo beans"
        }, 
        {
            "amount": "2 cups", 
            "ingredient": "chicken stock"
        }, 
        {
            "amount": "2 teaspoons", 
            "ingredient": "chopped fresh thyme"
        }, 
        {
            "amount": "1 teaspoon", 
            "ingredient": "turmeric"
        }, 
        {
            "amount": "1 teaspoon", 
            "ingredient": "cayenne pepper"
        }, 
        {
            "amount": "1/4 teaspoon", 
            "ingredient": "harissa, or to taste"
        }, 
        {
            "amount": "1", 
            "ingredient": "bay leaf"
        }, 
        {
            "amount": "2", 
            "ingredient": "zucchini, halved lengthwise and sliced into 1-inch pieces"
        }, 
        {
            "amount": "2 tablespoons", 
            "ingredient": "extra virgin olive oil"
        }, 
        {
            "amount": "2 cups", 
            "ingredient": "couscous"
        }, 
        {
            "amount": "2 cups", 
            "ingredient": "chicken stock"
        }, 
        {
            "amount": "1/2 cup", 
            "ingredient": "plain yogurt"
        }
    ], 
    "prep_steps": [
        "Heat olive oil in a large skillet over medium-high heat. Add chicken thighs, skin-side down, and sear until golden brown on both sides; set aside. Reduce heat to medium, add sausage, and cook sausage until no longer pink; set aside.", 
        "Stir garlic and onions into skillet; cook until onions have softened and turned translucent. Stir in the carrots, celery, rutabaga, green pepper, red pepper, diced tomatoes, garbanzos, and 2 cups chicken stock. Season with thyme, turmeric, cayenne, harissa, and bay leaf. Cut sausage into 1--inch pieces, and add to skillet along with chicken. Cover, and simmer for 30 minutes until chicken is no longer pink. When the chicken is done, stir in the zucchini, and cook until tender, about 5 minutes.", 
        "While the chicken is cooking, mix 2 tablespoons of extra virgin olive oil (EVOO) into couscous in a heatproof bowl. Bring 2 cups of chicken stock to a boil and stir into the couscous, cover, and keep hot.", 
        "Serve chicken stew over the couscous with a dollop of yogurt."
    ], 
    "prep_time": "1\u00bd hrs", 
    "recipe_name": "Couscous Royale"
}