{
    "ingredients": [
        {
            "amount": "1 1/2 cups", 
            "ingredient": "all-purpose flour"
        }, 
        {
            "amount": "1 cup", 
            "ingredient": "shredded coconut"
        }, 
        {
            "amount": "1/2 cup", 
            "ingredient": "white sugar"
        }, 
        {
            "amount": "1/3 cup", 
            "ingredient": "chopped toasted almonds"
        }, 
        {
            "amount": "1 1/2 teaspoons", 
            "ingredient": "baking powder"
        }, 
        {
            "amount": "3/4 teaspoon", 
            "ingredient": "orange zest"
        }, 
        {
            "amount": "1/2 teaspoon", 
            "ingredient": "baking soda"
        }, 
        {
            "amount": "1/4 teaspoon", 
            "ingredient": "salt"
        }, 
        {
            "amount": "3/4 cup", 
            "ingredient": "unsweetened coconut milk"
        }, 
        {
            "amount": "1/4 cup", 
            "ingredient": "orange juice"
        }, 
        {
            "amount": "1/4 cup", 
            "ingredient": "extra virgin olive oil"
        }, 
        {
            "amount": "1 teaspoon", 
            "ingredient": "vanilla extract"
        }
    ], 
    "prep_steps": [
        "Preheat oven to 400 degrees F (200 degrees C). Lightly grease a 12 cup muffin pan.", 
        "In a large bowl, mix flour, shredded coconut, sugar, almonds, baking powder, orange zest, baking soda, and salt.", 
        "In a medium bowl, whisk together coconut milk, orange juice, olive oil, and vanilla extract. Pour into the flour mixture, and stir until just blended. Transfer to the prepared muffin pan.", 
        "Bake 15 minutes in the preheated oven, until a knife inserted in the center of a muffin comes out clean. Turn onto a wire rack to cool before serving."
    ], 
    "prep_time": "30 mins", 
    "recipe_name": "Golden Coconut Almond Muffins"
}