{
    "ingredients": [
        {
            "amount": "1 cup", 
            "ingredient": "water"
        }, 
        {
            "amount": "1/2 cup", 
            "ingredient": "butter"
        }, 
        {
            "amount": "1/4 teaspoon", 
            "ingredient": "salt"
        }, 
        {
            "amount": "1 cup", 
            "ingredient": "all-purpose flour"
        }, 
        {
            "amount": "4", 
            "ingredient": "eggs"
        }, 
        {
            "amount": "1 cup", 
            "ingredient": "heavy cream"
        }, 
        {
            "amount": "1/4 cup", 
            "ingredient": "confectioners' sugar"
        }, 
        {
            "amount": "1 teaspoon", 
            "ingredient": "rose water"
        }, 
        {
            "amount": "1 cup", 
            "ingredient": "heavy cream"
        }, 
        {
            "amount": "9 ounces", 
            "ingredient": "semisweet chocolate, chopped"
        }
    ], 
    "prep_steps": [
        "Preheat an oven to 425 degrees F (220 degrees C). Line a baking sheet with parchment paper.", 
        "Bring the water to a boil in a saucepan. Stir in the butter and salt until the butter has melted; remove the saucepan from the heat. Stir in the flour until no dry lumps remain; stir in the eggs, one at a time, adding the next egg only after the last one has been completely incorporated into the mixture. Drop the profiterole paste onto the prepared baking sheet in evenly spaced dollops.", 
        "Bake in the preheated oven until the pastries have puffed up and turned golden brown, 25 to 30 minutes. Remove from the baking sheet and cool on a wire rack to room temperature.", 
        "Beat 1 cup of heavy cream to soft peaks; stir in the confectioners' sugar and rosewater until the sugar has dissolved. Bring the remaining cup of heavy cream to a simmer in a small saucepan over medium heat. Remove from the heat and stir in the chocolate until melted and smooth.", 
        "To assemble, poke a hole into the bottom of each pastry and fill with the rose water cream. Place the filled profiteroles onto individual serving plates and top with the warm sauce. Leftover profiteroles may be stored sealed in an airtight container in the refrigerator up to 5 days."
    ], 
    "prep_time": "1\u00bd hrs", 
    "recipe_name": "Profiteroles"
}