{
    "ingredients": [
        {
            "amount": "1 (8 ounce) package", 
            "ingredient": "softened cream cheese"
        }, 
        {
            "amount": "6", 
            "ingredient": "dill pickle spears, diced"
        }, 
        {
            "amount": "1 (2 ounce) package", 
            "ingredient": "thinly sliced dried beef, chopped"
        }
    ], 
    "prep_steps": [
        "Mix together the softened cream cheese, diced pickle, and chopped beef until well combined. Chill until ready to serve."
    ], 
    "prep_time": "10 mins", 
    "recipe_name": "Magic Pickle Dip"
}