{
    "ingredients": [
        {
            "amount": "2 cups", 
            "ingredient": "dry red kidney beans"
        }, 
        {
            "amount": "1 large", 
            "ingredient": "onion, chopped"
        }, 
        {
            "amount": "4 cloves", 
            "ingredient": "garlic, chopped"
        }, 
        {
            "amount": "1 (2 inch) piece", 
            "ingredient": "fresh ginger root, chopped"
        }, 
        {
            "amount": "2 tablespoons", 
            "ingredient": "vegetable oil"
        }, 
        {
            "amount": "2 teaspoons", 
            "ingredient": "ghee (clarified butter)"
        }, 
        {
            "amount": "2", 
            "ingredient": "dried red chile peppers, broken into pieces"
        }, 
        {
            "amount": "1 teaspoon", 
            "ingredient": "cumin seeds"
        }, 
        {
            "amount": "6", 
            "ingredient": "whole cloves"
        }, 
        {
            "amount": "1 teaspoon", 
            "ingredient": "ground turmeric"
        }, 
        {
            "amount": "1 teaspoon", 
            "ingredient": "ground cumin"
        }, 
        {
            "amount": "1 teaspoon", 
            "ingredient": "ground coriander"
        }, 
        {
            "amount": "2", 
            "ingredient": "tomatoes, chopped"
        }, 
        {
            "amount": "2 cups", 
            "ingredient": "water"
        }, 
        {
            "amount": "1 teaspoon", 
            "ingredient": "white sugar"
        }, 
        {
            "amount": "2 teaspoons", 
            "ingredient": "garam masala"
        }, 
        {
            "amount": "1 teaspoon", 
            "ingredient": "ground red pepper"
        }, 
        {
            "amount": "1/4 cup", 
            "ingredient": "cilantro leaves, chopped"
        }
    ], 
    "prep_steps": [
        "Place the kidney beans into a large container and cover with several inches of cool water; let stand 8 hours or overnight. Drain and rinse.", 
        "Grind the onion, ginger, and garlic into a paste using a mortar and pestle.", 
        "Heat the oil and ghee together in a pressure cooker over medium heat. Fry the red chile peppers, cumin seeds, and whole cloves in the hot oil until the cumin seeds begin to splutter; stir the onion paste into the mixture and cook, stirring frequently, until golden brown. Season with the ground turmeric, ground cumin, and ground coriander; continue cooking for a few more seconds before adding the tomatoes. Cook until the tomatoes are completely tender.", 
        "Add the drained kidney beans to the pressure cooker with enough water to cover; pour the 2 cups water additionally to the cooker. Add the sugar and salt. Close the pressure cooker and bring to 15 pounds of pressure; cook about 40 minutes. Lower the heat to low and cook another 10 to 15 minutes. Release the pressure and open the cooker. Stir the garam masala and ground red pepper into the bean mixture; garnish with chopped cilantro to serve."
    ], 
    "prep_time": "1\u00bc hrs", 
    "recipe_name": "Rajma (Kidney Bean Curry)"
}