{
    "ingredients": [
        {
            "amount": "1 cup", 
            "ingredient": "chicken broth"
        }, 
        {
            "amount": "3 tablespoons", 
            "ingredient": "soy sauce"
        }, 
        {
            "amount": "1 tablespoon", 
            "ingredient": "cornstarch"
        }, 
        {
            "amount": "1 tablespoon", 
            "ingredient": "ground ginger"
        }, 
        {
            "amount": "2 tablespoons", 
            "ingredient": "vegetable oil"
        }, 
        {
            "amount": "4 large", 
            "ingredient": "skinless, boneless chicken breast halves, cubed"
        }, 
        {
            "amount": "2 cloves", 
            "ingredient": "garlic, minced"
        }, 
        {
            "amount": "1 1/2 cups", 
            "ingredient": "sliced fresh mushrooms"
        }, 
        {
            "amount": "2 (8 ounce) cans", 
            "ingredient": "sliced water chestnuts, drained"
        }, 
        {
            "amount": "3 cups", 
            "ingredient": "snow peas"
        }, 
        {
            "amount": "1 tablespoon", 
            "ingredient": "sesame seeds"
        }
    ], 
    "prep_steps": [
        "Whisk the chicken broth, soy sauce, cornstarch, and ginger together in a small bowl; reserve.", 
        "Heat oil in a large skillet or wok. Cook and stir chicken and garlic in the oil until chicken is cooked through, 8 to 10 minutes. Stir in mushrooms, water chestnuts, and reserved chicken broth mixture. Cook until sauce begins to thicken, 3 to 5 minutes.", 
        "Stir snow peas into the pan and cook until tender, 3 to 5 minutes. Transfer to a platter and sprinkle with sesame seeds before serving."
    ], 
    "prep_time": "30 mins", 
    "recipe_name": "Chicken and Snow Peas"
}