{
    "ingredients": [
        {
            "amount": "1 (16 ounce) can", 
            "ingredient": "garbanzo beans, drained"
        }, 
        {
            "amount": "1/4 cup", 
            "ingredient": "panko bread crumbs, or as needed"
        }, 
        {
            "amount": "1/4 cup", 
            "ingredient": "chopped onion"
        }, 
        {
            "amount": "1/4 cup", 
            "ingredient": "olive oil"
        }, 
        {
            "amount": "1", 
            "ingredient": "egg"
        }, 
        {
            "amount": "2 tablespoons", 
            "ingredient": "dried parsley"
        }, 
        {
            "amount": "1 tablespoon", 
            "ingredient": "curry powder"
        }, 
        {
            "amount": "1 tablespoon", 
            "ingredient": "garlic powder"
        }, 
        {
            "amount": "1 tablespoon", 
            "ingredient": "lemon juice"
        }, 
        {
            "amount": "1/2 tablespoon", 
            "ingredient": "ground black pepper"
        }, 
        {
            "amount": "1/4 cup", 
            "ingredient": "panko bread crumbs, or as needed"
        }, 
        {
            "amount": "1 cup", 
            "ingredient": "olive oil for frying, or as needed"
        }
    ], 
    "prep_steps": [
        "Place garbanzo beans, 1/4 cup panko bread crumbs, onion, 1/4 cup olive oil, egg, parsley, curry powder, garlic powder, lemon juice, and black pepper in a food processor or blender. Puree until coarse crumbles form. Blend more panko crumbs into mixture if it is too moist.", 
        "Roll mixture into balls about the size of a golf ball; place on a plate.", 
        "Press into patties and coat in panko bread crumbs.", 
        "Heat about 1-inch olive oil in a skillet over medium heat.", 
        "Pan-fry patties until crispy, about 3 minutes on each side."
    ], 
    "prep_time": "30 mins", 
    "recipe_name": "Easiest Falafel"
}