{
    "ingredients": [
        {
            "amount": "1 1/2 cups", 
            "ingredient": "water"
        }, 
        {
            "amount": "2/3 cup", 
            "ingredient": "uncooked brown rice"
        }, 
        {
            "amount": "1/2 pound", 
            "ingredient": "ground turkey"
        }, 
        {
            "amount": "1/2 cup", 
            "ingredient": "chopped green bell pepper"
        }, 
        {
            "amount": "1/3 cup", 
            "ingredient": "chopped onion"
        }, 
        {
            "amount": "1/2 teaspoon", 
            "ingredient": "minced garlic"
        }, 
        {
            "amount": "1/2 teaspoon", 
            "ingredient": "garlic powder"
        }, 
        {
            "amount": "1/2 teaspoon", 
            "ingredient": "dried celery flakes"
        }, 
        {
            "amount": "1 teaspoon", 
            "ingredient": "Cajun seasoning"
        }, 
        {
            "amount": "1/4 teaspoon", 
            "ingredient": "ground black pepper"
        }, 
        {
            "amount": "1/3 cup", 
            "ingredient": "water"
        }, 
        {
            "amount": "1 pinch", 
            "ingredient": "salt, or to taste"
        }
    ], 
    "prep_steps": [
        "Bring 1 1/2 cup of water to a boil in a saucepan, and stir in the brown rice. Reduce the heat to a simmer, cover, and simmer until the rice is tender and the liquid has been absorbed, 40 to 50 minutes. Set the rice aside.", 
        "Place ground turkey into a skillet over medium heat, and cook and stir the turkey until the meat gives up some of its fat, 2 to 3 minutes; stir in green bell pepper, onion, and minced garlic. Cook and stir until the turkey is crumbly and no longer pink and the vegetables are tender, 5 to 8 more minutes. Drain excess grease, if necessary. Stir in the cooked brown rice, garlic powder, celery flakes, Cajun seasoning, black pepper, and 1/3 cup water.", 
        "Bring the mixture to a simmer, and cook until the liquid is absorbed, about 10 minutes. Season to taste with salt and additional black pepper, if desired."
    ], 
    "prep_time": "1\u00bc hrs", 
    "recipe_name": "Ke's Cajun (Dirty) Rice"
}