{
    "ingredients": [
        {
            "amount": "2 pounds", 
            "ingredient": "halibut fillet, cut into 6 pieces"
        }, 
        {
            "amount": "1 bunch", 
            "ingredient": "green onions, chopped"
        }, 
        {
            "amount": "1/2 cup", 
            "ingredient": "mayonnaise"
        }, 
        {
            "amount": "1/2 cup", 
            "ingredient": "sour cream"
        }, 
        {
            "amount": "1 teaspoon", 
            "ingredient": "dried dill weed"
        }
    ], 
    "prep_steps": [
        "Preheat the oven to 475 degrees F (245 degrees C).", 
        "Grease a 9x13 inch baking dish.", 
        "Season halibut with salt and ground black pepper.", 
        "Place halibut in the greased baking dish.", 
        "Combine green onions, mayonnaise, sour cream, and dill in a bowl.", 
        "Spread green onion mixture evenly over each halibut piece.", 
        "Bake in the preheated oven until fish is opaque and flakes easily with a fork, about 20 minutes.", 
        "Remove from the oven and let stand for 5 minutes before serving."
    ], 
    "prep_time": "35 mins", 
    "recipe_name": "Baked Halibut Sitka"
}