{
    "ingredients": [
        {
            "amount": "2 (15 ounce) cans", 
            "ingredient": "garbanzo beans, drained and rinsed"
        }, 
        {
            "amount": "2 (15 ounce) cans", 
            "ingredient": "black beans, drained and rinsed"
        }, 
        {
            "amount": "1/2 cup", 
            "ingredient": "(packed) chopped fresh mint"
        }, 
        {
            "amount": "1/2 cup", 
            "ingredient": "(packed) chopped fresh parsley"
        }, 
        {
            "amount": "1/2 cup", 
            "ingredient": "chopped onion"
        }, 
        {
            "amount": "1 pint", 
            "ingredient": "grape tomatoes, halved"
        }, 
        {
            "amount": "1", 
            "ingredient": "jalapeno pepper, finely chopped"
        }, 
        {
            "amount": "1 clove", 
            "ingredient": "garlic, minced"
        }, 
        {
            "amount": "1/4 cup", 
            "ingredient": "olive oil"
        }, 
        {
            "amount": "3 tablespoons", 
            "ingredient": "lemon juice"
        }, 
        {
            "amount": "5 tablespoons", 
            "ingredient": "apple cider vinegar"
        }
    ], 
    "prep_steps": [
        "In a salad bowl, lightly mix together the garbanzo beans, black beans, mint, parsley, onion, and grape tomatoes.", 
        "Place the jalapeno pepper, garlic, olive oil, lemon juice, and apple cider vinegar into a blender, and blend until thoroughly combined. Pour the dressing over the salad, and toss to mix; sprinkle with salt and black pepper to serve."
    ], 
    "prep_time": "25 mins", 
    "recipe_name": "Balela Salad"
}