{
    "ingredients": [
        {
            "amount": "1 cup", 
            "ingredient": "chopped kale"
        }, 
        {
            "amount": "3 tablespoons", 
            "ingredient": "olive oil"
        }, 
        {
            "amount": "1 tablespoon", 
            "ingredient": "butter"
        }, 
        {
            "amount": "1 small", 
            "ingredient": "onion, diced"
        }, 
        {
            "amount": "1 stalk", 
            "ingredient": "celery, diced"
        }, 
        {
            "amount": "1/2 cup", 
            "ingredient": "sliced fresh mushrooms"
        }, 
        {
            "amount": "1/2", 
            "ingredient": "green bell pepper, diced"
        }, 
        {
            "amount": "2 cloves", 
            "ingredient": "garlic, minced"
        }, 
        {
            "amount": "2 cups", 
            "ingredient": "cooked white rice"
        }, 
        {
            "amount": "1 teaspoon", 
            "ingredient": "dry mustard"
        }, 
        {
            "amount": "2 pinches", 
            "ingredient": "cayenne pepper"
        }
    ], 
    "prep_steps": [
        "Place a steamer insert into a saucepan and fill with water to just below the bottom of the steamer. Bring the water to a boil. Add the kale, cover, and steam until just tender, 7 to 10 minutes.", 
        "Heat olive oil and butter in a large skillet over medium heat; cook and stir onion, celery, mushrooms, green bell pepper, and garlic in the oil and butter mixture until the onion is tender, about 5 minutes. Stir kale and rice into the mixture, breaking the rice into grains with your spoon as you stir; season with dry mustard, cayenne pepper, salt, and black pepper. Cook and stir until the rice is hot, about 5 minutes."
    ], 
    "prep_time": "35 mins", 
    "recipe_name": "Sauteed Rice with Kale"
}