{
    "ingredients": [
        {
            "amount": "2 cups", 
            "ingredient": "instant brown rice"
        }, 
        {
            "amount": "1 3/4 cups", 
            "ingredient": "water"
        }, 
        {
            "amount": "6 tablespoons", 
            "ingredient": "soy sauce"
        }, 
        {
            "amount": "6 tablespoons", 
            "ingredient": "water"
        }, 
        {
            "amount": "1/4 cup", 
            "ingredient": "honey"
        }, 
        {
            "amount": "2 tablespoons", 
            "ingredient": "cider vinegar"
        }, 
        {
            "amount": "2 tablespoons", 
            "ingredient": "cornstarch"
        }, 
        {
            "amount": "2 tablespoons", 
            "ingredient": "olive oil"
        }, 
        {
            "amount": "2 cloves", 
            "ingredient": "garlic, chopped"
        }, 
        {
            "amount": "2 cups", 
            "ingredient": "broccoli florets"
        }, 
        {
            "amount": "1 cup", 
            "ingredient": "baby carrots"
        }, 
        {
            "amount": "1 small", 
            "ingredient": "white onion, chopped"
        }, 
        {
            "amount": "1/2 teaspoon", 
            "ingredient": "black pepper"
        }, 
        {
            "amount": "1 cup", 
            "ingredient": "sliced fresh mushrooms"
        }, 
        {
            "amount": "1 1/2 pounds", 
            "ingredient": "uncooked medium shrimp, peeled and deveined"
        }
    ], 
    "prep_steps": [
        "Stir the rice and 1 3/4 cup water together in a microwave-safe bowl. Cover, and cook in the microwave on High for 8 minutes until the water is fully absorbed. Fluff with a fork.", 
        "Whisk together the soy sauce, water, honey, cider vinegar, and cornstarch in a small bowl. Set the sauce aside.", 
        "Heat the olive oil in a non-stick skillet over medium heat. Stir in the garlic and cook for 10 seconds. Add the broccoli, carrots, onion, and black pepper; cook and stir until the broccoli and carrots are tender, about 5 minutes. Stir in the mushrooms and cook for 2 minutes. Remove the vegetables from the skillet and set aside.", 
        "Return the skillet to the heat and pour in the sauce mixture; cook for 1 minute. Add the shrimp to the sauce and stir until the shrimp are bright pink on the outside and the meat is no longer transparent in the center and the sauce thickens, about 3 minutes. Stir the vegetables back into the pan and serve over the brown rice."
    ], 
    "prep_time": "35 mins", 
    "recipe_name": "Easy Shrimp Vegetable Stir Fry"
}