{
    "ingredients": [
        {
            "amount": "1 pound", 
            "ingredient": "spicy Italian sausage"
        }, 
        {
            "amount": "1/4 cup", 
            "ingredient": "white wine"
        }, 
        {
            "amount": "1/2", 
            "ingredient": "onion, chopped"
        }, 
        {
            "amount": "1/2 cup", 
            "ingredient": "sliced mushrooms"
        }, 
        {
            "amount": "1/2", 
            "ingredient": "green bell pepper, chopped"
        }, 
        {
            "amount": "1/4 cup", 
            "ingredient": "red wine"
        }, 
        {
            "amount": "1/4 cup", 
            "ingredient": "Italian seasoning"
        }, 
        {
            "amount": "1 teaspoon", 
            "ingredient": "crushed red pepper"
        }, 
        {
            "amount": "6", 
            "ingredient": "bay leaves"
        }, 
        {
            "amount": "1 teaspoon", 
            "ingredient": "dried oregano"
        }, 
        {
            "amount": "1 teaspoon", 
            "ingredient": "onion powder"
        }, 
        {
            "amount": "1 teaspoon", 
            "ingredient": "garlic powder"
        }, 
        {
            "amount": "1 teaspoon", 
            "ingredient": "dried basil"
        }, 
        {
            "amount": "1 pinch", 
            "ingredient": "dried rosemary"
        }, 
        {
            "amount": "1 teaspoon", 
            "ingredient": "ground allspice"
        }, 
        {
            "amount": "1 teaspoon", 
            "ingredient": "salt"
        }, 
        {
            "amount": "1/2 teaspoon", 
            "ingredient": "dried thyme"
        }, 
        {
            "amount": "1/2 teaspoon", 
            "ingredient": "dried sage"
        }, 
        {
            "amount": "1/2 teaspoon", 
            "ingredient": "dried marjoram"
        }, 
        {
            "amount": "6 (8 ounce) cans", 
            "ingredient": "tomato sauce"
        }, 
        {
            "amount": "2 (6 ounce) cans", 
            "ingredient": "tomato paste"
        }, 
        {
            "amount": "1/4 cup", 
            "ingredient": "brown sugar"
        }, 
        {
            "amount": "1/4 cup", 
            "ingredient": "confectioners' sugar"
        }
    ], 
    "prep_steps": [
        "Place sausage in a large, deep skillet. Cook over medium high heat until evenly brown. Drain, crumble and set aside.", 
        "In a large pot combine white wine, onion, mushrooms and bell pepper. Cook on medium heat until vegetables are tender. Stir in red wine, Italian seasoning, crushed red pepper, bay leaves, oregano, onion powder, garlic powder, basil, rosemary, allspice, salt, thyme, sage, marjoram, tomato sauce, tomato paste and sausage. Reduce heat, cover and simmer for 45 minutes.", 
        "Stir in brown sugar and confectioners' sugar; simmer, uncovered, for 30 minutes."
    ], 
    "prep_time": "1\u00be hrs", 
    "recipe_name": "Primo Spaghetti Sauce"
}