{
    "ingredients": [
        {
            "amount": "5", 
            "ingredient": "medium zucchini"
        }, 
        {
            "amount": "2", 
            "ingredient": "potatoes"
        }, 
        {
            "amount": "1 large", 
            "ingredient": "onion"
        }, 
        {
            "amount": "1 (6 ounce) package", 
            "ingredient": "Laughing Cow\u00ae Light Creamy Swiss wedges"
        }, 
        {
            "amount": "2 tablespoons", 
            "ingredient": "chicken bouillon powder"
        }
    ], 
    "prep_steps": [
        "Clean and quarter zucchini and potatoes. Peel and chop onion. In a large pot boil zucchini, potatoes and onion in water (just covering them) until very tender. Drain vegetables, but retain stock.", 
        "In a blender, or with a hand blender, puree the cheese, zucchini, potatoes, onion and bouillon while adding stock, until desired consistency is reached. (If you're using a blender, do this in two batches.)", 
        "Pour mixture back into large pot and bring to a boil. Salt and pepper to taste."
    ], 
    "prep_time": "45 mins", 
    "recipe_name": "Crema de Calabazines"
}