{
    "ingredients": [
        {
            "amount": "4 cups", 
            "ingredient": "chicken broth"
        }, 
        {
            "amount": "1", 
            "ingredient": "jalapeno pepper, seeded and minced"
        }, 
        {
            "amount": "1/2 cup", 
            "ingredient": "chopped green bell pepper"
        }, 
        {
            "amount": "1/2 cup", 
            "ingredient": "chopped onion"
        }, 
        {
            "amount": "1/2 cup", 
            "ingredient": "crunchy peanut butter"
        }
    ], 
    "prep_steps": [
        "In 1-quart saucepan add broth and chili peppers and bring mixture to a boil. Stir in bell pepper and onion and return to a boil. Reduce heat to low, cover, and let simmer until vegetables are tender, about 10 minutes.", 
        "Reduce heat to lowest possible temperature; add peanut butter and cook, stirring constantly, until peanut butter is melted and mixture is well blended."
    ], 
    "prep_time": "45 mins", 
    "recipe_name": "Nigerian Peanut Soup"
}