{
    "ingredients": [
        {
            "amount": "12", 
            "ingredient": "boneless pork loin chops, 3/4 inch thick"
        }, 
        {
            "amount": "2 cups", 
            "ingredient": "bread crumbs"
        }, 
        {
            "amount": "2 tablespoons", 
            "ingredient": "grated Parmesan cheese"
        }, 
        {
            "amount": "1 tablespoon", 
            "ingredient": "dried parsley flakes"
        }, 
        {
            "amount": "1 teaspoon", 
            "ingredient": "salt"
        }, 
        {
            "amount": "1/2 teaspoon", 
            "ingredient": "freshly ground pepper"
        }, 
        {
            "amount": "1/2 pound", 
            "ingredient": "butter"
        }, 
        {
            "amount": "2 cloves", 
            "ingredient": "garlic, minced"
        }, 
        {
            "amount": "1 cup", 
            "ingredient": "dry white wine"
        }, 
        {
            "amount": "1 pound", 
            "ingredient": "mushrooms, sliced"
        }, 
        {
            "amount": "1 tablespoon", 
            "ingredient": "cornstarch"
        }, 
        {
            "amount": "2 tablespoons", 
            "ingredient": "water"
        }
    ], 
    "prep_steps": [
        "Pound the pork chops with a spiked meat mallet until 1/4 inch thick; set aside. In a large bowl, combine the bread crumbs, Parmesan cheese, parsley flakes, salt, and pepper. Press the pork into the crumbs to bread thoroughly; set aside.", 
        "Melt butter in a large saucepan over medium-high heat. Stir in the garlic and cook until fragrant, about 30 seconds. Pour in the wine and sliced mushrooms. Allow to simmer and cook until the mushrooms have softened, about 10 minutes. Stir together the cornstarch and water, then add to the mushroom sauce. Simmer until the sauce has thickened, then remove from the heat and set aside.", 
        "Meanwhile, heat a few tablespoons of olive oil in a large, nonstick skillet over medium-high heat. Fry the pork cutlets a few at a time until golden brown and cooked through, 1 to 2 minutes per side. Serve with reserved mushroom sauce."
    ], 
    "prep_time": "55 mins", 
    "recipe_name": "Butter Schnitzel"
}