{
    "ingredients": [
        {
            "amount": "2 tablespoons", 
            "ingredient": "olive oil"
        }, 
        {
            "amount": "1 teaspoon", 
            "ingredient": "Worcestershire sauce"
        }, 
        {
            "amount": "1 teaspoon", 
            "ingredient": "ground turmeric"
        }, 
        {
            "amount": "1 teaspoon", 
            "ingredient": "dry mustard powder"
        }, 
        {
            "amount": "1 clove", 
            "ingredient": "garlic, minced"
        }, 
        {
            "amount": "4", 
            "ingredient": "skinless, bone-in chicken breast halves"
        }, 
        {
            "amount": "4 slices", 
            "ingredient": "bacon, cut in half"
        }
    ], 
    "prep_steps": [
        "Preheat oven to 350 degrees F (175 degrees C).", 
        "In a bowl, mix the olive oil, Worcestershire sauce, turmeric, mustard, and garlic.", 
        "Arrange the chicken breast halves in a medium baking dish, and top each with 2 halves bacon. Brush with the glaze.", 
        "Cover, and bake 45 minutes in the preheated oven. Remove cover, and continue baking 15 minutes, or until chicken juices run clear."
    ], 
    "prep_time": "1\u00bc hrs", 
    "recipe_name": "Yellow Chicken"
}