{
    "ingredients": [
        {
            "amount": "3 pounds", 
            "ingredient": "red potatoes, quartered"
        }, 
        {
            "amount": "1 head", 
            "ingredient": "cabbage, cored and shredded"
        }, 
        {
            "amount": "2 tablespoons", 
            "ingredient": "butter"
        }, 
        {
            "amount": "1/2 cup", 
            "ingredient": "butter"
        }, 
        {
            "amount": "1 teaspoon", 
            "ingredient": "minced garlic"
        }, 
        {
            "amount": "4", 
            "ingredient": "green onions, sliced, white parts and tops separated"
        }, 
        {
            "amount": "1 1/4 cups", 
            "ingredient": "hot milk"
        }, 
        {
            "amount": "1 pound", 
            "ingredient": "leftover corned beef, cut into pieces and warmed"
        }
    ], 
    "prep_steps": [
        "Place potatoes in a large saucepan and add water to cover by 1-inch. Bring to a boil over high heat, then reduce heat to medium-low, cover, and simmer until tender, about 20 minutes.", 
        "Meanwhile, bring a large pot of salted water to a boil. Stir in cabbage along with 2 tablespoons of butter; cover, and simmer until the cabbage has softened. Drain.", 
        "Melt 1/2-cup butter over medium heat. Stir in garlic and the white parts of the green onions. Cook until the garlic has softened and mellowed.", 
        "Drain the potatoes and mash with white pepper to taste. Fold in melted butter, milk, cabbage, and corned beef. Sprinkle with green onion tops to serve."
    ], 
    "prep_time": "55 mins", 
    "recipe_name": "St. Patrick's Colcannon"
}