{
    "ingredients": [
        {
            "amount": "3 pounds", 
            "ingredient": "bone-in chicken pieces"
        }, 
        {
            "amount": "3 tablespoons", 
            "ingredient": "fresh lemon juice"
        }, 
        {
            "amount": "1 tablespoon", 
            "ingredient": "meat tenderizer"
        }, 
        {
            "amount": "2 cups", 
            "ingredient": "plain yogurt, divided"
        }, 
        {
            "amount": "3 tablespoons", 
            "ingredient": "ground cumin"
        }, 
        {
            "amount": "2 tablespoons", 
            "ingredient": "ground coriander"
        }, 
        {
            "amount": "1/3 cup", 
            "ingredient": "chopped fresh cilantro"
        }, 
        {
            "amount": "2 teaspoons", 
            "ingredient": "paprika"
        }, 
        {
            "amount": "1/2 teaspoon", 
            "ingredient": "ground turmeric"
        }, 
        {
            "amount": "2 teaspoons", 
            "ingredient": "salt"
        }, 
        {
            "amount": "1 teaspoon", 
            "ingredient": "ground black pepper"
        }, 
        {
            "amount": "6 cloves", 
            "ingredient": "garlic, minced"
        }
    ], 
    "prep_steps": [
        "Make shallow crosswise slits in the meat of the chicken parts to help absorb more flavor. Mix together the lemon juice and meat tenderizer; rub into the chicken meat. Place chicken into a shallow dish.", 
        "Place 1/2 cup yogurt, cumin, coriander, cilantro, paprika, turmeric, salt, pepper, and garlic into a blender or food processor, and blend until smooth. Transfer to a bowl, and stir in remaining 1 1/2 cups of yogurt. Pour over the chicken parts, cover, and marinate in the refrigerator for at least 8 hours, or overnight.", 
        "Preheat grill for medium heat.", 
        "Lightly oil the grill grate. Remove chicken from the marinade, and discard any remaining marinade. Grill chicken 30 to 45 minutes, turning frequently to prevent burning, until juices run clear. Smaller pieces will finish cooking first."
    ], 
    "prep_time": "9 hr", 
    "recipe_name": "Indian Barbeque Chicken"
}