{
    "ingredients": [
        {
            "amount": "2 teaspoons", 
            "ingredient": "olive oil"
        }, 
        {
            "amount": "1 teaspoon", 
            "ingredient": "butter"
        }, 
        {
            "amount": "1/4 cup", 
            "ingredient": "diced red onion"
        }, 
        {
            "amount": "1 (5 ounce) can", 
            "ingredient": "sliced water chestnuts, drained"
        }, 
        {
            "amount": "1 (10 ounce) package", 
            "ingredient": "frozen cut asparagus"
        }, 
        {
            "amount": "2 teaspoons", 
            "ingredient": "balsamic vinegar"
        }
    ], 
    "prep_steps": [
        "Heat the olive oil and butter in a skillet over medium-high heat. Add the onion, and saute for a few minutes to release the flavor into the oil. Add the water chestnuts, asparagus, and vinegar; cook and stir for about 10 minutes, until the asparagus is cooked but still crunchy."
    ], 
    "prep_time": "17 mins", 
    "recipe_name": "Asparagus and Water Chestnuts"
}