{
    "ingredients": [
        {
            "amount": "20", 
            "ingredient": "OREO Cookies, crushed"
        }, 
        {
            "amount": "3 tablespoons", 
            "ingredient": "non-hydrogenated margarine, melted"
        }, 
        {
            "amount": "4 (250 g) packages", 
            "ingredient": "PHILADELPHIA Brick Cream Cheese, softened"
        }, 
        {
            "amount": "1 cup", 
            "ingredient": "sugar"
        }, 
        {
            "amount": "1 teaspoon", 
            "ingredient": "vanilla"
        }, 
        {
            "amount": "1 cup", 
            "ingredient": "sour cream"
        }, 
        {
            "amount": "4", 
            "ingredient": "eggs"
        }, 
        {
            "amount": "6 squares", 
            "ingredient": "BAKER'S Semi-Sweet Baking Chocolate, melted, cooled"
        }
    ], 
    "prep_steps": [
        "Heat oven to 325 degrees F. Mix cookie crumbs and margarine; press onto bottom of foil-lined 13x9-inch pan. Bake 10 min.", 
        "Beat cream cheese, sugar and vanilla in large bowl with mixer until blended. Add sour cream; mix well. Add eggs, 1 at a time, mixing after each just until blended.", 
        "Reserve 1 cup batter. Stir chocolate into remaining batter; pour over crust. Top with spoonfuls of reserved batter.", 
        "Swirl batters with knife. Bake 40 min. or until centre is almost set. Cool. Refrigerate 4 hours."
    ], 
    "prep_time": "5 hrs", 
    "recipe_name": "PHILADELPHIA Chocolate-Vanilla Swirl Cheesecake"
}