{
    "ingredients": [
        {
            "amount": "1/2 cup", 
            "ingredient": "butter"
        }, 
        {
            "amount": "1 cup", 
            "ingredient": "all-purpose flour"
        }, 
        {
            "amount": "11 cups", 
            "ingredient": "water"
        }, 
        {
            "amount": "3 cubes", 
            "ingredient": "chicken bouillon"
        }, 
        {
            "amount": "2 pounds", 
            "ingredient": "skinless, boneless chicken breast halves - cut into bite-size pieces"
        }, 
        {
            "amount": "2 heads", 
            "ingredient": "fresh broccoli, cut into florets"
        }, 
        {
            "amount": "1 1/2 teaspoons", 
            "ingredient": "salt"
        }, 
        {
            "amount": "1 teaspoon", 
            "ingredient": "ground black pepper"
        }, 
        {
            "amount": "1 cup", 
            "ingredient": "light cream"
        }, 
        {
            "amount": "3 cups", 
            "ingredient": "shredded Cheddar cheese"
        }
    ], 
    "prep_steps": [
        "In a 5-quart pot, melt butter over medium heat. Mix in flour, stirring constantly until a thick paste forms. Remove from pot, and set aside.", 
        "In same pot, combine water, bouillon cubes, chicken, broccoli, salt and pepper. Bring to boil over high heat. Reduce heat to medium low, and simmer for 45 minutes.", 
        "Stir in the flour mixture a little bit at a time until soup thickens. Simmer 5 minutes. Reduce heat, and stir in cream. Mix in cheese 1 cup at a time, and stir until melted."
    ], 
    "prep_time": "1\u00bc hrs", 
    "recipe_name": "Cheese and Broccoli Chicken Soup"
}