{
    "ingredients": [
        {
            "amount": "2 (8 ounce) packages", 
            "ingredient": "cream cheese, softened"
        }, 
        {
            "amount": "8 ounces", 
            "ingredient": "sour cream"
        }, 
        {
            "amount": "2 (8 ounce) packages", 
            "ingredient": "sliced pepperoni, quartered"
        }, 
        {
            "amount": "2 (4 ounce) cans", 
            "ingredient": "chopped green chilies"
        }
    ], 
    "prep_steps": [
        "Preheat oven to 350 degrees F (175 degrees C).", 
        "Stir the cream cheese, sour cream, pepperoni, and green chiles together in a baking dish.", 
        "Bake in the preheated oven until thoroughly heated, about 30 minutes."
    ], 
    "prep_time": "40 mins", 
    "recipe_name": "Pepperoni Dip"
}