{
    "ingredients": [
        {
            "amount": "1/2 (10.5 ounce) package", 
            "ingredient": "marshmallows"
        }, 
        {
            "amount": "1/2 cup", 
            "ingredient": "milk"
        }, 
        {
            "amount": "1 (8 ounce) package", 
            "ingredient": "cream cheese, softened"
        }, 
        {
            "amount": "1", 
            "ingredient": "egg yolk"
        }, 
        {
            "amount": "1/2", 
            "ingredient": "lemon, juiced"
        }, 
        {
            "amount": "1 cup", 
            "ingredient": "heavy cream"
        }, 
        {
            "amount": "1 (9 inch)", 
            "ingredient": "prepared graham cracker crust"
        }
    ], 
    "prep_steps": [
        "In a saucepan on low heat, combine marshmallows and milk. Cook until marshmallows are melted, and mixture starts to boil. Remove from heat.", 
        "In a large bowl, beat cream cheese until smooth. Stir in egg yolk. Fold in 1/3 of the melted marshmallow mixture, then quickly fold in remaining marshmallow until no streaks remain. Stir in lemon juice.", 
        "In a large bowl, beat cream until soft peaks form. Fold the whipped cream into the cream cheese mixture until no streaks remain. Spread into graham crust. Refrigerate for 3 hours."
    ], 
    "prep_time": "3 hrs", 
    "recipe_name": "Marshmallow Cake"
}