{
    "ingredients": [
        {
            "amount": "1/2 cup", 
            "ingredient": "vegetable oil"
        }, 
        {
            "amount": "1 large", 
            "ingredient": "onion, finely chopped"
        }, 
        {
            "amount": "2 cloves", 
            "ingredient": "garlic, minced"
        }, 
        {
            "amount": "1 1/2 pounds", 
            "ingredient": "cubed lamb stew meat"
        }, 
        {
            "amount": "1 1/2 cups", 
            "ingredient": "water"
        }, 
        {
            "amount": "1/4 teaspoon", 
            "ingredient": "cayenne pepper, or to taste"
        }, 
        {
            "amount": "1 teaspoon", 
            "ingredient": "ground cumin"
        }, 
        {
            "amount": "3 cups", 
            "ingredient": "chopped fresh spinach"
        }, 
        {
            "amount": "2 tablespoons", 
            "ingredient": "chopped fresh cilantro"
        }, 
        {
            "amount": "1/4 cup", 
            "ingredient": "cooking oil"
        }, 
        {
            "amount": "3 cups", 
            "ingredient": "uncooked basmati rice"
        }, 
        {
            "amount": "6 cups", 
            "ingredient": "water"
        }
    ], 
    "prep_steps": [
        "Heat 1/2 cup of oil in a large heavy skillet over medium-low heat. Add onion, and fry gently until transparent. Increase heat to medium, and add garlic and stew meat. Cook, stirring frequently, until meat is browned on the outside. Pour in the water, and season with salt, pepper, cayenne pepper and cumin. Bring to a simmer, and reduce heat to low. Cover the pan, and continue cooking for 1 1/2 to 2 hours.", 
        "Heat 1/4 cup of oil in a large saucepan over medium-high heat. Add rice, and cook, stirring frequently for 5 minutes. Add 6 cups water, and bring to a boil. Reduce heat to low, and cook loosely covered for about 30 minutes, or until rice is tender.", 
        "Add spinach and cilantro to the meat mixture, and cook for another 10 to 15 minutes. Mound the rice on a platter, and spoon some of the lamb stew over. Put remaining stew in a separate serving bowl."
    ], 
    "prep_time": "2\u00bd hrs", 
    "recipe_name": "Chalau"
}