{
    "ingredients": [
        {
            "amount": "1 (12 ounce) box", 
            "ingredient": "Barilla White Fiber Mini Shells"
        }, 
        {
            "amount": "4 tablespoons", 
            "ingredient": "extra virgin olive oil"
        }, 
        {
            "amount": "1 small", 
            "ingredient": "onion, diced"
        }, 
        {
            "amount": "2 pints", 
            "ingredient": "cherry tomatoes, halved"
        }, 
        {
            "amount": "6 leaves", 
            "ingredient": "basil, julienned"
        }, 
        {
            "amount": "1/2 cup", 
            "ingredient": "grated Parmigiano-Reggiano cheese"
        }
    ], 
    "prep_steps": [
        "Bring a large pot of water to a boil.", 
        "In a large skillet, cook onion in olive oil for 3-4 minutes or until translucent. Add tomatoes and saute for 3-4 minutes until blistered. Season with salt and pepper.", 
        "Cook pasta 1 minute less than required cooking time, drain and toss with sauce and 1/2 cup pasta cooking liquid. Remove from heat and add basil and cheese.", 
        "Stir to combine and serve."
    ], 
    "prep_time": "15 mins", 
    "recipe_name": "White Fiber Mini Shells with Cherry Tomatoes, Basil and Parmigiano-Reggiano Cheese"
}