{
    "ingredients": [
        {
            "amount": "1 tablespoon", 
            "ingredient": "olive oil"
        }, 
        {
            "amount": "2 cloves", 
            "ingredient": "garlic, minced"
        }, 
        {
            "amount": "1 cup", 
            "ingredient": "sliced onion"
        }, 
        {
            "amount": "1 teaspoon", 
            "ingredient": "dried oregano"
        }, 
        {
            "amount": "1 tablespoon", 
            "ingredient": "chopped fresh parsley"
        }, 
        {
            "amount": "1/4 teaspoon", 
            "ingredient": "salt"
        }, 
        {
            "amount": "1/2 teaspoon", 
            "ingredient": "ground black pepper"
        }, 
        {
            "amount": "1 tablespoon", 
            "ingredient": "olive oil"
        }, 
        {
            "amount": "4", 
            "ingredient": "potatoes, peeled and cubed"
        }, 
        {
            "amount": "1/2 pound", 
            "ingredient": "spicy pork sausage links, sliced"
        }, 
        {
            "amount": "1/2 cup", 
            "ingredient": "packed brown sugar"
        }, 
        {
            "amount": "2 cups", 
            "ingredient": "baked beans"
        }, 
        {
            "amount": "1/4 cup", 
            "ingredient": "barbecue sauce"
        }, 
        {
            "amount": "1 cup", 
            "ingredient": "shredded Cheddar cheese"
        }
    ], 
    "prep_steps": [
        "Preheat oven to 350 degrees F (175 degrees C).", 
        "Heat one tablespoon olive oil in a skillet over medium heat. Add the garlic, and cook for 30 seconds. Stir in the onion, oregano, parsley, salt, and pepper. Cook for 1 minute, and remove from heat.", 
        "Spread 1 tablespoon olive oil over the bottom of an 8x8 inch glass baking dish. Layer the sliced, cooked potatoes in the dish. Top the potatoes with the onion mixture. Arrange sliced sausage over onions. In a small bowl, stir together the brown sugar, baked beans, and barbecue sauce. Pour evenly over the sausage. Top with shredded Cheddar cheese.", 
        "Bake in preheated oven for 45 minutes. Serve!"
    ], 
    "prep_time": "1\u00bd hrs", 
    "recipe_name": "Hot Sausage Links and Beans Casserole"
}