{
    "ingredients": [
        {
            "amount": "2 tablespoons", 
            "ingredient": "vegetable oil"
        }, 
        {
            "amount": "4 (4 ounce)", 
            "ingredient": "pork chops"
        }, 
        {
            "amount": "3/4 cup", 
            "ingredient": "apricot nectar"
        }, 
        {
            "amount": "1 teaspoon", 
            "ingredient": "curry powder"
        }, 
        {
            "amount": "1/4 teaspoon", 
            "ingredient": "garlic powder"
        }, 
        {
            "amount": "1/4 teaspoon", 
            "ingredient": "salt"
        }
    ], 
    "prep_steps": [
        "Heat oil in a large skillet over medium-high heat. Brown the chops in the hot skillet, turning once.", 
        "In a measuring cup, mix together apricot nectar, curry powder, garlic powder, and salt. Pour over chops, and reduce heat to medium-low. Simmer uncovered for 20 minutes, or until meat is done."
    ], 
    "prep_time": "25 mins", 
    "recipe_name": "Indian Pork Chops"
}