{
    "ingredients": [
        {
            "amount": "1 tablespoon", 
            "ingredient": "butter"
        }, 
        {
            "amount": "1/2 cup", 
            "ingredient": "chopped onion"
        }, 
        {
            "amount": "1/2 cup", 
            "ingredient": "chopped celery"
        }, 
        {
            "amount": "4 (14.5 ounce) cans", 
            "ingredient": "chicken broth"
        }, 
        {
            "amount": "1 (14.5 ounce) can", 
            "ingredient": "vegetable broth"
        }, 
        {
            "amount": "1/2 pound", 
            "ingredient": "chopped cooked chicken breast"
        }, 
        {
            "amount": "1 1/2 cups", 
            "ingredient": "egg noodles"
        }, 
        {
            "amount": "1 cup", 
            "ingredient": "sliced carrots"
        }, 
        {
            "amount": "1/2 teaspoon", 
            "ingredient": "dried basil"
        }, 
        {
            "amount": "1/2 teaspoon", 
            "ingredient": "dried oregano"
        }
    ], 
    "prep_steps": [
        "In a large pot over medium heat, melt butter. Cook onion and celery in butter until just tender, 5 minutes. Pour in chicken and vegetable broths and stir in chicken, noodles, carrots, basil, oregano, salt and pepper. Bring to a boil, then reduce heat and simmer 20 minutes before serving."
    ], 
    "prep_time": "30 mins", 
    "recipe_name": "Quick and Easy Chicken Noodle Soup"
}