{
    "ingredients": [
        {
            "amount": "1 cup", 
            "ingredient": "evaporated milk"
        }, 
        {
            "amount": "3/4 cup", 
            "ingredient": "water"
        }, 
        {
            "amount": "3", 
            "ingredient": "eggs, beaten"
        }, 
        {
            "amount": "2 cups", 
            "ingredient": "shredded Cheddar cheese"
        }, 
        {
            "amount": "1 cup", 
            "ingredient": "all-purpose flour"
        }, 
        {
            "amount": "1 teaspoon", 
            "ingredient": "baking powder"
        }, 
        {
            "amount": "1/4 cup", 
            "ingredient": "margarine, melted"
        }, 
        {
            "amount": "1/4 cup", 
            "ingredient": "chopped green onions"
        }, 
        {
            "amount": "4", 
            "ingredient": "jalapeno peppers, seeded and diced"
        }
    ], 
    "prep_steps": [
        "Preheat oven to 350 degrees F (175 degrees C). Lightly grease a 9x13 inch baking dish.", 
        "In a medium bowl, mix the evaporated milk, water, eggs, Cheddar cheese, flour, baking powder, margarine, green onions and jalapeno peppers.", 
        "Spread mixture evenly into the baking dish. Bake in the preheated oven 30 to 35 minutes, or until lightly browned. Cool, cut into 1 inch squares and serve."
    ], 
    "prep_time": "55 mins", 
    "recipe_name": "Jalapeno Cheese Squares"
}