{
    "ingredients": [
        {
            "amount": "1 cup", 
            "ingredient": "taco sauce"
        }, 
        {
            "amount": "1/2 cup", 
            "ingredient": "white sugar"
        }, 
        {
            "amount": "1/2 cup", 
            "ingredient": "molasses"
        }, 
        {
            "amount": "1/2 cup", 
            "ingredient": "vegetable oil"
        }, 
        {
            "amount": "2 tablespoons", 
            "ingredient": "cider vinegar"
        }, 
        {
            "amount": "2 tablespoons", 
            "ingredient": "soy sauce"
        }, 
        {
            "amount": "1 tablespoon", 
            "ingredient": "dry hot mustard"
        }, 
        {
            "amount": "1/2 teaspoon", 
            "ingredient": "dried oregano"
        }, 
        {
            "amount": "1 dash", 
            "ingredient": "hot pepper sauce"
        }
    ], 
    "prep_steps": [
        "In a medium bowl, whisk together taco sauce, white sugar, molasses, vegetable oil, cider vinegar, soy sauce, dry hot mustard, dried oregano and hot pepper sauce. Chill covered in the refrigerator until ready for use."
    ], 
    "prep_time": "10 mins", 
    "recipe_name": "Delicious Barbeque Sauce"
}