{
    "ingredients": [
        {
            "amount": "2 tablespoons", 
            "ingredient": "butter, melted"
        }, 
        {
            "amount": "2 tablespoons", 
            "ingredient": "chopped onion"
        }, 
        {
            "amount": "1 tablespoon", 
            "ingredient": "chopped green bell pepper"
        }, 
        {
            "amount": "1 cup", 
            "ingredient": "water"
        }, 
        {
            "amount": "1 cup", 
            "ingredient": "ketchup"
        }, 
        {
            "amount": "2 teaspoons", 
            "ingredient": "mustard powder"
        }, 
        {
            "amount": "1 teaspoon", 
            "ingredient": "salt"
        }, 
        {
            "amount": "1 teaspoon", 
            "ingredient": "celery seed"
        }, 
        {
            "amount": "2 tablespoons", 
            "ingredient": "brown sugar"
        }, 
        {
            "amount": "2 teaspoons", 
            "ingredient": "lemon juice"
        }
    ], 
    "prep_steps": [
        "In a medium nonporous bowl, combine the butter or margarine, onion, green bell pepper, water, ketchup, mustard powder, salt, celery seed, brown sugar and lemon juice. Mix well and use on your choice of meat."
    ], 
    "prep_time": "20 mins", 
    "recipe_name": "Homemade Barbecue Sauce"
}