{
    "ingredients": [
        {
            "amount": "6 slices", 
            "ingredient": "bacon"
        }, 
        {
            "amount": "3 (15.5 ounce) cans", 
            "ingredient": "jalapeno black-eyed peas"
        }, 
        {
            "amount": "1 (14.5 ounce) can", 
            "ingredient": "diced tomatoes with green chile peppers"
        }, 
        {
            "amount": "1/2 small", 
            "ingredient": "onion, chopped"
        }, 
        {
            "amount": "2 stalks", 
            "ingredient": "celery, chopped"
        }, 
        {
            "amount": "1 clove", 
            "ingredient": "garlic, minced"
        }, 
        {
            "amount": "2", 
            "ingredient": "fresh jalapeno peppers, seeded and chopped"
        }
    ], 
    "prep_steps": [
        "Brown the bacon in a skillet over medium heat until crispy; drain, crumble, and set aside.", 
        "In a large saucepan, combine the canned black-eyed peas, canned tomatoes, onion, celery, garlic, and jalapeno peppers. Cook over medium heat until the celery and onion are tender. Season with salt and pepper to taste. Add crumbled bacon before serving."
    ], 
    "prep_time": "1 hr", 
    "recipe_name": "Cottoneyed Peas"
}