{
    "ingredients": [
        {
            "amount": "2 pounds", 
            "ingredient": "fresh strawberries, hulled"
        }, 
        {
            "amount": "5 cups", 
            "ingredient": "white sugar"
        }, 
        {
            "amount": "2 tablespoons", 
            "ingredient": "vinegar"
        }, 
        {
            "amount": "1 pinch", 
            "ingredient": "salt"
        }
    ], 
    "prep_steps": [
        "In a stockpot, combine the strawberries, sugar, vinegar and salt. Bring to a rolling boil, and cook stirring frequently for 15 to 20 minutes, or until the temperature of the mixture has reached 220 degrees F (105 degrees C).", 
        "Transfer the mixture to hot sterile jars, leaving 1/2 inch headspace, and seal. Process jars for 10 minutes in a water bath. Refrigerate jam once the seal is broken."
    ], 
    "prep_time": "35 mins", 
    "recipe_name": "Strawberry Preserves I"
}