{
    "ingredients": [
        {
            "amount": "1 (8 ounce) package", 
            "ingredient": "cream cheese, softened"
        }, 
        {
            "amount": "1/2 cup", 
            "ingredient": "white sugar"
        }, 
        {
            "amount": "1", 
            "ingredient": "egg"
        }, 
        {
            "amount": "1 cup", 
            "ingredient": "semisweet chocolate chips"
        }, 
        {
            "amount": "1 (18.25 ounce) package", 
            "ingredient": "chocolate cake mix"
        }
    ], 
    "prep_steps": [
        "Preheat the oven to 350 degrees F (175 degrees C), or to the temperature recommended on the cake mix package.", 
        "Prepare chocolate cake mix according to package directions, but do not bake. In separate bowl cream together cream cheese and sugar until smooth. Beat in the egg until well blended, then stir in chocolate chips.", 
        "Line cupcake tins with cupcake papers. Fill 2/3 full with chocolate cake batter. Add 1 teaspoon cream cheese mixture to the center, and top with more cake batter.", 
        "Bake according to package directions for cupcakes. Cool and frost with chocolate or cream cheese frosting."
    ], 
    "recipe_name": "Self-Filled Cupcakes I"
}