{
    "ingredients": [
        {
            "amount": "1 cup", 
            "ingredient": "butter, softened"
        }, 
        {
            "amount": "1 cup", 
            "ingredient": "white sugar"
        }, 
        {
            "amount": "2", 
            "ingredient": "eggs"
        }, 
        {
            "amount": "1 cup", 
            "ingredient": "sour cream"
        }, 
        {
            "amount": "1 1/2 teaspoons", 
            "ingredient": "vanilla extract"
        }, 
        {
            "amount": "1 teaspoon", 
            "ingredient": "baking soda"
        }, 
        {
            "amount": "1 teaspoon", 
            "ingredient": "baking powder"
        }, 
        {
            "amount": "1/2 teaspoon", 
            "ingredient": "salt"
        }, 
        {
            "amount": "6 1/2 cups", 
            "ingredient": "cake flour"
        }
    ], 
    "prep_steps": [
        "Preheat oven to 375 degrees F (190 degrees C).", 
        "In a large bowl, cream together the butter and sugar until smooth. Beat in the eggs one at a time, then stir in the sour cream and vanilla. Stir in baking soda, baking powder and salt; gradually mix in flour to form a dough that is stiff enough to roll out. More or less flour may be necessary.", 
        "Roll out dough on a lightly floured surface and cut into shapes using cookie cutters. Place cookies 2 inches apart on ungreased cookie sheets.", 
        "Bake for 10 minutes in the preheated oven, or until firm and the center appears dry. Cookies will stay white, so be careful not to overbake."
    ], 
    "prep_time": "35 mins", 
    "recipe_name": "Sour Cream Cut-Outs"
}