{
    "ingredients": [
        {
            "amount": "1 (16 ounce) package", 
            "ingredient": "uncooked linguine pasta"
        }, 
        {
            "amount": "2 tablespoons", 
            "ingredient": "olive oil"
        }, 
        {
            "amount": "3/4 cup", 
            "ingredient": "butter"
        }, 
        {
            "amount": "3 cloves", 
            "ingredient": "garlic, chopped"
        }, 
        {
            "amount": "2 tablespoons", 
            "ingredient": "fresh thyme leaves"
        }, 
        {
            "amount": "5", 
            "ingredient": "roasted red peppers, drained and coarsely chopped"
        }
    ], 
    "prep_steps": [
        "Bring a large pot of lightly salted water to a boil. Add linguine and olive oil, cook for 8 to 10 minutes, until al dente, and drain.", 
        "Melt 2 tablespoons butter in a saucepan over medium heat. Stir in garlic, and cook until golden brown. Mix in remaining butter, thyme, and roasted red peppers. Continue to cook and stir until heated through. Serve over the cooked pasta."
    ], 
    "prep_time": "30 mins", 
    "recipe_name": "Lovely Linguine"
}