{
    "ingredients": [
        {
            "amount": "6", 
            "ingredient": "sweet potatoes"
        }, 
        {
            "amount": "1 1/2 cups", 
            "ingredient": "butter"
        }, 
        {
            "amount": "1 1/2 cups", 
            "ingredient": "white sugar"
        }, 
        {
            "amount": "3", 
            "ingredient": "eggs"
        }, 
        {
            "amount": "1 teaspoon", 
            "ingredient": "ground cinnamon"
        }, 
        {
            "amount": "1 teaspoon", 
            "ingredient": "ground allspice"
        }, 
        {
            "amount": "1/4 teaspoon", 
            "ingredient": "salt"
        }, 
        {
            "amount": "2 (9 inch)", 
            "ingredient": "unbaked pie crusts"
        }
    ], 
    "prep_steps": [
        "Boil (or microwave) sweet potatoes in their jackets until cooked (a thin knife should be able to go through easily).", 
        "Beat the eggs.", 
        "Put butter and sugar in a large bowl.", 
        "Peel hot potatoes--with knife, cut top and peel down, removing any stringiness from the potato with the skin, cut bottoms. Place hot, peeled potatoes on the butter in the bowl with sugar, crush together. Add beaten eggs. Stir in spices (to taste). Pour into 2 unbaked pie crusts. Should be the consistency of pumpkin pie mix.", 
        "Bake at 350 degrees F (175 degrees C), for 45-55 minutes, until brown."
    ], 
    "recipe_name": "Sweet Potato Pie III"
}