{
    "ingredients": [
        {
            "amount": "1 (16 ounce) package", 
            "ingredient": "dry fettuccine pasta"
        }, 
        {
            "amount": "1 tablespoon", 
            "ingredient": "butter"
        }, 
        {
            "amount": "1/2", 
            "ingredient": "onion, finely chopped"
        }, 
        {
            "amount": "1 cup", 
            "ingredient": "heavy cream"
        }, 
        {
            "amount": "1/2 cup", 
            "ingredient": "grated Parmesan cheese"
        }, 
        {
            "amount": "1/2 cup", 
            "ingredient": "grated Romano cheese"
        }, 
        {
            "amount": "1 cup", 
            "ingredient": "shredded mozzarella cheese"
        }
    ], 
    "prep_steps": [
        "Preheat oven to 350 degrees F (175 degrees C). Lightly grease a medium casserole dish.", 
        "Bring a large pot of lightly salted water to a boil. Add pasta, and cook for 8 to 10 minutes or until al dente; drain.", 
        "In a skillet over medium heat, melt the butter, and cook the onion until tender. Stir in the fettuccine, heavy cream, 1/4 cup Parmesan cheese, 1/4 cup Romano cheese, salt and pepper. Transfer to the prepared dish. In a bowl, mix the remaining Parmesan, remaining Romano, and mozzarella. Sprinkle the cheese mixture over the fettuccine mixture.", 
        "Bake 15 minutes in the preheated oven, until bubbly and golden brow."
    ], 
    "prep_time": "30 mins", 
    "recipe_name": "Baked Fettucheesy"
}