{
    "ingredients": [
        {
            "amount": "1 3/4 cups", 
            "ingredient": "graham cracker crumbs"
        }, 
        {
            "amount": "7 tablespoons", 
            "ingredient": "butter, softened"
        }, 
        {
            "amount": "2 tablespoons", 
            "ingredient": "white sugar"
        }, 
        {
            "amount": "5", 
            "ingredient": "eggs"
        }, 
        {
            "amount": "3 cups", 
            "ingredient": "white sugar"
        }, 
        {
            "amount": "6 tablespoons", 
            "ingredient": "all-purpose flour"
        }, 
        {
            "amount": "1/2 cup", 
            "ingredient": "lemon juice"
        }, 
        {
            "amount": "1/3 cup", 
            "ingredient": "confectioners' sugar for decoration"
        }
    ], 
    "prep_steps": [
        "Preheat oven to 350 degrees F (175 degrees C).", 
        "Combine graham cracker crumbs, softened butter or margarine, and 2 tablespoons sugar. Press mixture onto bottom of a greased 9 x 13 inch baking pan. Bake for 20 minutes.", 
        "Beat eggs, sugar, flour, and lemon juice. (If mixture is too thick, water may be added to thin it.) Pour the mixture over the hot graham cracker crust. Bake for 25 minutes, or until golden brown.", 
        "Dust the top with confectioners' sugar. After cooling, cut into squares."
    ], 
    "recipe_name": "Graham Moist Lemon Bars"
}