{
    "ingredients": [
        {
            "amount": "3/4 cup", 
            "ingredient": "butter, softened"
        }, 
        {
            "amount": "1/2 cup", 
            "ingredient": "white sugar"
        }, 
        {
            "amount": "1/2 cup", 
            "ingredient": "packed brown sugar"
        }, 
        {
            "amount": "1", 
            "ingredient": "egg"
        }, 
        {
            "amount": "1 teaspoon", 
            "ingredient": "vanilla extract"
        }, 
        {
            "amount": "1 1/4 cups", 
            "ingredient": "all-purpose flour"
        }, 
        {
            "amount": "1 cup", 
            "ingredient": "graham cracker crumbs"
        }, 
        {
            "amount": "1/2 teaspoon", 
            "ingredient": "salt"
        }, 
        {
            "amount": "1/2 teaspoon", 
            "ingredient": "baking soda"
        }, 
        {
            "amount": "3/4 cup", 
            "ingredient": "candy-coated milk chocolate pieces"
        }, 
        {
            "amount": "2 cups", 
            "ingredient": "semisweet chocolate chips"
        }, 
        {
            "amount": "1/2 cup", 
            "ingredient": "chopped pecans"
        }
    ], 
    "prep_steps": [
        "Beat together margarine and sugars until light and fluffy. Blend in egg and vanilla. Add combined flour, graham cracker crumbs, baking soda and salt. Mix well. Stir in chocolate chips , M & M's, and nuts.", 
        "Drop dough by heaping tablespoonfuls onto greased cookie sheets about 3 inches apart . Press 2 or 3 additional M & M candies on top of cookies if desired.", 
        "Bake in pre-heated oven 375 degrees F (190 degrees C) for 8-10 minutes or until lightly browned. Cool on sheet about 3 minute and remove to wire racks."
    ], 
    "recipe_name": "Graham Cracker Cookies"
}