{
    "ingredients": [
        {
            "amount": "1 (.25 ounce) package", 
            "ingredient": "active dry yeast"
        }, 
        {
            "amount": "3 cups", 
            "ingredient": "bread flour"
        }, 
        {
            "amount": "2 tablespoons", 
            "ingredient": "brown sugar"
        }, 
        {
            "amount": "2 tablespoons", 
            "ingredient": "white sugar"
        }, 
        {
            "amount": "1 teaspoon", 
            "ingredient": "salt"
        }, 
        {
            "amount": "1 teaspoon", 
            "ingredient": "ground cinnamon"
        }, 
        {
            "amount": "4 tablespoons", 
            "ingredient": "butter, softened"
        }, 
        {
            "amount": "1", 
            "ingredient": "egg"
        }, 
        {
            "amount": "1 cup", 
            "ingredient": "warm milk"
        }, 
        {
            "amount": "1/4 cup", 
            "ingredient": "warm water"
        }, 
        {
            "amount": "1 cup", 
            "ingredient": "semisweet chocolate chips"
        }
    ], 
    "prep_steps": [
        "Place ingredients in the pan of the bread machine in the order recommended by the manufacturer. Select White Bread cycle; press Start.", 
        "If your machine has a Fruit setting, add chocolate chips at the signal, or about 5 minutes before the kneading cycle has finished."
    ], 
    "prep_time": "2\u00bc hrs", 
    "recipe_name": "Chocolate Chip Bread II"
}