{
    "ingredients": [
        {
            "amount": "1 (18.25 ounce) package", 
            "ingredient": "yellow cake mix"
        }, 
        {
            "amount": "1 (3.5 ounce) package", 
            "ingredient": "instant vanilla pudding mix"
        }, 
        {
            "amount": "1 (21 ounce) can", 
            "ingredient": "cherry pie filling"
        }
    ], 
    "prep_steps": [
        "Prepare and bake cake according to directions given on cake mix box using a 9 x 13 inch pan. Cool in pan.", 
        "Prepare pudding according to directions. Pour on top of cooled cake. Pour cherries on top of pudding. Serve. Refrigerate any leftovers."
    ], 
    "recipe_name": "Cherries in the Snow Cake I"
}