{
    "ingredients": [
        {
            "amount": "1/2 cup", 
            "ingredient": "white sugar"
        }, 
        {
            "amount": "1/2 cup", 
            "ingredient": "cider vinegar"
        }, 
        {
            "amount": "1/4 cup", 
            "ingredient": "cold water"
        }, 
        {
            "amount": "1 teaspoon", 
            "ingredient": "salt"
        }, 
        {
            "amount": "1/2 teaspoon", 
            "ingredient": "mustard seed"
        }, 
        {
            "amount": "1/2 teaspoon", 
            "ingredient": "celery seed"
        }, 
        {
            "amount": "8 cups", 
            "ingredient": "shredded cabbage"
        }, 
        {
            "amount": "1/2 cup", 
            "ingredient": "chopped celery"
        }, 
        {
            "amount": "1/2 cup", 
            "ingredient": "chopped green bell pepper"
        }, 
        {
            "amount": "1 tablespoon", 
            "ingredient": "chopped pimento pepper"
        }
    ], 
    "prep_steps": [
        "In a jar with lid, combine the sugar, vinegar, water, salt, mustard seed and celery seed. Cover tightly and shake vigorously until sugar is dissolved. Chill dressing for several hours or overnight.", 
        "In a large bowl, toss together the cabbage, celery, green peppers, pimento and dressing until evenly coated. Cover and chill until serving."
    ], 
    "prep_time": "4 hrs", 
    "recipe_name": "Sweet and Sour Slaw"
}