{
    "ingredients": [
        {
            "amount": "1", 
            "ingredient": "mango - peeled, seeded and diced"
        }, 
        {
            "amount": "1/2 (15 ounce) can", 
            "ingredient": "black beans, rinsed and drained"
        }, 
        {
            "amount": "1/2 (15 ounce) can", 
            "ingredient": "navy beans, rinsed and drained"
        }, 
        {
            "amount": "1/4 cup", 
            "ingredient": "chopped onion"
        }, 
        {
            "amount": "1/4 cup", 
            "ingredient": "chopped fresh cilantro"
        }, 
        {
            "amount": "1/4 cup", 
            "ingredient": "balsamic vinaigrette salad dressing"
        }
    ], 
    "prep_steps": [
        "In a medium salad bowl, mix together the mango, black beans, navy beans, onion and cilantro. Toss with the balsamic vinaigrette dressing. Enjoy right away, or chill until serving."
    ], 
    "prep_time": "15 mins", 
    "recipe_name": "Two-Bean and Mango Salad"
}