{
    "ingredients": [
        {
            "amount": "1 (4 pound)", 
            "ingredient": "chicken"
        }, 
        {
            "amount": "1", 
            "ingredient": "onion, chopped"
        }, 
        {
            "amount": "4 quarts", 
            "ingredient": "water"
        }, 
        {
            "amount": "1 (10 ounce) package", 
            "ingredient": "frozen whole kernel corn"
        }, 
        {
            "amount": "1/2 cup", 
            "ingredient": "chopped celery"
        }, 
        {
            "amount": "1 cup", 
            "ingredient": "all-purpose flour"
        }, 
        {
            "amount": "1 pinch", 
            "ingredient": "salt"
        }, 
        {
            "amount": "1", 
            "ingredient": "egg"
        }, 
        {
            "amount": "1/4 cup", 
            "ingredient": "milk"
        }, 
        {
            "amount": "2", 
            "ingredient": "hard-cooked eggs, chopped"
        }
    ], 
    "prep_steps": [
        "In a large stock pot cover chicken and onion with water. Cook slowly until tender, approximately 1 hour. Remove chicken, let cool and remove meat from bones. Cut meat into 1 inch pieces, discard skin and bones.", 
        "Cut corn from cobs if using fresh corn.", 
        "Add corn, cut up chicken, celery to stock pot and season with salt and pepper. Simmer soup for 10 minutes.", 
        "In a separate bowl make rivels by mixing together flour, salt, egg, and enough milk to form small crumbs.", 
        "Drop rivels into soup and add hard boiled eggs. Simmer for 15 minutes and serve hot."
    ], 
    "prep_time": "2 hr", 
    "recipe_name": "Chicken Corn Soup I"
}