{
    "ingredients": [
        {
            "amount": "6", 
            "ingredient": "potatoes, peeled and cubed"
        }, 
        {
            "amount": "1", 
            "ingredient": "onion, chopped"
        }, 
        {
            "amount": "1", 
            "ingredient": "carrot, grated"
        }, 
        {
            "amount": "4 slices", 
            "ingredient": "crisp cooked bacon, crumbled"
        }, 
        {
            "amount": "1 tablespoon", 
            "ingredient": "chopped fresh parsley"
        }, 
        {
            "amount": "1 tablespoon", 
            "ingredient": "margarine"
        }, 
        {
            "amount": "1 tablespoon", 
            "ingredient": "rendered bacon fat"
        }, 
        {
            "amount": "4 cups", 
            "ingredient": "milk"
        }, 
        {
            "amount": "3 tablespoons", 
            "ingredient": "dry potato flakes"
        }
    ], 
    "prep_steps": [
        "Place potatoes and chopped onion in a deep stock pan, and add water just to cover them. Bring to a boil, and cook until tender.", 
        "Add butter or margarine, bacon bits and fat, and carrots. Stir in milk, parsley, and instant potatoes; bring to a light boil. Salt and pepper to taste. Cover, and simmer on low until you are ready to eat."
    ], 
    "prep_time": "1\u00bc hrs", 
    "recipe_name": "Potato Soup I"
}