{
    "ingredients": [
        {
            "amount": "3 pounds", 
            "ingredient": "beef roast"
        }, 
        {
            "amount": "6", 
            "ingredient": "potatoes"
        }, 
        {
            "amount": "1 1/2 cups", 
            "ingredient": "baby carrots"
        }, 
        {
            "amount": "1", 
            "ingredient": "yellow onion"
        }, 
        {
            "amount": "2 stalks", 
            "ingredient": "celery"
        }, 
        {
            "amount": "3 cubes", 
            "ingredient": "beef bouillon"
        }, 
        {
            "amount": "1/2 cup", 
            "ingredient": "water"
        }
    ], 
    "prep_steps": [
        "Cut up potatoes, onions, and celery in to fairly large chunks and place in a slow cooker. Put roast on top of vegetables. Place 3 bouillon cubes randomly on top of roast and pour in water.", 
        "Cover, and cook on low for 6 to 8 hours or High for 4 to 5 hours."
    ], 
    "prep_time": "5 hrs", 
    "recipe_name": "Easiest Pot Roast Ever"
}