{
    "ingredients": [
        {
            "amount": "2 ounces", 
            "ingredient": "white chocolate"
        }, 
        {
            "amount": "1 (8 ounce) package", 
            "ingredient": "cream cheese, softened"
        }, 
        {
            "amount": "1/2 cup", 
            "ingredient": "unsalted butter, softened"
        }, 
        {
            "amount": "1 teaspoon", 
            "ingredient": "vanilla extract"
        }, 
        {
            "amount": "1/2 teaspoon", 
            "ingredient": "orange extract"
        }, 
        {
            "amount": "4 cups", 
            "ingredient": "confectioners' sugar"
        }, 
        {
            "amount": "2 tablespoons", 
            "ingredient": "heavy cream"
        }, 
        {
            "amount": "2", 
            "ingredient": "eggs, lightly beaten"
        }, 
        {
            "amount": "1 1/8 cups", 
            "ingredient": "white sugar"
        }, 
        {
            "amount": "1/3 cup", 
            "ingredient": "brown sugar"
        }, 
        {
            "amount": "1/2 cup", 
            "ingredient": "vegetable oil"
        }, 
        {
            "amount": "1 teaspoon", 
            "ingredient": "vanilla extract"
        }, 
        {
            "amount": "2 cups", 
            "ingredient": "shredded carrots"
        }, 
        {
            "amount": "1/2 cup", 
            "ingredient": "crushed pineapple"
        }, 
        {
            "amount": "1 1/2 cups", 
            "ingredient": "all-purpose flour"
        }, 
        {
            "amount": "1 1/4 teaspoons", 
            "ingredient": "baking soda"
        }, 
        {
            "amount": "1/2 teaspoon", 
            "ingredient": "salt"
        }, 
        {
            "amount": "1 1/2 teaspoons", 
            "ingredient": "ground cinnamon"
        }, 
        {
            "amount": "1/2 teaspoon", 
            "ingredient": "ground nutmeg"
        }, 
        {
            "amount": "1/4 teaspoon", 
            "ingredient": "ground ginger"
        }, 
        {
            "amount": "1 cup", 
            "ingredient": "chopped walnuts"
        }
    ], 
    "prep_steps": [
        "Preheat oven to 350 degrees F (175 degrees C). Lightly grease 12 muffin cups.", 
        "In small saucepan, melt white chocolate over low heat. Stir until smooth, and allow to cool to room temperature.", 
        "In a bowl, beat together the cream cheese and butter until smooth. Mix in white chocolate, 1 teaspoon vanilla, and orange extract. Gradually beat in the confectioners' sugar until the mixture is fluffy. Mix in heavy cream.", 
        "Beat together the eggs, white sugar, and brown sugar in a bowl, and mix in the oil and vanilla. Fold in carrots and pineapple. In a separate bowl, mix the flour, baking soda, salt, cinnamon, nutmeg, and ginger. Mix flour mixture into the carrot mixture until evenly moist. Fold in 1/2 cup walnuts. Transfer to the prepared muffin cups.", 
        "Bake 25 minutes in the preheated oven, or until a toothpick inserted in the center of a muffin comes out clean. Cool completely on wire racks before topping with the icing and sprinkling with remaining walnuts."
    ], 
    "prep_time": "2 hrs", 
    "recipe_name": "Carrot Cupcakes with White Chocolate Cream Cheese Icing"
}