{
    "ingredients": [
        {
            "amount": "2 (28 ounce) cans", 
            "ingredient": "whole peeled tomatoes"
        }, 
        {
            "amount": "1 (6 ounce) can", 
            "ingredient": "tomato paste"
        }, 
        {
            "amount": "4 tablespoons", 
            "ingredient": "olive oil"
        }, 
        {
            "amount": "4 cloves", 
            "ingredient": "garlic, minced"
        }, 
        {
            "amount": "1/4 cup", 
            "ingredient": "chopped fresh parsley"
        }, 
        {
            "amount": "1/2 tablespoon", 
            "ingredient": "salt"
        }, 
        {
            "amount": "1/2 cup", 
            "ingredient": "red wine"
        }
    ], 
    "prep_steps": [
        "In a medium bowl, blend the whole tomatoes and paste; reserve.", 
        "In a large saucepan, warm olive oil over medium-low heat and add garlic; cook for a few minutes, but make sure to not brown the garlic.", 
        "Pour tomato mixture in saucepan and stir; cook over medium heat for 10 minutes. Add parsley, salt and wine; reduce heat to low and simmer, stirring occasionally, until sauce thickens; serve."
    ], 
    "prep_time": "30 mins", 
    "recipe_name": "Marinara Sauce I"
}