{
    "ingredients": [
        {
            "amount": "6 ounces", 
            "ingredient": "NO YOLKS\u00ae Extra Broad Noodles"
        }, 
        {
            "amount": "1 tablespoon", 
            "ingredient": "olive oil"
        }, 
        {
            "amount": "1 (8 ounce) package", 
            "ingredient": "sliced fresh mushrooms"
        }, 
        {
            "amount": "2 ribs", 
            "ingredient": "celery, chopped"
        }, 
        {
            "amount": "3", 
            "ingredient": "medium carrots, peeled and sliced"
        }, 
        {
            "amount": "1 small", 
            "ingredient": "onion, chopped"
        }, 
        {
            "amount": "1 teaspoon", 
            "ingredient": "garlic powder"
        }, 
        {
            "amount": "1 quart", 
            "ingredient": "chicken broth"
        }, 
        {
            "amount": "1 sprig", 
            "ingredient": "fresh thyme"
        }, 
        {
            "amount": "1 (8 ounce) package", 
            "ingredient": "light cream cheese, softened"
        }, 
        {
            "amount": "1/2 cup", 
            "ingredient": "Parmesan cheese, grated"
        }, 
        {
            "amount": "1 1/2 tablespoons", 
            "ingredient": "all-purpose flour"
        }, 
        {
            "amount": "2", 
            "ingredient": "cooked chicken breasts, chopped"
        }, 
        {
            "amount": "1 cup", 
            "ingredient": "panko bread crumbs"
        }, 
        {
            "amount": "1 tablespoon", 
            "ingredient": "butter, melted"
        }
    ], 
    "prep_steps": [
        "Combine topping ingredients and set aside.", 
        "Preheat oven to 400 degrees F. Add olive oil to a 7-quart stock pot, and saute mushrooms, celery, carrots, onions and garlic powder for 3-4 minutes over medium heat. Add chicken broth and thyme sprig and bring to a boil, stirring occasionally. Add cream cheese, Parmesan and noodles. Stir until well blended. Sprinkle flour over top of mixture. Stir and cook for 1-2 minutes, or until mixture begins to thicken. Fold in chicken.", 
        "Pour into a 3-quart casserole dish. Sprinkle on reserved topping mixture. Bake uncovered 15 minutes. Remove from oven and let stand 10 minutes."
    ], 
    "prep_time": "53 mins", 
    "recipe_name": "NO YOLKS\u00ae Creamy Chicken Noodle Casserole"
}