{
    "ingredients": [
        {
            "amount": "1 fluid ounce", 
            "ingredient": "vodka"
        }, 
        {
            "amount": "1 fluid ounce", 
            "ingredient": "dry gin"
        }, 
        {
            "amount": "1 fluid ounce", 
            "ingredient": "triple sec (orange-flavored liqueur)"
        }, 
        {
            "amount": "1 fluid ounce", 
            "ingredient": "rum"
        }, 
        {
            "amount": "1 fluid ounce", 
            "ingredient": "tequila"
        }, 
        {
            "amount": "1 (12 fluid ounce) can or bottle", 
            "ingredient": "cola-flavored carbonated beverage"
        }, 
        {
            "amount": "1 wedge", 
            "ingredient": "lemon"
        }, 
        {
            "amount": "1 wedge", 
            "ingredient": "lime"
        }
    ], 
    "prep_steps": [
        "Pour vodka, gin, triple sec, rum, and tequila into a tall glass with ice. Top off with cola. Stir gently. Garnish with lemon and lime wedges."
    ], 
    "prep_time": "5 mins", 
    "recipe_name": "Big Kev's Texas Style Long Island Iced Tea"
}