{
    "ingredients": [
        {
            "amount": "2 fluid ounces", 
            "ingredient": "best-quality vodka"
        }, 
        {
            "amount": "1 fluid ounce", 
            "ingredient": "sour apple schnapps"
        }, 
        {
            "amount": "1/2 fluid ounce", 
            "ingredient": "butterscotch schnapps"
        }, 
        {
            "amount": "1 cup", 
            "ingredient": "crushed ice"
        }, 
        {
            "amount": "1 slice", 
            "ingredient": "dried apple"
        }
    ], 
    "prep_steps": [
        "Combine vodka, schnapps, and crushed ice in a shaker. Shake vigorously to chill. Pour into martini glass, garnish with dried apple, and serve."
    ], 
    "prep_time": "5 mins", 
    "recipe_name": "Carmel Apple Martini"
}