{
    "ingredients": [
        {
            "amount": "1 cup", 
            "ingredient": "all-purpose flour"
        }, 
        {
            "amount": "1/2 cup", 
            "ingredient": "finely chopped pecans"
        }, 
        {
            "amount": "1/2 cup", 
            "ingredient": "butter or margarine, melted"
        }, 
        {
            "amount": "1 (8 ounce) package", 
            "ingredient": "cream cheese, room temperature"
        }, 
        {
            "amount": "1 cup", 
            "ingredient": "confectioners' sugar"
        }, 
        {
            "amount": "1 cup", 
            "ingredient": "frozen whipped topping, thawed"
        }, 
        {
            "amount": "2 (3.5 ounce) packages", 
            "ingredient": "instant coconut cream pudding mix"
        }, 
        {
            "amount": "2 cups", 
            "ingredient": "milk"
        }, 
        {
            "amount": "3 cups", 
            "ingredient": "frozen whipped topping, thawed"
        }, 
        {
            "amount": "1/2 cup", 
            "ingredient": "chopped pecans"
        }
    ], 
    "prep_steps": [
        "Preheat the oven to 350 degrees F (175 degrees F). In a medium bowl, stir together the flour, 1/2 cup pecans and melted butter or margarine. Press into the bottom of a 9x13 inch baking dish. Bake for 15 minutes in the preheated oven, then chill until cold.", 
        "In a medium bowl, mix together the cream cheese and confectioners' sugar until smooth. Stir in the whipped topping. Drop spoonfuls onto the chilled crust, and spread evenly. Return to the refrigerator while you prepare the next layer.", 
        "In a medium bowl, mix together the pudding mixes and milk. Yes this is half as much milk as the package states. Spread over the cream cheese layer. Chill until set.", 
        "Spread remaining whipped topping over the top, and garnish with chopped pecans."
    ], 
    "prep_time": "1 hr", 
    "recipe_name": "Mom's Texas Delight"
}