{
    "ingredients": [
        {
            "amount": "1/2 cup", 
            "ingredient": "butter"
        }, 
        {
            "amount": "1/2 cup", 
            "ingredient": "white sugar"
        }, 
        {
            "amount": "2", 
            "ingredient": "eggs"
        }, 
        {
            "amount": "1/2 cup", 
            "ingredient": "buttermilk"
        }, 
        {
            "amount": "1 (8 ounce) container", 
            "ingredient": "strawberry flavored yogurt"
        }, 
        {
            "amount": "1 tablespoon", 
            "ingredient": "lemon juice"
        }, 
        {
            "amount": "2 1/2 cups", 
            "ingredient": "all-purpose flour"
        }, 
        {
            "amount": "1 tablespoon", 
            "ingredient": "baking powder"
        }, 
        {
            "amount": "1 1/2 cups", 
            "ingredient": "chopped strawberries"
        }
    ], 
    "prep_steps": [
        "Preheat the oven to 350 degrees F (175 degrees C). Grease a 12 cup muffin tin, or line with paper liners.", 
        "In a large bowl, cream together the butter and sugar until light and fluffy. Beat in the eggs one at a time, then stir in the buttermilk, yogurt, and lemon juice. Combine the flour and baking powder; stir into the yogurt mixture until just blended. Fold in strawberries. Spoon the batter into the prepared muffin cups.", 
        "Bake for 15 to 18 minutes in the preheated oven, or until the top springs back when lightly touched. Cool in the pan over a wire rack."
    ], 
    "prep_time": "25 mins", 
    "recipe_name": "Freshly Fresh Strawberry Muffins"
}