{
    "ingredients": [
        {
            "amount": "2 teaspoons", 
            "ingredient": "simple syrup"
        }, 
        {
            "amount": "1 teaspoon", 
            "ingredient": "water"
        }, 
        {
            "amount": "2 dashes", 
            "ingredient": "bitters"
        }, 
        {
            "amount": "1 cup", 
            "ingredient": "ice cubes"
        }, 
        {
            "amount": "1 (1.5 fluid ounce) jigger", 
            "ingredient": "bourbon whiskey"
        }, 
        {
            "amount": "1 slice", 
            "ingredient": "orange"
        }, 
        {
            "amount": "1", 
            "ingredient": "maraschino cherry"
        }
    ], 
    "prep_steps": [
        "Pour the simple syrup, water, and bitters into a whiskey glass. Stir to combine, then place the ice cubes in the glass. Pour bourbon over the ice and garnish with the orange slice and maraschino cherry."
    ], 
    "prep_time": "10 mins", 
    "recipe_name": "Classic Old Fashioned"
}