{
    "ingredients": [
        {
            "amount": "3", 
            "ingredient": "large eggs"
        }, 
        {
            "amount": "3/4 cup", 
            "ingredient": "whole milk"
        }, 
        {
            "amount": "1/2 teaspoon", 
            "ingredient": "vanilla extract"
        }, 
        {
            "amount": "1/4 cup", 
            "ingredient": "white sugar"
        }, 
        {
            "amount": "1/4 teaspoon", 
            "ingredient": "salt"
        }, 
        {
            "amount": "1/2 cup", 
            "ingredient": "all-purpose flour"
        }, 
        {
            "amount": "2 tablespoons", 
            "ingredient": "unsalted butter"
        }, 
        {
            "amount": "1 cup", 
            "ingredient": "sliced fresh strawberries"
        }
    ], 
    "prep_steps": [
        "Preheat an oven to 425 degrees F (220 degrees C).", 
        "Place the eggs, milk, vanilla extract, sugar, salt, and flour into a blender. Pulse until no dry lumps remain in the batter. Melt the butter in an 8-inch, cast iron skillet over medium-high heat. Pour in the batter, and drop in the strawberries.", 
        "Place the skillet into the oven, and bake until puffed and golden, 20 to 25 minutes. Remove from the oven and serve immediately."
    ], 
    "prep_time": "30 mins", 
    "recipe_name": "Skillet Strawberry Pancake"
}