{
    "ingredients": [
        {
            "amount": "2 1/4 cups", 
            "ingredient": "soy sauce"
        }, 
        {
            "amount": "3/4 cup", 
            "ingredient": "sugar"
        }, 
        {
            "amount": "1 teaspoon", 
            "ingredient": "ground black pepper"
        }, 
        {
            "amount": "1 tablespoon", 
            "ingredient": "cornstarch"
        }, 
        {
            "amount": "1 (20 ounce) can", 
            "ingredient": "pineapple chunks in juice, drained, juice reserved"
        }, 
        {
            "amount": "1", 
            "ingredient": "onion, chopped"
        }, 
        {
            "amount": "3 cloves", 
            "ingredient": "garlic, minced"
        }, 
        {
            "amount": "1 (2 inch) piece", 
            "ingredient": "fresh ginger root, peeled and chopped"
        }, 
        {
            "amount": "4", 
            "ingredient": "chicken thighs"
        }, 
        {
            "amount": "4", 
            "ingredient": "chicken drumsticks"
        }, 
        {
            "amount": "4", 
            "ingredient": "chicken wings"
        }
    ], 
    "prep_steps": [
        "Preheat an oven to 350 degrees F (175 degrees C).", 
        "Stir the soy sauce, sugar, 1 teaspoon of black pepper, cornstarch, and 1/2 cup of the reserved pineapple juice together in a saucepan until the sugar is completely dissolved; add the onion, garlic, and ginger. Bring the mixture to a boil and cook until the sauce thickens, about 5 minutes.", 
        "Thoroughly rinse the chicken thighs, drumsticks, and wings; pat dry with paper towels. Arrange the chicken in a baking dish; season with salt and pepper.", 
        "Bake in the preheated oven for 15 minutes. Pour the pineapple chunks around the chicken pieces; brush the chicken liberally with the sauce and return to the oven for 30 minutes, brushing with sauce every 10 minutes or so."
    ], 
    "prep_time": "1\u00bc hrs", 
    "recipe_name": "Chicken Teriyaki"
}