{
    "ingredients": [
        {
            "amount": "1/2 cup", 
            "ingredient": "chopped fresh rosemary"
        }, 
        {
            "amount": "6 cloves", 
            "ingredient": "garlic"
        }, 
        {
            "amount": "1/3 cup", 
            "ingredient": "olive oil"
        }, 
        {
            "amount": "1/4 cup", 
            "ingredient": "lemon juice"
        }, 
        {
            "amount": "1 teaspoon", 
            "ingredient": "coarsely ground black pepper"
        }, 
        {
            "amount": "1/2 teaspoon", 
            "ingredient": "red pepper flakes"
        }, 
        {
            "amount": "1/2 teaspoon", 
            "ingredient": "salt"
        }, 
        {
            "amount": "1 (1 1/2-pound)", 
            "ingredient": "flank steak, trimmed of excess fat"
        }, 
        {
            "amount": "1/3 cup", 
            "ingredient": "extra virgin olive oil"
        }, 
        {
            "amount": "3 tablespoons", 
            "ingredient": "lemon juice"
        }, 
        {
            "amount": "2 teaspoons", 
            "ingredient": "lemon zest"
        }, 
        {
            "amount": "1 teaspoon", 
            "ingredient": "minced fresh rosemary"
        }, 
        {
            "amount": "1/8 teaspoon", 
            "ingredient": "red pepper flakes"
        }, 
        {
            "amount": "1 pinch", 
            "ingredient": "salt"
        }, 
        {
            "amount": "1 sprig", 
            "ingredient": "fresh rosemary"
        }
    ], 
    "prep_steps": [
        "Combine 1/2 cup chopped fresh rosemary, garlic, 1/3 cup olive oil, 1/4 cup lemon juice, black pepper, 1/2 teaspoon red pepper flakes, and 1/2 teaspoon salt in a blender or food processor. Blend until smooth and set marinade aside.", 
        "Pierce the steak with a fork 20 to 30 times. Place in a shallow baking dish. Pour marinade over steak and flip to coat both sides. Cover and refrigerate for 4 to 8 hours.", 
        "Combine 1/3 cup olive oil, 3 tablespoons lemon juice, lemon zest, 1 teaspoon minced rosemary, 1/8 teaspoon red pepper flakes, and a pinch of salt in a jar. Cover and shake the dressing to combine. Shake again before using.", 
        "Preheat an outdoor grill for medium-high heat and lightly oil the grate.", 
        "Remove steak from marinade; scrape off any chunks of marinade. Discard used marinade. Season steak with salt and black pepper.", 
        "Place steak on the preheated grill and cook until browned on the outside and red on the inside, about 6 to 8 minutes per side. Place 2 tablespoons of the olive oil-lemon juice dressing in a small bowl. Use rosemary sprig to baste the steak while it cooks. An instant-read thermometer inserted into the center of a steak should read 125 degrees F (52 degrees C) for rare.", 
        "Remove steak to a platter and allow to rest about 6 minutes before slicing. Cut in half lengthwise, then into 1/4-inch-thick slices at an angle against the grain. Drizzle with additional dressing."
    ], 
    "prep_time": "4 hrs", 
    "recipe_name": "Tuscan Flank Steak"
}