{
    "ingredients": [
        {
            "amount": "1/2 pound", 
            "ingredient": "uncooked medium shrimp, peeled and deveined"
        }, 
        {
            "amount": "1", 
            "ingredient": "shallot, sliced"
        }, 
        {
            "amount": "1 clove", 
            "ingredient": "garlic, minced"
        }, 
        {
            "amount": "1 teaspoon", 
            "ingredient": "Creole seasoning"
        }, 
        {
            "amount": "1/4 cup", 
            "ingredient": "olive oil"
        }, 
        {
            "amount": "1 pound", 
            "ingredient": "thin spaghetti"
        }, 
        {
            "amount": "1 tablespoon", 
            "ingredient": "olive oil"
        }, 
        {
            "amount": "5 (3.5 ounce) links", 
            "ingredient": "sweet Italian sausage"
        }, 
        {
            "amount": "1", 
            "ingredient": "red bell pepper, sliced"
        }, 
        {
            "amount": "1", 
            "ingredient": "yellow bell pepper, sliced"
        }, 
        {
            "amount": "1", 
            "ingredient": "green bell pepper, sliced"
        }, 
        {
            "amount": "1", 
            "ingredient": "onion, chopped"
        }, 
        {
            "amount": "2 cloves", 
            "ingredient": "garlic, minced"
        }, 
        {
            "amount": "1/2 cup", 
            "ingredient": "red wine"
        }, 
        {
            "amount": "1 1/2 cups", 
            "ingredient": "pasta sauce"
        }, 
        {
            "amount": "1/2 teaspoon", 
            "ingredient": "crushed red pepper flakes, or to taste"
        }, 
        {
            "amount": "1 pinch", 
            "ingredient": "salt, or to taste"
        }, 
        {
            "amount": "1/4 cup", 
            "ingredient": "butter"
        }
    ], 
    "prep_steps": [
        "Place the shrimp, shallot, 1 clove of garlic, creole seasoning, and 1/4 cup of olive oil in a bowl, and stir to coat the shrimp with the marinade. Set the shrimp aside.", 
        "Fill a large pot with lightly salted water and bring to a rolling boil. Once the water is boiling, stir in the spaghetti, and return to a boil. Cook the pasta uncovered, stirring occasionally, until the pasta has cooked through, but is still firm to the bite, about 12 minutes. Drain well in a colander set in the sink.", 
        "While the pasta is cooking, heat 1 tablespoon of olive oil in a skillet, and brown the sausages on all sides until they are evenly brown, about 10 minutes. Remove the sausages from the skillet, and cook and stir the red bell pepper, yellow bell pepper, green bell pepper, and onion in the hot skillet until the vegetables are slightly softened, 4 to 5 minutes. Stir in 2 cloves of garlic, and cook and stir until the garlic is fragrant, about 5 more minutes.", 
        "Slice the sausages, and return them to the skillet. Stir red wine and pasta sauce with the sausages and vegetables, bring to a simmer over medium-low heat, and simmer until the vegetables are soft, the sausage is no longer pink in the middle, and the sauce has reduced to about half its volume, 10 to 15 minutes. Stir in red pepper flakes and salt.", 
        "Heat butter in a skillet; cook and stir the shrimp and marinade mixture until the shrimp are pink and opaque and the shallot becomes translucent, 5 to 8 minutes. To serve, place about 1/2 cup of cooked pasta on a warmed plate, and spoon shrimp over one side of the pasta, and sausage and peppers on the other side."
    ], 
    "prep_time": "1\u00bc hrs", 
    "recipe_name": "Dee's Sexy, Spicy, Shrimp, Sausage, and Peppers"
}