{
    "ingredients": [
        {
            "amount": "4", 
            "ingredient": "cooked chicken breasts, shredded"
        }, 
        {
            "amount": "2", 
            "ingredient": "Granny Smith apples, cut into small chunks"
        }, 
        {
            "amount": "2 cups", 
            "ingredient": "chopped walnuts, or to taste"
        }, 
        {
            "amount": "1/2", 
            "ingredient": "red onion, chopped"
        }, 
        {
            "amount": "3 stalks", 
            "ingredient": "celery, chopped"
        }, 
        {
            "amount": "3 tablespoons", 
            "ingredient": "lemon juice"
        }, 
        {
            "amount": "1/2 cup", 
            "ingredient": "vanilla yogurt"
        }, 
        {
            "amount": "5 tablespoons", 
            "ingredient": "creamy salad dressing (such as Miracle Whip\u00ae)"
        }, 
        {
            "amount": "5 tablespoons", 
            "ingredient": "mayonnaise"
        }, 
        {
            "amount": "25", 
            "ingredient": "seedless red grapes, halved"
        }
    ], 
    "prep_steps": [
        "Toss shredded chicken, apple chunks, walnuts, red onion, celery, and lemon juice together in a large bowl.", 
        "Whisk vanilla yogurt, salad dressing, and mayonnaise together in a separate bowl; pour over the chicken mixture and stir to coat. Gently fold the grapes into the salad."
    ], 
    "prep_time": "25 mins", 
    "recipe_name": "Chicken Salad with Apples, Grapes, and Walnuts"
}