{
    "ingredients": [
        {
            "amount": "2 cups", 
            "ingredient": "all-purpose flour"
        }, 
        {
            "amount": "1 teaspoon", 
            "ingredient": "salt"
        }, 
        {
            "amount": "3/4 cup", 
            "ingredient": "lard"
        }, 
        {
            "amount": "6 tablespoons", 
            "ingredient": "cold water"
        }, 
        {
            "amount": "1/2 cup", 
            "ingredient": "butter"
        }, 
        {
            "amount": "1/2 cup", 
            "ingredient": "all-purpose flour"
        }, 
        {
            "amount": "1 teaspoon", 
            "ingredient": "salt"
        }, 
        {
            "amount": "2 tablespoons", 
            "ingredient": "finely chopped onion"
        }, 
        {
            "amount": "3 cups", 
            "ingredient": "chicken broth"
        }, 
        {
            "amount": "1 1/2 cups", 
            "ingredient": "sliced mushrooms"
        }, 
        {
            "amount": "3 tablespoons", 
            "ingredient": "butter"
        }, 
        {
            "amount": "3 cups", 
            "ingredient": "cooked chicken, chopped"
        }, 
        {
            "amount": "2", 
            "ingredient": "carrot, finely chopped"
        }, 
        {
            "amount": "2 stalks", 
            "ingredient": "celery, finely chopped"
        }, 
        {
            "amount": "2", 
            "ingredient": "potatoes, peeled and cubed"
        }
    ], 
    "prep_steps": [
        "In a large bowl, combine 2 cups flour and 1 teaspoon salt. Cut in lard until mixture resembles coarse crumbs. Stir in water until mixture forms a ball. Divide dough in half and shape into balls. Wrap in plastic and refrigerate for 4 hours or overnight. Roll one ball out to fit a 9 inch pie plate. Place bottom crust in pie plate. Roll out top crust and set aside.", 
        "Preheat oven to 400 degrees F (200 degrees C.)", 
        "In a large saucepan, melt 1/2 cup butter. Blend in flour, salt, pepper and onion. Gradually stir in chicken broth. Cook, stirring constantly until smooth and thickened. In a separate pan, saute mushrooms in 3 tablespoons of butter, then stir into saucepan. Stir in chicken, carrot, celery and potatoes. Mix well and pour into bottom pie crust. Cover with top crust, seal edges, and cut away excess dough. Make several small slits in the top to allow steam to escape.", 
        "Bake in the preheated oven for 30 minutes, or until pastry is golden brown, and filling is bubbly."
    ], 
    "prep_time": "1\u00bc hrs", 
    "recipe_name": "Chicken Pot Pie VIII"
}