{
    "ingredients": [
        {
            "amount": "1/2 cup", 
            "ingredient": "sugar"
        }, 
        {
            "amount": "1 teaspoon", 
            "ingredient": "Spice Islands\u00ae Pumpkin Pie Spice"
        }, 
        {
            "amount": "1 tablespoon", 
            "ingredient": "Argo\u00ae Corn Starch"
        }, 
        {
            "amount": "5", 
            "ingredient": "McIntosh or Granny Smith apples, peeled and cored (or more if desired)"
        }, 
        {
            "amount": "1 tablespoon", 
            "ingredient": "lemon juice"
        }, 
        {
            "amount": "1 teaspoon", 
            "ingredient": "rum OR imitation rum flavoring"
        }, 
        {
            "amount": "1 (9 inch)", 
            "ingredient": "unbaked deep dish pie crust"
        }, 
        {
            "amount": "2 tablespoons", 
            "ingredient": "butter OR margarine"
        }, 
        {
            "amount": "3 tablespoons", 
            "ingredient": "prepared caramel sauce"
        }, 
        {
            "amount": "1/2 cup", 
            "ingredient": "flour"
        }, 
        {
            "amount": "1/3 cup", 
            "ingredient": "brown sugar"
        }, 
        {
            "amount": "1/4 cup", 
            "ingredient": "butter OR margarine"
        }
    ], 
    "prep_steps": [
        "Mix sugar, pumpkin pie spice and corn starch in a large bowl. Cut apples into 1/4-inch thick slices and place in a separate bowl. Sprinkle apples with lemon juice and rum; add to dry ingredients. Stir to combine. Place in piecrust. Dot with 2 tablespoons of butter. Drizzle with caramel sauce.", 
        "Stir flour and brown sugar together in small bowl. Cut in 1/4 cup butter until mixture resembles coarse meal. Sprinkle evenly over top of pie.", 
        "Bake in a preheated 400 degrees F oven for 10 minutes. Reduce heat to 350 degrees F and bake an additional 40 to 50 minutes, until golden brown. Delicious when served warm with a scoop of vanilla ice cream."
    ], 
    "prep_time": "1\u00bd hrs", 
    "recipe_name": "Caramel Apple Pie"
}