{
    "ingredients": [
        {
            "amount": "4 tablespoons", 
            "ingredient": "olive oil"
        }, 
        {
            "amount": "4 cloves", 
            "ingredient": "garlic, minced"
        }, 
        {
            "amount": "1", 
            "ingredient": "onion, chopped"
        }, 
        {
            "amount": "2", 
            "ingredient": "carrots, chopped"
        }, 
        {
            "amount": "1/4 cup", 
            "ingredient": "chopped parsley"
        }, 
        {
            "amount": "2 teaspoons", 
            "ingredient": "dried basil"
        }, 
        {
            "amount": "1 teaspoon", 
            "ingredient": "dried oregano"
        }, 
        {
            "amount": "1/2 teaspoon", 
            "ingredient": "crushed red pepper flakes"
        }, 
        {
            "amount": "3 cups", 
            "ingredient": "whole peeled tomatoes, sliced"
        }, 
        {
            "amount": "2 cups", 
            "ingredient": "drained canned cannellini beans"
        }, 
        {
            "amount": "1 pound", 
            "ingredient": "uncooked pasta"
        }, 
        {
            "amount": "2 tablespoons", 
            "ingredient": "olive oil"
        }, 
        {
            "amount": "1/4 cup", 
            "ingredient": "grated Parmesan cheese"
        }
    ], 
    "prep_steps": [
        "Heat 2 tablespoons olive oil until hot in a large skillet over medium heat. Add garlic, onion, carrot, parsley, basil, oregano and red pepper. Saute until onions become tender.", 
        "Stir in the tomatoes plus 1/2 cup of their can juices. Season to taste with salt and pepper. Reduce heat to medium-low. Cover and stir frequently for 10 minutes or until the carrots are tender. Stir in the cannellini beans, cover and simmer for 20 minutes.", 
        "Cook pasta in 4 quarts of boiling salted water until al dente. Drain and toss pasta with 2 tablespoons olive oil and Parmesan cheese. Add pasta to cannellini bean mixture and toss to combine. Serve immediately."
    ], 
    "recipe_name": "Lena's Pasta Fazul"
}