{
    "ingredients": [
        {
            "amount": "1/4 cup", 
            "ingredient": "butter"
        }, 
        {
            "amount": "1/4 cup", 
            "ingredient": "soy sauce"
        }, 
        {
            "amount": "1 bunch", 
            "ingredient": "green onions"
        }, 
        {
            "amount": "2 cloves", 
            "ingredient": "garlic, minced"
        }, 
        {
            "amount": "6", 
            "ingredient": "pork butt steaks"
        }
    ], 
    "prep_steps": [
        "Melt butter in a skillet, and mix in the soy sauce. Saute the green onions and garlic until lightly browned.", 
        "Place the pork steaks in the skillet, cover, and cook 8 to 10 minutes on each side, Remove cover, and continue cooking 10 minutes, or to an internal temperature of 145 degrees F (63 degrees C)."
    ], 
    "prep_time": "45 mins", 
    "recipe_name": "Pork Steaks"
}