{
    "ingredients": [
        {
            "amount": "2 tablespoons", 
            "ingredient": "butter"
        }, 
        {
            "amount": "1/2 cup", 
            "ingredient": "chopped carrots"
        }, 
        {
            "amount": "1/2 cup", 
            "ingredient": "chopped celery"
        }, 
        {
            "amount": "1/2 cup", 
            "ingredient": "chopped onion"
        }, 
        {
            "amount": "1 (48 fluid ounce) can", 
            "ingredient": "chicken broth"
        }, 
        {
            "amount": "1 (14.5 ounce) can", 
            "ingredient": "diced tomatoes with green chile peppers"
        }, 
        {
            "amount": "3 (15 ounce) cans", 
            "ingredient": "black beans, drained and rinsed"
        }, 
        {
            "amount": "1/4 cup", 
            "ingredient": "cooking sherry"
        }, 
        {
            "amount": "1 teaspoon", 
            "ingredient": "minced garlic"
        }, 
        {
            "amount": "1 teaspoon", 
            "ingredient": "ground cumin"
        }, 
        {
            "amount": "1/2 teaspoon", 
            "ingredient": "ground cayenne pepper"
        }, 
        {
            "amount": "1/2 cup", 
            "ingredient": "chopped fresh cilantro"
        }
    ], 
    "prep_steps": [
        "Melt the butter in a large pot over medium heat. Stir in the carrots, celery, and onion, and cook 15 minutes. Pour in chicken broth. Mix in diced tomatoes with green chile peppers, black beans, sherry, and garlic. Season with cumin, cayenne pepper, and salt. Bring to a boil, reduce heat to low, and simmer 20 minutes. Mix in cilantro during last few minutes of cook time."
    ], 
    "prep_time": "55 mins", 
    "recipe_name": "Black Bean Salsa Soup"
}