{
    "ingredients": [
        {
            "amount": "1 tablespoon", 
            "ingredient": "olive oil"
        }, 
        {
            "amount": "1", 
            "ingredient": "sweet onion, minced"
        }, 
        {
            "amount": "1 clove", 
            "ingredient": "garlic, minced"
        }, 
        {
            "amount": "1", 
            "ingredient": "red bell pepper, seeded and diced"
        }, 
        {
            "amount": "2 (15.5 ounce) cans", 
            "ingredient": "black beans, rinsed and drained"
        }, 
        {
            "amount": "1", 
            "ingredient": "mango - peeled, seeded and diced"
        }, 
        {
            "amount": "1", 
            "ingredient": "banana, peeled and sliced"
        }, 
        {
            "amount": "1 1/2 teaspoons", 
            "ingredient": "ground cumin"
        }, 
        {
            "amount": "1/2 teaspoon", 
            "ingredient": "ground ginger"
        }, 
        {
            "amount": "1 tablespoon", 
            "ingredient": "hot pepper sauce (e.g. Tabasco\u2122), or to taste"
        }, 
        {
            "amount": "1 (15 ounce) can", 
            "ingredient": "light coconut milk"
        }, 
        {
            "amount": "2 cups", 
            "ingredient": "vegetable broth"
        }, 
        {
            "amount": "1/2 cup", 
            "ingredient": "sour cream, for garnish"
        }, 
        {
            "amount": "1/2 cup", 
            "ingredient": "chopped red bell peppers, for garnish"
        }
    ], 
    "prep_steps": [
        "Place the olive oil in a deep, heavy pot, and heat over medium-high heat. Stir in the onion, garlic, and 1 red pepper; cook until onion is transparent, about 5 minutes. Stir in the black beans. Add the mango, banana, cumin, ginger, and hot pepper sauce; stir and cook until fruit softens. Pour in the coconut milk and vegetable broth. Bring soup mixture to a boil over high heat. Reduce heat to low, and simmer until liquid reduces, about 1 hour. Season to taste with salt and pepper.", 
        "Place soup in batches into a blender, and blend until smooth; or use a stick blender to blend in the soup pot. Serve garnished with dollops of sour cream and sprinkled with red bell pepper."
    ], 
    "prep_time": "2\u00bc hrs", 
    "recipe_name": "Calypso Black Bean Soup"
}