{
    "ingredients": [
        {
            "amount": "1 tablespoon", 
            "ingredient": "coriander seeds"
        }, 
        {
            "amount": "2 teaspoons", 
            "ingredient": "cumin seeds"
        }, 
        {
            "amount": "2 teaspoons", 
            "ingredient": "dried oregano"
        }, 
        {
            "amount": "1 tablespoon", 
            "ingredient": "fennel seeds"
        }, 
        {
            "amount": "1/2 teaspoon", 
            "ingredient": "crushed red pepper"
        }, 
        {
            "amount": "1/2 teaspoon", 
            "ingredient": "salt"
        }, 
        {
            "amount": "1/2 teaspoon", 
            "ingredient": "whole black peppercorns"
        }, 
        {
            "amount": "1 clove", 
            "ingredient": "garlic"
        }, 
        {
            "amount": "2 tablespoons", 
            "ingredient": "olive oil, divided"
        }, 
        {
            "amount": "1 medium", 
            "ingredient": "sugar pumpkin"
        }, 
        {
            "amount": "4", 
            "ingredient": "orange-fleshed sweet potatoes"
        }, 
        {
            "amount": "1 large", 
            "ingredient": "onion, chopped"
        }, 
        {
            "amount": "1 1/2 quarts", 
            "ingredient": "chicken broth"
        }
    ], 
    "prep_steps": [
        "Preheat oven to 400 degrees F (200 degrees C).", 
        "In a mortar or spice grinder, grind coriander, cumin, oregano, fennel, red pepper, salt and peppercorns into a coarse powder. Blend in garlic and 1 tablespoon olive oil to form a paste.", 
        "Wash pumpkin, and cut into 2-inch wide wedges, scraping away seeds. Peel potatoes and cut each potato lengthwise into 6 wedges. Smear the pumpkin and the potatoes with the spice paste and place in a baking dish.", 
        "Roast in preheated oven 30 to 40 minutes, until tender and just beginning to blacken at the thinnest points.", 
        "Meanwhile, in a large pot over medium heat, cook the onion in the remaining 1 tablespoon olive oil until translucent.", 
        "Chop pumpkin and potatoes into smaller chunks and puree in a blender or food processor with some of the chicken broth until smooth. Be sure to scrape the roasted spice paste off the baking dish and include it in the puree. It may be necessary to deglaze the dish with a little chicken broth.", 
        "Pour the pureed vegetables into the pot with the onions, and stir in as much additional chicken stock as needed to achieve the desired consistency. Heat through."
    ], 
    "prep_time": "1 hr", 
    "recipe_name": "Spicy Pumpkin and Sweet Potato Soup"
}