{
    "ingredients": [
        {
            "amount": "2 tablespoons", 
            "ingredient": "extra virgin olive oil"
        }, 
        {
            "amount": "2 medium", 
            "ingredient": "onions, diced"
        }, 
        {
            "amount": "2 cloves", 
            "ingredient": "garlic, chopped"
        }, 
        {
            "amount": "1 tablespoon", 
            "ingredient": "chili powder"
        }, 
        {
            "amount": "1/4 teaspoon", 
            "ingredient": "ground cayenne pepper"
        }, 
        {
            "amount": "1 1/2 pounds", 
            "ingredient": "portobello mushrooms, cut into 1/2 inch pieces"
        }, 
        {
            "amount": "1 (28 ounce) can", 
            "ingredient": "Italian-style diced tomatoes"
        }, 
        {
            "amount": "1 (19 ounce) can", 
            "ingredient": "red kidney beans"
        }, 
        {
            "amount": "1/2 teaspoon", 
            "ingredient": "ground black pepper"
        }
    ], 
    "prep_steps": [
        "Heat the oil in a large pot over medium heat, and cook the onions until tender. Stir in the garlic, chili powder, and cayenne pepper. Mix the mushrooms into the skillet, and continue cooking, stirring frequently, 10 minutes, or until tender.", 
        "Pour the tomatoes and beans into the skillet. Season with salt and pepper. Reduce heat to low, cover, and simmer 40 minutes."
    ], 
    "prep_time": "1\u00bc hrs", 
    "recipe_name": "Portobello Mushroom Chili"
}