{
    "ingredients": [
        {
            "amount": "1 tablespoon", 
            "ingredient": "butter"
        }, 
        {
            "amount": "2 cloves", 
            "ingredient": "garlic, minced"
        }, 
        {
            "amount": "4 1/3 cups", 
            "ingredient": "water"
        }, 
        {
            "amount": "1 cup", 
            "ingredient": "stone ground cornmeal"
        }, 
        {
            "amount": "1/2 teaspoon", 
            "ingredient": "salt"
        }, 
        {
            "amount": "1 1/3 cups", 
            "ingredient": "fresh corn kernels"
        }, 
        {
            "amount": "2 tablespoons", 
            "ingredient": "grated Parmesan cheese"
        }, 
        {
            "amount": "1/2 bunch", 
            "ingredient": "kale"
        }, 
        {
            "amount": "1 tablespoon", 
            "ingredient": "olive oil"
        }, 
        {
            "amount": "1", 
            "ingredient": "tomato, sliced"
        }, 
        {
            "amount": "3 ounces", 
            "ingredient": "goat cheese"
        }
    ], 
    "prep_steps": [
        "In a medium saucepan, heat the butter over medium heat. Add the garlic and stir constantly for 1 minute; don't let the garlic brown. Add 3 cups of the water, and bring it to a boil.", 
        "While the water heats, whisk together in a bowl the cornmeal, salt, and 1 cup water to make a smooth mixture.", 
        "When the water in the saucepan comes to a boil, pour the mixture into it. Whisk constantly for 3 minutes to prevent lumps from forming. Turn the heat to low. Cook for 40 minutes, stirring with a wooden spoon every 10 minutes. Stir in the corn kernels and cook the polenta 5 minutes more. Stir in the pepper and Parmesan cheese. Pour the polenta into a lightly oiled 8x8 inch pan and smooth the top with a spatula. Chill the polenta in a refrigerator for 1 hour.", 
        "While the polenta is cooling, cut away the stems and center stalks of the kale. Cut the leaves into 3-inch pieces.", 
        "Cut the chilled polenta into 4 large triangles. Heat the olive oil in a large non-stick skillet over medium-high heat. When the oil begins to smoke, carefully add the polenta triangles. Fry the polenta until it is golden brown on the underside, then turn the polenta over and cook it until it is golden brown on the other side. Arrange the polenta on a baking sheet.", 
        "Preheat the broiler on your oven.", 
        "Place the kale and 1/3 cup water into the skillet that was just used to fry the polenta. Cover the skillet and cook the kale over a medium-high heat for 4 minutes.", 
        "Place the tomato slices on top of the polenta triangles. Sprinkle the goat cheese on top of the tomato slices. Broil the polenta until the cheese melts and the tomatoes begin to cook.", 
        "Arrange the kale on a serving platter. Place the hot polenta triangles on top of the kale and serve immediately."
    ], 
    "prep_time": "2\u00bd hrs", 
    "recipe_name": "Pan-fried Polenta with Corn, Kale and Goat Cheese"
}