{
    "ingredients": [
        {
            "amount": "4 pounds", 
            "ingredient": "seedless grapes"
        }, 
        {
            "amount": "1 cup", 
            "ingredient": "sour cream"
        }, 
        {
            "amount": "1 (8 ounce) package", 
            "ingredient": "cream cheese"
        }, 
        {
            "amount": "1/2 cup", 
            "ingredient": "white sugar"
        }, 
        {
            "amount": "1 teaspoon", 
            "ingredient": "vanilla extract"
        }
    ], 
    "prep_steps": [
        "Remove grapes from stems, rinse, and set aside to dry. Mix together the sour cream, cream cheese, white sugar, and vanilla in a large bowl. Fold in grapes until evenly coated. Chill overnight before serving."
    ], 
    "prep_time": "8 hrs", 
    "recipe_name": "Snow Grapes"
}