{
    "ingredients": [
        {
            "amount": "4", 
            "ingredient": "skinless, boneless chicken breasts"
        }, 
        {
            "amount": "4 cups", 
            "ingredient": "plain non-fat yogurt"
        }, 
        {
            "amount": "2 cups", 
            "ingredient": "cornflakes cereal"
        }
    ], 
    "prep_steps": [
        "Preheat the oven to 350 degrees F (175 degrees C).", 
        "Crush the cornflake crumbs between 2 pieces of wax paper.", 
        "Dip the chicken breasts in the yogurt, coating both sides. Roll in crushed cornflake crumbs to coat all sides, then place in a 9x13 inch baking dish. Bake the chicken in the preheated oven for 30 minutes."
    ], 
    "recipe_name": "Lowfat Baked Chicken"
}