{
    "ingredients": [
        {
            "amount": "1/2 cup", 
            "ingredient": "butter"
        }, 
        {
            "amount": "1 cup", 
            "ingredient": "white sugar"
        }, 
        {
            "amount": "1", 
            "ingredient": "egg"
        }, 
        {
            "amount": "1 teaspoon", 
            "ingredient": "vanilla extract"
        }, 
        {
            "amount": "1 cup", 
            "ingredient": "raisins"
        }, 
        {
            "amount": "1 1/2 cups", 
            "ingredient": "applesauce"
        }, 
        {
            "amount": "1/2 teaspoon", 
            "ingredient": "ground cinnamon"
        }, 
        {
            "amount": "2 cups", 
            "ingredient": "all-purpose flour"
        }, 
        {
            "amount": "2 teaspoons", 
            "ingredient": "baking soda"
        }, 
        {
            "amount": "3/4 teaspoon", 
            "ingredient": "salt"
        }, 
        {
            "amount": "1 cup", 
            "ingredient": "chopped walnuts"
        }
    ], 
    "prep_steps": [
        "Preheat oven to 350 degrees F (175 degrees C). Grease one 8x8 inch baking pan.", 
        "Cream butter, sugar, eggs and vanilla; beat well.", 
        "Blend in cinnamon, flour, baking soda and salt; add raisins, nuts and applesauce. Mix well.", 
        "Place batter into the prepared baking pan and bake at 350 degrees F (175 degrees C) for 30 minutes. Cut into squares and serve."
    ], 
    "recipe_name": "Applesauce Squares"
}