{
    "ingredients": [
        {
            "amount": "6", 
            "ingredient": "tomatoes, cut into bite-size pieces"
        }, 
        {
            "amount": "1/4 cup", 
            "ingredient": "extra-virgin olive oil, or more to taste"
        }, 
        {
            "amount": "1 1/2 tablespoons", 
            "ingredient": "balsamic vinegar"
        }, 
        {
            "amount": "6 leaves", 
            "ingredient": "fresh basil, cut into slivers"
        }, 
        {
            "amount": "1/2 pound", 
            "ingredient": "mozzarella cheese, cut into bite-size cubes"
        }
    ], 
    "prep_steps": [
        "Stir tomatoes, olive oil, balsamic vinegar, and basil together in a large salad bowl; gently fold in mozzarella cheese ; season with salt and black pepper. Chill before serving."
    ], 
    "prep_time": "1 hr", 
    "recipe_name": "Smiling Caprese Salad"
}