{
    "ingredients": [
        {
            "amount": "6 slices", 
            "ingredient": "bacon"
        }, 
        {
            "amount": "1 bunch", 
            "ingredient": "collard greens, rinsed and trimmed"
        }, 
        {
            "amount": "1/3 cup", 
            "ingredient": "vinegar"
        }
    ], 
    "prep_steps": [
        "Place bacon in a large, deep skillet. Cook over medium high heat until evenly brown.", 
        "Bring a large pot of water to a boil. Add collard greens, bacon (with grease), vinegar, salt, black pepper and cayenne pepper.", 
        "Boil until greens are tender, about 30 minutes."
    ], 
    "prep_time": "1 hr", 
    "recipe_name": "Spicy Collard Greens"
}