{
    "ingredients": [
        {
            "amount": "1 cup", 
            "ingredient": "mayonnaise"
        }, 
        {
            "amount": "1 (.7 ounce) package", 
            "ingredient": "dry Italian-style salad dressing mix"
        }, 
        {
            "amount": "1 (1 pound) loaf", 
            "ingredient": "cocktail rye bread"
        }, 
        {
            "amount": "1", 
            "ingredient": "cucumber, peeled and thinly sliced"
        }
    ], 
    "prep_steps": [
        "In a medium bowl, thoroughly mix mayonnaise and dry Italian-style salad dressing mix.", 
        "Arrange the cocktail rye bread slices in a single layer on a serving platter.", 
        "Place mayonnaise mixture in a pastry bag and squeeze an approximately 1 inch dollop of the mixture onto each cocktail rye bread slice.", 
        "Top each cocktail rye bread slice with a cucumber slice."
    ], 
    "prep_time": "20 mins", 
    "recipe_name": "Italian Cucumber Sandwiches"
}