{
    "ingredients": [
        {
            "amount": "2 quarts", 
            "ingredient": "chicken broth"
        }, 
        {
            "amount": "1 quart", 
            "ingredient": "water"
        }, 
        {
            "amount": "1", 
            "ingredient": "store-bought roast chicken"
        }, 
        {
            "amount": "3 tablespoons", 
            "ingredient": "vegetable oil"
        }, 
        {
            "amount": "2 large", 
            "ingredient": "onions, cut into medium dice"
        }, 
        {
            "amount": "2 large", 
            "ingredient": "carrots, peeled and cut into rounds or half rounds, depending on size"
        }, 
        {
            "amount": "2 large stalks", 
            "ingredient": "celery, sliced 1/4 inch thick"
        }, 
        {
            "amount": "1 teaspoon", 
            "ingredient": "dried thyme leaves"
        }
    ], 
    "prep_steps": [
        "Bring broth and water to a simmer over medium-high heat in a large soup kettle. Meanwhile, separate chicken meat from skin and bones; reserve meat. Add skin and bones to the simmering broth. Reduce heat to low, partially cover and simmer until bones release their flavor, 20 to 30 minutes.", 
        "Strain broth through a colander into a large container; reserve broth and discard skin and bones. Return kettle to burner set on medium-high.", 
        "Add oil, then onions, carrots and celery. Saute until soft, about 8 to 10 minutes. Add chicken, broth and thyme. Bring to a simmer. (Can be refrigerated up to 3 days in advance. Return to a simmer before adding the extras of your choice.)"
    ], 
    "recipe_name": "Fast Chicken Soup Base"
}