{
    "ingredients": [
        {
            "amount": "1/2 cup", 
            "ingredient": "brown sugar"
        }, 
        {
            "amount": "2 tablespoons", 
            "ingredient": "cornstarch"
        }, 
        {
            "amount": "1 teaspoon", 
            "ingredient": "mustard powder"
        }, 
        {
            "amount": "1 tablespoon", 
            "ingredient": "white vinegar"
        }, 
        {
            "amount": "1 cup", 
            "ingredient": "raisins"
        }, 
        {
            "amount": "1/4 teaspoon", 
            "ingredient": "grated lemon zest"
        }, 
        {
            "amount": "1 tablespoon", 
            "ingredient": "lemon juice"
        }, 
        {
            "amount": "1 1/2 cups", 
            "ingredient": "water"
        }
    ], 
    "prep_steps": [
        "In a saucepan, stir together brown sugar, cornstarch and mustard powder. Slowly stir in vinegar, then add raisins, lemon zest, lemon juice and water. Cook over medium heat, stirring frequently, until mixture comes to a boil."
    ], 
    "prep_time": "28 mins", 
    "recipe_name": "Raisin Sauce for Ham II"
}