{
    "ingredients": [
        {
            "amount": "2 tablespoons", 
            "ingredient": "ground coffee beans"
        }, 
        {
            "amount": "2 tablespoons", 
            "ingredient": "ground black pepper"
        }, 
        {
            "amount": "1 1/2 tablespoons", 
            "ingredient": "kosher salt"
        }, 
        {
            "amount": "1/2 teaspoon", 
            "ingredient": "cayenne pepper"
        }, 
        {
            "amount": "1 tablespoon", 
            "ingredient": "ground cumin"
        }
    ], 
    "prep_steps": [
        "Preheat the oven broiler. Place the ground coffee on a sheet of aluminum foil, and place about 6 inches from the heat source. Broil for about 45 seconds, shaking the foil about every 10 seconds, or whenever you see smoke.", 
        "In a small bowl, stir together the coffee, black pepper, salt, cayenne pepper, and cumin. Rub into steaks, or pound in with a meat mallet. Grill as desired."
    ], 
    "prep_time": "5 mins", 
    "recipe_name": "Uncle Buc's Coffee Meat Rub"
}