{
    "ingredients": [
        {
            "amount": "2 pounds", 
            "ingredient": "country style pork ribs"
        }, 
        {
            "amount": "4 cups", 
            "ingredient": "chicken broth"
        }, 
        {
            "amount": "1/8 cup", 
            "ingredient": "teriyaki sauce"
        }, 
        {
            "amount": "1 1/2 tablespoons", 
            "ingredient": "garlic powder"
        }, 
        {
            "amount": "1 tablespoon", 
            "ingredient": "onion powder"
        }
    ], 
    "prep_steps": [
        "Place the ribs in a roasting pan. Mix together the chicken broth, teriyaki sauce, garlic powder, onion powder, salt and pepper. Pour over the ribs. Cover, and marinate for 1/2 hour.", 
        "Preheat the oven to 350 degrees F (175 degrees C). Cover the roasting pan with aluminum foil.", 
        "Roast in the oven for about 2 hours, or until the meat is so tender that it comes off of the bone easily. Check occasionally to make sure the juices do not boil over into the oven, and remove some of the broth if necessary."
    ], 
    "prep_time": "2\u00bc hrs", 
    "recipe_name": "Simple Spare Ribs"
}