{
    "ingredients": [
        {
            "amount": "8 links", 
            "ingredient": "pork sausage"
        }, 
        {
            "amount": "1", 
            "ingredient": "onion, chopped"
        }, 
        {
            "amount": "3 tablespoons", 
            "ingredient": "all-purpose flour"
        }, 
        {
            "amount": "2 1/2 cups", 
            "ingredient": "water"
        }, 
        {
            "amount": "2 cubes", 
            "ingredient": "beef bouillon"
        }, 
        {
            "amount": "1 tablespoon", 
            "ingredient": "Worcestershire sauce"
        }, 
        {
            "amount": "2 tablespoons", 
            "ingredient": "tomato sauce"
        }
    ], 
    "prep_steps": [
        "Boil sausages in large pan of water for 5 minutes; drain and peel off skin. Chop up sausages.", 
        "Heat oil in a large fry pan and fry onion until soft and golden. Remove pan from heat and add flour. Stir slowly adding water until well combined. Return to heat and bring to boil, stirring. Add beef cubes, Worcestershire sauce, tomato sauce, salt and pepper; mix well.", 
        "Reduce heat and add cooked sausages. Cover and simmer for 20 minutes."
    ], 
    "prep_time": "45 mins", 
    "recipe_name": "Sausages in Onion Gravy"
}