{
    "ingredients": [
        {
            "amount": "1 cup", 
            "ingredient": "milk"
        }, 
        {
            "amount": "3 tablespoons", 
            "ingredient": "instant hot chocolate mix"
        }, 
        {
            "amount": "1 teaspoon", 
            "ingredient": "ground cinnamon"
        }, 
        {
            "amount": "1 pinch", 
            "ingredient": "cayenne pepper"
        }
    ], 
    "prep_steps": [
        "Mix the hot chocolate mix, cinnamon, and cayenne pepper together in a mug.", 
        "Pour the milk into a glass measuring cup; heat in microwave on High until it begins to boil, about 2 minutes. Slowly pour over the mixture in the mug, stirring with a small whisk as you pour. Enjoy immediately."
    ], 
    "prep_time": "7 mins", 
    "recipe_name": "Mayan Hot Chocolate"
}