{
    "ingredients": [
        {
            "amount": "2 tablespoons", 
            "ingredient": "brown sugar"
        }, 
        {
            "amount": "2 tablespoons", 
            "ingredient": "ground black pepper"
        }, 
        {
            "amount": "2 tablespoons", 
            "ingredient": "paprika"
        }, 
        {
            "amount": "1 tablespoon", 
            "ingredient": "chili powder"
        }, 
        {
            "amount": "1 1/2 tablespoons", 
            "ingredient": "ground white pepper"
        }, 
        {
            "amount": "1 1/2 tablespoons", 
            "ingredient": "crushed red pepper"
        }, 
        {
            "amount": "1 1/2 tablespoons", 
            "ingredient": "salt"
        }, 
        {
            "amount": "1 tablespoon", 
            "ingredient": "garlic powder"
        }
    ], 
    "prep_steps": [
        "In a small bowl, mix together brown sugar, ground black pepper, paprika, chile powder, ground white pepper, crushed red pepper, salt and garlic powder. Rub meat vigorously and wrap in foil. Refrigerate at least 8 hours, or overnight, before grilling with barbeque sauce."
    ], 
    "prep_time": "8 hrs", 
    "recipe_name": "Tennessee Rubdown"
}