{
    "ingredients": [
        {
            "amount": "2 teaspoons", 
            "ingredient": "olive oil"
        }, 
        {
            "amount": "1/4 cup", 
            "ingredient": "chopped onion"
        }, 
        {
            "amount": "1 clove", 
            "ingredient": "garlic, minced"
        }, 
        {
            "amount": "2 (9 ounce) bags", 
            "ingredient": "fresh spinach"
        }, 
        {
            "amount": "1/4 cup", 
            "ingredient": "sliced kalamata olives"
        }, 
        {
            "amount": "2 tablespoons", 
            "ingredient": "crumbled feta cheese"
        }, 
        {
            "amount": "1/2 teaspoon", 
            "ingredient": "grated lemon rind"
        }, 
        {
            "amount": "1/2 teaspoon", 
            "ingredient": "salt"
        }, 
        {
            "amount": "1/4 teaspoon", 
            "ingredient": "dried oregano"
        }, 
        {
            "amount": "1/8 teaspoon", 
            "ingredient": "white pepper"
        }, 
        {
            "amount": "1 pound", 
            "ingredient": "tilapia fillets"
        }, 
        {
            "amount": "2 tablespoons", 
            "ingredient": "butter, melted"
        }, 
        {
            "amount": "2 teaspoons", 
            "ingredient": "lemon juice"
        }, 
        {
            "amount": "1 pinch", 
            "ingredient": "paprika, or to taste"
        }
    ], 
    "prep_steps": [
        "Preheat oven to 400 degrees F (200 degrees C).", 
        "Heat olive oil in a large skillet over medium heat; cook and stir onion and garlic in the hot oil until onion is soft, about 5 minutes. Add spinach to skillet; cook and stir until spinach is wilted and cooked down, 5 more minutes. Stir olives, feta cheese, lemon rind, salt, oregano, and white pepper into spinach. Cook until feta cheese has melted and flavors have blended, about 5 more minutes.", 
        "Spread spinach mixture into a 9x13-inch baking dish. Arrange tilapia fillets over spinach mixture. Mix butter and lemon juice in a small bowl and drizzle over fish; sprinkle with paprika.", 
        "Bake fish in the preheated oven until the flesh is opaque and flakes easily, 20 to 25 minutes."
    ], 
    "prep_time": "55 mins", 
    "recipe_name": "Tilapia Feta Florentine"
}