{
    "ingredients": [
        {
            "amount": "3 pounds", 
            "ingredient": "ground beef"
        }, 
        {
            "amount": "3 cups", 
            "ingredient": "chicken broth"
        }, 
        {
            "amount": "3 tablespoons", 
            "ingredient": "Worcestershire sauce"
        }, 
        {
            "amount": "3 tablespoons", 
            "ingredient": "spicy brown mustard"
        }, 
        {
            "amount": "1 teaspoon", 
            "ingredient": "salt"
        }, 
        {
            "amount": "1 teaspoon", 
            "ingredient": "ground black pepper"
        }, 
        {
            "amount": "1/4 cup", 
            "ingredient": "yellow mustard, or as needed"
        }, 
        {
            "amount": "12", 
            "ingredient": "hamburger buns, split"
        }, 
        {
            "amount": "24", 
            "ingredient": "dill pickle slices"
        }
    ], 
    "prep_steps": [
        "Heat a large skillet over medium-high heat, and cook and stir until the beef is crumbly, evenly browned, and no longer pink. Drain and discard any excess grease. Stir in the chicken broth, Worcestershire sauce, brown mustard, salt, and pepper. Bring to a boil, then reduce heat to low, and simmer uncovered until the liquid has evaporated, about 30 minutes.", 
        "Meanwhile, preheat an oven to 300 degrees F (150 degrees C).", 
        "Spread the desired amount of yellow mustard on the top half of each bun. Place 2 pickle slices on the bottom half, then spoon 2 to 3 tablespoons of the ground beef mixture over, and top with the other half of the bun to make a sandwich. Repeat until all the sandwiches are complete.", 
        "Wrap each sandwich individually with aluminum foil and place on a baking sheet. Bake in the preheated oven until the bread is warmed through, about 10 minutes."
    ], 
    "prep_time": "1\u00bc hrs", 
    "recipe_name": "Midwest Loose Meats"
}