{
    "ingredients": [
        {
            "amount": "4 slices", 
            "ingredient": "hickory-smoked bacon"
        }, 
        {
            "amount": "3/4 pound", 
            "ingredient": "ground beef"
        }, 
        {
            "amount": "1 pound", 
            "ingredient": "bulk pork sausage"
        }, 
        {
            "amount": "3/4 pound", 
            "ingredient": "cubed beef stew meat"
        }, 
        {
            "amount": "1 1/2 cups", 
            "ingredient": "chopped onion"
        }, 
        {
            "amount": "2 cloves", 
            "ingredient": "garlic, minced"
        }, 
        {
            "amount": "1 stalk", 
            "ingredient": "celery, chopped"
        }, 
        {
            "amount": "1/2", 
            "ingredient": "habanero pepper, seeded and minced, or to taste"
        }, 
        {
            "amount": "1/2 large", 
            "ingredient": "green bell pepper, chopped"
        }, 
        {
            "amount": "1/2 large", 
            "ingredient": "red bell pepper, chopped"
        }, 
        {
            "amount": "1 (28 ounce) can", 
            "ingredient": "tomato sauce"
        }, 
        {
            "amount": "1 1/2 teaspoons", 
            "ingredient": "ground cumin"
        }, 
        {
            "amount": "2 cups", 
            "ingredient": "cubed cooked chicken"
        }, 
        {
            "amount": "3 (14.5 ounce) cans", 
            "ingredient": "fire-roasted diced tomatoes, with juice"
        }, 
        {
            "amount": "1 (15 ounce) can", 
            "ingredient": "cannellini beans, rinsed and drained"
        }, 
        {
            "amount": "1 (15 ounce) can", 
            "ingredient": "pinto beans, rinsed and drained"
        }, 
        {
            "amount": "1 (15 ounce) can", 
            "ingredient": "butter beans, rinsed and drained"
        }, 
        {
            "amount": "3/4 cup", 
            "ingredient": "sour cream"
        }
    ], 
    "prep_steps": [
        "Place the bacon in a large pot, and cook over medium-high heat, turning occasionally, until evenly browned, about 10 minutes. Drain the bacon slices on a paper towel-lined plate. In the same pot, stir in the ground beef, sausage, and beef stew meat. Cook and stir until the ground meat is crumbly, evenly browned, and no longer pink. Drain and set meat aside in a bowl. Discard any excess grease.", 
        "Reduce heat to medium, then stir the onion, garlic, celery, habanero pepper, green bell pepper, and red bell pepper into the same large pot; cook and stir until the onion has softened and turned translucent, about 5 minutes. Stir in the tomato sauce and cumin, then add the beef and sausage mixture, bacon, and chicken. Stir in the diced tomatoes, cannellini beans, pinto beans, and butter beans. Season with salt and pepper. Bring to a boil over high heat, then reduce heat to low and simmer for 2 hours. Serve with a dollop of sour cream."
    ], 
    "prep_time": "3 hrs", 
    "recipe_name": "Five Meat Habanero Chili"
}