{
    "ingredients": [
        {
            "amount": "3/4 cup", 
            "ingredient": "butter"
        }, 
        {
            "amount": "2 1/3 cups", 
            "ingredient": "rolled oats"
        }, 
        {
            "amount": "1/2 cup", 
            "ingredient": "sifted all-purpose flour"
        }, 
        {
            "amount": "1 teaspoon", 
            "ingredient": "ground cinnamon"
        }, 
        {
            "amount": "1/2 teaspoon", 
            "ingredient": "salt"
        }, 
        {
            "amount": "1/2 teaspoon", 
            "ingredient": "baking soda"
        }, 
        {
            "amount": "1 cup", 
            "ingredient": "packed light brown sugar"
        }, 
        {
            "amount": "1", 
            "ingredient": "egg"
        }, 
        {
            "amount": "1 teaspoon", 
            "ingredient": "vanilla extract"
        }
    ], 
    "prep_steps": [
        "Preheat oven to 375 degrees F (190 degrees C).", 
        "In medium skillet, over medium heat, heat butter until lightly browned. Be careful not to burn. Add oats; saute, stirring constantly, until golden -- about 5 minutes. Remove from heat; cool.", 
        "Meanwhile, sift flour with cinnamon, salt, and soda; set aside.", 
        "In large bowl, combine sugar, egg, and vanilla. With wooden spoon, or portable electric mixer at medium speed, beat until light.", 
        "Stir in rolled oats and flour mixture until well combined.", 
        "Drop by slightly rounded teaspoonfuls, 3 inches apart, onto ungreased cookie sheets.", 
        "Bake 10 to 12 minutes, or until golden. Remove to wire rack. Cool."
    ], 
    "recipe_name": "Toasted Oats Cookies"
}