{
    "ingredients": [
        {
            "amount": "3 tablespoons", 
            "ingredient": "vegetable oil"
        }, 
        {
            "amount": "1 cup", 
            "ingredient": "self-rising cornmeal"
        }, 
        {
            "amount": "3/4 cup", 
            "ingredient": "buttermilk"
        }, 
        {
            "amount": "1", 
            "ingredient": "egg"
        }, 
        {
            "amount": "1 tablespoon", 
            "ingredient": "honey"
        }, 
        {
            "amount": "1 tablespoon", 
            "ingredient": "self-rising cornmeal"
        }
    ], 
    "prep_steps": [
        "Preheat oven to 400 degrees F (200 degrees C). In an 8 inch cast iron skillet, heat vegetable oil over low heat.", 
        "In a medium bowl, mix together cornmeal, buttermilk, egg and honey. Carefully stir in the hot oil. Sprinkle skillet with remaining 1 tablespoon corn meal. Spoon mixture into skillet.", 
        "Bake in preheated oven for 22 minutes, or until firm. Serve hot."
    ], 
    "prep_time": "30 mins", 
    "recipe_name": "Delicious Southern Cornbread"
}