{
    "ingredients": [
        {
            "amount": "2 cups", 
            "ingredient": "crushed pretzels"
        }, 
        {
            "amount": "3/4 cup", 
            "ingredient": "butter, melted"
        }, 
        {
            "amount": "3 tablespoons", 
            "ingredient": "white sugar"
        }, 
        {
            "amount": "1 (8 ounce) package", 
            "ingredient": "cream cheese, softened"
        }, 
        {
            "amount": "1 cup", 
            "ingredient": "white sugar"
        }, 
        {
            "amount": "1 (8 ounce) container", 
            "ingredient": "frozen whipped topping, thawed"
        }, 
        {
            "amount": "2 (3 ounce) packages", 
            "ingredient": "strawberry flavored Jell-O\u00ae"
        }, 
        {
            "amount": "2 cups", 
            "ingredient": "boiling water"
        }, 
        {
            "amount": "2 (10 ounce) packages", 
            "ingredient": "frozen strawberries"
        }
    ], 
    "prep_steps": [
        "Preheat oven to 400 degrees F (200 degrees C).", 
        "Stir together crushed pretzels, melted butter and 3 tablespoons sugar; mix well and press mixture into the bottom of a 9x13 inch baking dish.", 
        "Bake 8 to 10 minutes, until set. Set aside to cool.", 
        "In a large mixing bowl cream together cream cheese and 1 cup sugar. Fold in whipped topping. Spread mixture onto cooled crust.", 
        "Dissolve gelatin in boiling water. Stir in still frozen strawberries and allow to set briefly. When mixture is about the consistency of egg whites, pour and spread over cream cheese layer. Refrigerate until set."
    ], 
    "prep_time": "45 mins", 
    "recipe_name": "Strawberry Pretzel Salad"
}