{
    "ingredients": [
        {
            "amount": "3 pounds", 
            "ingredient": "chicken wings"
        }, 
        {
            "amount": "2 tablespoons", 
            "ingredient": "olive oil"
        }, 
        {
            "amount": "1/2 cup", 
            "ingredient": "soy sauce"
        }, 
        {
            "amount": "2 tablespoons", 
            "ingredient": "ketchup"
        }, 
        {
            "amount": "1 cup", 
            "ingredient": "honey"
        }, 
        {
            "amount": "1 clove", 
            "ingredient": "garlic, minced"
        }
    ], 
    "prep_steps": [
        "Preheat oven to 375 degrees F (190 degrees C).", 
        "Place chicken in a 9x13 inch baking dish. Mix together the oil, soy sauce, ketchup, honey, garlic, salt and pepper. Pour over the chicken.", 
        "Bake in preheated oven for one hour, or until sauce is caramelized."
    ], 
    "prep_time": "1\u00bc hrs", 
    "recipe_name": "Caramelized Baked Chicken"
}