{
    "ingredients": [
        {
            "amount": "1/4 cup", 
            "ingredient": "strawberry preserves"
        }, 
        {
            "amount": "1 1/2 tablespoons", 
            "ingredient": "minced garlic"
        }, 
        {
            "amount": "1 tablespoon", 
            "ingredient": "soy sauce"
        }, 
        {
            "amount": "1 tablespoon", 
            "ingredient": "prepared horseradish"
        }, 
        {
            "amount": "2", 
            "ingredient": "pork chops"
        }, 
        {
            "amount": "1 tablespoon", 
            "ingredient": "butter"
        }, 
        {
            "amount": "1 pinch", 
            "ingredient": "cayenne pepper"
        }, 
        {
            "amount": "4", 
            "ingredient": "fresh strawberries for garnish"
        }
    ], 
    "prep_steps": [
        "In a small saucepan, combine the strawberry preserves, minced garlic, soy sauce and horseradish. Cook over low heat, stirring frequently until heated through.", 
        "Melt butter in a medium skillet. Lightly sprinkle both sides of each pork chop with cayenne pepper. Fry the chops until browned on each side, then continue to cook over medium heat until no longer pink, and the juices run clear.", 
        "Serve chops with sauce poured over, and garnish with fresh strawberries."
    ], 
    "prep_time": "35 mins", 
    "recipe_name": "Leslie's Strawberry Breakfast Chops"
}