{
    "ingredients": [
        {
            "amount": "1/2 pound", 
            "ingredient": "bacon, cut in half"
        }, 
        {
            "amount": "1 (8 ounce) can", 
            "ingredient": "water chestnuts"
        }, 
        {
            "amount": "3/4 cup", 
            "ingredient": "ketchup"
        }, 
        {
            "amount": "1/2 cup", 
            "ingredient": "packed brown sugar"
        }
    ], 
    "prep_steps": [
        "Preheat oven to 375 degrees F (190 degrees C).", 
        "Wrap 1/2 strip of bacon around each water chestnut. Combine ketchup and sugar in a small bowl and mix together; dip each wrapped water chestnut into this mixture.", 
        "Place water chestnuts in a lightly greased 9x13 inch baking dish and bake covered in the preheated oven for 20 minutes, or until bacon is crisp."
    ], 
    "prep_time": "25 mins", 
    "recipe_name": "Bacon Wrapped Water Chestnuts I"
}