{
    "ingredients": [
        {
            "amount": "1 pound", 
            "ingredient": "ground pork"
        }, 
        {
            "amount": "1 pound", 
            "ingredient": "ground turkey"
        }, 
        {
            "amount": "2", 
            "ingredient": "eggs"
        }, 
        {
            "amount": "2 tablespoons", 
            "ingredient": "dry bread crumbs"
        }, 
        {
            "amount": "8 ounces", 
            "ingredient": "fresh mushrooms, sliced"
        }, 
        {
            "amount": "1 clove", 
            "ingredient": "garlic, minced"
        }, 
        {
            "amount": "1 teaspoon", 
            "ingredient": "Italian seasoning"
        }, 
        {
            "amount": "1/2 teaspoon", 
            "ingredient": "basil"
        }, 
        {
            "amount": "1 1/2 teaspoons", 
            "ingredient": "Worcestershire sauce"
        }
    ], 
    "prep_steps": [
        "Preheat an outdoor grill for medium heat.", 
        "In a large bowl, mix together the ground pork, ground turkey, eggs, bread crumbs, mushrooms, garlic, Italian seasoning, basil, and Worcestershire sauce using your hands. Pat evenly into a 9 inch pie plate.", 
        "Place the pie plate onto a cookie sheet, and place on the grill grate. Close the lid, and cook for 30 to 45 minutes, until no longer pink. The meat will cook faster on the grill than in the oven."
    ], 
    "prep_time": "1 hr", 
    "recipe_name": "Meatloaf on the Grill"
}