{
    "ingredients": [
        {
            "amount": "1 (32 fluid ounce) bottle", 
            "ingredient": "cranberry juice"
        }, 
        {
            "amount": "1/4 cup", 
            "ingredient": "white sugar"
        }, 
        {
            "amount": "2 cups", 
            "ingredient": "ginger ale"
        }, 
        {
            "amount": "2 1/4 cups", 
            "ingredient": "rum"
        }, 
        {
            "amount": "8 slices", 
            "ingredient": "lemon"
        }
    ], 
    "prep_steps": [
        "In a medium-size punchbowl, stir cranberry juice and sugar together until the sugar dissolves. Mix in ginger ale, rum, and lemon and lime slices. Serve over ice."
    ], 
    "prep_time": "5 mins", 
    "recipe_name": "Cranberry Rum Punch"
}