{
    "ingredients": [
        {
            "amount": "1 pound", 
            "ingredient": "ground beef"
        }, 
        {
            "amount": "1 pound", 
            "ingredient": "fresh, ground pork sausage"
        }, 
        {
            "amount": "1", 
            "ingredient": "onion, chopped"
        }, 
        {
            "amount": "10 ounces", 
            "ingredient": "processed American cheese, cubed"
        }, 
        {
            "amount": "32 ounces", 
            "ingredient": "cocktail rye bread"
        }
    ], 
    "prep_steps": [
        "Preheat oven to 350 degrees F (175 degrees C).", 
        "In a large skillet, brown ground beef and sausage.", 
        "Mix onion into the sausage and beef mixture, and saute it until tender. Drain grease out of skillet. Stir processed cheese food into the mixture. Continue cooking until cheese melts. Arrange slices of bread on a cookie sheet, place heaping spoonfuls of the mixture onto each slice of bread.", 
        "Bake 12 to 15 minutes."
    ], 
    "prep_time": "40 mins", 
    "recipe_name": "Mini Pizzas"
}