{
    "ingredients": [
        {
            "amount": "1 (8 ounce) package", 
            "ingredient": "dry black beans"
        }, 
        {
            "amount": "1 (8 ounce) package", 
            "ingredient": "dry kidney beans"
        }, 
        {
            "amount": "1 tablespoon", 
            "ingredient": "chili powder"
        }, 
        {
            "amount": "1/2 teaspoon", 
            "ingredient": "crushed red pepper flakes"
        }, 
        {
            "amount": "1", 
            "ingredient": "jalapeno pepper, seeded and minced"
        }, 
        {
            "amount": "2 tablespoons", 
            "ingredient": "vegetable oil"
        }, 
        {
            "amount": "1 large", 
            "ingredient": "sweet onion, chopped"
        }, 
        {
            "amount": "2", 
            "ingredient": "green bell peppers, chopped"
        }, 
        {
            "amount": "2", 
            "ingredient": "zucchini, diced"
        }, 
        {
            "amount": "3 (10 ounce) cans", 
            "ingredient": "diced tomatoes with green chile peppers"
        }, 
        {
            "amount": "1 (10 ounce) can", 
            "ingredient": "tomato sauce"
        }, 
        {
            "amount": "1/2 (16 ounce) jar", 
            "ingredient": "hot chunky salsa"
        }, 
        {
            "amount": "2 tablespoons", 
            "ingredient": "chili sauce"
        }, 
        {
            "amount": "2 pounds", 
            "ingredient": "ground buffalo"
        }
    ], 
    "prep_steps": [
        "Soak beans in water overnight. Drain and rinse.", 
        "In a large pot, combine beans with water to cover. Bring to a boil, reduce heat, and simmer 1 to 2 hours, until tender. Once the beans have absorbed most of the water, and are starting to soften, season with chile powder, red pepper flakes, jalapeno, salt and pepper. Reserve the seeds.", 
        "Heat oil in a large heavy skillet over medium low heat. Saute the onion and bell peppers for 3 minutes. Stir in diced zucchini, diced tomatoes, tomato sauce and salsa. Season with jalapeno seeds and chili sauce, stir well, and leave on medium-low heat.", 
        "Place ground buffalo meat in a large, deep skillet. Cook over medium high heat until evenly brown. Drain excess fat. Stir buffalo and vegetable mixture into beans. Continue to simmer for 1 hour."
    ], 
    "prep_time": "4 hr", 
    "recipe_name": "West Texas-Style Buffalo Chili"
}