{
    "ingredients": [
        {
            "amount": "1 cup", 
            "ingredient": "elbow macaroni"
        }, 
        {
            "amount": "6 slices", 
            "ingredient": "Canadian-style bacon"
        }, 
        {
            "amount": "2 tablespoons", 
            "ingredient": "margarine"
        }, 
        {
            "amount": "2 1/2 tablespoons", 
            "ingredient": "all-purpose flour"
        }, 
        {
            "amount": "1 cup", 
            "ingredient": "canned tomatoes, half-drained"
        }, 
        {
            "amount": "1 cup", 
            "ingredient": "shredded Cheddar cheese"
        }
    ], 
    "prep_steps": [
        "Bring a large pot of lightly salted water to a boil. Add macaroni and cook for 8 to 10 minutes or until al dente; drain.", 
        "While macaroni is boiling, fry bacon and place on paper towels to drain. Cut into bite size pieces.", 
        "Melt margarine in a large saucepan over medium low heat. Stir in flour, then tomatoes and wait for sauce to thicken, stirring occasionally. When thickness is to your liking, stir in cheese until it has melted. Stir in cooked macaroni and bacon and heat through. Serve hot."
    ], 
    "prep_time": "45 mins", 
    "recipe_name": "Canadian Bacon Macaroni and Cheese"
}