{
    "ingredients": [
        {
            "amount": "1 cup", 
            "ingredient": "semisweet chocolate chips"
        }, 
        {
            "amount": "1/4 cup", 
            "ingredient": "butter"
        }, 
        {
            "amount": "1 tablespoon", 
            "ingredient": "instant coffee powder"
        }, 
        {
            "amount": "1", 
            "ingredient": "egg"
        }, 
        {
            "amount": "1", 
            "ingredient": "egg yolk"
        }, 
        {
            "amount": "2/3 cup", 
            "ingredient": "all-purpose flour"
        }, 
        {
            "amount": "1/2 cup", 
            "ingredient": "white sugar"
        }, 
        {
            "amount": "1/8 teaspoon", 
            "ingredient": "baking soda"
        }, 
        {
            "amount": "1 tablespoon", 
            "ingredient": "coffee-flavored liqueur"
        }, 
        {
            "amount": "1 teaspoon", 
            "ingredient": "vanilla extract"
        }, 
        {
            "amount": "1/3 cup", 
            "ingredient": "confectioners' sugar for decoration"
        }
    ], 
    "prep_steps": [
        "Preheat oven to 350 degrees F (175 degrees C).", 
        "In the 8x8 inch baking pan, melt the butter and chocolate chips on the stove top, over medium heat, stirring constantly. Remove from the heat, and stir in the coffee, egg and yolk. Sift together the flour, sugar, and baking soda, stir into the chocolate mixture. Then stir in the vanilla and coffee liqueur.", 
        "Bake for 20 to 25 minutes in the preheated oven. Cool slightly and dust with confectioners' sugar. Cut into squares."
    ], 
    "recipe_name": "Coffee Liqueur Brownies"
}