{
    "ingredients": [
        {
            "amount": "7 cups", 
            "ingredient": "white bread cubes"
        }, 
        {
            "amount": "1 cup", 
            "ingredient": "raisins"
        }, 
        {
            "amount": "3/4 cup", 
            "ingredient": "butter"
        }, 
        {
            "amount": "1 cup", 
            "ingredient": "chopped onion"
        }, 
        {
            "amount": "1 cup", 
            "ingredient": "chopped celery"
        }, 
        {
            "amount": "1 clove", 
            "ingredient": "garlic, minced"
        }, 
        {
            "amount": "3 cups", 
            "ingredient": "diced apple without peel"
        }, 
        {
            "amount": "1/4 cup", 
            "ingredient": "chopped fresh parsley"
        }, 
        {
            "amount": "1 1/2 teaspoons", 
            "ingredient": "salt"
        }, 
        {
            "amount": "1/4 teaspoon", 
            "ingredient": "paprika"
        }
    ], 
    "prep_steps": [
        "Preheat oven to 350 degrees F (175 degrees C). Lightly butter a 2 quart casserole dish.", 
        "Cover raisins with boiling water and let sit for 5 minutes. Drain well then toss them with the bread cubes.", 
        "In a skillet melt the butter and saute the onions, garlic, and celery for about 4 to 5 minutes. Stir the sauteed onions into the bread cube mixture. Add the diced apples, parsley, salt and paprika and stir carefully. Place stuffing mix in the prepared dish or you can alternately place it in a large roaster with your favorite uncooked meat (pork chops, turkey, chicken, etc.).", 
        "Bake the dressing for 30 to 40 minutes. If you are baking the dressing with meat cook it until the meat is completely done all the way through."
    ], 
    "recipe_name": "Apple and Onion Dressing"
}