{
    "ingredients": [
        {
            "amount": "1 cup", 
            "ingredient": "butter, softened"
        }, 
        {
            "amount": "1 3/4 cups", 
            "ingredient": "white sugar"
        }, 
        {
            "amount": "4", 
            "ingredient": "eggs"
        }, 
        {
            "amount": "1 teaspoon", 
            "ingredient": "vanilla extract"
        }, 
        {
            "amount": "2 1/2 cups", 
            "ingredient": "all-purpose flour"
        }, 
        {
            "amount": "1 1/2 teaspoons", 
            "ingredient": "baking powder"
        }, 
        {
            "amount": "1 pinch", 
            "ingredient": "salt"
        }, 
        {
            "amount": "1 (21 ounce) can", 
            "ingredient": "cherry pie filling"
        }
    ], 
    "prep_steps": [
        "Preheat oven to 350 degrees F (175 degrees C). Grease a 9x13 inch baking pan.", 
        "In a large bowl, cream together the butter and sugar until light and fluffy. Beat in the egg and vanilla. Combine the flour, baking powder and salt; stir into the creamed mixture. Reserve 1 1/2 cups of the dough and spread the rest into the bottom of the prepared pan. Cover this layer evenly with cherry pie filling. Drop the rest of the dough by spoonfuls on top of the cherry layer and spread to cover the best you can.", 
        "Bake for 35 to 40 minutes in the preheated oven, until top is golden. Frost with a confectioners' glaze when cool for sweeter bars. Let cool completely before cutting into bars."
    ], 
    "prep_time": "1 hr", 
    "recipe_name": "Quick and Easy Cherry Bars"
}