{
    "ingredients": [
        {
            "amount": "3 cups", 
            "ingredient": "all-purpose flour"
        }, 
        {
            "amount": "1 teaspoon", 
            "ingredient": "baking soda"
        }, 
        {
            "amount": "1/2 teaspoon", 
            "ingredient": "salt"
        }, 
        {
            "amount": "1/2 cup", 
            "ingredient": "shortening"
        }, 
        {
            "amount": "1/2 cup", 
            "ingredient": "butter"
        }, 
        {
            "amount": "1 1/2 cups", 
            "ingredient": "white sugar"
        }, 
        {
            "amount": "2", 
            "ingredient": "eggs"
        }, 
        {
            "amount": "1 tablespoon", 
            "ingredient": "maraschino cherry juice"
        }, 
        {
            "amount": "1 teaspoon", 
            "ingredient": "vanilla extract"
        }, 
        {
            "amount": "2 cups", 
            "ingredient": "rolled oats"
        }, 
        {
            "amount": "1/2 cup", 
            "ingredient": "maraschino cherries, drained and chopped"
        }, 
        {
            "amount": "1 cup", 
            "ingredient": "chopped walnuts"
        }
    ], 
    "prep_steps": [
        "Preheat oven to 350 degrees F (175 degrees C).", 
        "Sift together flour, baking soda and salt.", 
        "In a separate bowl, cream together shortening, butter or margarine, sugar, eggs, cherry juice and vanilla. Stir in flour mixture and mix well.", 
        "Blend in oatmeal, chopped cherries and chopped nuts. Mix well.", 
        "Roll into balls the size of walnuts and slightly mash down. Bake to a golden brown, 8 - 10 minutes."
    ], 
    "recipe_name": "Cherry Oatmeal Cookies"
}