{
    "ingredients": [
        {
            "amount": "2 cups", 
            "ingredient": "all-purpose flour"
        }, 
        {
            "amount": "3 teaspoons", 
            "ingredient": "baking powder"
        }, 
        {
            "amount": "1/2 teaspoon", 
            "ingredient": "salt"
        }, 
        {
            "amount": "1/2 cup", 
            "ingredient": "white sugar"
        }, 
        {
            "amount": "1/4 cup", 
            "ingredient": "shortening"
        }, 
        {
            "amount": "1 cup", 
            "ingredient": "milk"
        }, 
        {
            "amount": "1 cup", 
            "ingredient": "apple - peeled, cored and chopped"
        }
    ], 
    "prep_steps": [
        "Preheat oven to 400 degrees F (200 degrees C). Lightly grease 12 muffin cups.", 
        "In a large bowl, sift together the flour, baking powder and salt.", 
        "In a separate bowl, cream together sugar and shortening. Stir the flour mixture into the sugar mixture alternately with the milk. Fold in the fruit. Pour batter into prepared muffin pans.", 
        "Bake in preheated oven for 20 to 25 minutes, until a toothpick inserted into the center of a muffin comes out clean."
    ], 
    "prep_time": "30 mins", 
    "recipe_name": "Fruit Muffins"
}