{
    "ingredients": [
        {
            "amount": "1 tablespoon", 
            "ingredient": "butter"
        }, 
        {
            "amount": "1 teaspoon", 
            "ingredient": "salt"
        }, 
        {
            "amount": "1/3 cup", 
            "ingredient": "dark molasses"
        }, 
        {
            "amount": "2 teaspoons", 
            "ingredient": "white sugar"
        }, 
        {
            "amount": "1 1/4 cups", 
            "ingredient": "warm water"
        }, 
        {
            "amount": "1 1/2 tablespoons", 
            "ingredient": "powdered milk"
        }, 
        {
            "amount": "1/2 cup", 
            "ingredient": "rolled oats"
        }, 
        {
            "amount": "3 1/2 cups", 
            "ingredient": "bread flour"
        }, 
        {
            "amount": "2 teaspoons", 
            "ingredient": "instant yeast"
        }, 
        {
            "amount": "1/4 cup", 
            "ingredient": "rolled oats"
        }
    ], 
    "prep_steps": [
        "Place all ingredients except 1/4 cup rolled oats in the pan of the bread machine in the order recommended by the manufacturer. Select White Bread cycle, light crust; press Start.", 
        "If your machine has a Fruit setting, add the remaining oats at the signal, or about 5 minutes before the kneading cycle has finished."
    ], 
    "prep_time": "3 hrs", 
    "recipe_name": "Mac's Shoe-Fly Bread"
}