{
    "ingredients": [
        {
            "amount": "1 cup", 
            "ingredient": "dry black-eyed peas"
        }, 
        {
            "amount": "1/4 cup", 
            "ingredient": "olive oil"
        }, 
        {
            "amount": "1", 
            "ingredient": "onion, chopped"
        }, 
        {
            "amount": "3 cups", 
            "ingredient": "fresh spinach"
        }, 
        {
            "amount": "1 (28 ounce) can", 
            "ingredient": "peeled and diced tomatoes"
        }, 
        {
            "amount": "2 teaspoons", 
            "ingredient": "salt"
        }, 
        {
            "amount": "1 teaspoon", 
            "ingredient": "fennel seed, ground"
        }
    ], 
    "prep_steps": [
        "Preheat oven to 350 degrees F (175 degrees C).", 
        "Cook black-eye peas in a pressure cooker for 12 minutes.", 
        "Heat oil in a large saucepan over medium high heat. Saute onion with spinach, tomatoes, salt and fennel for 15 minutes.", 
        "Combine beans with spinach mixture in a 2 quart casserole dish.", 
        "Bake in preheated oven for 15 minutes."
    ], 
    "prep_time": "50 mins", 
    "recipe_name": "Spinach and Bean Casserole"
}