{
    "ingredients": [
        {
            "amount": "1 (16 ounce) package", 
            "ingredient": "penne pasta"
        }, 
        {
            "amount": "2 cups", 
            "ingredient": "chopped broccoli"
        }, 
        {
            "amount": "1 cup", 
            "ingredient": "sliced mushrooms"
        }, 
        {
            "amount": "1 cup", 
            "ingredient": "chopped green bell pepper"
        }, 
        {
            "amount": "1 tablespoon", 
            "ingredient": "butter"
        }, 
        {
            "amount": "1", 
            "ingredient": "onion, chopped"
        }, 
        {
            "amount": "1 clove", 
            "ingredient": "garlic, minced"
        }, 
        {
            "amount": "1/4 cup", 
            "ingredient": "all-purpose flour"
        }, 
        {
            "amount": "4 cups", 
            "ingredient": "nonfat milk"
        }, 
        {
            "amount": "1/2 cup", 
            "ingredient": "grated Parmesan cheese"
        }, 
        {
            "amount": "5 tablespoons", 
            "ingredient": "chopped fresh basil, divided"
        }, 
        {
            "amount": "1/3 cup", 
            "ingredient": "dry bread crumbs"
        }, 
        {
            "amount": "2 tablespoons", 
            "ingredient": "grated Parmesan cheese"
        }, 
        {
            "amount": "1", 
            "ingredient": "butter flavored cooking spray"
        }
    ], 
    "prep_steps": [
        "Preheat oven to 350 degrees F (175 degrees C).", 
        "Bring a large pot of lightly salted water to a boil. Add pasta and cook for 8 to 10 minutes. Stir in broccoli, mushrooms and green pepper, and cook 6 to 8 minutes more, or until pasta is al dente; drain.", 
        "Meanwhile, melt butter in a medium saucepan over medium-high heat. Saute onions and garlic for 1 to 2 minutes. Stir in flour and milk; cook 5 minutes, or until mixture coats the back of a spoon. Remove from heat and stir in 1/2 cup Parmesan cheese, salt and pepper.", 
        "In a 9x13 inch baking dish combine pasta, vegetables, milk mixture and 4 tablespoons basil. Sprinkle with bread crumbs, 2 tablespoons Parmesan cheese, and remaining 1 tablespoon basil. Coat with butter flavored cooking spray.", 
        "Bake in preheated oven for 30 minutes, or until golden brown."
    ], 
    "prep_time": "55 mins", 
    "recipe_name": "Vegetable Pasta Casserole"
}