{
    "ingredients": [
        {
            "amount": "2 tablespoons", 
            "ingredient": "vegetable oil"
        }, 
        {
            "amount": "1", 
            "ingredient": "onion, chopped"
        }, 
        {
            "amount": "1", 
            "ingredient": "green bell pepper, chopped"
        }, 
        {
            "amount": "1", 
            "ingredient": "yellow bell pepper, chopped"
        }, 
        {
            "amount": "2 (14.5 ounce) cans", 
            "ingredient": "chicken broth"
        }, 
        {
            "amount": "1 (10 ounce) can", 
            "ingredient": "diced tomatoes with green chile peppers"
        }, 
        {
            "amount": "2 (15 ounce) cans", 
            "ingredient": "black beans, drained"
        }, 
        {
            "amount": "1 (15 ounce) can", 
            "ingredient": "pinto beans, drained"
        }, 
        {
            "amount": "2 (15 ounce) cans", 
            "ingredient": "kidney beans, drained"
        }
    ], 
    "prep_steps": [
        "In a large saucepan over medium heat, cook onion, green and yellow bell peppers in oil until softened. Stir in chicken broth, tomatoes, black beans, pinto beans and kidney beans. Heat through."
    ], 
    "prep_time": "30 mins", 
    "recipe_name": "Three Bean Soup"
}