{
    "ingredients": [
        {
            "amount": "1 (9 inch)", 
            "ingredient": "pie crust, baked"
        }, 
        {
            "amount": "2 cups", 
            "ingredient": "pureed mango"
        }, 
        {
            "amount": "1 tablespoon", 
            "ingredient": "fresh lime juice"
        }, 
        {
            "amount": "1/4 cup", 
            "ingredient": "evaporated milk"
        }, 
        {
            "amount": "1/4 cup", 
            "ingredient": "sifted all-purpose flour"
        }, 
        {
            "amount": "3/4 cup", 
            "ingredient": "white sugar"
        }, 
        {
            "amount": "1/2 teaspoon", 
            "ingredient": "ground cinnamon"
        }, 
        {
            "amount": "2", 
            "ingredient": "eggs, beaten"
        }
    ], 
    "prep_steps": [
        "Preheat oven to 350 degrees F (175 degrees C).", 
        "In a large bowl mix together mango puree, lime juice, and evaporated milk. In a separate bowl thoroughly mix flour, sugar, and cinnamon.", 
        "Gently stir flour mixture into mango mixture. Whisk until smooth, then mix in beaten eggs. Pour mixture into pastry shell.", 
        "Bake in preheated oven for 30 minutes. Chill before serving."
    ], 
    "recipe_name": "Mango Custard Pie"
}