{
    "ingredients": [
        {
            "amount": "3 tablespoons", 
            "ingredient": "extra virgin olive oil, divided"
        }, 
        {
            "amount": "10", 
            "ingredient": "chicken tenderloins"
        }, 
        {
            "amount": "1 (26 ounce) jar", 
            "ingredient": "spaghetti sauce with mushrooms"
        }, 
        {
            "amount": "1 (14.5 ounce) can", 
            "ingredient": "Italian diced tomatoes, undrained"
        }, 
        {
            "amount": "1", 
            "ingredient": "red bell pepper, diced"
        }, 
        {
            "amount": "1 (15 ounce) can", 
            "ingredient": "whole kernel corn, drained"
        }, 
        {
            "amount": "1 (10 ounce) can", 
            "ingredient": "whole black olives, drained"
        }, 
        {
            "amount": "1/4 cup", 
            "ingredient": "canned jalapeno pepper slices, undrained"
        }, 
        {
            "amount": "1 1/2 teaspoons", 
            "ingredient": "garlic powder"
        }, 
        {
            "amount": "1 teaspoon", 
            "ingredient": "onion powder"
        }, 
        {
            "amount": "1 teaspoon", 
            "ingredient": "ground black pepper"
        }, 
        {
            "amount": "1 (16 ounce) package", 
            "ingredient": "angel hair pasta"
        }, 
        {
            "amount": "1 tablespoon", 
            "ingredient": "butter"
        }
    ], 
    "prep_steps": [
        "Heat 2 tablespoons olive oil in a skillet over medium-high heat. Place chicken in the skillet, season with salt and pepper, and cook 6 minutes on each side, until juices run clear. Set aside, and keep warm.", 
        "In a large pot, mix spaghetti sauce, tomatoes with liquid, red bell pepper, corn, olives, and jalapenos. Bring to a boil, and season with garlic powder, onion powder, and 1 teaspoon pepper. Place chicken in the pot. Reduce heat to low, cover, and simmer 15 minutes.", 
        "Bring a large pot of lightly salted water to a boil. Place pasta in the pot, and cook 2 to 4 minutes, until al dente. Drain, transfer to a bowl, and toss with remaining olive oil and butter. Spoon the sauce over the pasta to serve."
    ], 
    "prep_time": "45 mins", 
    "recipe_name": "Spicy Chicken Spaghetti"
}