{
    "ingredients": [
        {
            "amount": "1/4 cup", 
            "ingredient": "olive oil"
        }, 
        {
            "amount": "2 pounds", 
            "ingredient": "Italian sausage, casings removed"
        }, 
        {
            "amount": "2 large", 
            "ingredient": "onions, chopped"
        }, 
        {
            "amount": "1/4 cup", 
            "ingredient": "chopped garlic"
        }, 
        {
            "amount": "1 (6 ounce) can", 
            "ingredient": "tomato paste"
        }, 
        {
            "amount": "2 (28 ounce) cans", 
            "ingredient": "whole peeled tomatoes"
        }, 
        {
            "amount": "1 cup", 
            "ingredient": "water"
        }, 
        {
            "amount": "1 cup", 
            "ingredient": "chopped fresh basil"
        }
    ], 
    "prep_steps": [
        "In a large saucepan heat oil and saute sausage until brown, about 6 minutes. Add onion and garlic to pot and saute about 8 minutes. Mix in tomato paste, tomatoes, water and basil. Bring to a boil. Break up tomatoes. Reduce heat to medium and simmer until thickened, about 45 minutes. Season with salt and pepper."
    ], 
    "prep_time": "1\u00bc hrs", 
    "recipe_name": "Tomato Sauce with Sausage"
}