{
    "ingredients": [
        {
            "amount": "1/2 cup", 
            "ingredient": "masa (corn flour)"
        }, 
        {
            "amount": "5 cups", 
            "ingredient": "water"
        }, 
        {
            "amount": "1 tablespoon", 
            "ingredient": "ground cinnamon"
        }, 
        {
            "amount": "5 tablespoons", 
            "ingredient": "piloncillo, brown sugar cones"
        }, 
        {
            "amount": "1 tablespoon", 
            "ingredient": "vanilla extract"
        }
    ], 
    "prep_steps": [
        "Place the masa, water, cinnamon and piloncillo in a blender. Blend until smooth, about 3 minutes.", 
        "Pour the contents of the blender into a sauce pan and bring the mixture to boil over medium heat, stirring constantly. When the mixture reaches a boil, turn the heat to low and continue to whisk for 5 minutes.", 
        "Remove the pan from the heat and stir in the vanilla. Pour into mugs and serve hot."
    ], 
    "prep_time": "15 mins", 
    "recipe_name": "Mexican Atole"
}