{
    "ingredients": [
        {
            "amount": "1 1/2 cups", 
            "ingredient": "dry milk powder"
        }, 
        {
            "amount": "1/2 cup", 
            "ingredient": "instant coffee granules"
        }, 
        {
            "amount": "1/3 cup", 
            "ingredient": "brown sugar"
        }, 
        {
            "amount": "2/3 cup", 
            "ingredient": "miniature semisweet chocolate chips"
        }
    ], 
    "prep_steps": [
        "In a medium bowl, combine milk powder, instant coffee, brown sugar and mini chocolate chips. Mix well and store in an airtight container.", 
        "Instructions per serving: In a blender, combine 2/3 cup boiling water with 1/4 cup mix. Blend until frothy and serve in a mug."
    ], 
    "prep_time": "10 mins", 
    "recipe_name": "Mocha au Lait Mix"
}