{
    "ingredients": [
        {
            "amount": "2 cups", 
            "ingredient": "butter"
        }, 
        {
            "amount": "1 1/2 cups", 
            "ingredient": "white sugar"
        }, 
        {
            "amount": "4 (1 ounce) squares", 
            "ingredient": "unsweetened baking chocolate"
        }, 
        {
            "amount": "2 teaspoons", 
            "ingredient": "vanilla extract"
        }, 
        {
            "amount": "4", 
            "ingredient": "eggs"
        }, 
        {
            "amount": "1 (9 inch)", 
            "ingredient": "pie shell, baked"
        }
    ], 
    "prep_steps": [
        "In the top of a double boiler, heat chocolate, stirring occasionally, until chocolate is melted and smooth. Remove from heat and allow to cool to lukewarm.", 
        "In a large bowl, cream butter and sugar until pale yellow and very fluffy. Blend in the melted chocolate and vanilla. With an electric mixer on medium speed, beat in the eggs, one at a time, taking 5 minutes for each egg. Pour filling into baked pie shell. Refrigerate 4 hours before serving."
    ], 
    "prep_time": "30 mins", 
    "recipe_name": "French Silk Chocolate Pie III"
}