{
    "ingredients": [
        {
            "amount": "1 cup", 
            "ingredient": "uncooked long grain white rice"
        }, 
        {
            "amount": "2 cups", 
            "ingredient": "water"
        }, 
        {
            "amount": "1 1/2 tablespoons", 
            "ingredient": "lemon pepper, divided"
        }, 
        {
            "amount": "1 tablespoon", 
            "ingredient": "dried dill weed, divided"
        }, 
        {
            "amount": "2 tablespoons", 
            "ingredient": "vegetable oil, divided"
        }, 
        {
            "amount": "1 pound", 
            "ingredient": "salmon"
        }, 
        {
            "amount": "1", 
            "ingredient": "tomato, sliced 1/2 inch thick"
        }, 
        {
            "amount": "2", 
            "ingredient": "eggs, beaten"
        }, 
        {
            "amount": "1 cup", 
            "ingredient": "all-purpose flour"
        }
    ], 
    "prep_steps": [
        "Bring the rice and water to a boil in a pot. Season with 1 tablespoon lemon pepper and 1/2 tablespoon dill weed. Reduce heat to low, cover, and simmer 20 minutes.", 
        "Heat 1 tablespoon oil in a skillet over medium heat. Place salmon in the skillet, and cook 20 minutes, turning once, until lightly browned and easily flaked with a fork. Set aside.", 
        "Season the tomato slices with remaining lemon pepper and dill. Place the eggs and flour in 2 separate dishes. Dip each tomato slice in the egg to coat, then press in the flour, coating both sides.", 
        "Heat remaining oil in the skillet over medium-high heat. Place tomato slices in the skillet, and cook 5 minutes on each side, until lightly browned. Serve salmon over the cooked rice, and top with fried tomatoes."
    ], 
    "prep_time": "1 hr", 
    "recipe_name": "Salmon, Rice, and Fried Tomatoes"
}