{
    "ingredients": [
        {
            "amount": "1 (15.5 ounce) can", 
            "ingredient": "Mexican-seasoned black beans"
        }, 
        {
            "amount": "1 (14 ounce) can", 
            "ingredient": "light coconut milk"
        }, 
        {
            "amount": "1 (6 ounce) package", 
            "ingredient": "frozen green peas"
        }, 
        {
            "amount": "2 cups", 
            "ingredient": "chicken stock or water"
        }, 
        {
            "amount": "1 tablespoon", 
            "ingredient": "fresh lime juice"
        }
    ], 
    "prep_steps": [
        "In a stock pot or large saucepan, combine the black beans, coconut milk, peas and stock or water. Bring to a boil, then simmer over low heat for 10 minutes. Pour into a blender and puree until smooth. Return to the pan and stir in the lime juice."
    ], 
    "prep_time": "14 mins", 
    "recipe_name": "Tropical Coconut Black Bean Soup"
}