{
    "ingredients": [
        {
            "amount": "1/4 teaspoon", 
            "ingredient": "curry powder"
        }, 
        {
            "amount": "2", 
            "ingredient": "large eggs, beaten"
        }, 
        {
            "amount": "2 tablespoons", 
            "ingredient": "shredded Cheddar cheese"
        }, 
        {
            "amount": "1/2 teaspoon", 
            "ingredient": "margarine or butter"
        }
    ], 
    "prep_steps": [
        "Sprinkle the curry powder, salt and pepper onto the beaten eggs; beat together until well blended. Stir in the Cheddar cheese.", 
        "Melt the margarine in a skillet over medium heat. Pour in the eggs, and cook, stirring constantly until firmed to desired temperature, 3 to 5 minutes."
    ], 
    "prep_time": "10 mins", 
    "recipe_name": "Curry Cheddar Scrambled Eggs"
}