{
    "ingredients": [
        {
            "amount": "1 tablespoon", 
            "ingredient": "olive oil"
        }, 
        {
            "amount": "2 pounds", 
            "ingredient": "ground beef"
        }, 
        {
            "amount": "1 small", 
            "ingredient": "onion, finely chopped"
        }, 
        {
            "amount": "3 cloves", 
            "ingredient": "garlic, chopped"
        }, 
        {
            "amount": "1/2 teaspoon", 
            "ingredient": "Italian seasoning"
        }, 
        {
            "amount": "1/2 teaspoon", 
            "ingredient": "cayenne pepper"
        }, 
        {
            "amount": "1/2 teaspoon", 
            "ingredient": "salt"
        }, 
        {
            "amount": "1 (6 ounce) can", 
            "ingredient": "tomato paste"
        }, 
        {
            "amount": "1 (16 ounce) can", 
            "ingredient": "crushed tomatoes"
        }, 
        {
            "amount": "1 1/3 (16 ounce) packages", 
            "ingredient": "elbow macaroni"
        }, 
        {
            "amount": "1 pound", 
            "ingredient": "sharp Cheddar cheese, shredded"
        }, 
        {
            "amount": "1/2 cup", 
            "ingredient": "grated Parmesan cheese"
        }
    ], 
    "prep_steps": [
        "Heat the olive oil in a large skillet over medium-high heat, and stir in the ground beef until crumbly and no longer pink, about 5 minutes. Stir in the onion, garlic, Italian seasoning, cayenne pepper, and salt; continue cooking until the onion has softened and turned translucent, about 5 minutes more. Drain off the excess grease, and add the tomato paste and crushed tomatoes. Bring to a simmer, then reduce heat to medium-low, cover, and simmer 1 hour.", 
        "Preheat the oven's broiler and set the oven rack at about 6 inches from the heat source.", 
        "Bring a large pot of lightly salted water to a boil. Add pasta and cook for 8 to 10 minutes or until al dente; drain. Stir the cooked macaroni into the meat sauce until combined, then spread into a 9x13 inch baking dish. Sprinkle with Cheddar and Parmesan cheeses.", 
        "Broil in preheated oven until the cheese is bubbly and golden, about 5 minutes."
    ], 
    "prep_time": "1\u00be hrs", 
    "recipe_name": "Macaroni Gratinee"
}