{
    "ingredients": [
        {
            "amount": "1 tablespoon", 
            "ingredient": "softened butter"
        }, 
        {
            "amount": "2 slices", 
            "ingredient": "white bread"
        }, 
        {
            "amount": "1 small", 
            "ingredient": "apple - peeled, cored, and sliced"
        }, 
        {
            "amount": "1/2 teaspoon", 
            "ingredient": "ground cinnamon"
        }, 
        {
            "amount": "1 slice", 
            "ingredient": "American cheese"
        }
    ], 
    "prep_steps": [
        "Place a skillet over medium heat. Spread butter evenly and completely over one side of each bread slice. Arrange the apple slices on the unbuttered side of one of the bread slices. Sprinkle the cinnamon over the apples. Place the cheese slice atop the apples. Top with the remaining bread slice with the buttered side facing outward. Lie gently into the skillet. Cook sandwich on both sides until golden brown, 2 to 3 minutes per side."
    ], 
    "prep_time": "15 mins", 
    "recipe_name": "Grilled Cheese, Cinnamon, and Apple Sandwich"
}