{
    "ingredients": [
        {
            "amount": "2 tablespoons", 
            "ingredient": "vegetable oil"
        }, 
        {
            "amount": "1/2", 
            "ingredient": "onion, diced"
        }, 
        {
            "amount": "1", 
            "ingredient": "tomato, diced"
        }, 
        {
            "amount": "10 large", 
            "ingredient": "roasted green chile peppers, seeded and chopped"
        }, 
        {
            "amount": "1/2 cup", 
            "ingredient": "shredded queso asadero (white Mexican cheese)"
        }, 
        {
            "amount": "1/4 cup", 
            "ingredient": "shredded Monterey Jack cheese"
        }, 
        {
            "amount": "1/4 cup", 
            "ingredient": "milk"
        }
    ], 
    "prep_steps": [
        "Heat the vegetable oil in a skillet over medium heat. Stir in the onion and tomato; cook and stir until the onion has softened and turned translucent, about 5 minutes. Add the green chile; cook for 2 minutes then stir in the cheese and milk. Reduce heat to low and simmer, stirring frequently, until the cheese has melted."
    ], 
    "prep_time": "25 mins", 
    "recipe_name": "Authentic Chile con Queso"
}