{
    "ingredients": [
        {
            "amount": "1 (14.5 ounce) can", 
            "ingredient": "whole peeled tomatoes"
        }, 
        {
            "amount": "1", 
            "ingredient": "fresh jalapeno pepper, seeded"
        }, 
        {
            "amount": "1", 
            "ingredient": "chipotle chile in adobo sauce, seeded"
        }, 
        {
            "amount": "1 (1 inch) piece", 
            "ingredient": "dried ancho chile pepper"
        }, 
        {
            "amount": "1 clove", 
            "ingredient": "garlic"
        }, 
        {
            "amount": "2 1/2 tablespoons", 
            "ingredient": "chopped onion"
        }, 
        {
            "amount": "1 tablespoon", 
            "ingredient": "chopped fresh cilantro"
        }, 
        {
            "amount": "1 tablespoon", 
            "ingredient": "lemon juice, or to taste"
        }, 
        {
            "amount": "3/4 teaspoon", 
            "ingredient": "salt"
        }, 
        {
            "amount": "1/4 teaspoon", 
            "ingredient": "white sugar, or to taste"
        }, 
        {
            "amount": "1/4 teaspoon", 
            "ingredient": "ground cumin"
        }
    ], 
    "prep_steps": [
        "Place the tomatoes, jalapeno pepper, chipotle pepper, ancho chile, garlic, onion, cilantro, lemon juice, salt, sugar, and cumin into a blender. Pulse until the salsa has been finely ground, or to your desired consistency. Let stand at least 1 hour to allow the flavors to blend."
    ], 
    "prep_time": "1\u00bd hrs", 
    "recipe_name": "Ancho-Chipotle Salsa"
}