{
    "ingredients": [
        {
            "amount": "1 (16 ounce) package", 
            "ingredient": "white candy coating, coarsely chopped"
        }, 
        {
            "amount": "1 (4 ounce) bar", 
            "ingredient": "German sweet chocolate, chopped"
        }, 
        {
            "amount": "1 (16 ounce) package", 
            "ingredient": "semi-sweet chocolate chips"
        }, 
        {
            "amount": "2 (16 ounce) jars", 
            "ingredient": "dry roasted peanuts"
        }
    ], 
    "prep_steps": [
        "Place the white candy coating, German sweet chocolate, chocolate chips, and peanuts into a slow cooker. Set the cooker to Low, cover, and gently heat the candy for 1 1/2 hours without stirring. After 1 1/2 hours, stir the mixture, and spoon out by teaspoons onto waxed paper. Allow to cool and set, about 45 minutes."
    ], 
    "prep_time": "2\u00bd hrs", 
    "recipe_name": "Reindeer Poop"
}