{
    "ingredients": [
        {
            "amount": "2 large", 
            "ingredient": "onions, diced"
        }, 
        {
            "amount": "3", 
            "ingredient": "carrots, sliced"
        }, 
        {
            "amount": "7", 
            "ingredient": "potatoes, cubed"
        }, 
        {
            "amount": "1 pound", 
            "ingredient": "salmon, cut into chunks"
        }, 
        {
            "amount": "1 pound", 
            "ingredient": "cod, cut into chunks"
        }, 
        {
            "amount": "1 pound", 
            "ingredient": "scallops"
        }, 
        {
            "amount": "1 pound", 
            "ingredient": "shrimp, peeled and deveined"
        }, 
        {
            "amount": "6 ounces", 
            "ingredient": "cooked lobster meat, shredded"
        }, 
        {
            "amount": "1 (6 ounce) can", 
            "ingredient": "crabmeat, drained and flaked"
        }, 
        {
            "amount": "2 (6.5 ounce) cans", 
            "ingredient": "chopped clams, drained"
        }, 
        {
            "amount": "4 1/4 cups", 
            "ingredient": "heavy whipping cream"
        }, 
        {
            "amount": "2 cups", 
            "ingredient": "half-and-half"
        }, 
        {
            "amount": "1 1/2 cups", 
            "ingredient": "butter, cut into chunks"
        }
    ], 
    "prep_steps": [
        "Fill a large pot halfway with lightly salted water; bring to a boil. Add onions and carrots; cook until slightly tender, 10 minutes. Add potatoes; cook until tender, 15 to 20 minutes.", 
        "Stir in salmon, cod, scallops, shrimp, lobster, and crab; cook over medium heat until salmon and cod are firm but chunks are still slightly translucent in the center, about 10 minutes. Drain half the water from the pot and add clams, heavy cream, and half-and-half. Place butter chunks atop the soup; season with salt and black pepper. Cover and simmer, stirring occasionally, until salmon and cod are fully cooked and flake easily with a fork, about 30 minutes."
    ], 
    "prep_time": "1\u00bd hrs", 
    "recipe_name": "Mom's Nova Scotia Seafood Chowder"
}