{
    "ingredients": [
        {
            "amount": "2 cups", 
            "ingredient": "all-purpose flour"
        }, 
        {
            "amount": "1 pinch", 
            "ingredient": "salt"
        }, 
        {
            "amount": "1 1/2 teaspoons", 
            "ingredient": "red pepper flakes"
        }, 
        {
            "amount": "1 pound", 
            "ingredient": "Cheddar cheese, grated and room temperature"
        }, 
        {
            "amount": "1 cup", 
            "ingredient": "unsalted butter, melted"
        }, 
        {
            "amount": "2 cups", 
            "ingredient": "crispy rice cereal (such as Rice Krispies\u00ae)"
        }
    ], 
    "prep_steps": [
        "Preheat oven to 300 degrees F (150 degrees C).", 
        "Combine flour, salt, and red pepper flakes in large bowl; add Cheddar cheese. Toss until cheese is coated. Pour in melted butter; stir until mixture is moist and crumbly. Add rice cereal and knead by hand until dough is well blended.", 
        "Roll dough into small 1/2-inch balls; arrange on a baking sheet. Flatten each ball with a fork.", 
        "Bake in the preheated oven until light and crispy, about 30 minutes."
    ], 
    "prep_time": "45 mins", 
    "recipe_name": "Cheese Crackers"
}