{
    "ingredients": [
        {
            "amount": "1/4 cup", 
            "ingredient": "vegetable oil"
        }, 
        {
            "amount": "1 small", 
            "ingredient": "onion, diced"
        }, 
        {
            "amount": "1 tablespoon", 
            "ingredient": "minced garlic"
        }, 
        {
            "amount": "1 pound", 
            "ingredient": "smoked sausage, cut into bite-sized pieces"
        }, 
        {
            "amount": "1 1/2 cups", 
            "ingredient": "uncooked white rice"
        }, 
        {
            "amount": "2 cups", 
            "ingredient": "water"
        }, 
        {
            "amount": "3/4 (8 ounce) can", 
            "ingredient": "tomato sauce, or to taste"
        }, 
        {
            "amount": "1 teaspoon", 
            "ingredient": "adobo seasoning"
        }
    ], 
    "prep_steps": [
        "Heat the vegetable oil in a skillet over medium heat. Stir in the onion and garlic; cook and stir until the onion has softened and turned translucent, about 5 minutes. Stir in the sausage; cook and stir until the sausage is crisp. Mix in the rice, water, tomato sauce, adobo seasoning, salt, and black pepper. Bring to a boil, then reduce heat to low. Simmer until the rice is tender and the liquid has been absorbed, about 20 minutes."
    ], 
    "prep_time": "45 mins", 
    "recipe_name": "Martha's Spanish Rice and Sausage"
}