{
    "ingredients": [
        {
            "amount": "1 tablespoon", 
            "ingredient": "olive oil"
        }, 
        {
            "amount": "2", 
            "ingredient": "skinless, boneless chicken breast halves - cut into chunks"
        }, 
        {
            "amount": "1/2", 
            "ingredient": "onion, chopped"
        }, 
        {
            "amount": "3 cloves", 
            "ingredient": "garlic, minced"
        }, 
        {
            "amount": "1 small", 
            "ingredient": "butternut squash, peeled and chopped"
        }, 
        {
            "amount": "1 (15.5 ounce) can", 
            "ingredient": "garbanzo beans, drained and rinsed"
        }, 
        {
            "amount": "1", 
            "ingredient": "carrot, peeled and chopped"
        }, 
        {
            "amount": "1 (14.5 ounce) can", 
            "ingredient": "diced tomatoes with juice"
        }, 
        {
            "amount": "1 (14 ounce) can", 
            "ingredient": "vegetable broth"
        }, 
        {
            "amount": "1 tablespoon", 
            "ingredient": "sugar"
        }, 
        {
            "amount": "1 tablespoon", 
            "ingredient": "lemon juice"
        }, 
        {
            "amount": "1 teaspoon", 
            "ingredient": "salt"
        }, 
        {
            "amount": "1 teaspoon", 
            "ingredient": "ground coriander"
        }, 
        {
            "amount": "1 dash", 
            "ingredient": "cayenne pepper"
        }
    ], 
    "prep_steps": [
        "Heat the olive oil in a large skillet over medium heat, and cook the chicken, onion, and garlic about 15 minutes, until browned.", 
        "Mix the squash, garbanzo beans, carrot, tomatoes with juice, broth, sugar, and lemon juice into the skillet. Season with salt, coriander, and cayenne pepper. Bring the mixture to a boil, and continue cooking 30 minutes, until vegetables are tender."
    ], 
    "prep_time": "1 hr", 
    "recipe_name": "Moroccan Tagine"
}