{
    "ingredients": [
        {
            "amount": "1 (16 ounce) package", 
            "ingredient": "dry farfalle (bow tie) pasta"
        }, 
        {
            "amount": "1 large", 
            "ingredient": "fresh tomato, chopped"
        }, 
        {
            "amount": "1 medium", 
            "ingredient": "cucumber, peeled and chopped"
        }, 
        {
            "amount": "4 ounces", 
            "ingredient": "feta cheese, crumbled"
        }, 
        {
            "amount": "1/4 cup", 
            "ingredient": "Italian salad dressing"
        }, 
        {
            "amount": "1 teaspoon", 
            "ingredient": "dried oregano"
        }
    ], 
    "prep_steps": [
        "Bring a large pot of lightly salted water to a boil. Place the farfalle into the pot, cook 8 to 10 minutes, until al dente, and drain.", 
        "In a bowl, toss the cooked pasta with the tomato, cucumber, feta cheese, Italian dressing, and oregano."
    ], 
    "prep_time": "25 mins", 
    "recipe_name": "Borboletas"
}