{
    "ingredients": [
        {
            "amount": "1 (8 ounce) package", 
            "ingredient": "cream cheese, softened"
        }, 
        {
            "amount": "1", 
            "ingredient": "green onion, minced"
        }, 
        {
            "amount": "1 tablespoon", 
            "ingredient": "fresh lemon juice"
        }, 
        {
            "amount": "1 tablespoon", 
            "ingredient": "prepared horseradish"
        }, 
        {
            "amount": "1/4 teaspoon", 
            "ingredient": "cayenne pepper"
        }, 
        {
            "amount": "1 (14.75 ounce) can", 
            "ingredient": "salmon, drained and flaked"
        }, 
        {
            "amount": "1/2 cup", 
            "ingredient": "chopped pecans"
        }, 
        {
            "amount": "2 tablespoons", 
            "ingredient": "chopped fresh parsley"
        }
    ], 
    "prep_steps": [
        "In a medium bowl, beat together cream cheese, green onion, lemon juice, horseradish, and cayenne. Fold in salmon until well blended. Cover, and chill in the refrigerator at least 2 hours.", 
        "Shape the cream cheese and salmon mixture into a log, approximately 8 inches long. Roll log in pecans and parsley to coat. Refrigerate until serving."
    ], 
    "prep_time": "2\u00bc hrs", 
    "recipe_name": "Pecan Salmon Roll"
}