{
    "ingredients": [
        {
            "amount": "6 tablespoons", 
            "ingredient": "lemon juice"
        }, 
        {
            "amount": "1/2 cup", 
            "ingredient": "cider vinegar"
        }, 
        {
            "amount": "1 tablespoon", 
            "ingredient": "brown sugar"
        }, 
        {
            "amount": "1/4 cup", 
            "ingredient": "Worcestershire sauce"
        }, 
        {
            "amount": "1 cup", 
            "ingredient": "ketchup"
        }, 
        {
            "amount": "1/2 teaspoon", 
            "ingredient": "mustard powder"
        }
    ], 
    "prep_steps": [
        "In a small saucepan over low heat, combine the lemon juice, vinegar, brown sugar, Worcestershire sauce, ketchup and mustard powder and stir well. Simmer for 10 minutes, remove from heat and allow to cool."
    ], 
    "recipe_name": "Barbeque Sauce I"
}