{
    "ingredients": [
        {
            "amount": "1/3 cup", 
            "ingredient": "fresh lime juice"
        }, 
        {
            "amount": "1/4 cup", 
            "ingredient": "tequila"
        }, 
        {
            "amount": "2 cloves", 
            "ingredient": "garlic, minced"
        }, 
        {
            "amount": "1 tablespoon", 
            "ingredient": "chopped cilantro"
        }, 
        {
            "amount": "1 teaspoon", 
            "ingredient": "dried, crushed Mexican oregano"
        }, 
        {
            "amount": "2 teaspoons", 
            "ingredient": "ground cumin"
        }, 
        {
            "amount": "1 teaspoon", 
            "ingredient": "freshly ground black pepper"
        }
    ], 
    "prep_steps": [
        "Whisk together lime juice, tequila, garlic, cilantro, oregano, cumin, and pepper in a bowl.", 
        "To use the marinade, pour into a resealable bag, and add 1 to 1 1/2 pounds of flank steak. Press the air out of the bag and seal tightly. Marinate in the refrigerator 8 to 24 hours."
    ], 
    "prep_time": "15 mins", 
    "recipe_name": "Beef Fajita Marinade"
}