{
    "ingredients": [
        {
            "amount": "4 (10 ounce) packages", 
            "ingredient": "refrigerated biscuit dough"
        }, 
        {
            "amount": "1 cup", 
            "ingredient": "white sugar"
        }, 
        {
            "amount": "2 teaspoons", 
            "ingredient": "ground cinnamon"
        }, 
        {
            "amount": "1/2 teaspoon", 
            "ingredient": "ground nutmeg"
        }, 
        {
            "amount": "1/4 teaspoon", 
            "ingredient": "ground cloves"
        }, 
        {
            "amount": "3/4 cup", 
            "ingredient": "butter"
        }
    ], 
    "prep_steps": [
        "Preheat oven to 350 degrees F (175 degrees C). Grease two 9x5-inch loaf pans or one Bundt pan.", 
        "Mix sugar, cinnamon, nutmeg and cloves. Set aside.", 
        "Slice biscuits into quarters. Drop cut biscuits into sugar and spice mixture. Place sugar and spice-coated biscuits into prepared pan(s).", 
        "Melt butter and mix it with the remaining sugar and spice mixture. Pour over biscuits in pan.", 
        "Bake in preheated oven until golden brown, 25 to 30 minutes. Cool bread in pan for 5 to 10 minutes, then invert onto serving plate. Serve warm."
    ], 
    "prep_time": "1 hr", 
    "recipe_name": "Monkey Bread IV"
}