{
    "ingredients": [
        {
            "amount": "2 (16 ounce) packages", 
            "ingredient": "frozen chopped broccoli"
        }, 
        {
            "amount": "1 cup", 
            "ingredient": "shredded Cheddar cheese"
        }, 
        {
            "amount": "2", 
            "ingredient": "eggs, beaten"
        }, 
        {
            "amount": "1", 
            "ingredient": "onion, minced"
        }, 
        {
            "amount": "1 (10.75 ounce) can", 
            "ingredient": "condensed cream of mushroom soup"
        }, 
        {
            "amount": "1/2 cup", 
            "ingredient": "mayonnaise"
        }, 
        {
            "amount": "10 ounces", 
            "ingredient": "dry bread stuffing mix"
        }, 
        {
            "amount": "1/2 cup", 
            "ingredient": "butter, melted"
        }
    ], 
    "prep_steps": [
        "Preheat oven to 350 degrees F (175 degrees C). Cook broccoli according to package instructions. Lightly grease a large baking dish.", 
        "In a bowl, mix the cheese, eggs, onion, cream of mushroom soup, and mayonnaise.", 
        "Arrange the cooked broccoli in the prepared baking dish. Pour cheese sauce over broccoli. Spread stuffing mix over the sauce. Drizzle butter over all.", 
        "Bake 30 minutes in the preheated oven, until bubbly and lightly browned."
    ], 
    "prep_time": "50 mins", 
    "recipe_name": "Broccoli Stuffing"
}