{
    "ingredients": [
        {
            "amount": "1 cup", 
            "ingredient": "light brown sugar"
        }, 
        {
            "amount": "1/4 cup", 
            "ingredient": "white sugar"
        }, 
        {
            "amount": "1/2 cup", 
            "ingredient": "butter"
        }, 
        {
            "amount": "2", 
            "ingredient": "eggs"
        }, 
        {
            "amount": "1 tablespoon", 
            "ingredient": "all-purpose flour"
        }, 
        {
            "amount": "1 tablespoon", 
            "ingredient": "milk"
        }, 
        {
            "amount": "1 teaspoon", 
            "ingredient": "vanilla extract"
        }, 
        {
            "amount": "1 cup", 
            "ingredient": "chopped pecans"
        }
    ], 
    "prep_steps": [
        "Preheat oven to 400 degrees F (205 degrees C).", 
        "In a large bowl, beat eggs until foamy, and stir in melted butter. Stir in the brown sugar, white sugar and the flour; mix well. Last add the milk, vanilla and nuts.", 
        "Pour into an unbaked 9-in pie shell. Bake in preheated oven for 10 minutes at 400 degrees, then reduce temperature to 350 degrees and bake for 30 to 40 minutes, or until done."
    ], 
    "prep_time": "1\u00bc hrs", 
    "recipe_name": "Pecan Pie V"
}