{
    "ingredients": [
        {
            "amount": "1/2 cup", 
            "ingredient": "butter, softened"
        }, 
        {
            "amount": "3/8 cup", 
            "ingredient": "white sugar"
        }, 
        {
            "amount": "1 teaspoon", 
            "ingredient": "vanilla extract"
        }, 
        {
            "amount": "1", 
            "ingredient": "egg yolk"
        }, 
        {
            "amount": "1 cup", 
            "ingredient": "self-rising flour"
        }, 
        {
            "amount": "2 tablespoons", 
            "ingredient": "cornstarch"
        }, 
        {
            "amount": "1/4 teaspoon", 
            "ingredient": "salt"
        }, 
        {
            "amount": "1/4 cup", 
            "ingredient": "rolled oats"
        }
    ], 
    "prep_steps": [
        "Preheat oven to 375 degrees F(190 degrees C). Grease cookie sheets.", 
        "Cream the butter and sugar until light and fluffy. Beat in the egg yolk and vanilla extract. Sift together the flour, cornstarch, and salt; stir into the butter mixture. Shape dough into 20 to 24 small balls, about 1/2 inch in diameter. Roll each ball in the oats and place about 2 inches apart on cookie sheets.", 
        "Bake 15 to 20 minutes until golden brown. Let cool on wire rack. Store in an airtight tin."
    ], 
    "recipe_name": "Melting Biscuits"
}