{
    "ingredients": [
        {
            "amount": "1 pound", 
            "ingredient": "lean ground beef"
        }, 
        {
            "amount": "2 (10.5 ounce) cans", 
            "ingredient": "condensed vegetable soup"
        }, 
        {
            "amount": "1 (10.75 ounce) can", 
            "ingredient": "water"
        }
    ], 
    "prep_steps": [
        "Brown beef in a large skillet over medium high heat; drain fat.", 
        "Stir in vegetable soup and water, reduce heat to medium low and simmer for 10 minutes. Season with salt and pepper to taste and serve."
    ], 
    "prep_time": "30 mins", 
    "recipe_name": "Solomon Grundy"
}