{
    "ingredients": [
        {
            "amount": "4 ounces", 
            "ingredient": "thick sliced bacon, cut into 1/2-inch pieces"
        }, 
        {
            "amount": "1 medium", 
            "ingredient": "onion, cut into medium dice"
        }, 
        {
            "amount": "1 (10 ounce) package", 
            "ingredient": "frozen baby lima beans"
        }, 
        {
            "amount": "1 (10 ounce) package", 
            "ingredient": "frozen sweet corn"
        }, 
        {
            "amount": "1/2 cup", 
            "ingredient": "heavy cream"
        }, 
        {
            "amount": "1 1/2 teaspoons", 
            "ingredient": "minced fresh thyme leaves"
        }, 
        {
            "amount": "2 teaspoons", 
            "ingredient": "snipped fresh chives"
        }
    ], 
    "prep_steps": [
        "Fry bacon over medium-high heat in a Dutch oven until crisp, 7 to 8 minutes. Using a slotted spoon, transfer bacon to a paper towel-lined plate.", 
        "Pour off all but 2 Tbs. of the bacon drippings. Add onions; saute until tender, about 5 minutes. Add lima beans, 1/2 cup water, salt and pepper, and bring to a boil. Reduce heat and continue to simmer, covered, until partially cooked, about 5 minutes. Add corn, cream, and thyme; return to a simmer, and warm until vegetables are fully cooked and cream doesn't pool, about 5 minutes longer. (Can be refrigerated at this point up to 2 days ahead.)", 
        "When ready to serve, stir bacon and chives into warm succotash. This recipe doubles easily."
    ], 
    "recipe_name": "Creamy Succotash with Bacon, Thyme and Chives"
}