{
    "ingredients": [
        {
            "amount": "4", 
            "ingredient": "portobello mushroom caps"
        }, 
        {
            "amount": "1 tablespoon", 
            "ingredient": "olive oil"
        }, 
        {
            "amount": "1 tablespoon", 
            "ingredient": "butter"
        }, 
        {
            "amount": "1", 
            "ingredient": "shallot, thinly sliced"
        }, 
        {
            "amount": "1 cup", 
            "ingredient": "white wine"
        }
    ], 
    "prep_steps": [
        "Preheat grill for high heat.", 
        "Place mushrooms onto the grill, smooth side up. Grill until they start to soften, about 10 minutes. Turn over, and grill on the other side for about 5 minutes.", 
        "Meanwhile, heat olive oil and butter in a large skillet over medium heat. Add the shallot, and fry for a few minutes, stirring frequently.", 
        "Remove mushrooms to a cutting board, and slice. Place into the skillet, and increase the heat to high. Cook for about a minute, then pour in the wine. Continue to cook and stir until the wine is nearly evaporated. Remove from heat, and serve."
    ], 
    "recipe_name": "Grilled Portobellos Sauteed in Wine"
}