{
    "ingredients": [
        {
            "amount": "8 ounces", 
            "ingredient": "Gorgonzola cheese, crumbled"
        }, 
        {
            "amount": "1/3 cup", 
            "ingredient": "minced red onion"
        }, 
        {
            "amount": "1/2 cup", 
            "ingredient": "minced fresh parsley"
        }, 
        {
            "amount": "2 cloves", 
            "ingredient": "garlic, minced"
        }, 
        {
            "amount": "2 tablespoons", 
            "ingredient": "red wine vinegar"
        }, 
        {
            "amount": "1 tablespoon", 
            "ingredient": "lemon juice"
        }, 
        {
            "amount": "1/3 cup", 
            "ingredient": "olive oil"
        }
    ], 
    "prep_steps": [
        "Mix together the Gorgonzola cheese, onion, parsley, and garlic in a bowl until well blended. Whisk together the vinegar, lemon juice, and olive oil in a separate bowl until well blended. Stir the vinegar mixture into the cheese mixture until well blended. Refrigerate at least 4 hours, or longer. Serve at room temperature."
    ], 
    "prep_time": "15 mins", 
    "recipe_name": "Gorgonzola-Garlic Dip"
}