{
    "ingredients": [
        {
            "amount": "12", 
            "ingredient": "beef tamales, husked and mashed"
        }, 
        {
            "amount": "1 (15 ounce) can", 
            "ingredient": "chili without beans"
        }, 
        {
            "amount": "1 (14.5 ounce) can", 
            "ingredient": "diced tomatoes and green chiles"
        }, 
        {
            "amount": "1 (1 pound) loaf", 
            "ingredient": "processed cheese, cubed"
        }
    ], 
    "prep_steps": [
        "Place the tamales, chili, diced tomatoes, and processed cheese into a slow cooker. Set heat on high, and cook, stirring occasionally until cheese is melted. Reduce heat to low to keep the dip warm while serving. Serve with corn chips or tortilla chips."
    ], 
    "prep_time": "40 mins", 
    "recipe_name": "Cowboy Mexican Dip"
}