{
    "ingredients": [
        {
            "amount": "1 pound", 
            "ingredient": "lean ground beef"
        }, 
        {
            "amount": "1 (10.75 ounce) can", 
            "ingredient": "condensed chicken gumbo soup"
        }
    ], 
    "prep_steps": [
        "In large skillet over medium heat, cook ground beef until brown, 5 to 10 minutes. Drain. Return meat to skillet, with soup. Simmer until heated through, 5 minutes. Serve hot."
    ], 
    "prep_time": "15 mins", 
    "recipe_name": "Loosemeat Sandwiches II"
}