{
    "ingredients": [
        {
            "amount": "1 1/2 cups", 
            "ingredient": "water"
        }, 
        {
            "amount": "1/3 cup", 
            "ingredient": "rice wine"
        }, 
        {
            "amount": "1/3 cup", 
            "ingredient": "sesame oil"
        }, 
        {
            "amount": "1/4 cup", 
            "ingredient": "soy sauce"
        }, 
        {
            "amount": "2 tablespoons", 
            "ingredient": "honey mustard"
        }, 
        {
            "amount": "1/4 cup", 
            "ingredient": "brown sugar"
        }, 
        {
            "amount": "2 dashes", 
            "ingredient": "liquid smoke flavoring"
        }, 
        {
            "amount": "1 (.7 ounce) package", 
            "ingredient": "dry Italian-style salad dressing mix"
        }, 
        {
            "amount": "1 tablespoon", 
            "ingredient": "grated orange zest"
        }, 
        {
            "amount": "1 teaspoon", 
            "ingredient": "ground ginger"
        }, 
        {
            "amount": "2 teaspoons", 
            "ingredient": "paprika"
        }, 
        {
            "amount": "1 teaspoon", 
            "ingredient": "fines herbs"
        }, 
        {
            "amount": "1 (4 pound)", 
            "ingredient": "chicken, skin removed, cut into pieces"
        }, 
        {
            "amount": "6 sprigs", 
            "ingredient": "fresh rosemary"
        }
    ], 
    "prep_steps": [
        "In a large shallow dish, combine water, wine, sesame oil, soy sauce, mustard, brown sugar and liquid smoke. Stir in Italian dressing mix, orange zest, ginger, paprika and fines herbs. Place chicken in the dish, and turn to coat. Cover, and refrigerate overnight.", 
        "Preheat an outdoor grill for medium heat, and lightly oil grate.", 
        "Discard marinade. Grill chicken 15 to 20 minutes per side, until no longer pink and juices run clear. Occasionally place rosemary sprigs on coals to impart a unique smoky flavor to chicken."
    ], 
    "prep_time": "55 mins", 
    "recipe_name": "Best Marinated Grilled Chicken"
}