{
    "ingredients": [
        {
            "amount": "1 pound", 
            "ingredient": "ground beef"
        }, 
        {
            "amount": "1", 
            "ingredient": "onion, chopped"
        }, 
        {
            "amount": "1 pinch", 
            "ingredient": "salt and ground black pepper to taste"
        }, 
        {
            "amount": "1 (10.75 ounce) can", 
            "ingredient": "condensed cream of chicken soup"
        }, 
        {
            "amount": "1 (10.75 ounce) can", 
            "ingredient": "chicken noodle soup"
        }, 
        {
            "amount": "3/4 cup", 
            "ingredient": "instant rice"
        }
    ], 
    "prep_steps": [
        "Preheat an oven to 350 degrees F (175 degrees C).", 
        "Cook the ground beef and onion in a large skillet over medium heat until the beef is completely browned, 7 to 10 minutes; season with salt and black pepper.", 
        "Drain excess grease from the ground beef mixture; transfer to a casserole dish.", 
        "Stir the cream of chicken soup, chicken noodle soup, and instant rice through the ground beef mixture; season again with salt and black pepper.", 
        "Bake in the preheated oven until the edges begin to bubble, 40 to 45 minutes."
    ], 
    "prep_time": "1 hr", 
    "recipe_name": "Brunzie's Baseball Casserole"
}