{
    "ingredients": [
        {
            "amount": "1 cup", 
            "ingredient": "peanut sauce"
        }, 
        {
            "amount": "1 (1 1/2 inch) piece", 
            "ingredient": "fresh ginger root, minced"
        }, 
        {
            "amount": "2 cloves", 
            "ingredient": "garlic, minced"
        }, 
        {
            "amount": "1 teaspoon", 
            "ingredient": "soy sauce"
        }, 
        {
            "amount": "1 pound", 
            "ingredient": "skinless, boneless chicken breast halves - cut into 1 inch pieces"
        }, 
        {
            "amount": "1 teaspoon", 
            "ingredient": "peanut oil"
        }, 
        {
            "amount": "6 ounces", 
            "ingredient": "fresh snow pea pods"
        }, 
        {
            "amount": "12 ounces", 
            "ingredient": "bean sprouts"
        }, 
        {
            "amount": "4", 
            "ingredient": "green onion, chopped"
        }, 
        {
            "amount": "1 pound", 
            "ingredient": "watercress, chopped"
        }, 
        {
            "amount": "1/4 cup", 
            "ingredient": "chopped fresh cilantro"
        }, 
        {
            "amount": "2 large", 
            "ingredient": "carrots, peeled"
        }, 
        {
            "amount": "1 teaspoon", 
            "ingredient": "peanut oil"
        }, 
        {
            "amount": "1 teaspoon", 
            "ingredient": "soy sauce"
        }, 
        {
            "amount": "12", 
            "ingredient": "spring roll wrappers"
        }, 
        {
            "amount": "1/2 cup", 
            "ingredient": "peanut sauce"
        }
    ], 
    "prep_steps": [
        "Combine 1 cup peanut sauce, ginger, garlic, and 1 teaspoon soy sauce in a bowl. Add the chicken and mix until the chicken is coated. Place in refrigerator to marinate for 30 minutes.", 
        "Heat 1 teaspoon peanut oil in a wok or skillet over medium heat. Cook the snow peas, bean sprouts and green onion in the oil until heated but still crisp, 3 to 4 minutes. Transfer to a large bowl. Mix in the watercress and cilantro. Use a vegetable peeler to have long slices of carrot into the watercress mixture. Drizzle 1 teaspoon soy sauce into the watercress mixture; toss to coat.", 
        "Heat 1 teaspoon of oil to the wok or skillet. Cook the marinated chicken until no longer pink inside, about 10 minutes.", 
        "Fill a large bowl with hot water. Dip wrappers one at a time into the water for about 2 seconds each. As wrappers are removed from the water, fill each with 2 large spoonfuls of the chicken and a small handful of the watercress mixture. Fold in two opposite ends of the wrapper to meet the filling. Then fold the bottom of the wrapper over the top of the filling and roll. Serve with 1/2 cup peanut sauce for dipping."
    ], 
    "prep_time": "1\u00bc hrs", 
    "recipe_name": "Thai Chicken Spring Rolls"
}