{
    "ingredients": [
        {
            "amount": "9", 
            "ingredient": "zucchini, peeled and sliced"
        }, 
        {
            "amount": "1 large", 
            "ingredient": "onion, chopped"
        }, 
        {
            "amount": "1/2 cup", 
            "ingredient": "butter"
        }, 
        {
            "amount": "1 1/2 cups", 
            "ingredient": "shredded Cheddar cheese"
        }, 
        {
            "amount": "3", 
            "ingredient": "eggs, beaten"
        }, 
        {
            "amount": "48", 
            "ingredient": "buttery round crackers, crushed"
        }
    ], 
    "prep_steps": [
        "Preheat oven to 350 degrees F (175 degrees C). Grease a 2 quart casserole dish.", 
        "Boil zucchini and onion in a large pot for about 10 minutes; drain. To the zucchini and onion add the butter, cheese, eggs, salt and pepper. Transfer to prepared baking dish and sprinkle cracker crumbs on top.", 
        "Bake in preheated oven for 1 hour."
    ], 
    "prep_time": "1\u00bd hrs", 
    "recipe_name": "Cheesy Zucchini Casserole II"
}