{
    "ingredients": [
        {
            "amount": "1 (10.75 ounce) can", 
            "ingredient": "Campbell's\u00ae Condensed Cream of Mushroom Soup (Regular or 98% Fat Free)"
        }, 
        {
            "amount": "1 pound", 
            "ingredient": "ground beef"
        }, 
        {
            "amount": "1/3 cup", 
            "ingredient": "Italian-seasoned dry bread crumbs"
        }, 
        {
            "amount": "1 small", 
            "ingredient": "onion, finely chopped"
        }, 
        {
            "amount": "1", 
            "ingredient": "egg, beaten"
        }, 
        {
            "amount": "1 tablespoon", 
            "ingredient": "vegetable oil"
        }, 
        {
            "amount": "1 tablespoon", 
            "ingredient": "Worcestershire sauce"
        }, 
        {
            "amount": "2 tablespoons", 
            "ingredient": "water"
        }, 
        {
            "amount": "1 1/2 cups", 
            "ingredient": "sliced mushrooms"
        }
    ], 
    "prep_steps": [
        "Thoroughly mix 1/4 cup soup, beef, bread crumbs, onion and egg in a large bowl. Shape the beef mixture firmly into 4 (1/2-inch-thick) burgers.", 
        "Heat the oil in a 10-inch skillet over medium-high heat. Add the burgers and cook until they're well browned on both sides. Pour off any fat.", 
        "Add the remaining soup, Worcestershire, water and mushrooms to the skillet and heat to a boil. Reduce the heat to low. Cover and cook for 10 minutes or until the burgers are cooked through."
    ], 
    "prep_time": "40 mins", 
    "recipe_name": "Mushroom-Smothered Beef Burgers"
}