{
    "ingredients": [
        {
            "amount": "1 cup", 
            "ingredient": "sun-dried tomatoes, packed in oil, drained and oil reserved"
        }, 
        {
            "amount": "1/3 cup", 
            "ingredient": "reserved sun-dried tomato oil"
        }, 
        {
            "amount": "3 tablespoons", 
            "ingredient": "finely chopped red pepper"
        }, 
        {
            "amount": "5 cloves", 
            "ingredient": "garlic, finely chopped"
        }, 
        {
            "amount": "6 ounces", 
            "ingredient": "crumbled feta cheese"
        }, 
        {
            "amount": "2 tablespoons", 
            "ingredient": "dried basil"
        }, 
        {
            "amount": "1/2 teaspoon", 
            "ingredient": "ground black pepper"
        }, 
        {
            "amount": "2 teaspoons", 
            "ingredient": "balsamic vinegar"
        }
    ], 
    "prep_steps": [
        "Finely chop sun-dried tomatoes and place in a large bowl. Stir in the reserved tomato oil, red pepper, garlic, feta cheese, dried basil, black pepper, and balsamic vinegar and mix well. Cover and chill for at least four hours before serving."
    ], 
    "prep_time": "20 mins", 
    "recipe_name": "Sundried Tomato Tapenade"
}