{
    "ingredients": [
        {
            "amount": "8 cups", 
            "ingredient": "fresh peaches - peeled, pitted, and sliced"
        }, 
        {
            "amount": "2 cups", 
            "ingredient": "white sugar"
        }, 
        {
            "amount": "1/2 teaspoon", 
            "ingredient": "ground nutmeg"
        }, 
        {
            "amount": "1/3 cup", 
            "ingredient": "unsalted butter"
        }, 
        {
            "amount": "1 teaspoon", 
            "ingredient": "vanilla extract"
        }, 
        {
            "amount": "2 cups", 
            "ingredient": "all-purpose flour, sifted"
        }, 
        {
            "amount": "1 teaspoon", 
            "ingredient": "salt"
        }, 
        {
            "amount": "3/8 cup", 
            "ingredient": "lard"
        }, 
        {
            "amount": "3/8 cup", 
            "ingredient": "shortening"
        }, 
        {
            "amount": "1", 
            "ingredient": "egg"
        }, 
        {
            "amount": "1/8 cup", 
            "ingredient": "cold water"
        }
    ], 
    "prep_steps": [
        "Preheat oven to 350 degrees F (175 degrees C).", 
        "In a large saucepan, combine peaches, sugar and nutmeg. Cook over medium heat, stirring occasionally, until mixture thickens and begins to bubble and peaches are tender, 10 minutes. Remove from heat and stir in butter and vanilla until butter is melted. Pour into a 9x13 inch baking dish.", 
        "In a medium bowl, combine flour and salt. Blend in lard and shortening with pastry blender until mixture resembles pea-sized crumbs. Combine egg and cold water in a separate bowl and sprinkle mixture over pastry, a little at a time, stirring just until dough comes together. Roll out on a floured surface into a 9x13 inch rectangle. Lay crust over peach mixture.", 
        "Bake in preheated oven 50 to 60 minutes, until crust is golden."
    ], 
    "prep_time": "1\u00be hrs", 
    "recipe_name": "Tina's Peach Cobbler"
}