{
    "ingredients": [
        {
            "amount": "2 pounds", 
            "ingredient": "turkey tenderloins, cut into 1/2 inch slices"
        }, 
        {
            "amount": "1 (1 ounce) package", 
            "ingredient": "Southwest marinade seasoning"
        }, 
        {
            "amount": "1 pound", 
            "ingredient": "strawberries, diced"
        }, 
        {
            "amount": "1/2 cup", 
            "ingredient": "finely chopped red onion"
        }, 
        {
            "amount": "1/4 cup", 
            "ingredient": "finely chopped cilantro"
        }, 
        {
            "amount": "1", 
            "ingredient": "jalapeno pepper, seeded and minced"
        }, 
        {
            "amount": "1 tablespoon", 
            "ingredient": "fresh lime juice"
        }, 
        {
            "amount": "1 teaspoon", 
            "ingredient": "sea salt"
        }, 
        {
            "amount": "1 tablespoon", 
            "ingredient": "vegetable oil"
        }, 
        {
            "amount": "4 (10 inch)", 
            "ingredient": "jalapeno and cheese flavored tortillas"
        }, 
        {
            "amount": "2 cups", 
            "ingredient": "fresh baby spinach"
        }, 
        {
            "amount": "1 cup", 
            "ingredient": "crumbled blue cheese"
        }
    ], 
    "prep_steps": [
        "In a medium bowl, toss the turkey with the Southwest marinade seasoning to coat, and allow to stand for 15 minutes.", 
        "Meanwhile, prepare a strawberry salsa by stirring together the diced strawberries, red onion, cilantro, jalapeno pepper, and lime juice in a bowl. Season to taste with salt and pepper; set aside.", 
        "Heat vegetable oil in a large skillet over medium-high heat. Add turkey, and cook until firm and lightly browned, about 5 minutes. Once done, microwave the tortillas for 30 seconds.", 
        "To assemble, evenly divide the cooked turkey onto each tortilla. Top with spinach, blue cheese and strawberry salsa, and roll into a wrap."
    ], 
    "prep_time": "50 mins", 
    "recipe_name": "Spicy Turkey Wraps with Strawberry Salsa"
}