{
    "ingredients": [
        {
            "amount": "3 tablespoons", 
            "ingredient": "butter"
        }, 
        {
            "amount": "2 pounds", 
            "ingredient": "cubed beef stew meat"
        }, 
        {
            "amount": "1 pinch", 
            "ingredient": "caraway seeds"
        }, 
        {
            "amount": "1 pound", 
            "ingredient": "onion, sliced"
        }, 
        {
            "amount": "2 teaspoons", 
            "ingredient": "paprika"
        }, 
        {
            "amount": "1 clove", 
            "ingredient": "garlic, minced"
        }, 
        {
            "amount": "1 tablespoon", 
            "ingredient": "lemon zest"
        }, 
        {
            "amount": "1 (6 ounce) can", 
            "ingredient": "tomato paste"
        }, 
        {
            "amount": "1 (10.5 ounce) can", 
            "ingredient": "beef consomme"
        }, 
        {
            "amount": "1 (10 ounce) package", 
            "ingredient": "broad egg noodles, cooked, rinsed, drained (Kosher for Passover)"
        }
    ], 
    "prep_steps": [
        "Melt butter in a large pot over medium heat. Add the stew meat, caraway seeds, onion and paprika. Cook and stir until the meat is browned, and the onions are translucent. Add the garlic and lemon zest, and cook for about a minute, then stir in the tomato paste and beef consomme, adding water if necessary to cover the meat. Cover, and simmer over medium-low heat for 1 1/2 hours.", 
        "Just before the meat is done cooking, bring a large pot of salted water to a boil. Add egg noodles, and cook until tender, about 8 minutes. Drain and serve the goulash spooned over the egg noodles."
    ], 
    "prep_time": "2 hrs", 
    "recipe_name": "Mom Sykes' Hungarian Goulash"
}