{
    "ingredients": [
        {
            "amount": "2 (8 ounce) packages", 
            "ingredient": "refrigerated crescent roll dough"
        }, 
        {
            "amount": "2 (8 ounce) packages", 
            "ingredient": "cream cheese, softened"
        }, 
        {
            "amount": "3 tablespoons", 
            "ingredient": "mayonnaise"
        }, 
        {
            "amount": "1/2 teaspoon", 
            "ingredient": "dried basil"
        }, 
        {
            "amount": "1/4 teaspoon", 
            "ingredient": "garlic powder"
        }, 
        {
            "amount": "1 cup", 
            "ingredient": "chopped fresh broccoli"
        }, 
        {
            "amount": "1 cup", 
            "ingredient": "chopped cauliflower"
        }, 
        {
            "amount": "1/2 cup", 
            "ingredient": "shredded carrots"
        }, 
        {
            "amount": "2 tablespoons", 
            "ingredient": "salad seasoning mix"
        }
    ], 
    "prep_steps": [
        "Without separating the dough, roll out both packs of crescent rolls onto a baking sheet, forming them into a single, flat surface. Bake according to the directions on the package. Allow the finished rolls to cool.", 
        "In a bowl, Mix together the cream cheese, mayonnaise, basil and garlic powder. Spread the mixture evenly over the surface of the rolls. Spread the broccoli, cauliflower and carrots on top of the cream cheese mixture. Sprinkle the salad seasoning mix over all. Cut into squares and serve."
    ], 
    "prep_time": "25 mins", 
    "recipe_name": "Cold Veggie Squares"
}