{
    "ingredients": [
        {
            "amount": "1 cup", 
            "ingredient": "hot water"
        }, 
        {
            "amount": "1 cup", 
            "ingredient": "matzo farfel"
        }, 
        {
            "amount": "1/2 cup", 
            "ingredient": "white sugar"
        }, 
        {
            "amount": "2 large", 
            "ingredient": "apples - peeled, cored and shredded"
        }, 
        {
            "amount": "2 teaspoons", 
            "ingredient": "ground cinnamon"
        }, 
        {
            "amount": "3", 
            "ingredient": "egg whites, stiffly beaten"
        }
    ], 
    "prep_steps": [
        "Preheat oven to 375 degrees F (190 degrees C). Spray an 8x8 inch baking dish with non-stick cooking spray.", 
        "In a large bowl, combine the water and farfel. Add the sugar, apple, and cinnamon. Fold in the egg whites. Pour mixture into the prepared baking dish and dust the top with more cinnamon.", 
        "Bake at 375 degrees F (190 degrees C) for 45 minutes."
    ], 
    "prep_time": "1 hr", 
    "recipe_name": "Apple-Cinnamon Farfel Kugel"
}