{
    "ingredients": [
        {
            "amount": "4", 
            "ingredient": "skinless, boneless chicken breast halves"
        }, 
        {
            "amount": "2 teaspoons", 
            "ingredient": "olive oil"
        }, 
        {
            "amount": "1 (14.5 ounce) can", 
            "ingredient": "diced tomatoes with green peppers and onions"
        }, 
        {
            "amount": "1/4 cup", 
            "ingredient": "sun-dried tomato pesto"
        }, 
        {
            "amount": "1 (14 ounce) can", 
            "ingredient": "artichoke hearts in water, drained and quartered"
        }
    ], 
    "prep_steps": [
        "Season both sides of chicken breasts with salt and pepper. Heat oil in a large skillet over medium-high heat. Place chicken in skillet; cook, turning once to brown each side. Remove chicken from pan, and set aside.", 
        "Pour tomatoes into pan; cook for 1 minute, stirring constantly, and incorporating any brown bits from bottom of pan. Stir in pesto and artichokes, and return chicken to pan. Cover, and reduce heat to medium. Simmer for 5 to 10 minutes, or until chicken is cooked through."
    ], 
    "prep_time": "35 mins", 
    "recipe_name": "Artichoke and Sun-Dried Tomato Chicken"
}