{
    "ingredients": [
        {
            "amount": "1 tablespoon", 
            "ingredient": "vegetable oil"
        }, 
        {
            "amount": "1/2", 
            "ingredient": "red onion, sliced"
        }, 
        {
            "amount": "1 pound", 
            "ingredient": "zucchini, sliced"
        }, 
        {
            "amount": "1 tablespoon", 
            "ingredient": "crushed garlic"
        }, 
        {
            "amount": "1 (14.5 ounce) can", 
            "ingredient": "diced tomatoes"
        }, 
        {
            "amount": "1 (15.25 ounce) can", 
            "ingredient": "whole kernel corn, drained"
        }, 
        {
            "amount": "1/2 cup", 
            "ingredient": "heavy cream"
        }
    ], 
    "prep_steps": [
        "Heat oil in a large saucepan over medium heat. Stir in red onion, salt and pepper, and cook about 5 minutes, until onion is tender. Stir in zucchini, and cook 3 to 5 minutes. Mix in garlic and tomatoes. Continue cooking, stirring occasionally, until the mixture comes to a boil.", 
        "Stir corn and cream into the mixture. Reduce heat to low, and continue cooking, stirring occasionally until thick and bubbly, 15 to 20 minutes."
    ], 
    "prep_time": "50 mins", 
    "recipe_name": "Creamy Zucchini"
}