{
    "ingredients": [
        {
            "amount": "1 pound", 
            "ingredient": "skinless, boneless chicken breast meat - cut into chunks"
        }, 
        {
            "amount": "1/2 cup", 
            "ingredient": "dark rum"
        }, 
        {
            "amount": "1/2 cup", 
            "ingredient": "lemon juice"
        }, 
        {
            "amount": "1/2 cup", 
            "ingredient": "minced garlic"
        }, 
        {
            "amount": "1/4 cup", 
            "ingredient": "Worcestershire sauce"
        }, 
        {
            "amount": "3 tablespoons", 
            "ingredient": "garlic powder"
        }, 
        {
            "amount": "1 teaspoon", 
            "ingredient": "adobo seasoning"
        }, 
        {
            "amount": "1 teaspoon", 
            "ingredient": "onion powder"
        }, 
        {
            "amount": "1 teaspoon", 
            "ingredient": "ground black pepper"
        }, 
        {
            "amount": "1 teaspoon", 
            "ingredient": "ground coriander"
        }, 
        {
            "amount": "2 (.18 ounce) packets", 
            "ingredient": "sazon with coriander and achiote"
        }, 
        {
            "amount": "3 cups", 
            "ingredient": "all-purpose flour"
        }, 
        {
            "amount": "4 cups", 
            "ingredient": "corn oil for frying"
        }
    ], 
    "prep_steps": [
        "Combine the chicken, rum, lemon juice, garlic, Worcestershire sauce, garlic powder, adobo seasoning, onion powder, pepper, coriander, and sazon seasoning in a bowl; stir. Cover and allow to marinate in refrigerator 4 hours.", 
        "Heat the oil in a large pot over medium heat to about 300 degrees F (150 degrees C).", 
        "Spread the flour into the bottom of a shallow dish. Coat each piece of marinated chicken with flour.", 
        "Fry the coated chicken pieces in the hot oil in small batches until no longer pink in the center and golden brown on the outside, 5 to 10 minutes."
    ], 
    "prep_time": "4 hrs", 
    "recipe_name": "Fried Chicken Chunks (Chicharrones De Pollo) Dominican"
}