{
    "ingredients": [
        {
            "amount": "2 cups", 
            "ingredient": "all-purpose flour"
        }, 
        {
            "amount": "1/4 cup", 
            "ingredient": "white sugar"
        }, 
        {
            "amount": "1/2 teaspoon", 
            "ingredient": "vanilla extract"
        }, 
        {
            "amount": "1 cup", 
            "ingredient": "margarine"
        }, 
        {
            "amount": "2 cups", 
            "ingredient": "chopped pecans"
        }, 
        {
            "amount": "1/3 cup", 
            "ingredient": "confectioners' sugar for decoration"
        }
    ], 
    "prep_steps": [
        "Sift together into a medium sized bowl the flour, sugar and vanilla. Work in the margarine with a spoon or hands until well blended. Add chopped pecans and mix well.", 
        "Shape dough into 1 inch balls and put on ungreased pans. Bake in a preheated 325 degree F (165 degrees C) oven for about 25 minutes or until pale brown. When slightly cool roll or shake in confectioners' sugar. Store in an air tight container."
    ], 
    "recipe_name": "Pecan Butter Balls"
}