{
    "ingredients": [
        {
            "amount": "1/2 cup", 
            "ingredient": "plain yogurt"
        }, 
        {
            "amount": "1 1/2 cups", 
            "ingredient": "all-purpose flour"
        }, 
        {
            "amount": "1 cup", 
            "ingredient": "white sugar"
        }, 
        {
            "amount": "1/2 cup", 
            "ingredient": "vegetable oil"
        }, 
        {
            "amount": "3", 
            "ingredient": "eggs"
        }, 
        {
            "amount": "1/4 (.25 ounce) package", 
            "ingredient": "active dry yeast"
        }, 
        {
            "amount": "1/4 cup", 
            "ingredient": "confectioners' sugar for dusting"
        }
    ], 
    "prep_steps": [
        "Empty yogurt into mixing bowl. Add flour, sugar, oil, eggs, and yeast (or substitute one teaspoon baking powder) and mix until just combined. Pour into a greased and floured 13 inch round cake pan.", 
        "Bake for 25 to 35 minutes in a preheated 350 degrees F (175 degrees C) oven, or until cake is golden brown and middle bounces bake when pushed with your finger. Cool and dust with confectioners' sugar. Variations: use flavored yogurt, or add some fruit preserves to the mix to make a fruity cake, berry flavors work especially well. Variation 2: Use half brown sugar and half granulated sugar, and add 2 teaspoons of cinnamon. Enjoy!"
    ], 
    "recipe_name": "Miss Beth's Yoghurt Cake"
}