{
    "ingredients": [
        {
            "amount": "1/2 cup", 
            "ingredient": "margarine"
        }, 
        {
            "amount": "3/4 cup", 
            "ingredient": "white sugar"
        }, 
        {
            "amount": "2", 
            "ingredient": "eggs"
        }, 
        {
            "amount": "1 cup", 
            "ingredient": "buttermilk"
        }, 
        {
            "amount": "1 teaspoon", 
            "ingredient": "baking soda"
        }, 
        {
            "amount": "1/2 teaspoon", 
            "ingredient": "salt"
        }, 
        {
            "amount": "1 teaspoon", 
            "ingredient": "vanilla extract"
        }, 
        {
            "amount": "2 cups", 
            "ingredient": "all-purpose flour"
        }, 
        {
            "amount": "1 (10 ounce) jar", 
            "ingredient": "maraschino cherries, drained and chopped"
        }, 
        {
            "amount": "1 cup", 
            "ingredient": "chopped pecans"
        }
    ], 
    "prep_steps": [
        "Preheat oven to 350 degrees F (175 degrees C). Grease a 9 x 5 inch loaf pan.", 
        "In a large bowl, cream butter or margarine and sugar together. Add eggs, and continue mixing until light and fluffy. Add baking soda, salt, and vanilla; mix thoroughly. Alternately add buttermilk and flour to the creamed mixture, mixing only enough to hold ingredients together. Fold in cherries and nuts, mixing lightly. Turn batter into prepared pan.", 
        "Bake for 50 to 60 minutes, or until bread tests done. Cool completely before slicing."
    ], 
    "recipe_name": "Nick's Favorite Cherry Pecan Bread"
}