{
    "ingredients": [
        {
            "amount": "1/4 cup", 
            "ingredient": "canola oil"
        }, 
        {
            "amount": "1", 
            "ingredient": "lemon, zested and juiced"
        }, 
        {
            "amount": "1 tablespoon", 
            "ingredient": "Dijon mustard"
        }, 
        {
            "amount": "1 tablespoon", 
            "ingredient": "honey"
        }, 
        {
            "amount": "2 cloves", 
            "ingredient": "garlic, pressed"
        }, 
        {
            "amount": "2 teaspoons", 
            "ingredient": "Worcestershire sauce"
        }, 
        {
            "amount": "2 teaspoons", 
            "ingredient": "dried Italian herb seasoning"
        }, 
        {
            "amount": "1 1/2 teaspoons", 
            "ingredient": "salt"
        }, 
        {
            "amount": "1 teaspoon", 
            "ingredient": "ground black pepper"
        }, 
        {
            "amount": "4", 
            "ingredient": "skinless, boneless chicken breast halves"
        }
    ], 
    "prep_steps": [
        "Mix canola oil, lemon zest, lemon juice, Dijon mustard, honey, garlic, Worcestershire sauce, Italian herb seasoning, salt, and black pepper in a bowl; pour into a resealable plastic bag. Place chicken breasts into the bag, seal, and squeeze bag with your fingers several times to coat chicken with marinade. Place a second resealable bag over the first and seal to prevent leaks. Refrigerate chicken for 2 to 4 hours.", 
        "Preheat grill for medium heat and lightly oil the grate.", 
        "Remove chicken breasts from bag; discard used marinade. Cook chicken on the preheated grill until the center is no longer pink and the juices run clear, 7 to 8 minutes per side."
    ], 
    "prep_time": "2\u00bd hrs", 
    "recipe_name": "Grilled Honey-Lemon Chicken"
}