{
    "ingredients": [
        {
            "amount": "2 tablespoons", 
            "ingredient": "butter"
        }, 
        {
            "amount": "2 cloves", 
            "ingredient": "chopped fresh garlic"
        }, 
        {
            "amount": "2 cups", 
            "ingredient": "sliced chanterelle mushrooms"
        }, 
        {
            "amount": "2 tablespoons", 
            "ingredient": "butter"
        }, 
        {
            "amount": "2 cups", 
            "ingredient": "Arborio rice"
        }, 
        {
            "amount": "5 cups", 
            "ingredient": "vegetable broth"
        }, 
        {
            "amount": "2 cups", 
            "ingredient": "freshly grated Parmesan cheese"
        }
    ], 
    "prep_steps": [
        "In a large skillet over medium-high heat, melt 2 tablespoons butter. Cook and stir the garlic and mushrooms in the melted butter for three minutes, being sure to brown the mushrooms little. Set aside.", 
        "Meanwhile, melt 2 tablespoons butter in a large saucepan over medium heat. Stir in rice, and cook for 1 to 2 minutes. Slowly add vegetable broth 1/2 cup at a time, stirring frequently and allowing all the liquid to be absorbed before adding more broth. Continue cooking until the rice is tender to the tooth. Stir in the mushroom mixture and heat through, about 1 minute. Stir in cheese, and season with salt and pepper to taste."
    ], 
    "prep_time": "50 mins", 
    "recipe_name": "Chanterelle Risotto"
}