{
    "ingredients": [
        {
            "amount": "1 (15 ounce) can", 
            "ingredient": "black beans, drained and rinsed"
        }, 
        {
            "amount": "1/2 head", 
            "ingredient": "cabbage, chopped"
        }, 
        {
            "amount": "1 (10 ounce) package", 
            "ingredient": "romaine lettuce, torn"
        }, 
        {
            "amount": "1/2", 
            "ingredient": "green bell pepper, chopped"
        }, 
        {
            "amount": "1 (8.75 ounce) can", 
            "ingredient": "corn, drained"
        }, 
        {
            "amount": "1/4 cup", 
            "ingredient": "shredded Cheddar cheese"
        }, 
        {
            "amount": "2", 
            "ingredient": "cooked skinless, boneless chicken breast halves, cut into strips"
        }, 
        {
            "amount": "1 cup", 
            "ingredient": "finely crushed blue tortilla chips"
        }, 
        {
            "amount": "1/2 cup", 
            "ingredient": "prepared Ranch salad dressing"
        }
    ], 
    "prep_steps": [
        "In a small saucepan over medium heat, cook the black beans until heated through. Season with salt and pepper.", 
        "In a large bowl, toss together the cabbage, romaine lettuce, green bell pepper, corn, and Cheddar cheese.", 
        "Transfer the tossed salad to serving bowls, and top with the warmed black beans, chicken, tortilla chips, and Ranch dressing."
    ], 
    "prep_time": "35 mins", 
    "recipe_name": "Southwest Chicken Salad II"
}