{
    "ingredients": [
        {
            "amount": "1 cup", 
            "ingredient": "uncooked white rice"
        }, 
        {
            "amount": "1/2 cup", 
            "ingredient": "shredded Cheddar cheese"
        }, 
        {
            "amount": "1 small", 
            "ingredient": "onion, grated"
        }, 
        {
            "amount": "2", 
            "ingredient": "eggs, beaten"
        }, 
        {
            "amount": "1/4 cup", 
            "ingredient": "butter, softened"
        }, 
        {
            "amount": "1 cup", 
            "ingredient": "fresh parsley"
        }, 
        {
            "amount": "1 1/2 cups", 
            "ingredient": "milk"
        }
    ], 
    "prep_steps": [
        "Preheat oven to 250 degrees F (120 degrees C).", 
        "In a saucepan bring 2 cups of water to a boil. Add rice and stir. Reduce heat, cover and simmer for 20 minutes.", 
        "To the cooked rice add cheese, onion, eggs and butter. Mix well and gently stir in parsley and milk. Transfer to a 2 quart casserole dish.", 
        "Bake in preheated oven for 1 1/2 hours."
    ], 
    "prep_time": "2 hrs", 
    "recipe_name": "Fantastic Green Rice Dish"
}