{
    "ingredients": [
        {
            "amount": "1 teaspoon", 
            "ingredient": "olive oil"
        }, 
        {
            "amount": "1/2 medium", 
            "ingredient": "onion, thinly sliced"
        }, 
        {
            "amount": "1 small", 
            "ingredient": "green bell pepper, thinly sliced"
        }, 
        {
            "amount": "4 ounces", 
            "ingredient": "mycoprotein pieces, e.g., Quorn\u2122"
        }, 
        {
            "amount": "1 clove", 
            "ingredient": "garlic, chopped"
        }, 
        {
            "amount": "1 teaspoon", 
            "ingredient": "paprika"
        }, 
        {
            "amount": "1 (14.5 ounce) can", 
            "ingredient": "whole peeled tomatoes, chopped, juice reserved"
        }, 
        {
            "amount": "1/2 cup", 
            "ingredient": "red wine"
        }, 
        {
            "amount": "1 teaspoon", 
            "ingredient": "dried oregano"
        }, 
        {
            "amount": "1 teaspoon", 
            "ingredient": "tomato puree"
        }, 
        {
            "amount": "1 teaspoon", 
            "ingredient": "sugar"
        }
    ], 
    "prep_steps": [
        "Heat the olive oil in a large skillet over medium heat, and saute the onion 5 minutes, until tender. Mix in the green pepper and mycoprotein pieces, and saute 5 minute, until the pepper is tender. Mix in the garlic and paprika.", 
        "Stir the tomatoes with their juice into the skillet. Mix in the wine, oregano, and tomato puree. Bring the mixture to a boil. Reduce heat to low, and simmer 25 minutes, until thickened. Just before serving, stir in the sugar, and season with salt and pepper."
    ], 
    "prep_time": "50 mins", 
    "recipe_name": "Veggie Goulash"
}