{
    "ingredients": [
        {
            "amount": "2 cups", 
            "ingredient": "brewed black tea, cold"
        }
    ], 
    "prep_steps": [
        "Pour the cold tea into an ice cube tray and freeze. Pop out a few whenever you're ready for a tall cool drink."
    ], 
    "prep_time": "1 min", 
    "recipe_name": "Beverage Cubes"
}