{
    "ingredients": [
        {
            "amount": "1 head", 
            "ingredient": "broccoli, washed and cut into bite-sized pieces"
        }, 
        {
            "amount": "2 cloves", 
            "ingredient": "garlic, minced"
        }, 
        {
            "amount": "4 tablespoons", 
            "ingredient": "extra virgin olive oil, divided"
        }, 
        {
            "amount": "1/2 teaspoon", 
            "ingredient": "kosher salt"
        }, 
        {
            "amount": "1/2 teaspoon", 
            "ingredient": "coarse ground black pepper"
        }, 
        {
            "amount": "1 tablespoon", 
            "ingredient": "lemon juice"
        }, 
        {
            "amount": "1/4 cup", 
            "ingredient": "Dietz & Watson Shaved Parmesan Cheese"
        }
    ], 
    "prep_steps": [
        "Preheat your oven to 425 degrees F.", 
        "Wash the broccoli and cut it into bite-sized pieces. Place the broccoli on a large rimmed baking sheet.", 
        "Mince the garlic and toss it in with the broccoli.", 
        "Drizzle 3 tablespoons extra virgin olive oil over the broccoli, then season with coarse black pepper and kosher salt.", 
        "Bake in the oven for 20-25 minutes until the broccoli is tender.", 
        "Toss in lemon juice, parmesan cheese, and 1 tablespoon olive oil; serve immediately."
    ], 
    "recipe_name": "Garlic Roasted Broccoli with Parmesan Cheese"
}