{
    "ingredients": [
        {
            "amount": "2 slices", 
            "ingredient": "wheat bread"
        }, 
        {
            "amount": "2 tablespoons", 
            "ingredient": "mayonnaise"
        }, 
        {
            "amount": "1/4 cup", 
            "ingredient": "shredded lettuce"
        }, 
        {
            "amount": "4 ounces", 
            "ingredient": "sliced Butterball\u00ae Maple Honey Turkey"
        }, 
        {
            "amount": "2 tablespoons", 
            "ingredient": "whole berry cranberry sauce"
        }
    ], 
    "prep_steps": [
        "Spread each slice of bread with mayonnaise.", 
        "Top with lettuce, turkey and cranberry sauce and remaining slice of bread."
    ], 
    "prep_time": "5 mins", 
    "recipe_name": "Cranberry Thanksgiving Turkey Sandwich"
}