{
    "ingredients": [
        {
            "amount": "1 (8 ounce) package", 
            "ingredient": "thin spaghetti"
        }, 
        {
            "amount": "2 tablespoons", 
            "ingredient": "sesame oil"
        }, 
        {
            "amount": "1 dash", 
            "ingredient": "soy sauce"
        }, 
        {
            "amount": "1/2 teaspoon", 
            "ingredient": "cayenne pepper"
        }, 
        {
            "amount": "1", 
            "ingredient": "red bell pepper, julienned"
        }, 
        {
            "amount": "1 bunch", 
            "ingredient": "fresh cilantro leaves, finely chopped"
        }
    ], 
    "prep_steps": [
        "Bring a large pot of lightly salted water to a boil. Add pasta and cook for 8 to 10 minutes or until al dente; drain and rinse under cold water to cool.", 
        "Place pasta in a large bowl, and toss with the sesame oil, soy sauce, and cayenne pepper. Add the red bell pepper and cilantro and toss again until well mixed. Cover and refrigerate for one hour. Serve chilled."
    ], 
    "prep_time": "1\u00bd hrs", 
    "recipe_name": "Asian Pasta"
}