{
    "ingredients": [
        {
            "amount": "1 (8 ounce) package", 
            "ingredient": "wide egg noodles"
        }, 
        {
            "amount": "6", 
            "ingredient": "eggs"
        }, 
        {
            "amount": "5 tablespoons", 
            "ingredient": "unsalted butter, melted"
        }, 
        {
            "amount": "1/2 cup", 
            "ingredient": "white sugar"
        }, 
        {
            "amount": "1 (8 ounce) can", 
            "ingredient": "crushed pineapple, with juice"
        }, 
        {
            "amount": "1 1/4 teaspoons", 
            "ingredient": "vanilla extract"
        }, 
        {
            "amount": "1 teaspoon", 
            "ingredient": "ground cinnamon"
        }, 
        {
            "amount": "1 (8 ounce) can", 
            "ingredient": "sliced pineapple, drained"
        }, 
        {
            "amount": "1/4 cup", 
            "ingredient": "candied cherries"
        }
    ], 
    "prep_steps": [
        "Boil noodles in boiling salted water just until softened; do not cook through. Rinse, and drain.", 
        "Beat the eggs with the melted butter. Mix in sugar, crushed pineapple with juice, vanilla, and cinnamon. Stir in the noodles. Spread into a greased 9 x 13 inch baking pan. Place pineapple rings decoratively over the top. Place a cherry in the center of each ring if desired", 
        "Bake at 350 degrees F (175 degrees C) for 50 minutes, or until golden."
    ], 
    "recipe_name": "Pineapple Kugel"
}