{
    "ingredients": [
        {
            "amount": "1/2 cup", 
            "ingredient": "butter"
        }, 
        {
            "amount": "1/2 cup", 
            "ingredient": "olive oil"
        }, 
        {
            "amount": "3 tablespoons", 
            "ingredient": "minced garlic"
        }, 
        {
            "amount": "1 1/4 cups", 
            "ingredient": "chopped fresh parsley"
        }, 
        {
            "amount": "2 tablespoons", 
            "ingredient": "fresh lemon juice"
        }, 
        {
            "amount": "1 pinch", 
            "ingredient": "crushed red pepper"
        }, 
        {
            "amount": "1 (16 ounce) package", 
            "ingredient": "bow tie pasta"
        }, 
        {
            "amount": "2 (10 ounce) containers", 
            "ingredient": "shucked small oysters, drained"
        }, 
        {
            "amount": "1/4 cup", 
            "ingredient": "butter"
        }, 
        {
            "amount": "1 tablespoon", 
            "ingredient": "olive oil"
        }, 
        {
            "amount": "1 1/4 pounds", 
            "ingredient": "peeled and deveined small shrimp"
        }, 
        {
            "amount": "1 pound", 
            "ingredient": "fresh lump crabmeat"
        }, 
        {
            "amount": "1/4 cup", 
            "ingredient": "chopped fresh parsley"
        }
    ], 
    "prep_steps": [
        "Melt 1/2 cup butter and 1/2 cup olive oil together in a saucepan over medium heat. Stir in the garlic, and cook until fragrant, about 3 minutes. Stir in the 1 1/4 cups of parsley, and cook for 1 minute more. Season with lemon juice, crushed red pepper, salt, and pepper; set aside.", 
        "Bring a large pot of lightly salted water to a boil. Add pasta and cook for 8 to 10 minutes or until al dente; drain.", 
        "Meanwhile, bring a few cups of water to a boil in a saucepan over high heat. Stir in the oysters and turn off the heat. Allow the oysters to stand for 3 minutes, then drain and set aside. Melt 1/4 cup butter and 1 tablespoon olive oil together in a large skillet over medium-high heat. Stir in the shrimp, and cook until they turn pink and begin to firm. Add the crab meat and drained oysters; continue cooking until the shrimp have turned opaque in the center, and the crab is hot.", 
        "Toss the seafood with the drained pasta, and season to taste with salt and pepper. Pour in the sauce, and toss gently to coat. Sprinkle with remaining 1/4 cup of chopped parsley before serving."
    ], 
    "prep_time": "45 mins", 
    "recipe_name": "Pasta With Shrimp, Oysters, and Crabmeat"
}