{
    "ingredients": [
        {
            "amount": "1 cup", 
            "ingredient": "rinsed quinoa"
        }, 
        {
            "amount": "2 cups", 
            "ingredient": "chicken broth"
        }, 
        {
            "amount": "2 tablespoons", 
            "ingredient": "extra-virgin olive oil"
        }, 
        {
            "amount": "2", 
            "ingredient": "garlic scapes, chopped"
        }, 
        {
            "amount": "1 small", 
            "ingredient": "onion, chopped"
        }, 
        {
            "amount": "2", 
            "ingredient": "skinless, boneless chicken breast halves - cut into strips"
        }, 
        {
            "amount": "2 tablespoons", 
            "ingredient": "extra-virgin olive oil"
        }, 
        {
            "amount": "1", 
            "ingredient": "zucchini, diced"
        }, 
        {
            "amount": "1", 
            "ingredient": "tomato, diced"
        }, 
        {
            "amount": "4 ounces", 
            "ingredient": "crumbled feta cheese"
        }, 
        {
            "amount": "8", 
            "ingredient": "fresh basil leaves"
        }, 
        {
            "amount": "1 tablespoon", 
            "ingredient": "lime juice"
        }
    ], 
    "prep_steps": [
        "Bring the quinoa and chicken broth to a boil in a saucepan; reduce heat to a simmer and cover the pan. Simmer until the broth is absorbed, the quinoa is fluffy, and the white line is visible in the grain, about 12 minutes.", 
        "Heat 2 tablespoons of olive oil in a skillet; cook and stir the garlic scapes and onion until onion is translucent, about 5 minutes. Stir in the chicken breast strips and cook until the chicken is still slightly pink in the middle, about 5 more minutes. Remove the chicken meat and set aside. Pour 2 more tablespoons of olive oil in the skillet and cook and stir the zucchini and tomato until the zucchini is tender, 5 to 8 minutes. Return chicken to skillet and sprinkle with feta cheese, basil leaves, and lime juice. Cook until the chicken is fully cooked and hot, about 10 more minutes. Serve over hot quinoa."
    ], 
    "prep_time": "55 mins", 
    "recipe_name": "Chicken with Quinoa and Veggies"
}