{
    "ingredients": [
        {
            "amount": "2 cups", 
            "ingredient": "Italian-style salad dressing"
        }, 
        {
            "amount": "1/4 cup", 
            "ingredient": "soy sauce"
        }, 
        {
            "amount": "1/2 teaspoon", 
            "ingredient": "pepper"
        }, 
        {
            "amount": "4", 
            "ingredient": "boneless pork chops"
        }
    ], 
    "prep_steps": [
        "In a bowl, mix the Italian-style salad dressing, soy sauce, and pepper.", 
        "Place the pork chops in a skillet over medium heat, and cover with the dressing mixture. Cover skillet, and cook pork chops 25 minutes, turning occasionally. Remove cover, reduce heat to low, and continue cooking to desired doneness."
    ], 
    "prep_time": "35 mins", 
    "recipe_name": "Yummy Pork Chops"
}