{
    "ingredients": [
        {
            "amount": "2 cups", 
            "ingredient": "tequila"
        }, 
        {
            "amount": "2 tablespoons", 
            "ingredient": "lime juice"
        }, 
        {
            "amount": "1 tablespoon", 
            "ingredient": "brown sugar"
        }, 
        {
            "amount": "1 teaspoon", 
            "ingredient": "cayenne pepper"
        }, 
        {
            "amount": "6 (6 ounce)", 
            "ingredient": "skinless, boneless chicken breast halves"
        }, 
        {
            "amount": "1 (16 ounce) container", 
            "ingredient": "sour cream"
        }, 
        {
            "amount": "1/2 cup", 
            "ingredient": "coconut milk"
        }, 
        {
            "amount": "1/4 cup", 
            "ingredient": "lime juice"
        }, 
        {
            "amount": "2 tablespoons", 
            "ingredient": "chopped cilantro"
        }, 
        {
            "amount": "1 clove", 
            "ingredient": "crushed garlic"
        }, 
        {
            "amount": "1 pinch", 
            "ingredient": "salt and pepper to taste"
        }, 
        {
            "amount": "6 slices", 
            "ingredient": "peeled, cored pineapple"
        }
    ], 
    "prep_steps": [
        "Whisk together the tequila, 2 tablespoons of lime juice, brown sugar, and cayenne pepper; pour into a resealable plastic bag. Add the chicken breasts, coat with the marinade, squeeze out excess air, and seal the bag. Marinate in the refrigerator for 1 hour.", 
        "Meanwhile, make the sauce by whisking together the sour cream , coconut milk, and 1/4 cup of lime juice in a bowl. Add the cilantro and garlic, then season to taste with salt and pepper; set aside.", 
        "Preheat an outdoor grill for medium-high heat, and lightly oil grate. Remove the chicken from the marinade, and shake off excess. Discard the remaining marinade.", 
        "Cook the chicken and pineapple slices on the preheated grill until the chicken is no longer pink in the center, and the pineapple slices are nicely marked, about 6 minutes. Serve the chicken breasts topped with a slice of grilled pineapple, and a dollop of the sour cream sauce."
    ], 
    "prep_time": "1\u00be hrs", 
    "recipe_name": "Coconut-Lime Chicken with Grilled Pineapple"
}