{
    "ingredients": [
        {
            "amount": "2 cups", 
            "ingredient": "grated carrots"
        }, 
        {
            "amount": "1/2 cup", 
            "ingredient": "chopped salted peanuts"
        }, 
        {
            "amount": "3 tablespoons", 
            "ingredient": "lemon juice"
        }, 
        {
            "amount": "1/2 teaspoon", 
            "ingredient": "salt"
        }, 
        {
            "amount": "1 teaspoon", 
            "ingredient": "white sugar"
        }, 
        {
            "amount": "1", 
            "ingredient": "green chile pepper, seeded and diced"
        }, 
        {
            "amount": "2 tablespoons", 
            "ingredient": "finely chopped fresh cilantro"
        }
    ], 
    "prep_steps": [
        "In a medium serving bowl, toss together the carrots and peanuts. In a separate bowl, whisk together the lemon juice, salt, sugar, chile pepper and cilantro. Pour over the carrots and stir gently to coat. Serve immediately."
    ], 
    "prep_time": "15 mins", 
    "recipe_name": "Gujarati Carrot and Peanut Salad"
}