{
    "ingredients": [
        {
            "amount": "1 tablespoon", 
            "ingredient": "olive oil"
        }, 
        {
            "amount": "5 cloves", 
            "ingredient": "garlic, minced"
        }, 
        {
            "amount": "1", 
            "ingredient": "onion, chopped"
        }, 
        {
            "amount": "2 cups", 
            "ingredient": "peeled and diced eggplant"
        }, 
        {
            "amount": "2 cups", 
            "ingredient": "chopped zucchini"
        }, 
        {
            "amount": "1", 
            "ingredient": "green bell pepper, chopped"
        }, 
        {
            "amount": "1 (14.5 ounce) can", 
            "ingredient": "diced tomatoes"
        }, 
        {
            "amount": "1 tablespoon", 
            "ingredient": "dried basil"
        }, 
        {
            "amount": "1 tablespoon", 
            "ingredient": "dried parsley"
        }, 
        {
            "amount": "1/2 teaspoon", 
            "ingredient": "salt"
        }, 
        {
            "amount": "1/8 teaspoon", 
            "ingredient": "black pepper"
        }, 
        {
            "amount": "1 (8 ounce) package", 
            "ingredient": "frozen cheese ravioli"
        }, 
        {
            "amount": "3/4 cup", 
            "ingredient": "shredded mozzarella cheese"
        }
    ], 
    "prep_steps": [
        "Preheat oven to 350 degrees F (175 degrees C); spray a 2 1/2-quart baking dish with cooking spray.", 
        "Heat the olive oil in a large skillet over medium heat; cook and stir the garlic, onion, and eggplant with the garlic until the vegetables have begun to soften, about 8 minutes. Stir in the zucchini, bell pepper, tomatoes, basil, parsley, salt, and black pepper; bring the mixture to a boil, stirring frequently. Reduce heat to medium-low and simmer until the vegetables are tender, about 20 minutes.", 
        "Cook the frozen ravioli as directed on the package; drain. Spread the cooked ravioli in a layer into the bottom of the prepared baking dish; spoon the hot vegetables over the ravioli. Sprinkle with the cheese.", 
        "Bake in the preheated oven until the casserole is bubbling and the cheese is melted, about 20 minutes."
    ], 
    "prep_time": "1 hr", 
    "recipe_name": "Ratatouille Bake"
}