{
    "ingredients": [
        {
            "amount": "2 cups", 
            "ingredient": "all-purpose flour"
        }, 
        {
            "amount": "1 teaspoon", 
            "ingredient": "baking soda"
        }, 
        {
            "amount": "1/2 teaspoon", 
            "ingredient": "salt"
        }, 
        {
            "amount": "1/2 teaspoon", 
            "ingredient": "baking powder"
        }, 
        {
            "amount": "1 cup", 
            "ingredient": "shortening"
        }, 
        {
            "amount": "1 cup", 
            "ingredient": "white sugar"
        }, 
        {
            "amount": "1 cup", 
            "ingredient": "packed brown sugar"
        }, 
        {
            "amount": "2", 
            "ingredient": "eggs"
        }, 
        {
            "amount": "2 cups", 
            "ingredient": "rolled oats"
        }, 
        {
            "amount": "1 teaspoon", 
            "ingredient": "vanilla extract"
        }, 
        {
            "amount": "2 cups", 
            "ingredient": "semisweet chocolate chips"
        }
    ], 
    "prep_steps": [
        "Blend shortening and sugars together. Add eggs, and beat until fluffy. Whisk together flour, soda, salt, and baking powder; mix into the egg mixture. Stir in oats, vanilla, and chocolate chips. Drop by teaspoonfuls on ungreased cookie sheets", 
        "Bake at 350 degrees F (175 degrees C) for 15 minutes. Cool on wire racks."
    ], 
    "recipe_name": "Cowboy Cookies II"
}