{
    "ingredients": [
        {
            "amount": "1/2 cup", 
            "ingredient": "packed brown sugar"
        }, 
        {
            "amount": "1/2 cup", 
            "ingredient": "peanut butter"
        }, 
        {
            "amount": "1/4 cup", 
            "ingredient": "evaporated milk"
        }, 
        {
            "amount": "2 1/2 cups", 
            "ingredient": "crispy rice cereal"
        }
    ], 
    "prep_steps": [
        "In a medium saucepan, stir together brown sugar, peanut butter and evaporated milk. Bring to boil, stirring constantly, until brown sugar is dissolved and peanut butter is melted.", 
        "Remove from heat. Stir in crisp rice cereal. Drop by rounded teaspoons onto waxed paper or foil. Cool until firm."
    ], 
    "recipe_name": "Peanut Butter No-Bakes"
}