{
    "ingredients": [
        {
            "amount": "1 (12 ounce) jar", 
            "ingredient": "marinated artichoke hearts, drained and chopped (reserve marinade)"
        }, 
        {
            "amount": "2 large", 
            "ingredient": "skinless, boneless chicken breast halves - cut into chunks"
        }, 
        {
            "amount": "1 large", 
            "ingredient": "onion, quartered and sliced"
        }, 
        {
            "amount": "3 cloves", 
            "ingredient": "garlic, minced"
        }, 
        {
            "amount": "8 ounces", 
            "ingredient": "sliced fresh mushrooms"
        }, 
        {
            "amount": "1 teaspoon", 
            "ingredient": "dried oregano"
        }, 
        {
            "amount": "1 teaspoon", 
            "ingredient": "dried basil"
        }, 
        {
            "amount": "1 teaspoon", 
            "ingredient": "salt"
        }, 
        {
            "amount": "1/2 teaspoon", 
            "ingredient": "dried rosemary"
        }, 
        {
            "amount": "1/4 teaspoon", 
            "ingredient": "ground black pepper"
        }, 
        {
            "amount": "1 (14.5 ounce) can", 
            "ingredient": "diced tomatoes in juice"
        }, 
        {
            "amount": "1 (15 ounce) can", 
            "ingredient": "tomato sauce"
        }, 
        {
            "amount": "1/3 cup", 
            "ingredient": "sliced black olives, drained"
        }, 
        {
            "amount": "1/2 cup", 
            "ingredient": "Madeira wine"
        }, 
        {
            "amount": "8 ounces", 
            "ingredient": "shredded mozzarella cheese"
        }
    ], 
    "prep_steps": [
        "Preheat oven to 350 degrees F (175 degrees C).", 
        "Place half the artichoke marinade into a large skillet over medium-high heat, and brown the chicken pieces until the liquid has almost evaporated, 8 to 10 minutes. Remove the chicken pieces with a slotted spoon, and place into a 9x13-inch baking dish.", 
        "Pour the remaining marinade into the same skillet, and cook and stir the onions, garlic, mushrooms, oregano, basil, salt, rosemary, and black pepper until the onions are translucent, 5 to 8 minutes. Mix in diced tomatoes with their juice, tomato sauce, black olives, and chopped artichoke hearts. Stir the sauce well, and pour over the chicken in the baking dish. Cover the dish with foil.", 
        "Bake the chicken until the sauce is bubbling, about 45 minutes. Uncover, and drizzle the Madeira wine over the dish; top with mozzarella cheese. Return to oven, uncovered, and bake until the cheese is melted, about 10 more minutes."
    ], 
    "prep_time": "1\u00bd hrs", 
    "recipe_name": "Melissa's Chicken Cacciatore"
}