{
    "ingredients": [
        {
            "amount": "2 pounds", 
            "ingredient": "ground beef chuck"
        }, 
        {
            "amount": "2 envelopes", 
            "ingredient": "taco seasoning mix"
        }, 
        {
            "amount": "1 1/2 cups", 
            "ingredient": "water"
        }, 
        {
            "amount": "1", 
            "ingredient": "onion, chopped"
        }, 
        {
            "amount": "2 cups", 
            "ingredient": "green leaf lettuce, shredded"
        }, 
        {
            "amount": "1 cup", 
            "ingredient": "cherry tomatoes, halved"
        }, 
        {
            "amount": "2 cups", 
            "ingredient": "shredded Cheddar/Monterey Jack cheese blend"
        }, 
        {
            "amount": "1/2 cup", 
            "ingredient": "chopped black olives"
        }, 
        {
            "amount": "2 cups", 
            "ingredient": "salsa"
        }, 
        {
            "amount": "2", 
            "ingredient": "jalapeno peppers, seeded and chopped"
        }, 
        {
            "amount": "1 cup", 
            "ingredient": "sour cream"
        }, 
        {
            "amount": "1 (10.5 ounce) bag", 
            "ingredient": "corn chips (such as Fritos\u00ae)"
        }
    ], 
    "prep_steps": [
        "Brown ground beef in a large skillet over medium heat until crumbly and no longer pink, about 10 minutes; drain excess grease. Mix in taco seasoning mix and water. Bring the beef mixture to a boil and cook until thickened, about 10 more minutes. Transfer beef to a serving bowl.", 
        "Place chopped onion, lettuce, cherry tomatoes, Cheddar cheese, black olives, salsa, jalapeno peppers, sour cream, and corn chips in individual serving bowls. Allow diners to assemble their own salads from the ingredients."
    ], 
    "prep_time": "55 mins", 
    "recipe_name": "Quick Taco Salad"
}