{
    "ingredients": [
        {
            "amount": "1 cup", 
            "ingredient": "butter, softened"
        }, 
        {
            "amount": "1 cup", 
            "ingredient": "white sugar"
        }, 
        {
            "amount": "1 cup", 
            "ingredient": "light brown sugar"
        }, 
        {
            "amount": "2", 
            "ingredient": "eggs"
        }, 
        {
            "amount": "2 teaspoons", 
            "ingredient": "vanilla extract"
        }, 
        {
            "amount": "2 cups", 
            "ingredient": "all-purpose flour"
        }, 
        {
            "amount": "1/2 cup", 
            "ingredient": "cocoa powder"
        }, 
        {
            "amount": "1 teaspoon", 
            "ingredient": "baking soda"
        }, 
        {
            "amount": "1/2 teaspoon", 
            "ingredient": "salt"
        }, 
        {
            "amount": "1 cup", 
            "ingredient": "semi-sweet chocolate chips"
        }, 
        {
            "amount": "1/4 cup", 
            "ingredient": "confectioner's sugar, for dusting"
        }
    ], 
    "prep_steps": [
        "Preheat oven to 350 degrees F (175 degrees C).", 
        "Beat butter, white sugar, and brown sugar with an electric mixer in a large bowl until smooth. Beat in one egg until completely incorporated; beat in last egg along with vanilla extract. Combine flour, cocoa, baking soda, and salt in a bowl. Stir flour mixture into butter mixture until just incorporated; mix in chocolate chips.", 
        "Roll dough into 2-inch balls, or drop spoonfuls of dough 2 inches apart, onto ungreased baking sheets.", 
        "Bake in preheated oven until edges of cookies are firm, 10 to 12 minutes. Remove to wire racks. Dust warm cookies with confectioners' sugar, if desired."
    ], 
    "prep_time": "35 mins", 
    "recipe_name": "Soft Chocolate Cookies"
}