{
    "ingredients": [
        {
            "amount": "4 medium", 
            "ingredient": "potatoes, peeled and cut into 1 inch cubes"
        }, 
        {
            "amount": "1 large", 
            "ingredient": "red onion, cut into 1 inch cubes"
        }, 
        {
            "amount": "1 (8 ounce) package", 
            "ingredient": "sliced mushrooms"
        }, 
        {
            "amount": "1 (1 ounce) envelope", 
            "ingredient": "dry onion soup mix"
        }, 
        {
            "amount": "1/4 cup", 
            "ingredient": "butter, melted"
        }
    ], 
    "prep_steps": [
        "Preheat an outdoor grill for medium heat.", 
        "Toss together the potatoes, onion, mushroom, and soup mix in a large bowl. Drizzle in the butter, and toss to coat. Divide into 4 portions, and seal each portion well in several layers of aluminum foil.", 
        "Cook potatoes on preheated grill until tender, 30 to 40 minutes. Turn at least once during cooking to ensure that they cook evenly."
    ], 
    "prep_time": "40 mins", 
    "recipe_name": "Camper's Potatoes"
}