{
    "ingredients": [
        {
            "amount": "5 pounds", 
            "ingredient": "unpeeled potatoes, cubed"
        }, 
        {
            "amount": "1 small", 
            "ingredient": "red onion, diced"
        }, 
        {
            "amount": "6", 
            "ingredient": "hard-cooked eggs, peeled and finely diced"
        }, 
        {
            "amount": "1 1/2 cups", 
            "ingredient": "mayonnaise"
        }, 
        {
            "amount": "1/2 cup", 
            "ingredient": "barbeque sauce"
        }, 
        {
            "amount": "1/2 teaspoon", 
            "ingredient": "garlic powder"
        }, 
        {
            "amount": "1 teaspoon", 
            "ingredient": "paprika"
        }
    ], 
    "prep_steps": [
        "Place cubed potatoes into a large kettle and cover with water. Bring to a boil over medium-high heat, then reduce heat to medium-low, cover, and simmer until the potatoes are just tender, 15 to 20 minutes. Drain and spread the potatoes onto baking sheets in a single layer. Chill the potatoes in the refrigerator until cold, about 2 hours.", 
        "Mix the cooled potatoes, red onion, egg, mayonnaise, barbeque sauce, garlic powder, salt, and pepper in a large bowl. Sprinkle with paprika if desired."
    ], 
    "prep_time": "2\u00be hrs", 
    "recipe_name": "Barbeque Potato Salad"
}