{
    "ingredients": [
        {
            "amount": "5 tablespoons", 
            "ingredient": "butter, melted"
        }, 
        {
            "amount": "2 tablespoons", 
            "ingredient": "all-purpose flour"
        }, 
        {
            "amount": "2 teaspoons", 
            "ingredient": "grated onion"
        }, 
        {
            "amount": "1 teaspoon", 
            "ingredient": "white sugar"
        }, 
        {
            "amount": "1 teaspoon", 
            "ingredient": "salt"
        }, 
        {
            "amount": "1/4 teaspoon", 
            "ingredient": "ground black pepper, or to taste"
        }, 
        {
            "amount": "1 cup", 
            "ingredient": "sour cream"
        }, 
        {
            "amount": "8 ounces", 
            "ingredient": "Swiss cheese, grated"
        }, 
        {
            "amount": "2 (15 ounce) cans", 
            "ingredient": "cut green beans, drained"
        }, 
        {
            "amount": "1 cup", 
            "ingredient": "cornflakes cereal crumbs"
        }
    ], 
    "prep_steps": [
        "Preheat oven to 400 degrees F (200 degrees C).", 
        "In a 3 quart saucepan combine 2 tablespoons melted butter, flour, onion, sugar, salt, pepper, sour cream and 4 ounces of the cheese. Cook over low heat and stir constantly until thickened. Fold in green beans. Pour into a 2 quart casserole dish and sprinkle the rest of the cheese on top.", 
        "In a small bowl combine cereal crumbs and melted butter; sprinkle over beans.", 
        "Bake in preheated oven for 20 minutes."
    ], 
    "prep_time": "30 mins", 
    "recipe_name": "Swiss Green Beans"
}