{
    "ingredients": [
        {
            "amount": "3 ounces", 
            "ingredient": "cream cheese"
        }, 
        {
            "amount": "1/2 cup", 
            "ingredient": "butter"
        }, 
        {
            "amount": "1 cup", 
            "ingredient": "all-purpose flour"
        }, 
        {
            "amount": "3/4 cup", 
            "ingredient": "packed brown sugar"
        }, 
        {
            "amount": "1 tablespoon", 
            "ingredient": "butter"
        }, 
        {
            "amount": "1", 
            "ingredient": "egg, beaten"
        }, 
        {
            "amount": "1 teaspoon", 
            "ingredient": "vanilla extract"
        }, 
        {
            "amount": "2/3 cup", 
            "ingredient": "chopped pecans"
        }
    ], 
    "prep_steps": [
        "Preheat oven to 350 degrees F (175 degrees C).", 
        "To Make Crust: In a medium mixing bowl blend softened cream cheese and 1/2 cup butter or margarine until thoroughly combined. Add flour and mix well. Place in refrigerator to chill.", 
        "In a medium mixing bowl combine brown sugar and 1 tablespoon butter or margarine. Add egg and vanilla, and blend well. Stir in pecans.", 
        "Pat crust into the bottoms of paper muffin cups. Pour in filling, distributing evenly between all cups. Bake in preheated oven for 30 minutes."
    ], 
    "recipe_name": "Pecan Cups"
}