{
    "ingredients": [
        {
            "amount": "3 tablespoons", 
            "ingredient": "soy sauce"
        }, 
        {
            "amount": "3 tablespoons", 
            "ingredient": "tomato sauce"
        }, 
        {
            "amount": "1 tablespoon", 
            "ingredient": "peanut oil"
        }, 
        {
            "amount": "2 cloves", 
            "ingredient": "garlic, peeled and minced"
        }, 
        {
            "amount": "1 pinch", 
            "ingredient": "ground black pepper"
        }, 
        {
            "amount": "1 pinch", 
            "ingredient": "ground cumin"
        }, 
        {
            "amount": "6", 
            "ingredient": "skinless, boneless chicken breast halves - cubed"
        }, 
        {
            "amount": "1 tablespoon", 
            "ingredient": "vegetable oil"
        }, 
        {
            "amount": "1/4 cup", 
            "ingredient": "minced onion"
        }, 
        {
            "amount": "1 clove", 
            "ingredient": "garlic, peeled and minced"
        }, 
        {
            "amount": "1 cup", 
            "ingredient": "water"
        }, 
        {
            "amount": "1/2 cup", 
            "ingredient": "chunky peanut butter"
        }, 
        {
            "amount": "2 tablespoons", 
            "ingredient": "soy sauce"
        }, 
        {
            "amount": "2 tablespoons", 
            "ingredient": "white sugar"
        }, 
        {
            "amount": "1 tablespoon", 
            "ingredient": "lemon juice"
        }
    ], 
    "prep_steps": [
        "In a bowl, mix soy sauce, tomato sauce, peanut oil, garlic, black pepper, and cumin. Place chicken into the mixture, and stir to coat. Cover, and marinate in the refrigerator for at least 15 minutes, but not overnight. This will make the meat too dark.", 
        "Preheat the grill for high heat.", 
        "Heat vegetable oil in a saucepan over medium heat, and saute onion and garlic until lightly browned. Mix in water, peanut butter, soy sauce, and sugar. Cook and stir until well blended. Remove from heat, mix in lemon juice, and set aside.", 
        "Lightly oil the grill grate. Thread chicken onto skewers, and discard marinade. Grill skewers about 5 minutes per side, until chicken juices run clear. Serve with the peanut sauce."
    ], 
    "prep_time": "1 hr", 
    "recipe_name": "Indonesian Satay"
}