{
    "ingredients": [
        {
            "amount": "2 tablespoons", 
            "ingredient": "olive oil"
        }, 
        {
            "amount": "4 (8 ounce)", 
            "ingredient": "salmon fillets"
        }, 
        {
            "amount": "4 medium", 
            "ingredient": "potatoes, peeled and sliced"
        }, 
        {
            "amount": "2 large", 
            "ingredient": "red onions, sliced into rings"
        }, 
        {
            "amount": "1", 
            "ingredient": "jarred roasted red pepper, drained and cut into strips"
        }, 
        {
            "amount": "8 ounces", 
            "ingredient": "portobello mushrooms"
        }, 
        {
            "amount": "1 tablespoon", 
            "ingredient": "fresh lemon juice"
        }, 
        {
            "amount": "1 teaspoon", 
            "ingredient": "sesame oil"
        }
    ], 
    "prep_steps": [
        "Preheat the oven to 350 degrees. Coat the bottom of a 9x13 inch baking dish generously with olive oil.", 
        "Arrange potato slices in a layer on the bottom of the baking dish. Season with a little salt and pepper. Place a layer of onions over the potatoes, then a layer of roasted peppers, seasoning each layer with salt and pepper as desired. Place salmon fillets over the vegetables in the dish, and season with lemon juice, salt and pepper. Place whole mushrooms over the fillets, and drizzle them with sesame oil.", 
        "Bake for 45 minutes in the preheated oven. Fish should flake easily with a fork, and potatoes should be tender."
    ], 
    "prep_time": "1 hr", 
    "recipe_name": "Earth, Sea and Fire Salmon"
}