{
    "ingredients": [
        {
            "amount": "2 1/2 cups", 
            "ingredient": "white sugar"
        }, 
        {
            "amount": "3 tablespoons", 
            "ingredient": "cornstarch"
        }, 
        {
            "amount": "1 cup", 
            "ingredient": "corn syrup"
        }, 
        {
            "amount": "1 1/3 cups", 
            "ingredient": "water"
        }, 
        {
            "amount": "2 tablespoons", 
            "ingredient": "butter"
        }, 
        {
            "amount": "1/2 teaspoon", 
            "ingredient": "salt"
        }, 
        {
            "amount": "1 (0.13 ounce) package", 
            "ingredient": "unsweetened, fruit-flavored soft drink mix"
        }
    ], 
    "prep_steps": [
        "Butter 2 large baking sheets, and set them aside.", 
        "In a medium saucepan, stir together the sugar and cornstarch. Add corn syrup, water, butter and salt, and stir to blend. Bring to a boil over medium heat, and cook until the mixture reads 250 degrees F (120 degrees C) on a candy thermometer. Remove from heat, and immediately stir in the drink mix powder. Quickly pour out onto the prepared baking sheets, and let stand until cool enough to handle.", 
        "Grab a few helpers, and butter everyone's hands. Stretch (pull) the taffy until it lightens in color, and becomes firm. Roll into bite size pieces, and wrap in small squares of waxed paper."
    ], 
    "recipe_name": "Any Flavor Taffy"
}