{
    "ingredients": [
        {
            "amount": "1/3 sleeve", 
            "ingredient": "buttery round crackers (such as Ritz\u00ae), crushed"
        }, 
        {
            "amount": "1/4 cup", 
            "ingredient": "margarine, melted"
        }, 
        {
            "amount": "1 (10 ounce) package", 
            "ingredient": "frozen chopped broccoli, thawed"
        }, 
        {
            "amount": "1 small", 
            "ingredient": "onion, chopped"
        }, 
        {
            "amount": "2 cups", 
            "ingredient": "shredded Cheddar cheese"
        }, 
        {
            "amount": "1 cup", 
            "ingredient": "uncooked instant rice (such as Minute\u00ae)"
        }, 
        {
            "amount": "1 (10.75 ounce) can", 
            "ingredient": "condensed cream of mushroom soup"
        }, 
        {
            "amount": "1 cup", 
            "ingredient": "water"
        }
    ], 
    "prep_steps": [
        "Preheat an oven to 350 degrees F (175 degrees C).", 
        "Pour the crushed crackers into a small bowl. Mix in the melted margarine until evenly coated; set aside.", 
        "Stir the broccoli, onion, Cheddar cheese, rice, condensed cream of mushroom soup, and water in 2 quart casserole dish. Sprinkle with the cracker crumbs.", 
        "Bake in the preheated oven until the casserole is hot in the center and the top is browned and bubbly, 45 minutes to 1 hour."
    ], 
    "prep_time": "55 mins", 
    "recipe_name": "Vernita's Broccoli Casserole"
}