{
    "ingredients": [
        {
            "amount": "2 (8 ounce) packages", 
            "ingredient": "cream cheese, softened"
        }, 
        {
            "amount": "2 cups", 
            "ingredient": "shredded Cheddar cheese"
        }, 
        {
            "amount": "1 tablespoon", 
            "ingredient": "finely chopped pimento"
        }, 
        {
            "amount": "1 tablespoon", 
            "ingredient": "finely chopped green pepper"
        }, 
        {
            "amount": "1 tablespoon", 
            "ingredient": "finely chopped onion"
        }, 
        {
            "amount": "2 tablespoons", 
            "ingredient": "Worcestershire sauce"
        }, 
        {
            "amount": "1 tablespoon", 
            "ingredient": "lemon juice"
        }, 
        {
            "amount": "1 pinch", 
            "ingredient": "salt"
        }, 
        {
            "amount": "1/2 cup", 
            "ingredient": "finely chopped pecans"
        }
    ], 
    "prep_steps": [
        "Combine the cream cheese and Cheddar cheese in a bowl; use your hands to mix together. Add the pimento, green pepper, onion, Worcestershire sauce, lemon juice, and salt; mix, and shape into a ball. Spread the pecans onto a plate. Roll the cheese ball in the pecans until evenly coated. Refrigerate overnight before serving."
    ], 
    "prep_time": "8 hrs", 
    "recipe_name": "Party Cheese Ball"
}