{
    "ingredients": [
        {
            "amount": "6", 
            "ingredient": "boneless, chicken breast halves - cooked, skinned"
        }, 
        {
            "amount": "1 (10.75 ounce) can", 
            "ingredient": "condensed cream of mushroom soup"
        }, 
        {
            "amount": "1 (10.75 ounce) can", 
            "ingredient": "condensed cream of chicken soup"
        }, 
        {
            "amount": "1 (10.75 ounce) can", 
            "ingredient": "condensed nacho cheese soup"
        }, 
        {
            "amount": "1 pound", 
            "ingredient": "processed cheese, cubed"
        }, 
        {
            "amount": "1/2 teaspoon", 
            "ingredient": "chili powder"
        }, 
        {
            "amount": "1 (14.5 ounce) package", 
            "ingredient": "nacho-flavor tortilla chips"
        }
    ], 
    "prep_steps": [
        "Preheat oven to 350 degrees F (175 degrees C).", 
        "In a large bowl, combine the chicken, mushroom soup, chicken soup, nacho cheese soup, process cheese food and chili powder to taste.", 
        "Spread a layer of tortilla chips in the bottom of a 9x13 inch baking dish. Spread the mixture over the chips and top with the remaining chips.", 
        "Bake at 350 degrees F (175 degrees C) for 30 to 45 minutes, or until all the cheese is melted and bubbly."
    ], 
    "prep_time": "1\u00bc hrs", 
    "recipe_name": "Easy Mexican Chicken Bake"
}