{
    "ingredients": [
        {
            "amount": "1 (6 ounce) package", 
            "ingredient": "herb-seasoned dry bread stuffing mix"
        }, 
        {
            "amount": "1 (16 ounce) package", 
            "ingredient": "chicken tenderloins"
        }, 
        {
            "amount": "1 (10.75 ounce) can", 
            "ingredient": "condensed cream of celery soup"
        }, 
        {
            "amount": "1 (10.75 ounce) can", 
            "ingredient": "condensed cream of chicken soup"
        }, 
        {
            "amount": "1 (15 ounce) can", 
            "ingredient": "peas, drained"
        }, 
        {
            "amount": "1 (16 ounce) can", 
            "ingredient": "carrots, drained"
        }, 
        {
            "amount": "1 (2.8 ounce) can", 
            "ingredient": "French fried onions"
        }
    ], 
    "prep_steps": [
        "Prepare stuffing according to package directions; line bottom of a 9x13 inch baking dish with prepared stuffing.", 
        "Preheat oven to 325 degrees F (165 degrees C).", 
        "Prepare chicken tenders according to package directions, then cut into bite size pieces.", 
        "In a large bowl combine cream of celery soup, cream of chicken soup, peas, carrots and chicken pieces. Mix well and spread mixture on top of stuffing, then sprinkle with fried onions.", 
        "Bake at 325 degrees F (165 degrees C) for 15 to 20 minutes, or until heated through."
    ], 
    "prep_time": "1 hr", 
    "recipe_name": "Hurricane's Chicken Casserole"
}