{
    "ingredients": [
        {
            "amount": "1 (18.25 ounce) package", 
            "ingredient": "yellow cake mix"
        }, 
        {
            "amount": "1 quart", 
            "ingredient": "vanilla ice cream"
        }, 
        {
            "amount": "6 drops", 
            "ingredient": "red food coloring"
        }, 
        {
            "amount": "1 (6 ounce) can", 
            "ingredient": "frozen lemonade concentrate, thawed"
        }, 
        {
            "amount": "2 cups", 
            "ingredient": "heavy whipping cream"
        }, 
        {
            "amount": "2 tablespoons", 
            "ingredient": "white sugar"
        }
    ], 
    "prep_steps": [
        "Prepare cake mix according to package directions for two 9 inch round cake pans. Cool thoroughly.", 
        "Stir ice cream to soften. Mix in food coloring, and 1/2 cup of the lemonade concentrate. Spread ice cream mixture evenly in a foil-lined, 9 inch round cake pan. Freeze until firm, about 2 to 3 hours.", 
        "Place one cake layer on a serving plate. Top with ice cream layer, then top with the second layer of cake. Put the assembled cake back into the freezer.", 
        "Beat the whipping cream with the remaining lemonade and sugar until fluffy, and peaks form. Frost sides and top of cake with whipped cream mixture. Return cake to freezer for at least one hour before serving."
    ], 
    "prep_time": "5 hr", 
    "recipe_name": "Lemonade Cake I"
}