{
    "ingredients": [
        {
            "amount": "1 (18.25 ounce) package", 
            "ingredient": "butter cake mix"
        }, 
        {
            "amount": "4", 
            "ingredient": "eggs"
        }, 
        {
            "amount": "2 cups", 
            "ingredient": "sour cream"
        }, 
        {
            "amount": "1 teaspoon", 
            "ingredient": "vanilla extract"
        }, 
        {
            "amount": "1 cup", 
            "ingredient": "white sugar"
        }, 
        {
            "amount": "2/3 cup", 
            "ingredient": "vegetable oil"
        }, 
        {
            "amount": "1 cup", 
            "ingredient": "chopped pecans"
        }, 
        {
            "amount": "1/2 cup", 
            "ingredient": "butter"
        }, 
        {
            "amount": "1 cup", 
            "ingredient": "white sugar"
        }, 
        {
            "amount": "1/2 cup", 
            "ingredient": "buttermilk"
        }, 
        {
            "amount": "1 teaspoon", 
            "ingredient": "baking soda"
        }, 
        {
            "amount": "1 teaspoon", 
            "ingredient": "ground cinnamon"
        }, 
        {
            "amount": "3/4 cup", 
            "ingredient": "packed brown sugar"
        }
    ], 
    "prep_steps": [
        "Mix together the cake mix and eggs. Fold in the sour cream. Mix in the vanilla, 1 cup sugar, oil and pecans.", 
        "Pour half of batter into a 9 x 13 inch pan. Combine the ground cinnamon and brown sugar. Sprinkle over the batter. Pour the other half of the batter over top.", 
        "Bake at 350 degrees F (175 degrees C) for 50 minutes.", 
        "To make Icing: Bring to a boil 1/2 cup butter or margarine, 1 cup sugar, buttermilk and baking soda. Prick cake all over with fork and pour hot icing on cake."
    ], 
    "recipe_name": "Sock it to Me Cake II"
}