{
    "ingredients": [
        {
            "amount": "1 cup", 
            "ingredient": "water"
        }, 
        {
            "amount": "3 tablespoons", 
            "ingredient": "cornstarch"
        }, 
        {
            "amount": "3", 
            "ingredient": "egg yolks"
        }, 
        {
            "amount": "1/2 cup", 
            "ingredient": "lemon juice"
        }, 
        {
            "amount": "1 1/2 cups", 
            "ingredient": "white sugar"
        }, 
        {
            "amount": "1/2 cup", 
            "ingredient": "butter"
        }
    ], 
    "prep_steps": [
        "Combine sugar and cornstarch in heavy saucepan add water and stir until heated, set aside.", 
        "Beat egg yolks and add lemon juice, stir in small amount of sugar mixture to warm yolks. Combine yolk and sugar mixtures, add butter and return to heat.", 
        "Bring to a rolling boil, stirring constantly until thickened. Mixture will resemble pudding. Cool slightly and spread on cooled cake. Makes enough to frost and fill one 8 inch four layer cake."
    ], 
    "recipe_name": "Lemon Cream"
}