{
    "ingredients": [
        {
            "amount": "1 (15 ounce) can", 
            "ingredient": "black beans, rinsed and drained"
        }, 
        {
            "amount": "2 (15 ounce) cans", 
            "ingredient": "whole kernel corn, drained"
        }, 
        {
            "amount": "8", 
            "ingredient": "green onions, chopped"
        }, 
        {
            "amount": "2", 
            "ingredient": "jalapeno peppers, seeded and minced"
        }, 
        {
            "amount": "1", 
            "ingredient": "green bell pepper, chopped"
        }, 
        {
            "amount": "1", 
            "ingredient": "avocado - peeled, pitted, and diced"
        }, 
        {
            "amount": "1 (4 ounce) jar", 
            "ingredient": "pimentos"
        }, 
        {
            "amount": "3", 
            "ingredient": "tomatoes, seeded and chopped"
        }, 
        {
            "amount": "1 cup", 
            "ingredient": "chopped fresh cilantro"
        }, 
        {
            "amount": "1", 
            "ingredient": "lime, juiced"
        }, 
        {
            "amount": "1/2 cup", 
            "ingredient": "Italian salad dressing"
        }, 
        {
            "amount": "1/2 teaspoon", 
            "ingredient": "garlic salt"
        }
    ], 
    "prep_steps": [
        "In a large bowl, combine the black beans, corn, green onions, jalapeno peppers, bell pepper, avocado, pimentos, tomatoes, cilantro, lime juice, and Italian dressing. Season with garlic salt. Toss, and chill until serving."
    ], 
    "prep_time": "20 mins", 
    "recipe_name": "Black Bean Salad"
}