{
    "ingredients": [
        {
            "amount": "8", 
            "ingredient": "skinless, boneless chicken breast halves"
        }, 
        {
            "amount": "1", 
            "ingredient": "fresh pineapple - peeled, cored and cubed"
        }, 
        {
            "amount": "1", 
            "ingredient": "orange, sliced"
        }, 
        {
            "amount": "1", 
            "ingredient": "lemon, sliced"
        }, 
        {
            "amount": "1", 
            "ingredient": "red bell pepper, diced"
        }, 
        {
            "amount": "3 (6.8 ounce) packages", 
            "ingredient": "Spanish-style rice mix"
        }, 
        {
            "amount": "2 (11 ounce) cans", 
            "ingredient": "black bean soup, undiluted"
        }
    ], 
    "prep_steps": [
        "Preheat oven to 375 degrees F (190 degrees C). Lightly grease a medium glass baking dish.", 
        "Place the chicken breasts in the prepared baking dish, and season with paprika, seasoned salt, and pepper. Arrange the pineapple, orange, lemon, and red bell pepper around the chicken, reserving a few slices of each for serving.", 
        "Bake chicken uncovered 20 minutes in the preheated oven. Turn, season again with paprika, seasoned salt, and pepper, and continue baking 10 minutes, or until chicken juices run clear.", 
        "While chicken is baking, prepare the Spanish rice according to package directions and heat the undiluted black bean soup in a pot over medium heat. Serve each chicken breast and some of the cooked fruit and red bell pepper over equal portions of the Spanish rice, and topped with a few spoonfuls black bean soup. Arrange the reserved uncooked fruit and pepper slices around the rice."
    ], 
    "prep_time": "1 hr", 
    "recipe_name": "Kat's Island Chicken"
}