{
    "ingredients": [
        {
            "amount": "1 bunch", 
            "ingredient": "fresh cilantro leaves"
        }, 
        {
            "amount": "1 clove", 
            "ingredient": "garlic"
        }, 
        {
            "amount": "2", 
            "ingredient": "fresh jalapeno peppers"
        }, 
        {
            "amount": "1 (28 ounce) can", 
            "ingredient": "diced tomatoes, drained"
        }, 
        {
            "amount": "1 teaspoon", 
            "ingredient": "cumin"
        }, 
        {
            "amount": "4", 
            "ingredient": "green onions, sliced"
        }, 
        {
            "amount": "1/2", 
            "ingredient": "lime, juiced"
        }, 
        {
            "amount": "1 teaspoon", 
            "ingredient": "olive oil"
        }
    ], 
    "prep_steps": [
        "In a food processor, finely chop the cilantro, garlic, and jalapenos. Place the tomatoes and cumin in the food processor. Coarsely chop the tomatoes. Transfer the mixture to a bowl. Mix in the green onions, lime juice, and olive oil."
    ], 
    "prep_time": "15 mins", 
    "recipe_name": "Jill's Salsa"
}