{
    "ingredients": [
        {
            "amount": "1 pound", 
            "ingredient": "ground beef"
        }, 
        {
            "amount": "1 (1 ounce) package", 
            "ingredient": "taco seasoning mix"
        }, 
        {
            "amount": "3/4 cup", 
            "ingredient": "water"
        }, 
        {
            "amount": "3/4 pound", 
            "ingredient": "processed cheese, cubed"
        }, 
        {
            "amount": "1 tablespoon", 
            "ingredient": "milk"
        }, 
        {
            "amount": "1 (12 ounce) package", 
            "ingredient": "tortilla chips"
        }, 
        {
            "amount": "1 (16 ounce) can", 
            "ingredient": "refried beans"
        }, 
        {
            "amount": "1/2 cup", 
            "ingredient": "chopped fresh tomato"
        }, 
        {
            "amount": "1/3 cup", 
            "ingredient": "chopped green onions"
        }
    ], 
    "prep_steps": [
        "Place ground beef in a large, deep skillet. Cook over medium high heat until evenly brown. Drain and mix in taco seasoning mix and water. Continue cooking 5 minutes. Remove from heat.", 
        "Place processed cheese and milk in a small, microwave safe bowl. Microwave on high until melted, 1 to 2 minutes. Stir until blended and smooth.", 
        "Place tortilla chips on a large, microwave safe dish. Spread with refried beans. Top with beef and cheese and mixtures.", 
        "Microwave approximately 2 minutes on high, until the cheese has melted into the beef. Top with tomato and green onions. Serve warm."
    ], 
    "prep_time": "25 mins", 
    "recipe_name": "Taco Nachos"
}