{
    "ingredients": [
        {
            "amount": "1/2 pound", 
            "ingredient": "bulk Italian sausage"
        }, 
        {
            "amount": "1 tablespoon", 
            "ingredient": "olive oil"
        }, 
        {
            "amount": "1", 
            "ingredient": "onion, sliced"
        }, 
        {
            "amount": "1 small", 
            "ingredient": "green bell pepper, sliced"
        }, 
        {
            "amount": "1 small", 
            "ingredient": "red bell pepper, sliced"
        }, 
        {
            "amount": "2 cloves", 
            "ingredient": "garlic, minced"
        }, 
        {
            "amount": "1 (4 ounce) can", 
            "ingredient": "sliced mushrooms, drained"
        }, 
        {
            "amount": "2 teaspoons", 
            "ingredient": "dried parsley"
        }, 
        {
            "amount": "1/2 teaspoon", 
            "ingredient": "garlic powder"
        }, 
        {
            "amount": "1/8 teaspoon", 
            "ingredient": "dried oregano"
        }, 
        {
            "amount": "1/8 teaspoon", 
            "ingredient": "dried basil"
        }, 
        {
            "amount": "1 pinch", 
            "ingredient": "crushed red pepper flakes"
        }, 
        {
            "amount": "1 tablespoon", 
            "ingredient": "olive oil"
        }, 
        {
            "amount": "20 ounces", 
            "ingredient": "frozen pierogies"
        }, 
        {
            "amount": "1 (8 ounce) package", 
            "ingredient": "shredded mozzarella cheese"
        }, 
        {
            "amount": "1/4 cup", 
            "ingredient": "grated Romano cheese"
        }
    ], 
    "prep_steps": [
        "Heat a large skillet over medium-high heat and stir in the Italian sausage. Cook and stir until crumbly, evenly browned, and no longer pink. Drain and discard any excess grease, then remove the sausage from the skillet and place into a bowl.", 
        "Heat 1 tablespoon of olive oil in the skillet. Stir in the onion, green bell pepper, and red bell pepper; cook and stir until the onion is golden, and the peppers are tender, about 8 minutes. Stir in the garlic and mushrooms; cook for 1 minute more. Season with parsley, garlic powder, oregano, basil, and red pepper flakes. Season to taste with salt and pepper. Stir to combine, then scrape the vegetables into the bowl with the sausage.", 
        "Heat 1 tablespoon of olive oil in a large skillet over medium-high heat. Place the pierogies into the hot oil, and cook until golden brown on each side and hot in the center, about 5 minutes. Spoon the sausage and vegetable mixture over the pierogies. Sprinkle with mozzarella cheese and Romano cheese. Cover, and cook until the cheese has melted."
    ], 
    "prep_time": "45 mins", 
    "recipe_name": "Smothered Pierogies"
}