{
    "ingredients": [
        {
            "amount": "1", 
            "ingredient": "skinless, boneless chicken breast half"
        }, 
        {
            "amount": "1/2 cup", 
            "ingredient": "couscous"
        }, 
        {
            "amount": "1/2 cup", 
            "ingredient": "water"
        }, 
        {
            "amount": "1 tablespoon", 
            "ingredient": "unsalted butter"
        }, 
        {
            "amount": "1 pinch", 
            "ingredient": "salt"
        }, 
        {
            "amount": "1 tablespoon", 
            "ingredient": "salted butter"
        }, 
        {
            "amount": "1/4 cup", 
            "ingredient": "capers, drained"
        }, 
        {
            "amount": "3", 
            "ingredient": "dates, pitted and chopped"
        }, 
        {
            "amount": "1/4 cup", 
            "ingredient": "mascarpone cheese"
        }, 
        {
            "amount": "1/4 cup", 
            "ingredient": "heavy cream"
        }, 
        {
            "amount": "1", 
            "ingredient": "date, pitted and chopped"
        }, 
        {
            "amount": "1/4", 
            "ingredient": "cucumber, diced"
        }, 
        {
            "amount": "1/2", 
            "ingredient": "tomato, diced"
        }, 
        {
            "amount": "1 teaspoon", 
            "ingredient": "lemon juice"
        }
    ], 
    "prep_steps": [
        "Preheat an outdoor grill for medium heat, and lightly oil the grate.", 
        "Grill the chicken breast until the meat is no longer pink inside and shows well-defined grill marks, 5 to 8 minutes per side. Cut the chicken breast in half, and set aside.", 
        "Bring the water, unsalted butter, and a pinch of salt to a boil in a saucepan over high heat. Remove from the heat, and stir in the couscous. Cover and let stand for 10 minutes, then fluff with a fork.", 
        "Melt the salted butter in a skillet over medium heat, and gently stir in the capers and 3 dates. Stir a few times to heat the capers and dates, then stir in the mascarpone cheese and cream, stirring until the cheese and cream have melted together. Allow the mixture to simmer for about 3 minutes to reduce slightly, then season to taste with salt and pepper.", 
        "Place the couscous on a serving platter, and sprinkle with a chopped date. Arrange the 2 pieces of chicken breast onto the couscous, and cover with the mascarpone sauce. Sprinkle the dish with diced cucumber and tomato, and drizzle lemon juice over the top to serve."
    ], 
    "prep_time": "55 mins", 
    "recipe_name": "Chicken Breasts in a Date, Caper, and Mascarpone Sauce with Couscous"
}