{
    "ingredients": [
        {
            "amount": "2 cups", 
            "ingredient": "all-purpose flour"
        }, 
        {
            "amount": "1/2 teaspoon", 
            "ingredient": "salt"
        }, 
        {
            "amount": "4 teaspoons", 
            "ingredient": "baking powder"
        }, 
        {
            "amount": "1/2 teaspoon", 
            "ingredient": "cream of tartar"
        }, 
        {
            "amount": "2 teaspoons", 
            "ingredient": "white sugar"
        }, 
        {
            "amount": "1/2 cup", 
            "ingredient": "butter, chilled and diced"
        }, 
        {
            "amount": "3/4 cup", 
            "ingredient": "milk"
        }
    ], 
    "prep_steps": [
        "Preheat oven to 450 degrees F (230 degrees C).", 
        "In a large bowl, sift together dry ingredients. Cut in butter until mixture resembles coarse oatmeal. Make a well in the center of the dry mixture and pour in the milk. Stir until dough begins to pull together then turn out onto a lightly floured surface.", 
        "Press dough together and then roll out until 3/4 inch thick. Cut into 2 inch round biscuits and place on an ungreased baking sheet.", 
        "Bake in preheated oven for 10 minutes, or until golden."
    ], 
    "prep_time": "20 mins", 
    "recipe_name": "Never Fail Biscuits"
}