{
    "ingredients": [
        {
            "amount": "1 tablespoon", 
            "ingredient": "vegetable oil"
        }, 
        {
            "amount": "1", 
            "ingredient": "onion, chopped"
        }, 
        {
            "amount": "1 (10 ounce) package", 
            "ingredient": "frozen chopped spinach, thawed and drained"
        }, 
        {
            "amount": "5", 
            "ingredient": "eggs, beaten"
        }, 
        {
            "amount": "3 cups", 
            "ingredient": "shredded Muenster cheese"
        }, 
        {
            "amount": "1/4 teaspoon", 
            "ingredient": "salt"
        }, 
        {
            "amount": "1/8 teaspoon", 
            "ingredient": "ground black pepper"
        }
    ], 
    "prep_steps": [
        "Preheat oven to 350 degrees F (175 degrees C). Lightly grease a 9 inch pie pan.", 
        "Heat oil in a large skillet over medium-high heat. Add onions and cook, stirring occasionally, until onions are soft. Stir in spinach and continue cooking until excess moisture has evaporated.", 
        "In a large bowl, combine eggs, cheese, salt and pepper. Add spinach mixture and stir to blend. Scoop into prepared pie pan.", 
        "Bake in preheated oven until eggs have set, about 30 minutes. Let cool for 10 minutes before serving."
    ], 
    "prep_time": "50 mins", 
    "recipe_name": "Crustless Spinach Quiche"
}