{
    "ingredients": [
        {
            "amount": "1 tablespoon", 
            "ingredient": "light brown sugar"
        }, 
        {
            "amount": "1 teaspoon", 
            "ingredient": "ground black pepper"
        }, 
        {
            "amount": "1 teaspoon", 
            "ingredient": "dried thyme"
        }, 
        {
            "amount": "1 teaspoon", 
            "ingredient": "ground cumin"
        }, 
        {
            "amount": "1 teaspoon", 
            "ingredient": "garlic salt"
        }, 
        {
            "amount": "1 teaspoon", 
            "ingredient": "paprika"
        }, 
        {
            "amount": "1/2 teaspoon", 
            "ingredient": "chili powder"
        }, 
        {
            "amount": "1/2 teaspoon", 
            "ingredient": "ground nutmeg"
        }, 
        {
            "amount": "4", 
            "ingredient": "skinless, boneless chicken breast halves"
        }, 
        {
            "amount": "1 cup", 
            "ingredient": "uncooked white rice"
        }, 
        {
            "amount": "1 1/2 cups", 
            "ingredient": "water"
        }, 
        {
            "amount": "1 (8 ounce) can", 
            "ingredient": "sliced pineapple in juice, drained - divided"
        }, 
        {
            "amount": "2 tablespoons", 
            "ingredient": "chopped fresh cilantro"
        }, 
        {
            "amount": "1 teaspoon", 
            "ingredient": "olive oil"
        }, 
        {
            "amount": "1 pinch", 
            "ingredient": "garlic salt"
        }, 
        {
            "amount": "1 pinch", 
            "ingredient": "ground black pepper"
        }
    ], 
    "prep_steps": [
        "Preheat oven to 350 degrees F (175 degrees C).", 
        "Mix together the light brown sugar, 1 teaspoon of black pepper, thyme, cumin, 1 teaspoon of garlic salt, paprika, chili powder, and nutmeg in a bowl until thoroughly combined. Rub both sides of chicken breasts with the spice mixture, and place into a 9x9-inch baking dish. Sprinkle any remaining seasoning mix on top of chicken, if desired.", 
        "Bake in the preheated oven until the chicken is lightly browned, no longer pink inside, and the juices run clear, about 30 minutes. An instant-read meat thermometer inserted into the thickest part of a chicken breast should read at least 160 degrees F (70 degrees C).", 
        "While chicken is baking, bring the rice and water to a boil in a saucepan over high heat. Reduce heat to medium-low, cover, and simmer until the rice is tender, and the liquid has been absorbed, 20 to 25 minutes.", 
        "Chop half the pineapple slices. Mix the chopped pineapple, cilantro, and olive oil into the cooked rice, and season to taste with a pinch or two of garlic salt and black pepper. Fluff the rice up with a fork, and transfer to a serving platter. Serve with the baked chicken, topped with remaining pineapple slices."
    ], 
    "prep_time": "50 mins", 
    "recipe_name": "Caribbean Chicken with Pineapple-Cilantro Rice"
}