{
    "ingredients": [
        {
            "amount": "1/2 cup", 
            "ingredient": "margarine"
        }, 
        {
            "amount": "5 cups", 
            "ingredient": "apple cider vinegar"
        }, 
        {
            "amount": "2 tablespoons", 
            "ingredient": "Worcestershire sauce"
        }, 
        {
            "amount": "1/4 cup", 
            "ingredient": "salt"
        }, 
        {
            "amount": "4", 
            "ingredient": "bone-in chicken breast halves, with skin"
        }
    ], 
    "prep_steps": [
        "Bring the margarine, apple cider vinegar, Worcestershire sauce, and salt to a boil in a saucepan over medium-high heat. Stir until salt has dissolved, and add the chicken breast halves. Return to a boil, reduce heat to a simmer, and cook until the chicken is tender and no longer pink inside, about 30 minutes.", 
        "Preheat an outdoor grill for medium-high heat, and lightly oil the grate.", 
        "Grill the chicken breasts on the preheated grill until the skin is browned, lightly charred in spots, and shows good grill marks, about 5 minutes per side."
    ], 
    "prep_time": "55 mins", 
    "recipe_name": "Papa's Vinegar Chicken "
}