{
    "ingredients": [
        {
            "amount": "1 (16 ounce) box", 
            "ingredient": "penne pasta"
        }, 
        {
            "amount": "1 pound", 
            "ingredient": "hot Italian sausage links, cut into 1-inch pieces"
        }, 
        {
            "amount": "3 cloves", 
            "ingredient": "garlic, minced"
        }, 
        {
            "amount": "1 tablespoon", 
            "ingredient": "crushed red pepper flakes"
        }, 
        {
            "amount": "1 pound", 
            "ingredient": "broccoli rabe, cut into 1 1/2-inch lengths"
        }, 
        {
            "amount": "2 tablespoons", 
            "ingredient": "grated Parmesan cheese"
        }, 
        {
            "amount": "1/2 cup", 
            "ingredient": "pasta boiling water"
        }, 
        {
            "amount": "1/4 cup", 
            "ingredient": "grated Parmesan cheese"
        }
    ], 
    "prep_steps": [
        "Fill a large pot with lightly salted water and bring to a rolling boil over high heat. Once the water is boiling, stir in the penne, and return to a boil. Cook the pasta uncovered, stirring occasionally, until the pasta has cooked through, but is still firm to the bite, about 11 minutes. Drain well in a colander set in the sink, reserving 1/2 cup of the water.", 
        "Meanwhile, heat a large skillet over medium-high heat. Cook and stir the sausage pieces, garlic, and red pepper flakes in the hot pan until the sausage is no longer pink on the outside, about 4 minutes. Stir in the broccoli rabe and 2 tablespoons Parmesan cheese. Pour in the reserved 1/2 cup of pasta boiling water. Cover, and cook until the sausage is no longer pink in the center and the broccoli rabe is tender, 5 to 7 minutes.", 
        "Stir the cooked pasta, broccoli rabe, and 1/4 cup Parmesan cheese together until evenly mixed. Season to taste with salt and pepper to serve."
    ], 
    "prep_time": "30 mins", 
    "recipe_name": "Penne with Sausage and Broccoli Rabe"
}