{
    "ingredients": [
        {
            "amount": "4", 
            "ingredient": "sole, patted dry"
        }, 
        {
            "amount": "10", 
            "ingredient": "bay scallops, raw"
        }, 
        {
            "amount": "3/4 cup", 
            "ingredient": "crabmeat"
        }, 
        {
            "amount": "3/4 cup", 
            "ingredient": "cooked shrimp"
        }, 
        {
            "amount": "1/2 cup", 
            "ingredient": "shredded Monterey Jack cheese"
        }, 
        {
            "amount": "1/2 cup", 
            "ingredient": "butter"
        }, 
        {
            "amount": "2", 
            "ingredient": "egg yolks"
        }, 
        {
            "amount": "1 tablespoon", 
            "ingredient": "lemon juice"
        }, 
        {
            "amount": "1/2 teaspoon", 
            "ingredient": "mustard powder"
        }, 
        {
            "amount": "1/8 teaspoon", 
            "ingredient": "salt"
        }, 
        {
            "amount": "2 tablespoons", 
            "ingredient": "chopped fresh parsley"
        }, 
        {
            "amount": "1/4 teaspoon", 
            "ingredient": "paprika"
        }
    ], 
    "prep_steps": [
        "Butter two 2-cup au gratin dishes. Place 1 fillet on bottom of each, then layer with scallops, crabmeat, shrimp, cheese and a second fillet; set aside.", 
        "Preheat oven to 450 degrees F (230 degrees C).", 
        "Melt butter. In a medium mixing bowl, combine yolks, lemon juice, mustard and salt; mix on high and slowly add butter in a steady stream until sauce is thick and creamy. Pour sauce over fillets.", 
        "Bake in preheated oven for 10 to 15 minutes; sprinkle with parsley and paprika. Serve."
    ], 
    "prep_time": "30 mins", 
    "recipe_name": "Seafood Melange"
}