{
    "ingredients": [
        {
            "amount": "1 (15.5 ounce) can", 
            "ingredient": "garbanzo beans, drained"
        }, 
        {
            "amount": "1 clove", 
            "ingredient": "garlic, peeled"
        }, 
        {
            "amount": "1 teaspoon", 
            "ingredient": "salt"
        }, 
        {
            "amount": "1/2 cup", 
            "ingredient": "fresh lemon juice"
        }, 
        {
            "amount": "2/3 cup", 
            "ingredient": "plain non-fat yogurt"
        }
    ], 
    "prep_steps": [
        "In a blender or food processor, blend garbanzo beans until smooth. Mix in garlic, salt, lemon juice and yogurt. Blend to desired consistency."
    ], 
    "prep_time": "5 mins", 
    "recipe_name": "Creamy Yogurt Hummus"
}