{
    "ingredients": [
        {
            "amount": "6", 
            "ingredient": "eggs"
        }, 
        {
            "amount": "1 1/2 cups", 
            "ingredient": "half-and-half"
        }, 
        {
            "amount": "1 tablespoon", 
            "ingredient": "brown sugar"
        }, 
        {
            "amount": "2 teaspoons", 
            "ingredient": "vanilla extract"
        }, 
        {
            "amount": "1 (12 ounce) loaf", 
            "ingredient": "French bread, sliced 1-inch thick"
        }, 
        {
            "amount": "1 tablespoon", 
            "ingredient": "butter"
        }, 
        {
            "amount": "3/4 cup", 
            "ingredient": "firmly packed brown sugar"
        }, 
        {
            "amount": "1/2 cup", 
            "ingredient": "maple syrup"
        }, 
        {
            "amount": "3/4 cup", 
            "ingredient": "chopped toasted pecans"
        }
    ], 
    "prep_steps": [
        "Grease a 9x13-inch baking dish.", 
        "Whisk eggs, half-and-half, 1 tablespoon brown sugar, and vanilla extract in a bowl until mixture is smooth and brown sugar has dissolved. Pour 1 cup egg mixture into prepared baking dish. Arrange slices of French bread into baking dish and pour remaining egg mixture evenly over bread. Cover and refrigerate overnight.", 
        "Preheat oven to 350 degrees F (175 degrees C).", 
        "Melt butter in a saucepan over medium heat; mix 3/4 cup brown sugar and maple syrup into butter, stirring until smooth. Bring syrup to a boil, reduce heat to low, and simmer for 1 minute, stirring constantly. Stir pecans into syrup. Spoon pecan praline syrup evenly over French toast casserole.", 
        "Bake casserole in the preheated oven until set and golden brown, about 30 minutes."
    ], 
    "prep_time": "9 hrs", 
    "recipe_name": "Praline Pecan French Toast"
}