{
    "ingredients": [
        {
            "amount": "1 gallon", 
            "ingredient": "water"
        }, 
        {
            "amount": "4", 
            "ingredient": "baking potatoes, peeled and cut into cubes"
        }, 
        {
            "amount": "2 tablespoons", 
            "ingredient": "kosher salt"
        }, 
        {
            "amount": "1/3 pound", 
            "ingredient": "bacon, diced"
        }, 
        {
            "amount": "3", 
            "ingredient": "shallots, minced"
        }, 
        {
            "amount": "1/2 cup", 
            "ingredient": "cream cheese"
        }, 
        {
            "amount": "1/3 cup", 
            "ingredient": "sour cream"
        }, 
        {
            "amount": "1/4 cup", 
            "ingredient": "butter"
        }, 
        {
            "amount": "2 teaspoons", 
            "ingredient": "minced garlic"
        }, 
        {
            "amount": "2 tablespoons", 
            "ingredient": "chopped Italian parsley"
        }
    ], 
    "prep_steps": [
        "Pour water into a 6-quart pot; add potatoes and 2 tablespoons kosher salt. Place pot onto a cold burner. Bring the water to a boil over medium-high heat. Cook potatoes at a boil until potatoes are fork-tender, about 12 minutes; drain.", 
        "Cook and stir bacon in a skillet over medium-high heat until crispy, 7 to 10 minutes. Remove bacon with a slotted spoon to a plate lined with paper towel to drain. Drain grease from the skillet, reserving 2 tablespoons in the skillet. Return skillet to medium-high heat. Cook and stir shallots in reserved drippings until translucent, 2 to 3 minutes.", 
        "Combine the shallots with the cream cheese, sour cream, butter, and garlic in a large mixing bowl. Dump the potatoes atop the cream cheese mixture; beat with an electric hand mixer to desired consistency. Season with kosher salt and cracked black pepper to taste. Transfer potatoes to a serving dish. Sprinkle parsley and bacon over the potatoes to serve."
    ], 
    "prep_time": "45 mins", 
    "recipe_name": "Epic Mashed Potatoes"
}