{
    "ingredients": [
        {
            "amount": "1 cup", 
            "ingredient": "butter"
        }, 
        {
            "amount": "1 cup", 
            "ingredient": "brown sugar"
        }, 
        {
            "amount": "1/4 cup", 
            "ingredient": "white sugar"
        }, 
        {
            "amount": "2", 
            "ingredient": "eggs"
        }, 
        {
            "amount": "1 (3.5 ounce) package", 
            "ingredient": "vanilla pudding mix"
        }, 
        {
            "amount": "2 teaspoons", 
            "ingredient": "vanilla extract"
        }, 
        {
            "amount": "1 1/2 cups", 
            "ingredient": "all-purpose flour"
        }, 
        {
            "amount": "1 teaspoon", 
            "ingredient": "baking soda"
        }, 
        {
            "amount": "1/2 teaspoon", 
            "ingredient": "salt"
        }, 
        {
            "amount": "2 3/4 cups", 
            "ingredient": "quick oats"
        }, 
        {
            "amount": "2 cups", 
            "ingredient": "semisweet chocolate chips"
        }
    ], 
    "prep_steps": [
        "Preheat oven to 350 degrees F (175 degrees C). Lightly grease a 9x13-inch baking pan.", 
        "Beat butter, brown sugar, and white sugar in a bowl until creamy; beat in eggs until smooth. Stir pudding mix into creamed mixture, followed by vanilla extract. Whisk flour, baking soda, and salt together in a separate bowl and stir flour mixture into moist ingredients. Mix oats and chocolate chips into dough. Press dough into prepared baking pan.", 
        "Bake in the preheated oven until lightly browned, about 25 minutes. Let cool before cutting into squares."
    ], 
    "prep_time": "1\u00bc hrs", 
    "recipe_name": "Amazing Oatmeal Chocolate Chip Bars"
}