{
    "ingredients": [
        {
            "amount": "4 (6 inch)", 
            "ingredient": "Mission\u00ae Fajita Flour Tortillas"
        }, 
        {
            "amount": "4", 
            "ingredient": "all beef hot dogs"
        }, 
        {
            "amount": "4 slices", 
            "ingredient": "processed American cheese"
        }
    ], 
    "prep_steps": [
        "Place hot dogs between two paper towels and microwave on high for 20 seconds. Remove from towels and reserve the hot dogs hot.", 
        "Lay one slice of American cheese on the center of each tortilla.", 
        "Place hot hot dogs on top of each slice of cheese. Roll up each tortilla/cheese/hot dog by simply rolling from one end to the other.", 
        "Place all four hot dog roll ups in the microwave and cook for an additional 10 to 12 seconds to fully melt the cheese and warm the tortillas.", 
        "Remove from microwave and serve each hot dog roll up whole."
    ], 
    "prep_time": "4 mins", 
    "recipe_name": "Hot Dog Roll Up"
}