{
    "ingredients": [
        {
            "amount": "5 cups", 
            "ingredient": "dry bread cubes"
        }, 
        {
            "amount": "1/4 cup", 
            "ingredient": "instant stuffing mix"
        }, 
        {
            "amount": "1 cup", 
            "ingredient": "sliced fresh mushrooms"
        }, 
        {
            "amount": "1/2 cup", 
            "ingredient": "chopped onion"
        }, 
        {
            "amount": "1/2 cup", 
            "ingredient": "chopped celery"
        }, 
        {
            "amount": "1/4 cup", 
            "ingredient": "olive oil"
        }, 
        {
            "amount": "1 teaspoon", 
            "ingredient": "poultry seasoning"
        }, 
        {
            "amount": "1/2 teaspoon", 
            "ingredient": "salt"
        }, 
        {
            "amount": "1/4 teaspoon", 
            "ingredient": "dried sage"
        }, 
        {
            "amount": "1/4 teaspoon", 
            "ingredient": "ground black pepper"
        }, 
        {
            "amount": "1 (12 ounce) jar", 
            "ingredient": "turkey gravy"
        }, 
        {
            "amount": "1 (10.75 ounce) can", 
            "ingredient": "condensed cream of mushroom soup"
        }, 
        {
            "amount": "1/2 (16 ounce) can", 
            "ingredient": "cranberry sauce"
        }, 
        {
            "amount": "4", 
            "ingredient": "skinless, boneless chicken breast halves - cubed"
        }
    ], 
    "prep_steps": [
        "Toss together 2 1/2 cups dry bread cubes and 2 tablespoons instant stuffing mix; set aside. Combine the remaining bread cubes, instant stuffing mix, mushrooms, onion, celery, olive oil, poultry seasoning, salt, sage, pepper, gravy, condensed soup, and cranberry sauce in a large bowl.", 
        "Place the reserved bread crumbs and stuffing mix into the bottom of the slow cooker. Add the chicken and top with the vegetable, bread, and gravy mixture. Cover, and cook on Low for 4 to 6 hours."
    ], 
    "prep_time": "4 hrs", 
    "recipe_name": "A Slow Cooker Thanksgiving"
}