{
    "ingredients": [
        {
            "amount": "2 cups", 
            "ingredient": "milk"
        }, 
        {
            "amount": "2", 
            "ingredient": "bananas, frozen and chunked"
        }, 
        {
            "amount": "6", 
            "ingredient": "pineapple rings"
        }, 
        {
            "amount": "1 tablespoon", 
            "ingredient": "honey"
        }
    ], 
    "prep_steps": [
        "In a blender combine milk, frozen bananas, pineapple and honey. Blend until smooth."
    ], 
    "prep_time": "2 mins", 
    "recipe_name": "Pineapple Delight Smoothie"
}