{
    "ingredients": [
        {
            "amount": "1 tablespoon", 
            "ingredient": "olive oil"
        }, 
        {
            "amount": "12 ounces", 
            "ingredient": "crimini mushrooms, chopped"
        }, 
        {
            "amount": "1 small", 
            "ingredient": "red onion, finely diced"
        }, 
        {
            "amount": "1", 
            "ingredient": "red bell pepper, seeded and diced"
        }, 
        {
            "amount": "1 tablespoon", 
            "ingredient": "ground sage"
        }, 
        {
            "amount": "1 1/4 cups", 
            "ingredient": "cooked brown rice"
        }, 
        {
            "amount": "1/2 cup", 
            "ingredient": "walnuts, finely chopped"
        }, 
        {
            "amount": "1 envelope", 
            "ingredient": "onion soup mix"
        }, 
        {
            "amount": "1 cup", 
            "ingredient": "oat bran"
        }, 
        {
            "amount": "1 cup", 
            "ingredient": "wheat germ"
        }, 
        {
            "amount": "2", 
            "ingredient": "egg whites, lightly beaten"
        }, 
        {
            "amount": "1 teaspoon", 
            "ingredient": "Worcestershire sauce"
        }, 
        {
            "amount": "2 teaspoons", 
            "ingredient": "prepared mustard"
        }
    ], 
    "prep_steps": [
        "Preheat oven to 350 degrees F (175 degrees C). Lightly grease a 9x5 inch loaf pan.", 
        "Heat the olive oil in a large skillet over medium heat. Stir in the mushrooms, onions, and bell pepper; cook until the onion is transparent, about 5 minutes. Sprinkle sage over the vegetables, and cook until vegetables are soft, about 5 minutes more. Transfer vegetables to a large mixing bowl.", 
        "Stir the rice, walnuts, onion soup mix, oat bran, wheat germ, egg whites, Worcestershire sauce, and mustard into the mushroom mixture until thoroughly blended. Spoon into prepared loaf pan, pressing down mixture with a spatula to flatten top.", 
        "Bake in preheated oven for 1 hour. Let rest 10 minutes before slicing."
    ], 
    "prep_time": "2 hrs", 
    "recipe_name": "Vegetarian Mushroom-Walnut Meatloaf"
}