{
    "ingredients": [
        {
            "amount": "4 cloves", 
            "ingredient": "garlic"
        }, 
        {
            "amount": "1 teaspoon", 
            "ingredient": "minced fresh ginger"
        }, 
        {
            "amount": "1", 
            "ingredient": "onion, roughly chopped"
        }, 
        {
            "amount": "2 1/2 cups", 
            "ingredient": "low sodium soy sauce"
        }, 
        {
            "amount": "1/4 cup", 
            "ingredient": "toasted sesame oil"
        }, 
        {
            "amount": "3 tablespoons", 
            "ingredient": "Worcestershire sauce"
        }, 
        {
            "amount": "2 tablespoons", 
            "ingredient": "unseasoned meat tenderizer"
        }, 
        {
            "amount": "1 cup", 
            "ingredient": "white sugar"
        }, 
        {
            "amount": "2 pounds", 
            "ingredient": "beef flank steak, trimmed of excess fat"
        }
    ], 
    "prep_steps": [
        "Place garlic, ginger, and onion in the bowl of a blender. Add soy sauce, sesame oil, Worcestershire sauce, meat tenderizer, and sugar. Puree until smooth.", 
        "Pour the marinade into a resealable plastic bag or glass bowl. Score the flank steak and place into the marinade. Marinate overnight in the refrigerator.", 
        "Preheat a grill for medium-high heat.", 
        "Grill steak on preheated grill to desired doneness, about 7 minutes per side for medium."
    ], 
    "prep_time": "8 hrs", 
    "recipe_name": "Korean Marinated Flank Steak"
}