{
    "ingredients": [
        {
            "amount": "1 pound", 
            "ingredient": "ground sirloin, or extra lean beef"
        }, 
        {
            "amount": "1 tablespoon", 
            "ingredient": "minced garlic"
        }, 
        {
            "amount": "1/8 teaspoon", 
            "ingredient": "onion powder"
        }, 
        {
            "amount": "1 (4 ounce) container", 
            "ingredient": "crumbled Gorgonzola cheese"
        }, 
        {
            "amount": "1/4 cup", 
            "ingredient": "fresh basil leaves, chopped"
        }
    ], 
    "prep_steps": [
        "Preheat an outdoor grill for medium-high heat. Lightly oil grill grate, and place about 4 inches from heat source.", 
        "Mix the ground sirloin, garlic, onion powder, Gorgonzola cheese, and basil together in a large bowl until evenly blended. Divide mixture evenly to form four patties.", 
        "Cook patties on preheated grill until meat is evenly browned and center is no longer pink, about 5 minutes on each side."
    ], 
    "prep_time": "25 mins", 
    "recipe_name": "Grilled Gorgonzola-Basil Burgers"
}