{
    "ingredients": [
        {
            "amount": "1/2 cup", 
            "ingredient": "butter"
        }, 
        {
            "amount": "2", 
            "ingredient": "onions, sliced"
        }, 
        {
            "amount": "1 1/2 pounds", 
            "ingredient": "calf's liver"
        }, 
        {
            "amount": "1/2 teaspoon", 
            "ingredient": "salt"
        }, 
        {
            "amount": "1/8 teaspoon", 
            "ingredient": "freshly ground black pepper"
        }, 
        {
            "amount": "1 (8 ounce) can", 
            "ingredient": "mushrooms, with liquid"
        }, 
        {
            "amount": "2 cups", 
            "ingredient": "sour cream"
        }, 
        {
            "amount": "1 teaspoon", 
            "ingredient": "Worcestershire sauce"
        }
    ], 
    "prep_steps": [
        "In a large skillet, melt butter over medium high heat. Cook and stir onions until tender, about 7 minutes. Season liver slices with salt and pepper, and add to the skillet. Brown liver slices, turning once, for approximately 5 minutes. Pour in mushrooms with their liquid. Reduce heat, cover, and simmer for 8 to 10 minutes. Stir in sour cream and Worcestershire sauce, and continue simmering another 8 to 10 minutes. Serve immediately."
    ], 
    "prep_time": "48 mins", 
    "recipe_name": "Company Liver with Onions"
}