{
    "ingredients": [
        {
            "amount": "2 tablespoons", 
            "ingredient": "kosher salt"
        }, 
        {
            "amount": "2 tablespoons", 
            "ingredient": "ground coriander"
        }, 
        {
            "amount": "6 tablespoons", 
            "ingredient": "ground cumin"
        }, 
        {
            "amount": "4 tablespoons", 
            "ingredient": "hot chili powder"
        }, 
        {
            "amount": "1 tablespoon", 
            "ingredient": "paprika"
        }, 
        {
            "amount": "1 1/2 teaspoons", 
            "ingredient": "ground allspice"
        }, 
        {
            "amount": "1 1/2 teaspoons", 
            "ingredient": "ground black pepper"
        }
    ], 
    "prep_steps": [
        "Combine the kosher salt, coriander, cumin, chili powder, paprika, allspice, and black pepper in a bowl and mix thoroughly. Store in an airtight container at room temperature until ready to use.", 
        "To use, rub 1 tablespoon per serving onto the meat of your choice before grilling or cooking as desired."
    ], 
    "prep_time": "5 mins", 
    "recipe_name": "Cumin-Coriander Pork Rub"
}