{
    "ingredients": [
        {
            "amount": "1 pound", 
            "ingredient": "baking potatoes"
        }, 
        {
            "amount": "1 cup", 
            "ingredient": "butter"
        }
    ], 
    "prep_steps": [
        "Peel and dice potatoes, arrange in a pan or on a sheet of tin foil. Season with salt and pepper. Place butter on top.", 
        "Put potatoes on grill or in the oven at 375 degrees F (190 degrees C). Mix around so they get all buttery and don't burn. Cook until potatoes are soft."
    ], 
    "prep_time": "1\u00bc hrs", 
    "recipe_name": "Butter Potatoes"
}