{
    "ingredients": [
        {
            "amount": "1 (15 ounce) can", 
            "ingredient": "chili with beans"
        }, 
        {
            "amount": "1 (8 ounce) package", 
            "ingredient": "cream cheese, softened"
        }, 
        {
            "amount": "1/2 (8 ounce) package", 
            "ingredient": "cream cheese with chives"
        }, 
        {
            "amount": "1/2 cup", 
            "ingredient": "shredded Cheddar cheese"
        }
    ], 
    "prep_steps": [
        "In a medium saucepan over medium low heat, mix together chili with beans, cream cheese, cream cheese with chives and Cheddar cheese. Stirring often, heat until melted and well blended, about 20 minutes."
    ], 
    "prep_time": "25 mins", 
    "recipe_name": "Chili Bean Dip"
}