{
    "ingredients": [
        {
            "amount": "4", 
            "ingredient": "skinless, boneless chicken breast halves"
        }, 
        {
            "amount": "1 (17.5 fluid ounce) bottle", 
            "ingredient": "buffalo wing sauce, divided"
        }, 
        {
            "amount": "1/2 (1 ounce) package", 
            "ingredient": "dry ranch salad dressing mix"
        }, 
        {
            "amount": "2 tablespoons", 
            "ingredient": "butter"
        }, 
        {
            "amount": "6", 
            "ingredient": "hoagie rolls, split lengthwise"
        }
    ], 
    "prep_steps": [
        "Place the chicken breasts into a slow cooker, and pour in 3/4 of the wing sauce and the ranch dressing mix. Cover, and cook on Low for 6 to 7 hours.", 
        "Once the chicken has cooked, add the butter, and shred the meat finely with two forks. Pile the meat onto the hoagie rolls, and splash with the remaining buffalo wing sauce to serve."
    ], 
    "prep_time": "7 hrs", 
    "recipe_name": "Slow Cooker Buffalo Chicken Sandwiches"
}