{
    "ingredients": [
        {
            "amount": "1/2 cup", 
            "ingredient": "vegetable oil"
        }, 
        {
            "amount": "2 teaspoons", 
            "ingredient": "chopped garlic"
        }, 
        {
            "amount": "1 teaspoon", 
            "ingredient": "finely chopped green chile peppers"
        }, 
        {
            "amount": "1 cup", 
            "ingredient": "chopped onions"
        }, 
        {
            "amount": "2 teaspoons", 
            "ingredient": "grated fresh ginger"
        }, 
        {
            "amount": "1 cup", 
            "ingredient": "chopped roma (plum) tomatoes"
        }, 
        {
            "amount": "2 cups", 
            "ingredient": "cauliflower, finely chopped"
        }, 
        {
            "amount": "1 cup", 
            "ingredient": "chopped cabbage"
        }, 
        {
            "amount": "1 cup", 
            "ingredient": "green peas"
        }, 
        {
            "amount": "1 cup", 
            "ingredient": "grated carrots"
        }, 
        {
            "amount": "4", 
            "ingredient": "potatoes, boiled and mashed"
        }, 
        {
            "amount": "3 tablespoons", 
            "ingredient": "pav bhaji masala"
        }, 
        {
            "amount": "1 tablespoon", 
            "ingredient": "lemon juice"
        }, 
        {
            "amount": "8 (2 inch square)", 
            "ingredient": "dinner rolls"
        }, 
        {
            "amount": "1/2 tablespoon", 
            "ingredient": "butter"
        }, 
        {
            "amount": "1/4 cup", 
            "ingredient": "finely chopped onion"
        }, 
        {
            "amount": "1 tablespoon", 
            "ingredient": "finely chopped green chile peppers"
        }, 
        {
            "amount": "1/4 cup", 
            "ingredient": "chopped fresh cilantro"
        }
    ], 
    "prep_steps": [
        "Heat the oil in a wok over medium heat. Saute garlic and green chile for 30 seconds, then stir in onions and ginger. Cook until onions are brown. Add tomatoes, and cook until pasty. Stir in cauliflower, cabbage, peas, carrots and potatoes. Season with pav bhaji masala. Cover, and cook for 15 minutes, stirring occasionally. Season with salt, and stir in lemon juice.", 
        "Toast the dinner rolls, and spread lightly with butter. Serve garnished with chopped onion, green chile and cilantro."
    ], 
    "prep_time": "50 mins", 
    "recipe_name": "Pav Bhaji"
}