{
    "ingredients": [
        {
            "amount": "1 pound", 
            "ingredient": "rotini or fusili pasta"
        }, 
        {
            "amount": "6 slices", 
            "ingredient": "bacon"
        }, 
        {
            "amount": "1/2 cup", 
            "ingredient": "extra virgin olive oil"
        }, 
        {
            "amount": "2 medium", 
            "ingredient": "onions, chopped"
        }, 
        {
            "amount": "1", 
            "ingredient": "red bell pepper, chopped"
        }, 
        {
            "amount": "1/4 cup", 
            "ingredient": "chopped parsley"
        }, 
        {
            "amount": "4 cloves", 
            "ingredient": "garlic, minced"
        }, 
        {
            "amount": "1/2 teaspoon", 
            "ingredient": "crushed red pepper flakes"
        }, 
        {
            "amount": "1 (28 ounce) can", 
            "ingredient": "plum tomatoes, undrained, coarsely chopped"
        }, 
        {
            "amount": "1/2 cup", 
            "ingredient": "Lindsay\u00ae Black Ripe Pitted Olives or Lindsay\u00ae Green Ripe Select Olives sliced, drained"
        }, 
        {
            "amount": "2 tablespoons", 
            "ingredient": "capers, drained"
        }, 
        {
            "amount": "1/2 teaspoon", 
            "ingredient": "dried oregano"
        }, 
        {
            "amount": "1/2 cup", 
            "ingredient": "grated Parmesan cheese"
        }
    ], 
    "prep_steps": [
        "Cook pasta according to package directions. Meanwhile, in a large deep skillet, cook bacon until crisp. Drain bacon on paper towel; cut or break into 1/2-inch pieces.", 
        "Discard bacon drippings from skillet; add oil. Cook onions in oil over medium heat 5 minutes, stirring occasionally. Add bell pepper, parsley, garlic and pepper flakes; cook 2 minutes. Add tomatoes and reserved bacon; simmer 10 minutes, stirring occasionally. Stir in olives and oregano; simmer 2 minutes. Season to taste with salt, if desired.", 
        "Drain pasta; toss with sauce and cheese. Transfer to serving plates and serve with additional cheese, if desired."
    ], 
    "prep_time": "50 mins", 
    "recipe_name": "Pasta Rustica"
}