{
    "ingredients": [
        {
            "amount": "1 1/2 cups", 
            "ingredient": "chocolate cookie crumbs"
        }, 
        {
            "amount": "6 tablespoons", 
            "ingredient": "butter, melted"
        }, 
        {
            "amount": "3 cups", 
            "ingredient": "miniature marshmallows"
        }, 
        {
            "amount": "1/2 cup", 
            "ingredient": "milk"
        }, 
        {
            "amount": "1/4 cup", 
            "ingredient": "creme de menthe liqueur"
        }, 
        {
            "amount": "1 1/2 cups", 
            "ingredient": "heavy whipping cream, whipped"
        }, 
        {
            "amount": "1/4 cup", 
            "ingredient": "creme de cacao"
        }, 
        {
            "amount": "3 drops", 
            "ingredient": "green food coloring"
        }
    ], 
    "prep_steps": [
        "Mix together the chocolate wafer crumbs, and 6 tablespoons butter, melted. Press in to the bottom and sides of a 9 inch pie plate. Bake at 350 degrees F (175 degrees C) for 10 minutes. Let cool.", 
        "Melt marshmallows with milk over low heat. Chill, stirring occasionally, until mixture begins to set. Blend in creme de cacao and creme de menthe. Fold in whipped cream and tint with green food coloring. Pour into pie crust and sprinkle with grated semisweet chocolate. Chill 4 hours before serving."
    ], 
    "recipe_name": "Grasshopper Pie I"
}