{
    "ingredients": [
        {
            "amount": "1 (16 ounce) package", 
            "ingredient": "dry mostaccioli pasta"
        }, 
        {
            "amount": "2 cups", 
            "ingredient": "frozen green peas"
        }, 
        {
            "amount": "1/2 cup", 
            "ingredient": "olive oil"
        }, 
        {
            "amount": "1/4 cup", 
            "ingredient": "butter"
        }, 
        {
            "amount": "1 bunch", 
            "ingredient": "green onions, chopped"
        }, 
        {
            "amount": "2 teaspoons", 
            "ingredient": "minced garlic"
        }, 
        {
            "amount": "1/2 teaspoon", 
            "ingredient": "ground black pepper"
        }, 
        {
            "amount": "3/4 teaspoon", 
            "ingredient": "ground cayenne pepper"
        }, 
        {
            "amount": "8 ounces", 
            "ingredient": "thinly sliced hard salami"
        }, 
        {
            "amount": "1 cup", 
            "ingredient": "freshly grated Parmesan cheese"
        }
    ], 
    "prep_steps": [
        "Bring a large pot of lightly salted water to a boil. Place pasta in the pot, and cook for 6 minutes. Mix in peas. Continue cooking 4 to 6 minutes, until pasta is al dente. Drain, and return to pot.", 
        "Heat the oil and butter in a skillet over medium heat. Stir in green onions and garlic. Season with salt, black pepper, and cayenne pepper. Cook and stir until green onions are tender. Mix in salami, and continue cooking until heated through. Transfer to the pot with the cooked pasta. Add Parmesan cheese, and gently toss."
    ], 
    "prep_time": "35 mins", 
    "recipe_name": "Pasta with Salami and Peas"
}