{
    "ingredients": [
        {
            "amount": "1/3 cup", 
            "ingredient": "butter"
        }, 
        {
            "amount": "1/4 cup", 
            "ingredient": "raspberry jam"
        }, 
        {
            "amount": "1", 
            "ingredient": "egg"
        }, 
        {
            "amount": "1 1/2 cups", 
            "ingredient": "all-purpose flour"
        }, 
        {
            "amount": "1/3 cup", 
            "ingredient": "white sugar"
        }, 
        {
            "amount": "1/3 cup", 
            "ingredient": "packed brown sugar"
        }, 
        {
            "amount": "1 teaspoon", 
            "ingredient": "vanilla extract"
        }, 
        {
            "amount": "1 teaspoon", 
            "ingredient": "baking soda"
        }, 
        {
            "amount": "1 cup", 
            "ingredient": "chopped macadamia nuts"
        }, 
        {
            "amount": "8 ounces", 
            "ingredient": "white chocolate, chopped"
        }
    ], 
    "prep_steps": [
        "Preheat oven to 350 degrees F (180 degrees C).", 
        "Cream butter and sugars. Add egg and beat in. Add vanilla and raspberry jam. Mix well.", 
        "Mix together flour and baking soda. Gradually add flour mixture to batter. Stir in nuts and chips.", 
        "Drop by rounded teaspoonfuls onto lightly greased cookie sheets, about 2 inches apart. Bake for 8 - 10 minutes. Don't overbake. Cool on racks."
    ], 
    "recipe_name": "Macadamia Raspberry White Chocolate Cookies"
}