{
    "ingredients": [
        {
            "amount": "1 cup", 
            "ingredient": "butter, melted"
        }, 
        {
            "amount": "2 cups", 
            "ingredient": "packed light brown sugar"
        }, 
        {
            "amount": "3", 
            "ingredient": "eggs"
        }, 
        {
            "amount": "2 teaspoons", 
            "ingredient": "vanilla extract"
        }, 
        {
            "amount": "2 cups", 
            "ingredient": "all-purpose flour"
        }, 
        {
            "amount": "1/2 teaspoon", 
            "ingredient": "salt"
        }, 
        {
            "amount": "1 1/2 teaspoons", 
            "ingredient": "baking powder"
        }, 
        {
            "amount": "1 cup", 
            "ingredient": "chopped walnuts"
        }, 
        {
            "amount": "1/2 cup", 
            "ingredient": "butter, softened"
        }, 
        {
            "amount": "3 cups", 
            "ingredient": "sifted confectioners' sugar"
        }, 
        {
            "amount": "2 teaspoons", 
            "ingredient": "instant coffee granules"
        }, 
        {
            "amount": "2 tablespoons", 
            "ingredient": "water"
        }
    ], 
    "prep_steps": [
        "Preheat oven to 350 degrees F (180 degrees C).", 
        "Melt 1 cup butter in a large saucepan. Add 2 cups light brown sugar and beat well to mix. Cool the mixture slightly, then beat in eggs and vanilla.", 
        "Sift together all-purpose flour, salt and baking powder. Stir it into the wet ingredients, then add the nuts. Mix well.", 
        "Spread batter in a greased 11 x 7 x 2-inch pan and bake for 30-35 minutes or until a light gold. Cool in the pan for 10 minutes, then turn out of pan and let brownies finish cooling on a rack.", 
        "To Make Frosting: Disolve coffee in the water. Cream 1/2 cup butter with confectioner's sugar. Beat it until light. Beat into the sugar mixture. Spread over the brownies. When frosting has set, cut brownies into squares. Enjoy!"
    ], 
    "recipe_name": "Butterscotch Brownies II"
}