{
    "ingredients": [
        {
            "amount": "3/4 cup", 
            "ingredient": "peanut butter"
        }, 
        {
            "amount": "1/2 cup", 
            "ingredient": "shortening"
        }, 
        {
            "amount": "1/2 cup", 
            "ingredient": "white sugar"
        }, 
        {
            "amount": "1/3 cup", 
            "ingredient": "packed brown sugar"
        }, 
        {
            "amount": "1", 
            "ingredient": "egg"
        }, 
        {
            "amount": "2 tablespoons", 
            "ingredient": "milk"
        }, 
        {
            "amount": "1 teaspoon", 
            "ingredient": "vanilla extract"
        }, 
        {
            "amount": "1 1/3 cups", 
            "ingredient": "all-purpose flour"
        }, 
        {
            "amount": "1 teaspoon", 
            "ingredient": "baking soda"
        }, 
        {
            "amount": "1/3 cup", 
            "ingredient": "granulated sugar for decoration"
        }, 
        {
            "amount": "30", 
            "ingredient": "miniature chocolate covered peanut butter cups, unwrapped"
        }
    ], 
    "prep_steps": [
        "Preheat oven to 350 degrees F (180 degrees C).", 
        "In a large mixer bowl cream peanut butter, shortening, 1/3 cup sugar and the brown sugar. Add egg, milk and vanilla; beat well.", 
        "Combine flour and baking soda; gradually add to creamed mixture, blending thoroughly. Shape dough into 1 1/2 inch balls; roll the balls in sugar.", 
        "Place on ungreased cookie sheet; bake 10-12 minutes. Remove from oven and IMMEDIATELY place unwrapped peanut butter cup on top of each cookie, pressing down so that cookie cracks around edges. Cool slightly; remove from cookie sheet."
    ], 
    "recipe_name": "Peanut Butter Cup Cookies I"
}