{
    "ingredients": [
        {
            "amount": "1 cup", 
            "ingredient": "butter, softened"
        }, 
        {
            "amount": "2/3 cup", 
            "ingredient": "white sugar"
        }, 
        {
            "amount": "1 teaspoon", 
            "ingredient": "vanilla extract"
        }, 
        {
            "amount": "1 2/3 cups", 
            "ingredient": "all-purpose flour"
        }, 
        {
            "amount": "1/4 cup", 
            "ingredient": "unsweetened cocoa powder"
        }, 
        {
            "amount": "1 cup", 
            "ingredient": "chopped pecans"
        }, 
        {
            "amount": "1 (9 ounce) bag", 
            "ingredient": "milk chocolate candy kisses"
        }, 
        {
            "amount": "1/3 cup", 
            "ingredient": "confectioners' sugar for decoration"
        }
    ], 
    "prep_steps": [
        "In a medium bowl, cream together the butter and sugar. Stir in the vanilla. Combine the flour and cocoa, add to the flour mixture, mix until all of the flour is absorbed. Finally, stir in the pecans. Cover and refrigerate dough for at least 1 hour.", 
        "Preheat oven to 375 degrees F (190 degrees C). Unwrap chocolate kisses. Mold about 1 tablespoon of dough around each chocolate kiss. Place 1 1/2 inches apart onto an ungreased cookie sheet.", 
        "Bake for 10 to 12 minutes in the preheated oven, or until set. Cool on the baking sheet for 5 minutes before removing to a wire rack to cool completely. Roll cooled cookies in confectioners' sugar."
    ], 
    "prep_time": "1\u00be hrs", 
    "recipe_name": "Cocoa Kiss Cookies"
}