{
    "ingredients": [
        {
            "amount": "1 (8 ounce) package", 
            "ingredient": "fresh mushrooms, halved"
        }, 
        {
            "amount": "1 clove", 
            "ingredient": "garlic, minced"
        }, 
        {
            "amount": "1 teaspoon", 
            "ingredient": "rosemary"
        }, 
        {
            "amount": "1/4 teaspoon", 
            "ingredient": "salt"
        }, 
        {
            "amount": "3 tablespoons", 
            "ingredient": "olive oil"
        }, 
        {
            "amount": "2 tablespoons", 
            "ingredient": "butter"
        }, 
        {
            "amount": "2", 
            "ingredient": "onions, sliced"
        }, 
        {
            "amount": "2 cloves", 
            "ingredient": "garlic, minced"
        }, 
        {
            "amount": "1 teaspoon", 
            "ingredient": "chopped fresh thyme"
        }, 
        {
            "amount": "1/2 cup", 
            "ingredient": "heavy cream, divided"
        }, 
        {
            "amount": "1 (14.5 ounce) can", 
            "ingredient": "chicken broth"
        }, 
        {
            "amount": "1/2 cup", 
            "ingredient": "milk"
        }, 
        {
            "amount": "1/4 teaspoon", 
            "ingredient": "ground black pepper"
        }
    ], 
    "prep_steps": [
        "Preheat an oven to 400 degrees F (200 degrees C).", 
        "Mix the mushrooms, 1 minced clove garlic, rosemary, and salt together in a bowl. Drizzle the olive oil over the mushroom mixture, and toss to coat evenly; transfer to a baking sheet.", 
        "Roast the mushrooms in the preheated oven until golden brown, about 15 minutes.", 
        "Melt the butter in a large saucepan over medium heat. Stir the onions, 2 minced cloves garlic, and the thyme into the melted butter; cook and stir until the onions are completely soft, 7 to 10 minutes.", 
        "Combine the mushroom mixture and the onion mixture in the bowl of a blender or food processor with about half of the heavy cream; blend on low until combined yet slightly chunky. Return the blended mixture to the stockpot. Stir the remaining heavy cream, the chicken broth, milk, and black pepper through the blended mixture; bring the resulting soup to a simmer, and cook until the flavors are thoroughly combined, at least 15 minutes."
    ], 
    "prep_time": "45 mins", 
    "recipe_name": "Roasted Mushroom Soup"
}