{
    "ingredients": [
        {
            "amount": "1/2 pound", 
            "ingredient": "bacon"
        }, 
        {
            "amount": "4 heads", 
            "ingredient": "broccoli, cut into bite-size pieces"
        }, 
        {
            "amount": "1 1/2 cups", 
            "ingredient": "raisins"
        }, 
        {
            "amount": "1 1/2 cups", 
            "ingredient": "unsalted sunflower seeds"
        }, 
        {
            "amount": "1/2 cup", 
            "ingredient": "chopped onion"
        }, 
        {
            "amount": "1 cup", 
            "ingredient": "mayonnaise"
        }, 
        {
            "amount": "1/4 cup", 
            "ingredient": "white sugar"
        }, 
        {
            "amount": "1/4 cup", 
            "ingredient": "granular sucralose sweetener (such as Splenda\u00ae)"
        }, 
        {
            "amount": "2 tablespoons", 
            "ingredient": "white wine vinegar"
        }
    ], 
    "prep_steps": [
        "Place bacon in a large skillet and cook over medium-high heat, turning occasionally, until evenly browned, about 10 minutes. Drain bacon slices on paper towels and crumble.", 
        "Toss bacon, broccoli, raisins, sunflower seeds, and onion together in a large bowl.", 
        "Whisk mayonnaise, sugar, sweetener, and vinegar in another bowl until smooth. Pour over broccoli mixture and toss to coat. Refrigerate until ready to serve."
    ], 
    "prep_time": "30 mins", 
    "recipe_name": "Bacon Broccoli Salad with Raisins and Sunflower Seeds"
}