{
    "ingredients": [
        {
            "amount": "2 tablespoons", 
            "ingredient": "butter, divided"
        }, 
        {
            "amount": "2 tablespoons", 
            "ingredient": "white sugar, divided"
        }, 
        {
            "amount": "2", 
            "ingredient": "Bosc pears, halved and cored"
        }, 
        {
            "amount": "1/2 cup", 
            "ingredient": "heavy whipping cream"
        }
    ], 
    "prep_steps": [
        "Preheat oven to 375 degrees F (190 degrees C). Grease a 9-inch baking dish with 1 tablespoon butter. Sprinkle 1 tablespoon sugar into buttered dish.", 
        "Rub remaining 1 tablespoon butter over pear halves; arrange pears cut sides down in prepared baking dish and sprinkle with remaining 1 tablespoon sugar.", 
        "Bake in preheated oven for 10 minutes. Pour cream over pears and continue baking until tender, about 20 minutes more."
    ], 
    "prep_time": "40 mins", 
    "recipe_name": "Creamy Baked Pears"
}