{
    "ingredients": [
        {
            "amount": "1/2 cup", 
            "ingredient": "raisins"
        }, 
        {
            "amount": "1 cup", 
            "ingredient": "warm water"
        }, 
        {
            "amount": "1 tablespoon", 
            "ingredient": "olive oil"
        }, 
        {
            "amount": "1 small", 
            "ingredient": "red onion, diced"
        }, 
        {
            "amount": "1 clove", 
            "ingredient": "garlic, minced"
        }, 
        {
            "amount": "1 1/2 teaspoons", 
            "ingredient": "curry powder"
        }, 
        {
            "amount": "1/2 teaspoon", 
            "ingredient": "ground cumin"
        }, 
        {
            "amount": "1/2 teaspoon", 
            "ingredient": "dried cilantro"
        }, 
        {
            "amount": "1/4 teaspoon", 
            "ingredient": "ground ginger"
        }, 
        {
            "amount": "2 cups", 
            "ingredient": "vegetable broth"
        }, 
        {
            "amount": "1 (15 ounce) can", 
            "ingredient": "garbanzo beans, drained"
        }, 
        {
            "amount": "1 cup", 
            "ingredient": "quinoa"
        }, 
        {
            "amount": "1/2 cup", 
            "ingredient": "diced roasted red peppers"
        }, 
        {
            "amount": "1/4 cup", 
            "ingredient": "toasted almonds"
        }
    ], 
    "prep_steps": [
        "Soak raisins in 1 cup warm water in a bowl while you complete remaining steps.", 
        "Heat olive oil in large saucepan over medium heat. Cook and stir onion and garlic until onion has softened and turned translucent, about 5 minutes. Stir in curry powder, cumin, cilantro, and ginger and cook until fragrant, about 30 seconds.", 
        "Stir in vegetable broth, garbanzo beans, and quinoa. Bring to a boil, then reduce heat to medium-low heat, cover, and simmer until quinoa is tender, about 20 minutes.", 
        "Drain raisins. Lightly toss quinoa mixture with raisins, roasted red peppers, and toasted almonds. Season with salt."
    ], 
    "prep_time": "45 mins", 
    "recipe_name": "Pantry Curried Quinoa with Garbanzo Beans and Roasted Peppers"
}