{
    "ingredients": [
        {
            "amount": "1 teaspoon", 
            "ingredient": "onion, finely chopped"
        }, 
        {
            "amount": "3 tablespoons", 
            "ingredient": "brown sugar"
        }, 
        {
            "amount": "4 tablespoons", 
            "ingredient": "soy sauce"
        }, 
        {
            "amount": "4 tablespoons", 
            "ingredient": "red wine vinegar"
        }, 
        {
            "amount": "2 teaspoons", 
            "ingredient": "chopped fresh thyme"
        }, 
        {
            "amount": "1 teaspoon", 
            "ingredient": "sesame oil"
        }, 
        {
            "amount": "3 cloves", 
            "ingredient": "garlic, chopped"
        }, 
        {
            "amount": "1/2 teaspoon", 
            "ingredient": "ground allspice"
        }, 
        {
            "amount": "1", 
            "ingredient": "habanero pepper, sliced"
        }, 
        {
            "amount": "4", 
            "ingredient": "skinless, boneless chicken breast halves - cut into 1 inch strips"
        }
    ], 
    "prep_steps": [
        "Combine the onion, brown sugar, soy sauce, vinegar, thyme, sesame oil, garlic, allspice and habanero pepper in the container of a food processor or blender. Process until smooth. Place the chicken into a large resealable bag, and pour in 3/4 of the sauce. Squeeze out excess air, and seal. Marinate in the refrigerator for at least one hour.", 
        "Preheat your oven's broiler.", 
        "Remove chicken from bag, and discard marinade. Broil chicken for 10 to 15 minutes, turning once to ensure even cooking. Heat remaining sauce in a small pan, and pour over chicken when serving."
    ], 
    "prep_time": "1\u00bc hrs", 
    "recipe_name": "A Jerky Chicken"
}