{
    "ingredients": [
        {
            "amount": "4 teaspoons", 
            "ingredient": "coconut milk"
        }, 
        {
            "amount": "1 teaspoon", 
            "ingredient": "chili powder"
        }, 
        {
            "amount": "1 1/2 teaspoons", 
            "ingredient": "ground coriander seed"
        }, 
        {
            "amount": "1 pinch", 
            "ingredient": "ground turmeric"
        }, 
        {
            "amount": "2 teaspoons", 
            "ingredient": "ginger oil"
        }, 
        {
            "amount": "1", 
            "ingredient": "onion, chopped"
        }, 
        {
            "amount": "1 small", 
            "ingredient": "cinnamon stick"
        }, 
        {
            "amount": "1/2 teaspoon", 
            "ingredient": "cumin seeds"
        }, 
        {
            "amount": "4", 
            "ingredient": "tomatoes, chopped"
        }, 
        {
            "amount": "1 pound", 
            "ingredient": "fresh pea pods, shelled"
        }
    ], 
    "prep_steps": [
        "In a small bowl, mix together coconut milk, chili powder, coriander, turmeric, and salt.", 
        "In a medium saute pan, heat oil over medium heat. Add onion, cinnamon stick, and cumin seeds; saute until onions are soft.", 
        "Stir in tomatoes, peas, and coconut milk mixture. Reduce heat, and simmer until the peas are tender."
    ], 
    "prep_time": "30 mins", 
    "recipe_name": "Curried Peas"
}