{
    "ingredients": [
        {
            "amount": "1 (15 ounce) can", 
            "ingredient": "canned pumpkin puree"
        }, 
        {
            "amount": "1 (12 fluid ounce) can", 
            "ingredient": "evaporated milk"
        }, 
        {
            "amount": "4", 
            "ingredient": "eggs"
        }, 
        {
            "amount": "1 cup", 
            "ingredient": "white sugar"
        }, 
        {
            "amount": "1 teaspoon", 
            "ingredient": "ground cinnamon"
        }, 
        {
            "amount": "1/2 teaspoon", 
            "ingredient": "ground nutmeg"
        }, 
        {
            "amount": "1/2 teaspoon", 
            "ingredient": "ground allspice"
        }, 
        {
            "amount": "1/2 teaspoon", 
            "ingredient": "salt"
        }, 
        {
            "amount": "1 (18.25 ounce) package", 
            "ingredient": "yellow cake mix"
        }, 
        {
            "amount": "2 cups", 
            "ingredient": "chopped walnuts"
        }, 
        {
            "amount": "7/8 cup", 
            "ingredient": "margarine, softened"
        }
    ], 
    "prep_steps": [
        "Preheat oven to 350 degrees F (175 degrees C). Lightly grease a 9x13 inch baking pan.", 
        "In a large bowl, mix pumpkin puree, evaporated milk, eggs, sugar, cinnamon, nutmeg, allspice, and salt. Transfer mixture to the prepared pan. Pour dry yellow cake mix over the mixture, sprinkle with walnuts, and drizzle with melted margarine.", 
        "Bake 35 minutes in the preheated oven. Reduce heat to 325 degrees F (165 degrees C), and continue baking 15 minutes, until a toothpick inserted in the center of the cake comes out clean."
    ], 
    "prep_time": "1\u00bc hrs", 
    "recipe_name": "Pumpkin Walnut Cake"
}