{
    "ingredients": [
        {
            "amount": "1 (9 inch)", 
            "ingredient": "prepared chocolate cookie crumb crust"
        }, 
        {
            "amount": "4", 
            "ingredient": "eggs"
        }, 
        {
            "amount": "1 cup", 
            "ingredient": "butter, softened"
        }, 
        {
            "amount": "8 (1 ounce) squares", 
            "ingredient": "semisweet chocolate"
        }, 
        {
            "amount": "2 cups", 
            "ingredient": "confectioners' sugar"
        }, 
        {
            "amount": "1 cup", 
            "ingredient": "smooth peanut butter"
        }, 
        {
            "amount": "1/3 cup", 
            "ingredient": "heavy whipping cream"
        }
    ], 
    "prep_steps": [
        "Melt 6 ounces semi sweet chocolate, and cool to room temperature. Beat the eggs with 3/4 cup butter or margarine, chocolate and confectioners' sugar for a FULL 5 minutes. Mixture will be thick and smooth.", 
        "In a separate bowl, beat the peanut butter, 1/4 cup butter, and cream.", 
        "Spoon chocolate filling into crust. Swirl peanut butter filling into chocolate filling.", 
        "Drizzle remaining 2 oz of melted chocolate on top of pie. Refrigerate for at least 1 hour, and serve."
    ], 
    "prep_time": "2 hr", 
    "recipe_name": "Chocolate Peanut Butter Pie I"
}