{
    "ingredients": [
        {
            "amount": "1 pound", 
            "ingredient": "seashell pasta"
        }, 
        {
            "amount": "1 cup", 
            "ingredient": "chopped mushrooms"
        }, 
        {
            "amount": "1 cup", 
            "ingredient": "chopped cucumber"
        }, 
        {
            "amount": "1 cup", 
            "ingredient": "chopped broccoli"
        }, 
        {
            "amount": "1 cup", 
            "ingredient": "white sugar"
        }, 
        {
            "amount": "3/4 cup", 
            "ingredient": "vegetable oil"
        }, 
        {
            "amount": "1/4 cup", 
            "ingredient": "prepared mustard"
        }, 
        {
            "amount": "2 tablespoons", 
            "ingredient": "mayonnaise"
        }, 
        {
            "amount": "1/4 cup", 
            "ingredient": "distilled white vinegar"
        }, 
        {
            "amount": "1/4 cup", 
            "ingredient": "shredded Cheddar cheese"
        }
    ], 
    "prep_steps": [
        "Cook pasta in large pot of boiling salted water until al dente. Rinse with cool water. Drain well.", 
        "Meanwhile, combine chopped vegetables, sugar, oil, mustard, mayonnaise, vinegar, and shredded Cheddar cheese in a large bowl. Season with salt and pepper to taste. Mix well. Stir in pasta. Refrigerate for 2 to 4 hours before serving."
    ], 
    "recipe_name": "Picnic Pasta Salad"
}