{
    "ingredients": [
        {
            "amount": "3/4 cup", 
            "ingredient": "pine nuts"
        }, 
        {
            "amount": "1/2 cup", 
            "ingredient": "clarified butter"
        }, 
        {
            "amount": "1 1/4 cups", 
            "ingredient": "heavy whipping cream"
        }, 
        {
            "amount": "2 1/3 tablespoons", 
            "ingredient": "butter"
        }, 
        {
            "amount": "1 pinch", 
            "ingredient": "ground nutmeg"
        }, 
        {
            "amount": "1 pinch", 
            "ingredient": "freshly ground white pepper"
        }, 
        {
            "amount": "1 (8 ounce) package", 
            "ingredient": "angel hair pasta"
        }
    ], 
    "prep_steps": [
        "Toast pignoli nuts slowly in a skillet, watching carefully not to burn. Remove from skillet when nuts are tan in color.", 
        "Cook noodles in boiling salted water until al dente. Drain.", 
        "Combine heavy cream, clarified butter, 2 1/3 tablespoons butter or margarine, nutmeg, and salt and pepper in a saucepan; heat thoroughly. Add noodles to the heated sauce. Let sauce reduce to a creamy consistency. Top with nuts, and serve."
    ], 
    "recipe_name": "Angel Hair Pasta with Pignoli"
}