{
    "ingredients": [
        {
            "amount": "1/2 cup", 
            "ingredient": "bread crumbs"
        }, 
        {
            "amount": "1/4 cup", 
            "ingredient": "grated Parmesan cheese"
        }, 
        {
            "amount": "2", 
            "ingredient": "eggs, beaten"
        }, 
        {
            "amount": "3", 
            "ingredient": "zucchinis - ends trimmed, halved, and cut into 1/2-inch strips"
        }
    ], 
    "prep_steps": [
        "Preheat oven to 425 degrees F (220 degrees C). Line a baking sheet with aluminum foil and spray with cooking spray.", 
        "Stir bread crumbs and Parmesan cheese together in a shallow bowl. Whisk eggs in a separate shallow bowl.", 
        "Working in batches, dip zucchini strips into egg mixture, shake to remove any excess, and roll strips in bread crumb mixture to coat. Transfer coated zucchini strips to the prepared baking sheet.", 
        "Bake zucchini fries in the preheated oven, turning once, until golden and crisp, 20 to 24 minutes."
    ], 
    "prep_time": "35 mins", 
    "recipe_name": "Baked Zucchini Fries"
}