{
    "ingredients": [
        {
            "amount": "4 pounds", 
            "ingredient": "venison rump roast"
        }, 
        {
            "amount": "2 (12 fluid ounce) cans or bottles", 
            "ingredient": "beer"
        }, 
        {
            "amount": "1 (16 ounce) jar", 
            "ingredient": "pepperoncini"
        }
    ], 
    "prep_steps": [
        "Remove all fat and gristle from venison; place in slow cooker. Pour in enough beer to cover roast. Cover with pepperoncinis.", 
        "Cover, and cook on low setting for 8 hours, or until meat is tender and falling apart."
    ], 
    "prep_time": "8 hrs", 
    "recipe_name": "Hunter's Roast"
}