{
    "ingredients": [
        {
            "amount": "1 1/2 tablespoons", 
            "ingredient": "red wine vinegar"
        }, 
        {
            "amount": "1 tablespoon", 
            "ingredient": "balsamic vinegar"
        }, 
        {
            "amount": "1/4 teaspoon", 
            "ingredient": "salt"
        }, 
        {
            "amount": "1/8 teaspoon", 
            "ingredient": "fresh-ground black pepper"
        }, 
        {
            "amount": "1 teaspoon", 
            "ingredient": "dried oregano"
        }, 
        {
            "amount": "1 teaspoon", 
            "ingredient": "dried basil"
        }, 
        {
            "amount": "1 1/2 tablespoons", 
            "ingredient": "olive oil"
        }, 
        {
            "amount": "3", 
            "ingredient": "vine-ripened tomatoes, each cut into 6 slices"
        }, 
        {
            "amount": "1/3", 
            "ingredient": "red onion, thinly sliced"
        }, 
        {
            "amount": "6 (4 ounce)", 
            "ingredient": "mild Italian sausage links"
        }, 
        {
            "amount": "6", 
            "ingredient": "French rolls, halved lengthwise"
        }
    ], 
    "prep_steps": [
        "Preheat an outdoor grill for medium heat.", 
        "Whisk together red wine vinegar, balsamic vinegar, salt, pepper, oregano, basil, and olive oil in a small bowl. Arrange the tomato and onion slices on a serving platter, and pour dressing overtop. Allow to marinate at room temperature while you cook the sausages.", 
        "Pierce the sausages with the tip of a sharp knife a few times, then place onto the grill. Cook until no longer pink in the center, turning them frequently so that they cook evenly and have lightly browned, about 15 minutes total. Serve on French rolls with marinated tomatoes and onions."
    ], 
    "prep_time": "35 mins", 
    "recipe_name": "Grilled Italian Sausage with Marinated Tomatoes"
}