{
    "ingredients": [
        {
            "amount": "3 pounds", 
            "ingredient": "smoked sausage, cut into bite-sized pieces"
        }, 
        {
            "amount": "8 (15 ounce) cans", 
            "ingredient": "dark red kidney beans, drained and rinsed"
        }, 
        {
            "amount": "1 large", 
            "ingredient": "onion, chopped"
        }, 
        {
            "amount": "6 tablespoons", 
            "ingredient": "minced garlic"
        }, 
        {
            "amount": "2 cups", 
            "ingredient": "uncooked white rice"
        }, 
        {
            "amount": "4 cups", 
            "ingredient": "water"
        }, 
        {
            "amount": "2 tablespoons", 
            "ingredient": "Cajun seasoning"
        }, 
        {
            "amount": "4 dashes", 
            "ingredient": "hot pepper sauce, or to taste"
        }, 
        {
            "amount": "1 teaspoon", 
            "ingredient": "salt, or to taste"
        }, 
        {
            "amount": "1", 
            "ingredient": "bay leaf"
        }
    ], 
    "prep_steps": [
        "In a 6 quart or larger slow cooker, combine the smoked sausage, kidney beans, onion, garlic, rice and water. Season with Cajun seasoning, hot pepper sauce, salt and bay leaf. Cover and set on High. Once it gets heated through, stir to distribute everything evenly. Cover and cook on Low for 6 hours or on High for 4 hours."
    ], 
    "prep_time": "4 hrs", 
    "recipe_name": "Smoked Sausage and Red Beans"
}