{
    "ingredients": [
        {
            "amount": "1 1/2 pounds", 
            "ingredient": "lean ground beef"
        }, 
        {
            "amount": "3 cloves", 
            "ingredient": "garlic, minced"
        }, 
        {
            "amount": "1", 
            "ingredient": "onion, chopped"
        }, 
        {
            "amount": "1 small head", 
            "ingredient": "cabbage, shredded"
        }, 
        {
            "amount": "1 (14 ounce) can", 
            "ingredient": "beef broth"
        }, 
        {
            "amount": "2 tablespoons", 
            "ingredient": "Worcestershire sauce"
        }, 
        {
            "amount": "2 tablespoons", 
            "ingredient": "yellow mustard"
        }, 
        {
            "amount": "10", 
            "ingredient": "hamburger buns, split"
        }
    ], 
    "prep_steps": [
        "Brown ground beef in a large skillet over high heat. Drain fat. Stir in garlic, onion, and cabbage; cook until vegetables are wilted and soft. Stir in the beef broth, Worcestershire sauce, and mustard. Cook over medium heat, uncovered, until reduced to a sloppy joe consistency. Season with salt and pepper.", 
        "Place hamburger buns on top of meat mixture; cover skillet to steam, about 1 minute. To serve, fill steamed buns with beef and cabbage mixture."
    ], 
    "prep_time": "40 mins", 
    "recipe_name": "Runza Burgers"
}