{
    "ingredients": [
        {
            "amount": "1 1/4 cups", 
            "ingredient": "all-purpose flour"
        }, 
        {
            "amount": "3/4 cup", 
            "ingredient": "old-fashioned oats"
        }, 
        {
            "amount": "2 teaspoons", 
            "ingredient": "baking powder"
        }, 
        {
            "amount": "1 teaspoon", 
            "ingredient": "baking soda"
        }, 
        {
            "amount": "1/2 teaspoon", 
            "ingredient": "salt"
        }, 
        {
            "amount": "1 teaspoon", 
            "ingredient": "garlic powder"
        }, 
        {
            "amount": "1 teaspoon", 
            "ingredient": "onion powder"
        }, 
        {
            "amount": "1/3 cup", 
            "ingredient": "reduced-calorie margarine, melted"
        }, 
        {
            "amount": "1/2 cup", 
            "ingredient": "egg substitute"
        }, 
        {
            "amount": "1 cup", 
            "ingredient": "nonfat buttermilk"
        }, 
        {
            "amount": "3", 
            "ingredient": "meatless breakfast patties, cooked and crumbled"
        }, 
        {
            "amount": "2 teaspoons", 
            "ingredient": "grated Parmesan cheese"
        }
    ], 
    "prep_steps": [
        "Preheat the oven to 400 degrees F (200 degrees C). Grease a 12 cup muffin tin, or line with paper liners.", 
        "In a large bowl, stir together the flour, oats, baking powder, baking soda, salt, garlic powder, and onion powder. In a separate bowl, mix together the melted margarine, egg substitute, and buttermilk. Add the wet ingredients to the dry, and mix until just blended. Fold in the crumbled patties and Parmesan cheese. Spoon into the prepared muffin cups.", 
        "Bake for 8 to 12 minutes in the preheated oven, or until the top springs back when lightly touched. Cool in muffin tins on a wire rack."
    ], 
    "prep_time": "25 mins", 
    "recipe_name": "Savory Sausage, Cheese and Oat Muffins"
}