{
    "ingredients": [
        {
            "amount": "1 (8 ounce) package", 
            "ingredient": "angel hair pasta"
        }, 
        {
            "amount": "1 teaspoon", 
            "ingredient": "sesame oil"
        }, 
        {
            "amount": "3/4 cup", 
            "ingredient": "water"
        }, 
        {
            "amount": "1/4 cup", 
            "ingredient": "soy sauce"
        }, 
        {
            "amount": "2 tablespoons", 
            "ingredient": "cornstarch"
        }, 
        {
            "amount": "1 tablespoon", 
            "ingredient": "oyster sauce"
        }, 
        {
            "amount": "1/2 teaspoon", 
            "ingredient": "ground ginger"
        }, 
        {
            "amount": "1 tablespoon", 
            "ingredient": "vegetable oil"
        }, 
        {
            "amount": "1 pound", 
            "ingredient": "medium shrimp - peeled, deveined, and cut into 1/2-inch pieces"
        }, 
        {
            "amount": "1 tablespoon", 
            "ingredient": "vegetable oil"
        }, 
        {
            "amount": "3/4 cup", 
            "ingredient": "sliced green bell pepper"
        }, 
        {
            "amount": "3/4 cup", 
            "ingredient": "chopped celery"
        }, 
        {
            "amount": "3/4 cup", 
            "ingredient": "broccoli florets"
        }, 
        {
            "amount": "3/4 cup", 
            "ingredient": "snap peas"
        }, 
        {
            "amount": "1/2 cup", 
            "ingredient": "onion slices"
        }, 
        {
            "amount": "1/2 cup", 
            "ingredient": "shredded cabbage"
        }, 
        {
            "amount": "1 clove", 
            "ingredient": "garlic, minced"
        }
    ], 
    "prep_steps": [
        "Bring a large pot of lightly salted water to a boil. Cook angel hair in the boiling water until cooked through yet firm to the bite, 4 to 5 minutes; drain. Toss with sesame oil in a bowl to coat.", 
        "Mix water, soy sauce, cornstarch, oyster sauce, and ground ginger into a sauce a small bowl.", 
        "Heat 1 tablespoon vegetable oil in a large skillet or wok over medium-high heat. Cook and stir shrimp in hot oil until pink, 2 to 3 minutes. Remove shrimp from skillet to a bowl and return pan to heat.", 
        "Heat remaining 1 tablespoon vegetable oil in the pan. Cook and stir bell pepper, celery, broccoli, snap peas, onion, cabbage, and garlic in oil until slightly tender, about 5 minutes. Pour prepared sauce over vegetable mixture; stirring continually, bring to a simmer and cook until slightly thickened, 30 to 45 seconds. Return shrimp to the pan; cook 1 minute more. Add drained pasta; toss to coat."
    ], 
    "prep_time": "35 mins", 
    "recipe_name": "Quick Shrimp Lo Mein"
}