{
    "ingredients": [
        {
            "amount": "1/4 cup", 
            "ingredient": "butter, softened"
        }, 
        {
            "amount": "1/2 cup", 
            "ingredient": "packed brown sugar"
        }, 
        {
            "amount": "1 1/2 cups", 
            "ingredient": "sliced canned peaches, drained"
        }, 
        {
            "amount": "6", 
            "ingredient": "cherries, pitted and halved"
        }, 
        {
            "amount": "1/3 cup", 
            "ingredient": "shortening"
        }, 
        {
            "amount": "1/2 cup", 
            "ingredient": "white sugar"
        }, 
        {
            "amount": "1", 
            "ingredient": "egg"
        }, 
        {
            "amount": "1 1/4 cups", 
            "ingredient": "cake flour"
        }, 
        {
            "amount": "1 1/2 teaspoons", 
            "ingredient": "baking powder"
        }, 
        {
            "amount": "1/2 teaspoon", 
            "ingredient": "salt"
        }, 
        {
            "amount": "1/2 teaspoon", 
            "ingredient": "orange zest"
        }, 
        {
            "amount": "1/2 cup", 
            "ingredient": "orange juice"
        }
    ], 
    "prep_steps": [
        "Spread butter or margarine in bottom of 8 inch round baking dish. Sprinkle with brown sugar and arrange very well drained peaches and halved cherries on top.", 
        "In a large bowl, cream shortening and sugar together thoroughly. Blend in unbeaten egg, and beat well.", 
        "In a separate bowl, sift together flour, baking powder and salt. Add these dry ingredients to creamed mixture alternately with the juice. Stir in orange rind until evenly distributed.", 
        "Bake at 350 degrees F (175 degrees C) for 45 to 50 minutes, or until cake is done. Allow cake to cool 5 to 10 minutes in the pan. Invert over serving plate to remove cake, and allow syrup to drain a minute."
    ], 
    "recipe_name": "Peach Upside Down Cake II"
}