{
    "ingredients": [
        {
            "amount": "1 (9 inch)", 
            "ingredient": "pie crust, baked"
        }, 
        {
            "amount": "3", 
            "ingredient": "egg yolks, beaten"
        }, 
        {
            "amount": "1 1/2 cups", 
            "ingredient": "white sugar"
        }, 
        {
            "amount": "3 tablespoons", 
            "ingredient": "cornstarch"
        }, 
        {
            "amount": "1/2 cup", 
            "ingredient": "unsweetened cocoa powder"
        }, 
        {
            "amount": "1/2 teaspoon", 
            "ingredient": "salt"
        }, 
        {
            "amount": "3 cups", 
            "ingredient": "milk"
        }, 
        {
            "amount": "1 tablespoon", 
            "ingredient": "butter"
        }, 
        {
            "amount": "1 1/2 teaspoons", 
            "ingredient": "vanilla extract"
        }, 
        {
            "amount": "1 cup", 
            "ingredient": "frozen whipped topping, thawed"
        }
    ], 
    "prep_steps": [
        "In a large mixing bowl, cream together egg yolks and sugar. Mix in cornstarch, cocoa powder, and salt. Add milk and stir gently.", 
        "Pour mixture into a large saucepan and cook over medium heat, stirring constantly, until boiling. Remove from heat. Stir in butter or margarine and vanilla extract. Cool slightly, then pour mixture into pastry shell. Chill before serving. Garnish with whipped topping."
    ], 
    "recipe_name": "Chocolate Cream Pie II"
}