{
    "ingredients": [
        {
            "amount": "6 tablespoons", 
            "ingredient": "milk"
        }, 
        {
            "amount": "6 tablespoons", 
            "ingredient": "butter, softened"
        }, 
        {
            "amount": "1 1/2 cups", 
            "ingredient": "white sugar"
        }, 
        {
            "amount": "1 cup", 
            "ingredient": "chocolate chips"
        }, 
        {
            "amount": "1 dash", 
            "ingredient": "vanilla extract"
        }
    ], 
    "prep_steps": [
        "Combine the milk, butter, and sugar together in a saucepan and bring to a boil; allow to cook at a rolling boil for 30 seconds and immediately remove from heat. Add the chocolate chips and vanilla to the milk mixture and stir until the chips are completely melted. Pour immediately over warm brownies."
    ], 
    "prep_time": "15 mins", 
    "recipe_name": "Brownie Frosting"
}