{
    "ingredients": [
        {
            "amount": "1/2 cup", 
            "ingredient": "ketchup"
        }, 
        {
            "amount": "2 tablespoons", 
            "ingredient": "brown sugar"
        }, 
        {
            "amount": "2 tablespoons", 
            "ingredient": "Worcestershire sauce"
        }, 
        {
            "amount": "1 tablespoon", 
            "ingredient": "cider vinegar"
        }, 
        {
            "amount": "1 dash", 
            "ingredient": "hot pepper sauce"
        }, 
        {
            "amount": "1 teaspoon", 
            "ingredient": "garlic powder"
        }, 
        {
            "amount": "1/4 teaspoon", 
            "ingredient": "mustard powder"
        }, 
        {
            "amount": "1/4 teaspoon", 
            "ingredient": "salt"
        }
    ], 
    "prep_steps": [
        "In a small saucepan over medium heat, stir together the ketchup, brown sugar, Worcestershire sauce, vinegar, hot pepper sauce, garlic powder, mustard powder, and salt. Bring to a simmer, then remove from heat and allow to cool slightly before brushing on your favorite meat."
    ], 
    "prep_time": "30 mins", 
    "recipe_name": "Bar-B-Que Sauce"
}