{
    "ingredients": [
        {
            "amount": "4 tablespoons", 
            "ingredient": "vegetable oil, divided"
        }, 
        {
            "amount": "2", 
            "ingredient": "onions, chopped"
        }, 
        {
            "amount": "4 cloves", 
            "ingredient": "garlic, minced"
        }, 
        {
            "amount": "1 pound", 
            "ingredient": "ground beef"
        }, 
        {
            "amount": "3/4 pound", 
            "ingredient": "spicy Italian sausage, casing removed"
        }, 
        {
            "amount": "1 (14.5 ounce) can", 
            "ingredient": "peeled and diced tomatoes with juice"
        }, 
        {
            "amount": "1 (12 fluid ounce) can or bottle", 
            "ingredient": "dark beer"
        }, 
        {
            "amount": "1 cup", 
            "ingredient": "strong brewed coffee"
        }, 
        {
            "amount": "2 (6 ounce) cans", 
            "ingredient": "tomato paste"
        }, 
        {
            "amount": "1 (14 ounce) can", 
            "ingredient": "beef broth"
        }, 
        {
            "amount": "1/4 cup", 
            "ingredient": "chili powder"
        }, 
        {
            "amount": "1 tablespoon", 
            "ingredient": "ground cumin"
        }, 
        {
            "amount": "1/4 cup", 
            "ingredient": "brown sugar"
        }, 
        {
            "amount": "1 teaspoon", 
            "ingredient": "dried oregano"
        }, 
        {
            "amount": "1 teaspoon", 
            "ingredient": "cayenne pepper"
        }, 
        {
            "amount": "1 teaspoon", 
            "ingredient": "ground coriander"
        }, 
        {
            "amount": "1 teaspoon", 
            "ingredient": "salt"
        }, 
        {
            "amount": "1 tablespoon", 
            "ingredient": "wasabi paste"
        }, 
        {
            "amount": "3 (15 ounce) cans", 
            "ingredient": "kidney beans"
        }, 
        {
            "amount": "2", 
            "ingredient": "Anaheim chile peppers, chopped"
        }, 
        {
            "amount": "1", 
            "ingredient": "serrano pepper, chopped"
        }, 
        {
            "amount": "1", 
            "ingredient": "habanero pepper, sliced"
        }
    ], 
    "prep_steps": [
        "Place 2 tablespoons of oil in a large pot and place the pot over medium heat. Cook and stir the onions, garlic, beef and sausage until meats are browned. Pour in the tomatoes, beer, coffee, tomato paste and broth. Season with chili powder, cumin, sugar, oregano, cayenne, coriander, salt and wasabi. Stir in one can of beans, bring to a boil, then reduce heat, cover and simmer.", 
        "In a large skillet over medium heat, heat remaining oil. Cook Anaheim, serrano and habanero peppers in oil until just tender, 5 to 10 minutes. Stir into the pot and simmer 2 hours.", 
        "Stir in remaining 2 cans of beans and cook 45 minutes more."
    ], 
    "prep_time": "3 hrs", 
    "recipe_name": "Washabinaros Chili"
}