{
    "ingredients": [
        {
            "amount": "1 (16 ounce) package", 
            "ingredient": "angel food cake mix"
        }, 
        {
            "amount": "1 (20 ounce) can", 
            "ingredient": "crushed pineapple with juice"
        }, 
        {
            "amount": "1 (12 ounce) container", 
            "ingredient": "frozen whipped topping, thawed"
        }
    ], 
    "prep_steps": [
        "Preheat oven to 350 degrees F (175 degrees C). Spray a 9x13 inch pan with vegetable oil spray.", 
        "In a large bowl, combine cake mix and pineapple (with juice). Mix until well blended.", 
        "Pour batter into prepared 9x13 inch pan. Bake at 350 degrees F (175 degrees C) for 25 minutes or until golden brown. Let cool.", 
        "Serve with whipped topping"
    ], 
    "recipe_name": "Pineapple Angel Food Cake I"
}