{
    "ingredients": [
        {
            "amount": "2 1/2 ounces", 
            "ingredient": "blue cheese"
        }, 
        {
            "amount": "3 tablespoons", 
            "ingredient": "buttermilk"
        }, 
        {
            "amount": "3 tablespoons", 
            "ingredient": "sour cream"
        }, 
        {
            "amount": "2 tablespoons", 
            "ingredient": "mayonnaise"
        }, 
        {
            "amount": "2 teaspoons", 
            "ingredient": "white wine vinegar"
        }, 
        {
            "amount": "1/4 teaspoon", 
            "ingredient": "sugar"
        }, 
        {
            "amount": "1/8 teaspoon", 
            "ingredient": "garlic powder"
        }
    ], 
    "prep_steps": [
        "In a small bowl, mash blue cheese and buttermilk together with a fork until mixture resembles large-curd cottage cheese. Stir in sour cream, mayonnaise, vinegar, sugar, and garlic powder until well blended. Season to taste with salt and pepper."
    ], 
    "prep_time": "10 mins", 
    "recipe_name": "Absolutely the BEST Rich and Creamy Blue Cheese Dressing Ever!"
}