{
    "ingredients": [
        {
            "amount": "1 cup", 
            "ingredient": "all-purpose flour"
        }, 
        {
            "amount": "3 tablespoons", 
            "ingredient": "unsweetened cocoa powder"
        }, 
        {
            "amount": "1 teaspoon", 
            "ingredient": "baking powder"
        }, 
        {
            "amount": "1/2 teaspoon", 
            "ingredient": "baking soda"
        }, 
        {
            "amount": "1/2 teaspoon", 
            "ingredient": "salt"
        }, 
        {
            "amount": "1/2 teaspoon", 
            "ingredient": "ground cinnamon"
        }, 
        {
            "amount": "1/2 cup", 
            "ingredient": "margarine"
        }, 
        {
            "amount": "1/2 cup", 
            "ingredient": "brown sugar"
        }, 
        {
            "amount": "1/2 cup", 
            "ingredient": "white sugar"
        }, 
        {
            "amount": "1", 
            "ingredient": "egg"
        }, 
        {
            "amount": "1 teaspoon", 
            "ingredient": "vanilla extract"
        }, 
        {
            "amount": "1 1/4 cups", 
            "ingredient": "rolled oats"
        }, 
        {
            "amount": "1/2 cup", 
            "ingredient": "semisweet chocolate chips"
        }
    ], 
    "prep_steps": [
        "Preheat oven to 350 degrees F (175 degrees C). Grease cookie sheets. Stir together the flour, cocoa, baking powder, baking soda, salt and cinnamon; set aside.", 
        "In a large bowl, cream together the margarine, brown sugar and white sugar. Beat in the egg and vanilla. Stir in the dry ingredients using a wooden spoon. Mix in the oats and chocolate chips. Drop by tablespoonfuls onto cookie sheets, leaving 2 inches between cookies.", 
        "Bake for 8 to 10 minutes in the preheated oven, or until lightly browned. Allow cookies to cool on baking sheet for 5 minutes before removing to a wire rack to cool completely."
    ], 
    "prep_time": "30 mins", 
    "recipe_name": "Chocolate Oatmeal Cookies"
}