{
    "ingredients": [
        {
            "amount": "1 cup", 
            "ingredient": "butter, softened"
        }, 
        {
            "amount": "3 tablespoons", 
            "ingredient": "poppy seeds"
        }, 
        {
            "amount": "1", 
            "ingredient": "onion, grated"
        }, 
        {
            "amount": "1 tablespoon", 
            "ingredient": "Worcestershire sauce"
        }, 
        {
            "amount": "2 tablespoons", 
            "ingredient": "prepared Dijon-style mustard"
        }, 
        {
            "amount": "2 (12 ounce) packages", 
            "ingredient": "white party rolls"
        }, 
        {
            "amount": "1/2 pound", 
            "ingredient": "chopped cooked ham"
        }, 
        {
            "amount": "5 ounces", 
            "ingredient": "shredded Swiss cheese"
        }
    ], 
    "prep_steps": [
        "Preheat oven to 350 degrees F (175 degrees C).", 
        "In a medium bowl, mix together butter, poppy seeds, onion, Worcestershire sauce and prepared Dijon-style mustard.", 
        "Slice rolls in half horizontally and set aside tops. Spread bottoms with the butter mixture. Top with ham and Swiss cheese. Replace tops.", 
        "Arrange rolls in a single layer in a medium baking dish. Bake in the preheated oven 10 to 12 minutes, until rolls are lightly browned and cheese is melted."
    ], 
    "prep_time": "30 mins", 
    "recipe_name": "Easy Ham and Cheese Appetizer Sandwiches"
}