{
    "ingredients": [
        {
            "amount": "3 cups", 
            "ingredient": "all-purpose flour"
        }, 
        {
            "amount": "3/4 teaspoon", 
            "ingredient": "baking soda"
        }, 
        {
            "amount": "3/4 teaspoon", 
            "ingredient": "salt"
        }, 
        {
            "amount": "3/4 cup", 
            "ingredient": "white sugar"
        }, 
        {
            "amount": "1 cup", 
            "ingredient": "packed light brown sugar"
        }, 
        {
            "amount": "1 cup", 
            "ingredient": "butter, softened"
        }, 
        {
            "amount": "2", 
            "ingredient": "eggs"
        }, 
        {
            "amount": "1 tablespoon", 
            "ingredient": "vanilla extract"
        }, 
        {
            "amount": "1 cup", 
            "ingredient": "vanilla baking chips"
        }, 
        {
            "amount": "1 cup", 
            "ingredient": "chopped macadamia nuts"
        }, 
        {
            "amount": "1 cup", 
            "ingredient": "dried cranberries"
        }
    ], 
    "prep_steps": [
        "In a medium bowl set aside flour, baking soda and salt.", 
        "Cream together white sugar, light brown sugar and butter (do not use shortening). Add slightly beaten eggs and vanilla.", 
        "Add flour mixture until just mixed. Stir in vanilla chips, macadamia nuts and dried cranberries.", 
        "Preheat oven to 350 degrees F (175 degrees C). Place on ungreased cookie sheet by small scoop or rounded teaspoon. Bake for 10 minutes or just until set. Remove from oven and let cool. Cookies will sink slightly.", 
        "Variations: To make chocolate cookies - omit 1/2 cup flour and replace with 1/2 cup cocoa. To make refrigerator cookies - Roll dough into 2 rolls, wrap with plastic wrap and chill or freeze. (If you freeze the dough - thaw for at least 1/2 hr). Slice 1 inch slices - cut into 4 and place on baking sheet point up. For fancier cookies: Drizzle melted white chocolate on chocolate cookies and melted dark chocolate on the white cookie. Enjoy"
    ], 
    "recipe_name": "White Chocolate Macadamia Cranberry Dreams"
}