{
    "ingredients": [
        {
            "amount": "3 tablespoons", 
            "ingredient": "hoisin sauce"
        }, 
        {
            "amount": "2 tablespoons", 
            "ingredient": "peanut butter"
        }, 
        {
            "amount": "2 teaspoons", 
            "ingredient": "brown sugar"
        }, 
        {
            "amount": "3/4 teaspoon", 
            "ingredient": "hot chile paste"
        }, 
        {
            "amount": "1 teaspoon", 
            "ingredient": "grated fresh ginger"
        }, 
        {
            "amount": "3 tablespoons", 
            "ingredient": "rice wine vinegar"
        }, 
        {
            "amount": "1 tablespoon", 
            "ingredient": "sesame oil"
        }, 
        {
            "amount": "1 pound", 
            "ingredient": "skinless, boneless chicken breast halves"
        }, 
        {
            "amount": "16  (3.5 inch square)", 
            "ingredient": "wonton wrappers, shredded"
        }, 
        {
            "amount": "4 cups", 
            "ingredient": "romaine lettuce - torn, washed and dried"
        }, 
        {
            "amount": "2 cups", 
            "ingredient": "shredded carrots"
        }, 
        {
            "amount": "1 bunch", 
            "ingredient": "green onions, chopped"
        }, 
        {
            "amount": "1/4 cup", 
            "ingredient": "chopped fresh cilantro"
        }
    ], 
    "prep_steps": [
        "To prepare the dressing, whisk together the hoisin sauce, peanut butter, brown sugar, chili paste, ginger, vinegar, and sesame oil.", 
        "Grill or broil the chicken breasts until cooked, about 10 minutes. An instant-read thermometer inserted into the center should read 165 degrees F (74 degrees C). Cool and slice.", 
        "Preheat oven to 350 degrees F (175 C). Spray a large shallow pan with nonstick vegetable spray; arrange shredded wontons in a single layer and bake until golden brown, about 20 minutes. Cool.", 
        "In a large bowl, combine the chicken, wontons, lettuce, carrots, green onions and cilantro. Toss with dressing and serve."
    ], 
    "prep_time": "1 hr", 
    "recipe_name": "Chinese Chicken Salad III"
}