{
    "ingredients": [
        {
            "amount": "1 (6.5 ounce) jar", 
            "ingredient": "marinated artichoke hearts, drained and chopped"
        }, 
        {
            "amount": "1/2 cup", 
            "ingredient": "grated Romano cheese"
        }, 
        {
            "amount": "1/3 cup", 
            "ingredient": "finely chopped red onion"
        }, 
        {
            "amount": "5 tablespoons", 
            "ingredient": "mayonnaise"
        }, 
        {
            "amount": "1", 
            "ingredient": "French baguette, cut into 1/3 inch thick slices"
        }
    ], 
    "prep_steps": [
        "Preheat the broiler.", 
        "In a medium bowl, mix marinated artichoke hearts, Romano cheese, red onion and mayonnaise. Top French baguette slices with equal amounts of the artichoke heart mixture. Arrange slices in a single layer on a large baking sheet.", 
        "Broil in the preheated oven 2 minutes, or until toppings are bubbly and lightly browned."
    ], 
    "prep_time": "20 mins", 
    "recipe_name": "Artichoke Bruschetta"
}