{
    "ingredients": [
        {
            "amount": "2 pounds", 
            "ingredient": "sliced beef liver"
        }, 
        {
            "amount": "1 1/2 cups", 
            "ingredient": "milk, or as needed"
        }, 
        {
            "amount": "1/4 cup", 
            "ingredient": "butter, divided"
        }, 
        {
            "amount": "2 large", 
            "ingredient": "Vidalia onions, sliced into rings"
        }, 
        {
            "amount": "2 cups", 
            "ingredient": "all-purpose flour, or as needed"
        }
    ], 
    "prep_steps": [
        "Gently rinse liver slices under cold water, and place in a medium bowl. Pour in enough milk to cover. Let stand while preparing onions. (I like to soak up to an hour or two - whatever you have time for.) This step is SO important in taking the bitter taste of the liver out.", 
        "Melt 2 tablespoons of butter in a large skillet over medium heat. Separate onion rings, and saute them in butter until soft. Remove onions, and melt remaining butter in the skillet. Season the flour with salt and pepper, and put it in a shallow dish or on a plate. Drain milk from liver, and coat slices in the flour mixture.", 
        "When the butter has melted, turn the heat up to medium-high, and place the coated liver slices in the pan. Cook until nice and brown on the bottom. Turn, and cook on the other side until browned. Add onions, and reduce heat to medium. Cook a bit longer to taste. Our family prefers the liver to just barely retain a pinkness on the inside when you cut to check. Enjoy!"
    ], 
    "prep_time": "45 mins", 
    "recipe_name": "Absolute Best Liver and Onions"
}