{
    "ingredients": [
        {
            "amount": "1 (18.25 ounce) package", 
            "ingredient": "yellow cake mix"
        }, 
        {
            "amount": "1 (3.5 ounce) package", 
            "ingredient": "instant banana pudding mix"
        }, 
        {
            "amount": "4", 
            "ingredient": "eggs"
        }, 
        {
            "amount": "1 cup", 
            "ingredient": "water"
        }, 
        {
            "amount": "1/4 cup", 
            "ingredient": "vegetable oil"
        }, 
        {
            "amount": "3/4 cup", 
            "ingredient": "mashed bananas"
        }, 
        {
            "amount": "2 cups", 
            "ingredient": "confectioners' sugar"
        }, 
        {
            "amount": "2 tablespoons", 
            "ingredient": "milk"
        }, 
        {
            "amount": "1 dash", 
            "ingredient": "vanilla extract"
        }, 
        {
            "amount": "1/2 cup", 
            "ingredient": "chopped walnuts"
        }
    ], 
    "prep_steps": [
        "Preheat oven to 350 degrees F (175 degrees C). Grease and flour a 10 inch Bundt pan.", 
        "In a large bowl, stir together cake mix and pudding mix. Make a well in the center and pour in eggs, water, oil and mashed banana. Beat on low speed until blended. Scrape bowl, and beat 4 minutes on medium speed. Pour batter into prepared pan.", 
        "Bake in a preheated oven for 50 to 55 minutes, or until cake tests done. Let cool in pan for 10 minutes, then turn out onto a wire rack and cool completely.", 
        "To make glaze: In a small bowl, combine confectioners' sugar, milk and vanilla. Whisk until smooth and of a drizzling consistency. When cake is cooled, drizzle icing over cake with a zigzag motion. Sprinkle chopped nuts over wet icing if desired."
    ], 
    "prep_time": "2 hr", 
    "recipe_name": "Banana Pudding Cake"
}