{
    "ingredients": [
        {
            "amount": "2 cups", 
            "ingredient": "fresh blueberries"
        }, 
        {
            "amount": "1/4 cup", 
            "ingredient": "all-purpose flour"
        }, 
        {
            "amount": "2 cups", 
            "ingredient": "all-purpose flour"
        }, 
        {
            "amount": "4 teaspoons", 
            "ingredient": "baking powder"
        }, 
        {
            "amount": "1 teaspoon", 
            "ingredient": "salt"
        }, 
        {
            "amount": "1/4 cup", 
            "ingredient": "margarine"
        }, 
        {
            "amount": "1 1/2 cups", 
            "ingredient": "white sugar"
        }, 
        {
            "amount": "2", 
            "ingredient": "eggs"
        }, 
        {
            "amount": "1 teaspoon", 
            "ingredient": "vanilla extract"
        }, 
        {
            "amount": "1 cup", 
            "ingredient": "milk"
        }
    ], 
    "prep_steps": [
        "Preheat oven to 375 degrees F (190 degrees C). Grease muffins tins, or line cups with paper liners.", 
        "Sprinkle 1/4 cup flour over blueberries, and stir to coat berries thoroughly.", 
        "In a small bowl, whisk together 2 cups flour, baking powder and salt.", 
        "In a large bowl, cream margarine, and gradually mix in sugar. Beat eggs, and stir into creamed mixture along with vanilla. Stir in milk alternately with flour mixture, mixing well after each addition. Fold in berries. Fill muffin cups 2/3 full with batter.", 
        "Bake for 25 minutes."
    ], 
    "prep_time": "40 mins", 
    "recipe_name": "Alienated Blueberry Muffins"
}