{
    "ingredients": [
        {
            "amount": "1 cup", 
            "ingredient": "quinoa"
        }, 
        {
            "amount": "1/8 teaspoon", 
            "ingredient": "salt"
        }, 
        {
            "amount": "1 3/4 cups", 
            "ingredient": "water"
        }, 
        {
            "amount": "1 cup", 
            "ingredient": "canned garbanzo beans (chickpeas), drained"
        }, 
        {
            "amount": "1", 
            "ingredient": "tomato, chopped"
        }, 
        {
            "amount": "1 clove", 
            "ingredient": "garlic, minced"
        }, 
        {
            "amount": "3 tablespoons", 
            "ingredient": "lime juice"
        }, 
        {
            "amount": "4 teaspoons", 
            "ingredient": "olive oil"
        }, 
        {
            "amount": "1/2 teaspoon", 
            "ingredient": "ground cumin"
        }, 
        {
            "amount": "1 pinch", 
            "ingredient": "salt and pepper to taste"
        }, 
        {
            "amount": "1/2 teaspoon", 
            "ingredient": "chopped fresh parsley"
        }
    ], 
    "prep_steps": [
        "Place the quinoa in a fine mesh strainer, and rinse under cold, running water until the water no longer foams. Bring the quinoa, salt, and water to a boil in a saucepan. Reduce heat to medium-low, cover, and simmer until the quinoa is tender, 20 to 25 minutes.", 
        "Once done, stir in the garbanzo beans, tomatoes, garlic, lime juice, and olive oil. Season with cumin, salt, and pepper. Sprinkle with chopped fresh parsley to serve."
    ], 
    "prep_time": "40 mins", 
    "recipe_name": "Quinoa with Chickpeas and Tomatoes"
}