{
    "ingredients": [
        {
            "amount": "1 cup", 
            "ingredient": "all-purpose flour"
        }, 
        {
            "amount": "1 tablespoon", 
            "ingredient": "baking powder"
        }, 
        {
            "amount": "1/2 teaspoon", 
            "ingredient": "baking soda"
        }, 
        {
            "amount": "1/4 teaspoon", 
            "ingredient": "salt"
        }, 
        {
            "amount": "1 cup", 
            "ingredient": "mashed ripe banana"
        }, 
        {
            "amount": "1/4 cup", 
            "ingredient": "white sugar"
        }, 
        {
            "amount": "1/4 cup", 
            "ingredient": "sour cream"
        }, 
        {
            "amount": "1", 
            "ingredient": "egg"
        }, 
        {
            "amount": "1/2 teaspoon", 
            "ingredient": "vanilla extract"
        }
    ], 
    "prep_steps": [
        "Preheat oven to 350 degrees F (175 degrees C). Grease muffin cups or line with paper muffin liners.", 
        "Mix together flour, baking powder, baking soda and salt. In a separate bowl, beat together banana, sugar, egg and vanilla. Stir in the sour cream. Stir banana mixture into flour until just combined. Scoop batter into prepared muffin cups.", 
        "Bake in preheated oven for 15 to 20 minutes, or until a toothpick inserted into center of a muffin comes out clean. Let cool before serving. For best flavor, place in an airtight container or bag overnight."
    ], 
    "prep_time": "30 mins", 
    "recipe_name": "Banana Muffins I"
}