{
    "ingredients": [
        {
            "amount": "1/4 cup", 
            "ingredient": "unsalted butter"
        }, 
        {
            "amount": "1/8 teaspoon", 
            "ingredient": "garlic powder"
        }, 
        {
            "amount": "12 slices", 
            "ingredient": "white bread"
        }, 
        {
            "amount": "1 teaspoon", 
            "ingredient": "dried oregano"
        }, 
        {
            "amount": "1 (8 ounce) package", 
            "ingredient": "shredded mozzarella cheese"
        }, 
        {
            "amount": "1 (24 ounce) jar", 
            "ingredient": "vodka marinara sauce"
        }
    ], 
    "prep_steps": [
        "Preheat your oven's broiler.", 
        "Place 6 slices of bread onto a baking sheet. Spread a small handful of the mozzarella cheese over each slice. Top with the remaining 6 slices of bread. Mix together the butter and garlic powder, brush some over the tops of the sandwiches, or spread with the back of a tablespoon. Sprinkle with dried oregano.", 
        "Place baking sheet under the broiler for 2 to 3 minutes, until golden brown. Remove pan from oven, flip sandwiches, and brush the other sides with butter, and sprinkle with oregano. Return to the broiler, and cook until golden, about 2 minutes.", 
        "Cut sandwiches in half diagonally, and serve immediately with vodka sauce on the side for dipping."
    ], 
    "prep_time": "15 mins", 
    "recipe_name": "Italian Grilled Cheese Sandwiches"
}