{
    "ingredients": [
        {
            "amount": "1 (18.25 ounce) package", 
            "ingredient": "yellow cake mix"
        }, 
        {
            "amount": "2 1/2 cups", 
            "ingredient": "quick cooking oats"
        }, 
        {
            "amount": "3/4 cup", 
            "ingredient": "margarine, melted"
        }, 
        {
            "amount": "1 cup", 
            "ingredient": "raspberry jam"
        }, 
        {
            "amount": "1 tablespoon", 
            "ingredient": "water"
        }
    ], 
    "prep_steps": [
        "Preheat the oven to 375 degrees F (190 degrees C). Grease a 9x13 inch pan.", 
        "In a large bowl, mix together oats, cake mix, and melted margarine so that it makes nice clumps and there is no dry mix left. Press 1/2 of the oats mixture evenly into the bottom the prepared pan. In a separate bowl, mix jam with water, and spread over the crust. Sprinkle the remaining oat mixture evenly over the top.", 
        "Bake in the preheated oven for 18 to 23 minutes, or until the top is lightly browned. Cool before cutting into bars."
    ], 
    "prep_time": "38 mins", 
    "recipe_name": "Raspberry Oatmeal Bars"
}