{
    "ingredients": [
        {
            "amount": "2 tablespoons", 
            "ingredient": "onion powder"
        }, 
        {
            "amount": "2 tablespoons", 
            "ingredient": "garlic powder"
        }, 
        {
            "amount": "2 tablespoons", 
            "ingredient": "dried oregano"
        }, 
        {
            "amount": "2 tablespoons", 
            "ingredient": "dried basil"
        }, 
        {
            "amount": "1 tablespoon", 
            "ingredient": "dried thyme"
        }, 
        {
            "amount": "1 tablespoon", 
            "ingredient": "black pepper"
        }, 
        {
            "amount": "1 tablespoon", 
            "ingredient": "white pepper"
        }, 
        {
            "amount": "1 tablespoon", 
            "ingredient": "cayenne pepper"
        }, 
        {
            "amount": "5 tablespoons", 
            "ingredient": "paprika"
        }, 
        {
            "amount": "3 tablespoons", 
            "ingredient": "salt"
        }
    ], 
    "prep_steps": [
        "In a small bowl, combine onion powder, garlic powder, oregano, basil, thyme, black pepper, white pepper, cayenne pepper, paprika and salt. Store in an airtight container."
    ], 
    "prep_time": "5 mins", 
    "recipe_name": "Creole Seasoning Blend"
}