{
    "ingredients": [
        {
            "amount": "3", 
            "ingredient": "potatoes, peeled and quartered"
        }, 
        {
            "amount": "1", 
            "ingredient": "onion, chopped"
        }, 
        {
            "amount": "6", 
            "ingredient": "carrots, peeled and sliced into 1 inch pieces"
        }, 
        {
            "amount": "2 pounds", 
            "ingredient": "boneless round steak"
        }, 
        {
            "amount": "1 (1 ounce) package", 
            "ingredient": "dry onion soup mix"
        }, 
        {
            "amount": "1 (10.75 ounce) can", 
            "ingredient": "condensed cream of mushroom soup"
        }, 
        {
            "amount": "3/4 cup", 
            "ingredient": "water"
        }
    ], 
    "prep_steps": [
        "Place the potatoes, onion, and carrots in slow cooker. Cut steak into six pieces, then place the meat on top of vegetables. In a mixing bowl, combine the soup mix, soup, and water; pour over beef.", 
        "Cover, and cook on Low for 7 to 10 hours."
    ], 
    "prep_time": "10 hrs", 
    "recipe_name": "Slow Cooker Tender and Yummy Round Steak"
}