{
    "ingredients": [
        {
            "amount": "1/4 cup", 
            "ingredient": "balsamic vinegar"
        }, 
        {
            "amount": "1/4 cup", 
            "ingredient": "lemon juice"
        }, 
        {
            "amount": "1/4 cup", 
            "ingredient": "soy sauce"
        }, 
        {
            "amount": "1 teaspoon", 
            "ingredient": "salt"
        }, 
        {
            "amount": "1 tablespoon", 
            "ingredient": "brown sugar"
        }, 
        {
            "amount": "1 1/2 teaspoons", 
            "ingredient": "ground ginger"
        }, 
        {
            "amount": "1 teaspoon", 
            "ingredient": "paprika"
        }, 
        {
            "amount": "1 teaspoon", 
            "ingredient": "black pepper"
        }, 
        {
            "amount": "1 teaspoon", 
            "ingredient": "crushed red pepper flakes"
        }, 
        {
            "amount": "4 cloves", 
            "ingredient": "garlic, minced"
        }, 
        {
            "amount": "1/4 cup", 
            "ingredient": "chopped green onions"
        }, 
        {
            "amount": "1 teaspoon", 
            "ingredient": "sesame oil"
        }, 
        {
            "amount": "1/2 cup", 
            "ingredient": "peanut oil"
        }, 
        {
            "amount": "8 (4 ounce)", 
            "ingredient": "skinless, boneless salmon fillets"
        }
    ], 
    "prep_steps": [
        "Stir balsamic vinegar, lemon juice, and soy sauce with salt, brown sugar, ground ginger, paprika, pepper, and red pepper flakes until the salt has dissolved. Stir in garlic, green onions, sesame oil, and peanut oil until well combined.", 
        "Pour marinade into a resealable plastic bag or glass bowl. Add salmon to marinade and gently toss to coat. Place into refrigerator and marinate 2 to 24 hours.", 
        "Prepare an outdoor grill for medium-high heat.", 
        "Drain excess marinade from salmon fillets. Grill until firm and opaque, about 4 minutes per side."
    ], 
    "prep_time": "2\u00bd hrs", 
    "recipe_name": "Slammin' Salmon"
}