{
    "ingredients": [
        {
            "amount": "4", 
            "ingredient": "tilapia fillets"
        }, 
        {
            "amount": "3 tablespoons", 
            "ingredient": "fresh lemon juice"
        }, 
        {
            "amount": "1 tablespoon", 
            "ingredient": "butter, melted"
        }, 
        {
            "amount": "1 clove", 
            "ingredient": "garlic, finely chopped"
        }, 
        {
            "amount": "1 teaspoon", 
            "ingredient": "dried parsley flakes"
        }
    ], 
    "prep_steps": [
        "Preheat oven to 375 degrees F (190 degrees C). Spray a baking dish with non-stick cooking spray.", 
        "Rinse tilapia fillets under cool water, and pat dry with paper towels.", 
        "Place fillets in baking dish. Pour lemon juice over fillets, then drizzle butter on top. Sprinkle with garlic, parsley, and pepper.", 
        "Bake in preheated oven until the fish is white and flakes when pulled apart with a fork, about 30 minutes."
    ], 
    "prep_time": "40 mins", 
    "recipe_name": "Lemon Garlic Tilapia"
}