{
    "ingredients": [
        {
            "amount": "1 cup", 
            "ingredient": "butter"
        }, 
        {
            "amount": "1/2 cup", 
            "ingredient": "confectioners' sugar"
        }, 
        {
            "amount": "1/4 teaspoon", 
            "ingredient": "salt"
        }, 
        {
            "amount": "1 teaspoon", 
            "ingredient": "vanilla extract"
        }, 
        {
            "amount": "2 1/4 cups", 
            "ingredient": "all-purpose flour"
        }, 
        {
            "amount": "1 cup", 
            "ingredient": "chopped pecans"
        }, 
        {
            "amount": "1/3 cup", 
            "ingredient": "confectioners' sugar for dusting, or as needed"
        }, 
        {
            "amount": "1/4 cup", 
            "ingredient": "finely crushed peppermint candy canes"
        }
    ], 
    "prep_steps": [
        "Preheat oven to 350 degrees F (175 degrees C).", 
        "Cream the butter with 1/2 cup of the confectioners' sugar and the vanilla. Mix in the flour, pecans, and salt. Roll about 1 tablespoon or so of dough into balls and place on an ungreased cookie sheet.", 
        "Bake in preheated oven until bottoms are golden, about 15 minutes. Do not allow these cookies to get too brown: it's better to undercook them than to overcook them. While cookies are still hot, roll them in confectioners' sugar. Once they have cooled, roll them in confectioners' sugar once more."
    ], 
    "prep_time": "45 mins", 
    "recipe_name": "Snowballs II"
}