{
    "ingredients": [
        {
            "amount": "1 (12 ounce) package", 
            "ingredient": "rotini pasta"
        }, 
        {
            "amount": "2 tablespoons", 
            "ingredient": "butter"
        }, 
        {
            "amount": "1 pound", 
            "ingredient": "skinless, boneless chicken breast halves - cut into 1/2 inch cubes"
        }, 
        {
            "amount": "3 cloves", 
            "ingredient": "garlic, minced"
        }, 
        {
            "amount": "1/2 teaspoon", 
            "ingredient": "ground black pepper"
        }, 
        {
            "amount": "2 teaspoons", 
            "ingredient": "dried basil"
        }, 
        {
            "amount": "1 cup", 
            "ingredient": "heavy cream"
        }, 
        {
            "amount": "1/4 cup", 
            "ingredient": "grated Parmesan cheese"
        }
    ], 
    "prep_steps": [
        "In a large pot with boiling salted water cook rotini pasta until al dente. Drain.", 
        "Meanwhile, in a large skillet melt the butter or margarine. Add the chopped chicken and garlic, saute until lightly brown and juices run clear. Stir in the ground black pepper, dried basil, heavy cream, and grated Parmesan cheese. Bring to a boil and simmer for 3 to 4 minutes.", 
        "Toss drained pasta with basil sauce and serve immediately."
    ], 
    "recipe_name": "Basil Chicken and Pasta"
}