{
    "ingredients": [
        {
            "amount": "3/4 cup", 
            "ingredient": "milk"
        }, 
        {
            "amount": "2", 
            "ingredient": "eggs"
        }, 
        {
            "amount": "3 tablespoons", 
            "ingredient": "margarine"
        }, 
        {
            "amount": "3 cups", 
            "ingredient": "bread flour"
        }, 
        {
            "amount": "1/4 cup", 
            "ingredient": "white sugar"
        }, 
        {
            "amount": "1 1/2 teaspoons", 
            "ingredient": "salt"
        }, 
        {
            "amount": "1 1/2 teaspoons", 
            "ingredient": "active dry yeast"
        }
    ], 
    "prep_steps": [
        "Add ingredients to the pan of the bread machine in the order suggested by the manufacturer.", 
        "Select Basic Bread and Light Crust settings. Start."
    ], 
    "prep_time": "3 hrs", 
    "recipe_name": "Bread Machine Challah I"
}