{
    "ingredients": [
        {
            "amount": "2 cups", 
            "ingredient": "all-purpose flour"
        }, 
        {
            "amount": "1 teaspoon", 
            "ingredient": "salt"
        }, 
        {
            "amount": "4 teaspoons", 
            "ingredient": "baking powder"
        }, 
        {
            "amount": "2 tablespoons", 
            "ingredient": "white sugar"
        }, 
        {
            "amount": "2", 
            "ingredient": "eggs"
        }, 
        {
            "amount": "1 1/2 cups", 
            "ingredient": "warm milk"
        }, 
        {
            "amount": "1/3 cup", 
            "ingredient": "butter, melted"
        }, 
        {
            "amount": "1 teaspoon", 
            "ingredient": "vanilla extract"
        }
    ], 
    "prep_steps": [
        "In a large bowl, mix together flour, salt, baking powder and sugar; set aside. Preheat waffle iron to desired temperature.", 
        "In a separate bowl, beat the eggs. Stir in the milk, butter and vanilla. Pour the milk mixture into the flour mixture; beat until blended.", 
        "Ladle the batter into a preheated waffle iron. Cook the waffles until golden and crisp. Serve immediately."
    ], 
    "prep_time": "25 mins", 
    "recipe_name": "Classic Waffles"
}