{
    "ingredients": [
        {
            "amount": "8", 
            "ingredient": "chicken drumettes"
        }, 
        {
            "amount": "2", 
            "ingredient": "eggs, beaten"
        }, 
        {
            "amount": "1/4 cup", 
            "ingredient": "all-purpose flour for coating"
        }, 
        {
            "amount": "3 tablespoons", 
            "ingredient": "soy sauce"
        }, 
        {
            "amount": "3 tablespoons", 
            "ingredient": "water"
        }, 
        {
            "amount": "1 cup", 
            "ingredient": "white sugar"
        }, 
        {
            "amount": "1/2 cup", 
            "ingredient": "vinegar"
        }
    ], 
    "prep_steps": [
        "Dip chicken in egg beat, then flour. Fry in a large skillet until crispy, about 15 minutes. Drain and place in a 9x13 inch baking dish.", 
        "Preheat oven to 350 degrees F (175 degrees C).", 
        "To Make Sauce: In a small bowl combine the soy sauce, water, sugar and vinegar. Mix together and pour over chicken.", 
        "Bake in the preheated oven for 30 minutes, or until cooked through and juices run clear."
    ], 
    "prep_time": "1\u00bc hrs", 
    "recipe_name": "Sweet and Sour Drumettes"
}