{
    "ingredients": [
        {
            "amount": "3/4 cup", 
            "ingredient": "water"
        }, 
        {
            "amount": "1 cup", 
            "ingredient": "cauliflower, chopped"
        }, 
        {
            "amount": "1 cup", 
            "ingredient": "cubed potatoes"
        }, 
        {
            "amount": "1/2 cup", 
            "ingredient": "finely chopped celery"
        }, 
        {
            "amount": "1/2 cup", 
            "ingredient": "diced carrots"
        }, 
        {
            "amount": "1/4 cup", 
            "ingredient": "chopped onion"
        }, 
        {
            "amount": "1/4 cup", 
            "ingredient": "butter"
        }, 
        {
            "amount": "1/4 cup", 
            "ingredient": "all-purpose flour"
        }, 
        {
            "amount": "3 cups", 
            "ingredient": "milk"
        }, 
        {
            "amount": "4 ounces", 
            "ingredient": "shredded Cheddar cheese"
        }
    ], 
    "prep_steps": [
        "In a large saucepan, combine water, cauliflower, potatoes, celery, carrots, and onion. Boil for 5 to 10 minutes, or until tender. Set aside.", 
        "Melt butter in separate saucepan over medium heat. Stir in flour, and cook for 2 minutes. Remove from heat, and gradually stir in milk. Return to heat, and cook until thickened. Stir in vegetables with cooking liquid, and season with salt and pepper. Stir in cheese until melted, and remove from heat."
    ], 
    "prep_time": "45 mins", 
    "recipe_name": "Cauliflower-Cheese Soup"
}