{
    "ingredients": [
        {
            "amount": "1 (16 ounce) package", 
            "ingredient": "elbow macaroni"
        }, 
        {
            "amount": "1/2 cup", 
            "ingredient": "evaporated milk"
        }, 
        {
            "amount": "2", 
            "ingredient": "eggs"
        }, 
        {
            "amount": "1 (8 ounce) container", 
            "ingredient": "sour cream"
        }, 
        {
            "amount": "1 teaspoon", 
            "ingredient": "seasoning salt"
        }, 
        {
            "amount": "1/2 teaspoon", 
            "ingredient": "black pepper"
        }, 
        {
            "amount": "1 1/2 cups", 
            "ingredient": "shredded Cheddar cheese"
        }, 
        {
            "amount": "1/2 cup", 
            "ingredient": "grated Parmesan cheese"
        }, 
        {
            "amount": "1 tablespoon", 
            "ingredient": "butter"
        }
    ], 
    "prep_steps": [
        "Preheat oven to 350 degrees F (175 degrees C).", 
        "Bring a large pot of lightly salted water to a boil. Add pasta and cook for 8 to 10 minutes or until al dente; drain and rinse with cold water.", 
        "In a bowl mix milk, eggs, sour cream, seasoning salt, and pepper. Layer macaroni, cheddar cheese, and milk mixture until pan is full. Sprinkle Parmesan cheese and pour melted butter on top.", 
        "Bake in a preheated oven for 20 to 30 minutes or until milk mixture is done."
    ], 
    "prep_time": "45 mins", 
    "recipe_name": "Baked Macaroni and Cheese III"
}