{
    "ingredients": [
        {
            "amount": "1/2 cup", 
            "ingredient": "butter"
        }, 
        {
            "amount": "1 cup", 
            "ingredient": "creamy peanut butter"
        }, 
        {
            "amount": "2 cups", 
            "ingredient": "milk chocolate chips"
        }, 
        {
            "amount": "1 (17.5 ounce) package", 
            "ingredient": "crispy corn and rice cereal"
        }, 
        {
            "amount": "1 pound", 
            "ingredient": "confectioners' sugar"
        }
    ], 
    "prep_steps": [
        "Melt the peanut butter with the butter or margarine and the milk chocolate. Pour over the cereal and toss until well coated.", 
        "Place the coated cereal in a large paper sack then add the confectioners' sugar, fold down the top of the bag and shake to coat."
    ], 
    "prep_time": "30 mins", 
    "recipe_name": "Puppy Chow I"
}