{
    "ingredients": [
        {
            "amount": "1 pound", 
            "ingredient": "vermicelli pasta"
        }, 
        {
            "amount": "2 tablespoons", 
            "ingredient": "olive oil"
        }, 
        {
            "amount": "1 teaspoon", 
            "ingredient": "minced garlic"
        }, 
        {
            "amount": "13", 
            "ingredient": "roma (plum) tomatoes, chopped"
        }, 
        {
            "amount": "1 tablespoon", 
            "ingredient": "salt"
        }, 
        {
            "amount": "1 tablespoon", 
            "ingredient": "chopped fresh parsley"
        }, 
        {
            "amount": "1 tablespoon", 
            "ingredient": "Cajun seasoning"
        }, 
        {
            "amount": "1/2 cup", 
            "ingredient": "shredded mozzarella cheese"
        }, 
        {
            "amount": "1/2 cup", 
            "ingredient": "grated Parmesan cheese"
        }
    ], 
    "prep_steps": [
        "Bring a large pot of lightly salted water to a boil. Add pasta and cook for 8 to 10 minutes or until al dente; drain.", 
        "While the pasta water is boiling, in a large skillet over medium heat, briefly saute garlic in oil. Stir in tomatoes and their juice and sprinkle with salt. When tomatoes are bubbly, mash slightly with a fork. Stir in parsley, reduce heat and simmer 5 minutes more.", 
        "Toss hot pasta with tomato sauce, Cajun seasoning, mozzarella and Parmesan."
    ], 
    "prep_time": "25 mins", 
    "recipe_name": "Cajun Pasta Fresca"
}