{
    "ingredients": [
        {
            "amount": "1/4 cup", 
            "ingredient": "soy sauce"
        }, 
        {
            "amount": "3 tablespoons", 
            "ingredient": "dry white wine"
        }, 
        {
            "amount": "2 tablespoons", 
            "ingredient": "lemon juice"
        }, 
        {
            "amount": "2 tablespoons", 
            "ingredient": "vegetable oil"
        }, 
        {
            "amount": "3/4 teaspoon", 
            "ingredient": "dried Italian-style seasoning"
        }, 
        {
            "amount": "1 teaspoon", 
            "ingredient": "grated fresh ginger root"
        }, 
        {
            "amount": "1 clove", 
            "ingredient": "garlic, crushed"
        }, 
        {
            "amount": "1/4 teaspoon", 
            "ingredient": "onion powder"
        }, 
        {
            "amount": "1 pinch", 
            "ingredient": "ground black pepper"
        }, 
        {
            "amount": "8", 
            "ingredient": "skinless, boneless chicken breast halves - cut into strips"
        }
    ], 
    "prep_steps": [
        "In a large, resealable plastic bag, combine the soy sauce, wine, lemon juice, oil, Italian-style seasoning, ginger, garlic, onion powder, and ground black pepper. Place chicken in the bag. Seal, and let marinate in the refrigerator for at least 3 hours, or overnight.", 
        "Preheat an outdoor grill for medium-high heat.", 
        "Thread the chicken onto skewers, and set aside. Pour marinade into a small saucepan, and bring to a boil over high heat.", 
        "Lightly oil the grill grate. Cook chicken on the prepared grill for approximately 8 minutes per side, basting with the sauce several times. Chicken is done when juices run clear."
    ], 
    "prep_time": "3 hrs", 
    "recipe_name": "RamJam Chicken"
}