{
    "ingredients": [
        {
            "amount": "4 cups", 
            "ingredient": "uncooked elbow macaroni"
        }, 
        {
            "amount": "1 cup", 
            "ingredient": "mayonnaise"
        }, 
        {
            "amount": "1/4 cup", 
            "ingredient": "distilled white vinegar"
        }, 
        {
            "amount": "2/3 cup", 
            "ingredient": "white sugar"
        }, 
        {
            "amount": "2 1/2 tablespoons", 
            "ingredient": "prepared yellow mustard"
        }, 
        {
            "amount": "1 1/2 teaspoons", 
            "ingredient": "salt"
        }, 
        {
            "amount": "1/2 teaspoon", 
            "ingredient": "ground black pepper"
        }, 
        {
            "amount": "1 large", 
            "ingredient": "onion, chopped"
        }, 
        {
            "amount": "2 stalks", 
            "ingredient": "celery, chopped"
        }, 
        {
            "amount": "1", 
            "ingredient": "green bell pepper, seeded and chopped"
        }, 
        {
            "amount": "1/4 cup", 
            "ingredient": "grated carrot"
        }, 
        {
            "amount": "2 tablespoons", 
            "ingredient": "chopped pimento peppers"
        }
    ], 
    "prep_steps": [
        "Bring a large pot of lightly salted water to a boil. Add the macaroni, and cook until tender, about 8 minutes. Rinse under cold water and drain.", 
        "In a large bowl, mix together the mayonnaise, vinegar, sugar, mustard, salt and pepper. Stir in the onion, celery, green pepper, carrot, pimentos and macaroni. Refrigerate for at least 4 hours before serving, but preferably overnight."
    ], 
    "prep_time": "4 hrs", 
    "recipe_name": "Classic Macaroni Salad"
}