{
    "ingredients": [
        {
            "amount": "1 2/3 cups", 
            "ingredient": "all-purpose flour"
        }, 
        {
            "amount": "3/4 teaspoon", 
            "ingredient": "baking powder"
        }, 
        {
            "amount": "1/2 teaspoon", 
            "ingredient": "baking soda"
        }, 
        {
            "amount": "1/2 teaspoon", 
            "ingredient": "salt"
        }, 
        {
            "amount": "3/4 cup", 
            "ingredient": "butter, softened"
        }, 
        {
            "amount": "3/4 cup", 
            "ingredient": "packed brown sugar"
        }, 
        {
            "amount": "1/3 cup", 
            "ingredient": "white sugar"
        }, 
        {
            "amount": "1", 
            "ingredient": "egg"
        }, 
        {
            "amount": "1 teaspoon", 
            "ingredient": "vanilla extract"
        }, 
        {
            "amount": "2 cups", 
            "ingredient": "milk chocolate chips"
        }
    ], 
    "prep_steps": [
        "Preheat the oven to 375 degrees F (190 degrees C).", 
        "Sift together the flour, baking powder, baking soda, and salt; set aside.", 
        "In a medium bowl, cream together the butter, brown sugar, and white sugar until smooth. Beat in the egg and vanilla. Gradually stir in the sifted ingredients, then stir in the chocolate chips. Drop by rounded tablespoonfuls onto ungreased cookie sheets.", 
        "Bake for 8 to 10 minutes in preheated oven. Allow cookies to cool on baking sheet for 5 minutes before transferring to a wire rack to cool completely."
    ], 
    "prep_time": "35 mins", 
    "recipe_name": "Ashley's Chocolate Chip Cookies"
}