{
    "ingredients": [
        {
            "amount": "2", 
            "ingredient": "skinless, boneless chicken breasts, cut into cubes"
        }, 
        {
            "amount": "1/2 teaspoon", 
            "ingredient": "olive oil"
        }, 
        {
            "amount": "1/2 teaspoon", 
            "ingredient": "minced garlic"
        }, 
        {
            "amount": "1/4 teaspoon", 
            "ingredient": "ground cumin"
        }, 
        {
            "amount": "2 (14.5 ounce) cans", 
            "ingredient": "chicken broth"
        }, 
        {
            "amount": "1 cup", 
            "ingredient": "frozen corn kernels"
        }, 
        {
            "amount": "1 cup", 
            "ingredient": "chopped onion"
        }, 
        {
            "amount": "1/2 teaspoon", 
            "ingredient": "chili powder"
        }, 
        {
            "amount": "1 tablespoon", 
            "ingredient": "lemon juice"
        }, 
        {
            "amount": "1 cup", 
            "ingredient": "chunky salsa"
        }, 
        {
            "amount": "8 ounces", 
            "ingredient": "corn tortilla chips"
        }, 
        {
            "amount": "1/2 cup", 
            "ingredient": "shredded Monterey Jack cheese"
        }
    ], 
    "prep_steps": [
        "In a large pot over medium heat, cook and stir chicken in the oil for 5 minutes. Add the garlic and cumin and mix well. Then add the broth, corn, onion, chili powder, lemon juice, and salsa. Reduce heat to low and simmer for about 20 to 30 minutes.", 
        "Break up some tortilla chips into individual bowls and pour soup over chips. Top with the Monterey Jack cheese and a little sour cream."
    ], 
    "recipe_name": "Chicken Tortilla Soup V"
}