{
    "ingredients": [
        {
            "amount": "2 cups", 
            "ingredient": "packed brown sugar"
        }, 
        {
            "amount": "1 cup", 
            "ingredient": "vegetable oil"
        }, 
        {
            "amount": "1 1/2 cups", 
            "ingredient": "solid pack pumpkin puree"
        }, 
        {
            "amount": "2", 
            "ingredient": "eggs"
        }, 
        {
            "amount": "3 cups", 
            "ingredient": "all-purpose flour"
        }, 
        {
            "amount": "1 teaspoon", 
            "ingredient": "salt"
        }, 
        {
            "amount": "1 teaspoon", 
            "ingredient": "baking powder"
        }, 
        {
            "amount": "1 teaspoon", 
            "ingredient": "baking soda"
        }, 
        {
            "amount": "1 teaspoon", 
            "ingredient": "vanilla extract"
        }, 
        {
            "amount": "1 1/2 tablespoons", 
            "ingredient": "ground cinnamon"
        }, 
        {
            "amount": "1/2 tablespoon", 
            "ingredient": "ground ginger"
        }, 
        {
            "amount": "1/2 tablespoon", 
            "ingredient": "ground cloves"
        }, 
        {
            "amount": "1", 
            "ingredient": "egg white"
        }, 
        {
            "amount": "2 tablespoons", 
            "ingredient": "milk"
        }, 
        {
            "amount": "1 teaspoon", 
            "ingredient": "vanilla extract"
        }, 
        {
            "amount": "2 cups", 
            "ingredient": "confectioners' sugar"
        }, 
        {
            "amount": "3/4 cup", 
            "ingredient": "shortening"
        }
    ], 
    "prep_steps": [
        "Preheat oven to 350 degrees F (175 degrees C). Lightly grease baking sheets.", 
        "Combine the oil and brown sugar. Mix in the pumpkin and eggs, beating well. Add the flour, salt, baking powder, baking soda, 1 teaspoon vanilla, cinnamon, ginger and cloves. Mix well.", 
        "Drop dough by heaping teaspoons onto the prepared baking sheets. Bake at 350 degrees F (175 degrees C) for 10 to 12 minutes. Let cookies cool then make sandwiches from two cookies filled with Whoopie Pie Filling.", 
        "To Make Whoopie Pie Filling: Beat egg white and mix with the milk, 1 teaspoon vanilla and 1 cup of the confectioners' sugar. Mix well then beat in the shortening and the remaining cup of confectioners' sugar. Beat until light and fluffy."
    ], 
    "recipe_name": "Pumpkin Whoopie Pies"
}