{
    "ingredients": [
        {
            "amount": "1 tablespoon", 
            "ingredient": "vegetable oil"
        }, 
        {
            "amount": "2", 
            "ingredient": "white onions, halved and sliced into 1/2 rings"
        }, 
        {
            "amount": "3 cloves", 
            "ingredient": "garlic, minced"
        }, 
        {
            "amount": "1/2 cup", 
            "ingredient": "lentils"
        }, 
        {
            "amount": "2 cups", 
            "ingredient": "water"
        }, 
        {
            "amount": "1 (10 ounce) package", 
            "ingredient": "frozen spinach"
        }, 
        {
            "amount": "1 teaspoon", 
            "ingredient": "salt"
        }, 
        {
            "amount": "1 teaspoon", 
            "ingredient": "ground cumin"
        }, 
        {
            "amount": "2 cloves", 
            "ingredient": "garlic, crushed"
        }
    ], 
    "prep_steps": [
        "Heat oil in a heavy pan over medium heat. Saute onion for 10 minutes or so, until it begins to turn golden. Add minced garlic and saute for another minute or so.", 
        "Add lentils and water to the saucepan. Bring mixture to a boil. Cover, lower heat, and simmer about 35 minutes, until lentils are soft ( this may take less time, depending on your water and the lentils).", 
        "Meanwhile cook the spinach in microwave according to package directions. Add spinach, salt and cumin to the saucepan. Cover and simmer until all is heated, about ten minutes. Grind in plenty of pepper and press in extra garlic to taste."
    ], 
    "prep_time": "1\u00bc hrs", 
    "recipe_name": "Lentils And Spinach"
}