{
    "ingredients": [
        {
            "amount": "1/2 cup", 
            "ingredient": "finely crushed herb-seasoned stuffing mix"
        }, 
        {
            "amount": "3 tablespoons", 
            "ingredient": "grated Parmesan cheese"
        }, 
        {
            "amount": "1 tablespoon", 
            "ingredient": "dried parsley"
        }, 
        {
            "amount": "1 teaspoon", 
            "ingredient": "curry powder"
        }, 
        {
            "amount": "1 tablespoon", 
            "ingredient": "Italian-style seasoning"
        }, 
        {
            "amount": "3 tablespoons", 
            "ingredient": "butter"
        }, 
        {
            "amount": "6", 
            "ingredient": "skinless, boneless chicken breast halves"
        }
    ], 
    "prep_steps": [
        "Preheat oven to 350 degrees F (175 degrees C).", 
        "In a small shallow dish combine the stuffing mix, cheese, parsley, curry powder and seasoning. Mix together.", 
        "In an 8x11 inch baking dish, melt the butter/margarine in the microwave. Dip the chicken breasts in the stuffing mixture, coating both sides of each breast.", 
        "Place chicken in baking dish and sprinkle any leftover stuffing mixture over the chicken. Bake in the preheated oven for 20 minutes, then turn chicken pieces over and bake for another 20 to 25 minutes or until chicken is cooked through. Enjoy!"
    ], 
    "recipe_name": "Breaded Parmesan Chicken"
}