{
    "ingredients": [
        {
            "amount": "1/4 cup", 
            "ingredient": "butter"
        }, 
        {
            "amount": "1 cup", 
            "ingredient": "all-purpose flour"
        }, 
        {
            "amount": "1 cup", 
            "ingredient": "milk"
        }, 
        {
            "amount": "6", 
            "ingredient": "eggs, lightly beaten"
        }, 
        {
            "amount": "1/8 teaspoon", 
            "ingredient": "salt"
        }
    ], 
    "prep_steps": [
        "Preheat oven to 350 degrees F (175 degrees C). Melt butter in a medium baking dish.", 
        "In a medium bowl, mix flour, milk, eggs and salt. Pour the mixture into the prepared baking dish.", 
        "Bake on center rack in the preheated oven for 30 to 40 minutes, until golden brown."
    ], 
    "prep_time": "55 mins", 
    "recipe_name": "German Pancakes II"
}