{
    "ingredients": [
        {
            "amount": "1 (11 ounce) can", 
            "ingredient": "mandarin oranges, drained"
        }, 
        {
            "amount": "1 (8 ounce) can", 
            "ingredient": "crushed pineapple, drained"
        }, 
        {
            "amount": "3 1/2 cups", 
            "ingredient": "frozen whipped topping, thawed"
        }, 
        {
            "amount": "2 cups", 
            "ingredient": "shredded coconut"
        }, 
        {
            "amount": "2 cups", 
            "ingredient": "miniature marshmallows"
        }, 
        {
            "amount": "1/2 cup", 
            "ingredient": "milk"
        }, 
        {
            "amount": "1 cup", 
            "ingredient": "maraschino cherries"
        }
    ], 
    "prep_steps": [
        "In a large bowl, combine the oranges, pineapple, whipped topping, coconut, marshmallows and milk.", 
        "Mix together well and chill 1 hour before serving. Garnish with cherries."
    ], 
    "prep_time": "1\u00bc hrs", 
    "recipe_name": "Coconut Ambrosia Salad"
}