{
    "ingredients": [
        {
            "amount": "1 1/2 pounds", 
            "ingredient": "pork tenderloin, cut into 2 inch strips"
        }, 
        {
            "amount": "1 small", 
            "ingredient": "onion, coarsely chopped"
        }, 
        {
            "amount": "1 small", 
            "ingredient": "red bell pepper, coarsely chopped"
        }, 
        {
            "amount": "3 (15 ounce) cans", 
            "ingredient": "black beans"
        }, 
        {
            "amount": "1 (16 ounce) jar", 
            "ingredient": "salsa"
        }, 
        {
            "amount": "1/2 cup", 
            "ingredient": "chicken broth"
        }, 
        {
            "amount": "1 teaspoon", 
            "ingredient": "dried oregano"
        }, 
        {
            "amount": "1 teaspoon", 
            "ingredient": "ground cumin"
        }, 
        {
            "amount": "2 teaspoons", 
            "ingredient": "chili powder"
        }
    ], 
    "prep_steps": [
        "Combine pork tenderloin, onion, red pepper, black beans, salsa, chicken broth, oregano, cumin, and chili powder in a slow cooker. Set to Low and cook for 8 to 10 hours.", 
        "Break up pieces of cooked pork to thicken the chili before serving."
    ], 
    "prep_time": "10 hrs", 
    "recipe_name": "Jerre's Black Bean and Pork Tenderloin Slow Cooker Chili"
}