{
    "ingredients": [
        {
            "amount": "1/2 cup", 
            "ingredient": "cooked rice"
        }, 
        {
            "amount": "2 tablespoons", 
            "ingredient": "olive oil, divided"
        }, 
        {
            "amount": "1/8 cup", 
            "ingredient": "minced carrots"
        }, 
        {
            "amount": "1/8 cup", 
            "ingredient": "celery"
        }, 
        {
            "amount": "6", 
            "ingredient": "bell peppers (any color) stems and seeds removed, cut in half lengthwise"
        }, 
        {
            "amount": "1/2 pound", 
            "ingredient": "ground beef"
        }, 
        {
            "amount": "1/4 pound", 
            "ingredient": "pancetta or lightly smoked bacon, diced"
        }, 
        {
            "amount": "1 1/2 cups", 
            "ingredient": "prepared marinara sauce"
        }, 
        {
            "amount": "1/4 cup", 
            "ingredient": "red wine"
        }, 
        {
            "amount": "1/2 teaspoon", 
            "ingredient": "red pepper flakes"
        }, 
        {
            "amount": "1/3 cup", 
            "ingredient": "heavy cream"
        }, 
        {
            "amount": "1/2 cup", 
            "ingredient": "grated Parmesan cheese, divided"
        }
    ], 
    "prep_steps": [
        "Preheat oven to 375 degrees F (190 degrees C).", 
        "Heat 1 tablespoon olive oil in a skillet over medium heat. Stir in the carrots and celery; cook and stir until the vegetables are tender, about 5 minutes.", 
        "Stir in ground beef and pancetta, and cook until browned and crumbled; drain off any excess liquid, and return to heat. Add marinara sauce, wine, and red pepper flakes, and simmer for 10 minutes. Stir in cream, half of the Parmesan cheese, and rice. Simmer 5 minutes more, or until most liquid has absorbed.", 
        "Place peppers in a shallow baking dish, and fill with beef mixture. Drizzle with remaining olive oil and top with remaining Parmesan cheese.", 
        "Bake, uncovered, for 30 minutes in the preheated oven. Serve hot."
    ], 
    "prep_time": "2 hrs", 
    "recipe_name": "Bolognese Stuffed Bell Peppers"
}