{
    "ingredients": [
        {
            "amount": "3", 
            "ingredient": "eggs, beaten"
        }, 
        {
            "amount": "1/2 cup", 
            "ingredient": "water"
        }, 
        {
            "amount": "2 1/2 cups", 
            "ingredient": "all-purpose flour"
        }, 
        {
            "amount": "2 teaspoons", 
            "ingredient": "salt"
        }, 
        {
            "amount": "1/4 cup", 
            "ingredient": "butter"
        }, 
        {
            "amount": "1 1/2 pounds", 
            "ingredient": "bone-in chicken pieces, with skin"
        }, 
        {
            "amount": "1 medium", 
            "ingredient": "onion, chopped"
        }, 
        {
            "amount": "1 1/2 cups", 
            "ingredient": "water"
        }, 
        {
            "amount": "1 tablespoon", 
            "ingredient": "paprika"
        }, 
        {
            "amount": "1/2 teaspoon", 
            "ingredient": "salt"
        }, 
        {
            "amount": "1 teaspoon", 
            "ingredient": "ground black pepper"
        }, 
        {
            "amount": "2 tablespoons", 
            "ingredient": "all-purpose flour"
        }, 
        {
            "amount": "1 cup", 
            "ingredient": "sour cream"
        }
    ], 
    "prep_steps": [
        "Fill a large pot with water and bring to a boil over high heat. In a large bowl, mix together the eggs, 2 teaspoons of salt, and 1/2 cup of water. Gradually stir in 2 1/2 cups of flour to make a stiff batter. Using two spoons, scoop out some batter with one spoon and use the second to scrap off the spoonful of batter into the boiling water. Repeat until several dumplings are cooking. Cook dumplings for 10 minutes or until they float to the top; then lift from the water and drain in a colander or sieve. Rinse with warm water.", 
        "In a large skillet over medium-high heat, melt butter and add chicken; cook until lightly browned, turning once. Add onion to skillet and cook 5 to 8 minutes more. Pour in 1 1/2 cups of water, and season with paprika, salt, and pepper; cook 10 minutes more, or until chicken is cooked through and juices run clear. Remove chicken from skillet and keep warm.", 
        "Stir 2 tablespoons of flour into sour cream; then slowly stir into the onion mixture remaining in the skillet. Bring the mixture to a boil, stirring constantly, and cook until thickened.", 
        "To serve, add dumplings to the sour cream/onion mixture, then spoon onto dinner plates adding a piece of chicken."
    ], 
    "prep_time": "1 hr", 
    "recipe_name": "Chicken Paprikash"
}