{
    "ingredients": [
        {
            "amount": "1 (10.75 ounce) can", 
            "ingredient": "condensed tomato soup"
        }, 
        {
            "amount": "1", 
            "ingredient": "onion, chopped"
        }, 
        {
            "amount": "3 cloves", 
            "ingredient": "garlic, minced"
        }, 
        {
            "amount": "1 tablespoon", 
            "ingredient": "brown sugar"
        }, 
        {
            "amount": "1 tablespoon", 
            "ingredient": "Worcestershire sauce"
        }, 
        {
            "amount": "2 tablespoons", 
            "ingredient": "soy sauce"
        }, 
        {
            "amount": "2 pounds", 
            "ingredient": "pork spareribs"
        }, 
        {
            "amount": "1 teaspoon", 
            "ingredient": "cornstarch"
        }, 
        {
            "amount": "1/4 cup", 
            "ingredient": "cold water"
        }
    ], 
    "prep_steps": [
        "Place ribs in a large stock pot, and cover with water. Bring to a boil, and cook for 15 minutes.", 
        "In a mixing bowl, mix together soup, onion, garlic, brown sugar, Worcestershire sauce, and soy sauce. Remove ribs from water, and transfer to a slow cooker. Pour sauce over ribs.", 
        "Cover, and cook on Low for 6 to 8 hours, or until ribs are tender.", 
        "If sauce is too thin when cooking time is done, drain sauce from ribs, and pour into a sauce pan. Combine 1 teaspoon cornstarch with a small amount of cold water, stir into sauce, and bring sauce to boil. Cook until sauce has reached desired thickness."
    ], 
    "prep_time": "9 hrs", 
    "recipe_name": "Slow Cooker Spare Ribs"
}