{
    "ingredients": [
        {
            "amount": "6", 
            "ingredient": "chicken thighs"
        }, 
        {
            "amount": "6", 
            "ingredient": "chicken drumsticks"
        }, 
        {
            "amount": "12 slices", 
            "ingredient": "center-cut bacon"
        }, 
        {
            "amount": "1", 
            "ingredient": "onion, coarsely chopped"
        }, 
        {
            "amount": "1 1/2 pounds", 
            "ingredient": "baby Dutch yellow potatoes"
        }, 
        {
            "amount": "2 tablespoons", 
            "ingredient": "dried chives"
        }, 
        {
            "amount": "2 tablespoons", 
            "ingredient": "dried basil"
        }, 
        {
            "amount": "1 tablespoon", 
            "ingredient": "garlic powder"
        }, 
        {
            "amount": "1 tablespoon", 
            "ingredient": "adobo seasoning"
        }, 
        {
            "amount": "1 tablespoon", 
            "ingredient": "ground black pepper"
        }, 
        {
            "amount": "1 teaspoon", 
            "ingredient": "salt, or to taste"
        }
    ], 
    "prep_steps": [
        "Preheat oven to 400 degrees F (200 degrees C).", 
        "Wrap each chicken piece in a slice of bacon, trying to cover as much of the chicken as possible. Place the wrapped chicken pieces in a 9x13 inch baking dish, season with salt and pepper, and sprinkle the onion over the chicken. Push potatoes down into the spaces between the chicken pieces and around the edge of the dish.", 
        "Combine the chives, basil, garlic powder, adobo seasoning, and black pepper in a small bowl, and sprinkle the seasoning to taste over the chicken and potatoes.", 
        "Bake in the preheated oven for 1 hour, until the bacon is crisp and brown and the potatoes are tender. Sprinkle with salt, if desired, and serve hot."
    ], 
    "prep_time": "1\u00bd hrs", 
    "recipe_name": "Bacon-Roasted Chicken with Potatoes"
}