{
    "ingredients": [
        {
            "amount": "1 cup", 
            "ingredient": "crushed cornflakes cereal"
        }, 
        {
            "amount": "3/4 cup", 
            "ingredient": "grated Parmesan cheese"
        }, 
        {
            "amount": "1/4 cup", 
            "ingredient": "shredded Cheddar cheese"
        }, 
        {
            "amount": "1/2 cup", 
            "ingredient": "butter, melted"
        }, 
        {
            "amount": "8", 
            "ingredient": "skinless, boneless chicken breast halves"
        }
    ], 
    "prep_steps": [
        "Preheat oven to 350 degrees F (175 degrees C).", 
        "In a medium bowl, mix the cornflake crumbs, Parmesan cheese and Cheddar cheese.", 
        "Dip the chicken breasts in the melted butter, and roll them in the cornflake crumb mixture. Place chicken in a lightly greased 9x13 inch baking dish.", 
        "Bake in the preheated oven for 30 to 40 minutes, until chicken is no longer pink and juices run clear."
    ], 
    "prep_time": "1\u00bc hrs", 
    "recipe_name": "Cheddar Chicken"
}