{
    "ingredients": [
        {
            "amount": "1", 
            "ingredient": "unbaked 9 inch pie crust"
        }, 
        {
            "amount": "3/4 cup", 
            "ingredient": "sugar"
        }, 
        {
            "amount": "2 tablespoons", 
            "ingredient": "all-purpose flour"
        }, 
        {
            "amount": "1/8 teaspoon", 
            "ingredient": "salt"
        }, 
        {
            "amount": "1 cup", 
            "ingredient": "sour cream"
        }, 
        {
            "amount": "1/2 teaspoon", 
            "ingredient": "vanilla extract"
        }, 
        {
            "amount": "1", 
            "ingredient": "egg"
        }, 
        {
            "amount": "2 cups", 
            "ingredient": "diced apples"
        }, 
        {
            "amount": "1/3 cup", 
            "ingredient": "sugar"
        }, 
        {
            "amount": "1/3 cup", 
            "ingredient": "all-purpose flour"
        }, 
        {
            "amount": "1 teaspoon", 
            "ingredient": "ground cinnamon"
        }, 
        {
            "amount": "1/4 cup", 
            "ingredient": "chilled butter, diced"
        }
    ], 
    "prep_steps": [
        "Preheat the oven to 425 degrees F (220 degrees C). Press the pie crust into and up the sides of a 9 inch pie plate.", 
        "In a medium bowl, stir together 3/4 cup sugar, 2 tablespoons of flour, and salt. Mix in the sour cream, egg and vanilla until smooth. Add apples, and stir to coat. Scrape the mixture into the pie shell.", 
        "Bake for 15 minutes in the preheated oven, then reduce heat to 350 degrees F (175 degrees C), and continue baking for 30 minutes more.", 
        "While the pie is baking, prepare the topping in a medium bowl. Stir together 1/3 cup of flour, 1/3 cup sugar, and cinnamon. Cut in the butter until the mixture resembles fine crumbs.", 
        "After the 30 minute bake time has passed, cover the top of the pie with the crumb topping, and continue to bake for 15 minutes, or until topping is lightly browned and apples are tender. Allow the pie to cool, then refrigerate until chilled before serving."
    ], 
    "prep_time": "1\u00bd hrs", 
    "recipe_name": "Sour Cream Apple Pie Deluxe"
}