{
    "ingredients": [
        {
            "amount": "1/2 cup", 
            "ingredient": "coconut milk"
        }, 
        {
            "amount": "1 clove", 
            "ingredient": "garlic, minced"
        }, 
        {
            "amount": "1 teaspoon", 
            "ingredient": "curry powder"
        }, 
        {
            "amount": "1 1/2 teaspoons", 
            "ingredient": "brown sugar"
        }, 
        {
            "amount": "1/2 teaspoon", 
            "ingredient": "salt"
        }, 
        {
            "amount": "1/2 teaspoon", 
            "ingredient": "ground black pepper"
        }, 
        {
            "amount": "3/4 pound", 
            "ingredient": "skinless, boneless chicken breast halves - cut into 1 inch strips"
        }, 
        {
            "amount": "1 cup", 
            "ingredient": "coconut milk"
        }, 
        {
            "amount": "1 tablespoon", 
            "ingredient": "curry powder"
        }, 
        {
            "amount": "1/2 cup", 
            "ingredient": "creamy peanut butter"
        }, 
        {
            "amount": "3/4 cup", 
            "ingredient": "chicken stock"
        }, 
        {
            "amount": "1/4 cup", 
            "ingredient": "brown sugar"
        }, 
        {
            "amount": "2 tablespoons", 
            "ingredient": "lime or lemon juice"
        }, 
        {
            "amount": "1 teaspoon", 
            "ingredient": "soy sauce"
        }, 
        {
            "amount": "10", 
            "ingredient": "(6 inch) wooden skewers, or as needed, soaked in water for 30 minutes"
        }
    ], 
    "prep_steps": [
        "Stir together 1/2 cup coconut milk, garlic, 1 teaspoon curry powder, brown sugar, salt, and pepper until the sugar has dissolved. Toss marinade with the chicken, cover, and marinate for at least 2 hours.", 
        "Bring 1 cup coconut milk, 1 tablespoon curry powder, peanut butter, chicken stock, and 1/4 cup brown sugar to a simmer in a saucepan over medium-high heat. Simmer for 5 minutes, stirring constantly, until smooth and thickened. Remove from heat and stir in lime juice and soy sauce; season to taste with salt.", 
        "Preheat a grill for medium-high heat.", 
        "Thread marinated chicken onto skewers, then grill 4 to 5 minutes per side, or until cooked through. Serve with warm peanut sauce."
    ], 
    "prep_time": "2\u00be hrs", 
    "recipe_name": "Easy Chicken Satay"
}