{
    "ingredients": [
        {
            "amount": "3/4 cup", 
            "ingredient": "all-purpose flour"
        }, 
        {
            "amount": "1/2 teaspoon", 
            "ingredient": "baking powder"
        }, 
        {
            "amount": "1/2 teaspoon", 
            "ingredient": "salt"
        }, 
        {
            "amount": "3/4 cup", 
            "ingredient": "butter, melted"
        }, 
        {
            "amount": "1 1/2 cups", 
            "ingredient": "white sugar"
        }, 
        {
            "amount": "2 teaspoons", 
            "ingredient": "vanilla extract"
        }, 
        {
            "amount": "3", 
            "ingredient": "eggs"
        }, 
        {
            "amount": "1/4 cup", 
            "ingredient": "cocoa powder"
        }, 
        {
            "amount": "1/2 cup", 
            "ingredient": "semi-sweet chocolate chips"
        }, 
        {
            "amount": "1/2 cup", 
            "ingredient": "pumpkin puree"
        }, 
        {
            "amount": "1/2 cup", 
            "ingredient": "chopped walnuts"
        }, 
        {
            "amount": "3/4 teaspoon", 
            "ingredient": "ground cinnamon"
        }, 
        {
            "amount": "1/2 teaspoon", 
            "ingredient": "ground cloves"
        }, 
        {
            "amount": "1/2 teaspoon", 
            "ingredient": "ground nutmeg"
        }
    ], 
    "prep_steps": [
        "Preheat oven to 350 degrees F (175 degrees C). Grease an 8x8 inch baking pan. Stir the flour, baking powder, and salt together in a bowl.", 
        "In another bowl, stir together the melted butter, sugar, and vanilla extract; beat in the eggs one at a time with a spoon. Gradually add the flour mixture, and stir the batter until it's evenly moistened. Divide the batter in half in two separate bowls.", 
        "Into one bowl of batter, blend the cocoa powder and chocolate chips. In the second bowl of batter, stir in the pumpkin puree, walnuts, cinnamon, cloves, and nutmeg.", 
        "Spread 1/2 of the chocolate batter into the bottom of the prepared baking pan, and follow with 1/2 of the pumpkin batter. Repeat the layers, ending with a pumpkin layer, and drag a kitchen knife or small spatula gently through the layers in a swirling motion, to create a marbled appearance.", 
        "Bake in the preheated oven until the brownies begin to pull away from the sides of the pan, and a toothpick inserted into the center comes out clean, 40 to 45 minutes. Cool in the pan, cut into squares, and serve."
    ], 
    "prep_time": "1 hr", 
    "recipe_name": "Pumpkin Brownies"
}