{
    "ingredients": [
        {
            "amount": "18", 
            "ingredient": "whole chicken wings, split"
        }, 
        {
            "amount": "1/4 cup", 
            "ingredient": "honey"
        }, 
        {
            "amount": "2 tablespoons", 
            "ingredient": "fresh lime juice"
        }, 
        {
            "amount": "1 tablespoon", 
            "ingredient": "grated lime zest"
        }, 
        {
            "amount": "1 clove", 
            "ingredient": "garlic, minced"
        }, 
        {
            "amount": "1/4 teaspoon", 
            "ingredient": "salt"
        }, 
        {
            "amount": "1/4 teaspoon", 
            "ingredient": "ground black pepper"
        }, 
        {
            "amount": "1/2 cup", 
            "ingredient": "all-purpose flour"
        }, 
        {
            "amount": "2 quarts", 
            "ingredient": "vegetable oil for frying"
        }
    ], 
    "prep_steps": [
        "In a large bowl, mix together the honey, lime juice, lime peel, garlic, salt and ground black pepper.", 
        "Place the flour in a plastic bag and shake the chicken wings in the flour to coat.", 
        "In a large skillet, fry the chicken wings in hot, 1 inch deep oil until cooked through. Place the cooked wings in the honey/lime mixture and toss to coat well. Serve immediately."
    ], 
    "recipe_name": "Honey Lime Chicken Wings"
}