{
    "ingredients": [
        {
            "amount": "3", 
            "ingredient": "eggs"
        }, 
        {
            "amount": "1 cup", 
            "ingredient": "raisins"
        }, 
        {
            "amount": "1 teaspoon", 
            "ingredient": "vanilla extract"
        }, 
        {
            "amount": "1 cup", 
            "ingredient": "butter flavored shortening"
        }, 
        {
            "amount": "1 cup", 
            "ingredient": "packed brown sugar"
        }, 
        {
            "amount": "1 cup", 
            "ingredient": "white sugar"
        }, 
        {
            "amount": "2 1/2 cups", 
            "ingredient": "all-purpose flour"
        }, 
        {
            "amount": "2 teaspoons", 
            "ingredient": "baking soda"
        }, 
        {
            "amount": "1 teaspoon", 
            "ingredient": "salt"
        }, 
        {
            "amount": "1 teaspoon", 
            "ingredient": "ground cinnamon"
        }, 
        {
            "amount": "2 cups", 
            "ingredient": "quick cooking oats"
        }, 
        {
            "amount": "1/2 cup", 
            "ingredient": "chopped walnuts"
        }
    ], 
    "prep_steps": [
        "Beat eggs, and stir in raisins and vanilla. Refrigerate for at least an hour.", 
        "Preheat oven to 350 degrees F (175 degrees C).", 
        "Cream together shortening, brown sugar, and white sugar until light and fluffy. Combine flour, baking soda, salt, and cinnamon; stir into the sugar mixture. Mix in raisins and eggs, then stir in oats and walnuts. Roll dough into walnut sized balls, and place 2 inches apart on ungreased cookie sheets.", 
        "Bake for 10 to 12 minutes in preheated oven, or until edges are golden. Cool on wire racks."
    ], 
    "prep_time": "2 hr", 
    "recipe_name": "Grandmother's Oatmeal Cookies"
}