{
    "ingredients": [
        {
            "amount": "2 (1 pound)", 
            "ingredient": "pork tenderloins"
        }, 
        {
            "amount": "1 teaspoon", 
            "ingredient": "garlic powder"
        }, 
        {
            "amount": "1 teaspoon", 
            "ingredient": "salt"
        }, 
        {
            "amount": "1 teaspoon", 
            "ingredient": "ground black pepper"
        }, 
        {
            "amount": "1 cup", 
            "ingredient": "barbeque sauce"
        }
    ], 
    "prep_steps": [
        "Prepare grill for indirect heat.", 
        "Season meat with garlic powder, salt, and pepper.", 
        "Lightly oil grate. Place tenderloin on grate, and position drip pan under meat. Cook over indirect heat for 30 minutes.", 
        "Brush tenderloin with barbeque sauce. Continue cooking for 15 minutes, or until an instant-read thermometer inserted into the center reads 145 degrees F (63 degrees C). Allow pork to rest for 10 minutes. Slice pork, and serve with additional barbeque sauce for dipping."
    ], 
    "prep_time": "55 mins", 
    "recipe_name": "Grilled Pork Tenderloin"
}