{
    "ingredients": [
        {
            "amount": "1/4 teaspoon", 
            "ingredient": "garlic powder"
        }, 
        {
            "amount": "1/4 teaspoon", 
            "ingredient": "onion powder"
        }, 
        {
            "amount": "1/4 teaspoon", 
            "ingredient": "paprika"
        }, 
        {
            "amount": "2 pounds", 
            "ingredient": "sea bass"
        }, 
        {
            "amount": "3 tablespoons", 
            "ingredient": "butter"
        }, 
        {
            "amount": "2 large cloves", 
            "ingredient": "garlic, chopped"
        }, 
        {
            "amount": "1 tablespoon", 
            "ingredient": "chopped Italian flat leaf parsley"
        }, 
        {
            "amount": "1 1/2 tablespoons", 
            "ingredient": "extra virgin olive oil"
        }
    ], 
    "prep_steps": [
        "Preheat grill for high heat.", 
        "In a small bowl, stir together the garlic powder, onion powder, paprika, lemon pepper, and sea salt. Sprinkle seasonings onto the fish.", 
        "In a small saucepan over medium heat, melt the butter with the garlic and parsley. Remove from heat when the butter has melted, and set aside.", 
        "Lightly oil grill grate. Grill fish for 7 minutes, then turn and drizzle with butter. Continue cooking for 7 minutes, or until easily flaked with a fork. Drizzle with olive oil before serving."
    ], 
    "prep_time": "40 mins", 
    "recipe_name": "Grilled Sea Bass"
}