{
    "ingredients": [
        {
            "amount": "1 (15 ounce) can", 
            "ingredient": "garbanzo beans, drained, liquid reserved"
        }, 
        {
            "amount": "2 ounces", 
            "ingredient": "fresh jalapeno pepper, sliced"
        }, 
        {
            "amount": "1/2 teaspoon", 
            "ingredient": "ground cumin"
        }, 
        {
            "amount": "2 tablespoons", 
            "ingredient": "lemon juice"
        }, 
        {
            "amount": "3 cloves", 
            "ingredient": "garlic, minced"
        }
    ], 
    "prep_steps": [
        "In a blender or food processor, combine garbanzo beans, jalapeno, cumin, lemon juice, garlic and 1 tablespoon of the reserved bean liquid. Blend until smooth."
    ], 
    "prep_time": "5 mins", 
    "recipe_name": "Easy Hummus"
}