{
    "ingredients": [
        {
            "amount": "1 pint", 
            "ingredient": "fresh strawberries, sliced"
        }, 
        {
            "amount": "1 pound", 
            "ingredient": "seedless green grapes, halved"
        }, 
        {
            "amount": "3", 
            "ingredient": "bananas, peeled and sliced"
        }, 
        {
            "amount": "1 (8 ounce) container", 
            "ingredient": "strawberry yogurt"
        }
    ], 
    "prep_steps": [
        "In a large bowl, toss together strawberries, grapes, bananas, and strawberry yogurt. Serve immediately."
    ], 
    "prep_time": "10 mins", 
    "recipe_name": "Fruit Salad in Seconds"
}