{
    "ingredients": [
        {
            "amount": "10", 
            "ingredient": "skinless, boneless chicken breast halves"
        }, 
        {
            "amount": "1 teaspoon", 
            "ingredient": "fresh lemon juice"
        }, 
        {
            "amount": "1/8 teaspoon", 
            "ingredient": "celery salt"
        }, 
        {
            "amount": "1 teaspoon", 
            "ingredient": "paprika"
        }, 
        {
            "amount": "1 (10.75 ounce) can", 
            "ingredient": "condensed cream of mushroom soup"
        }, 
        {
            "amount": "1 (10.75 ounce) can", 
            "ingredient": "condensed cream of celery soup"
        }, 
        {
            "amount": "1/3 cup", 
            "ingredient": "dry sherry"
        }, 
        {
            "amount": "1/4 cup", 
            "ingredient": "grated Parmesan cheese"
        }
    ], 
    "prep_steps": [
        "Rinse the chicken breasts and pat dry. Season with the lemon juice, salt, pepper, celery salt and paprika to taste. Place in a slow cooker.", 
        "In a medium size bowl mix the mushroom and celery soups with the sherry/wine. Pour mixture over the chicken breasts and sprinkle with grated Parmesan cheese.", 
        "Cook on LOW setting for 8 to 10 hours, OR on HIGH setting for 4 to 5 hours."
    ], 
    "prep_time": "4 hrs", 
    "recipe_name": "Chicken Delicious"
}