{
    "ingredients": [
        {
            "amount": "3/4 cup", 
            "ingredient": "cake flour"
        }, 
        {
            "amount": "3/4 cup", 
            "ingredient": "all-purpose flour"
        }, 
        {
            "amount": "1 teaspoon", 
            "ingredient": "white sugar"
        }, 
        {
            "amount": "1/2 teaspoon", 
            "ingredient": "salt"
        }, 
        {
            "amount": "1/8 teaspoon", 
            "ingredient": "baking powder"
        }, 
        {
            "amount": "4 tablespoons", 
            "ingredient": "unsalted butter"
        }, 
        {
            "amount": "5 tablespoons", 
            "ingredient": "shortening"
        }, 
        {
            "amount": "1", 
            "ingredient": "egg yolk"
        }, 
        {
            "amount": "2 teaspoons", 
            "ingredient": "distilled white vinegar"
        }, 
        {
            "amount": "3 cubes", 
            "ingredient": "ice"
        }, 
        {
            "amount": "1/2 cup", 
            "ingredient": "cold water"
        }
    ], 
    "prep_steps": [
        "Measure butter & shortening onto a plate, put into freezer for about 20 minutes.", 
        "Measure cake flour, all-purpose flour, sugar, salt and baking powder into the bowl of a food processor. Pulse for a few seconds to mix.", 
        "Take 1/2 of the cold butter and 1/2 of the cold shortening, put into processor with dry ingredients and pulse off and on for about 1 minute. Scrape down twice while doing this.", 
        "Take remainder of the cold butter & cold shortening and cut in very briefly with the processor, leaving visible pea-sized chunks. Do not over process at this stage!", 
        "In a measuring cup, mix egg yolk and vinegar together, add ice cubes and water. Let this get chilled, about 3 to 4 minutes.", 
        "Remove mixed flours and shortening from processor, put into a large mixing bowl. Sprinkle approximately 4 to 5 tablespoons of this egg, water, vinegar mixture, a little at a time, mixing gently with a fork. The key to this is, you do not want a wet dough, and you do not want to overmix.", 
        "Place this dough into plastic wrap or plastic bag, chill in refrigerator for a few minutes. (May also be frozen for a few weeks at this stage for future use).", 
        "Remove from refrigerator and roll out. This makes absolutely the BEST pie crusts. I have won County Fair competitions with this pie crust. Double for making a 2-crust pie."
    ], 
    "recipe_name": "Baker's Secret Pie Crust"
}