{
    "ingredients": [
        {
            "amount": "1 teaspoon", 
            "ingredient": "crushed dried rosemary"
        }, 
        {
            "amount": "1 teaspoon", 
            "ingredient": "dried basil"
        }, 
        {
            "amount": "1 teaspoon", 
            "ingredient": "minced garlic"
        }, 
        {
            "amount": "1 pinch", 
            "ingredient": "black pepper"
        }, 
        {
            "amount": "2 tablespoons", 
            "ingredient": "olive oil"
        }, 
        {
            "amount": "4", 
            "ingredient": "pork chops"
        }, 
        {
            "amount": "1 cup", 
            "ingredient": "fresh lemon juice"
        }, 
        {
            "amount": "1/2 cup", 
            "ingredient": "crumbled feta cheese with basil and sun-dried tomatoes"
        }
    ], 
    "prep_steps": [
        "In a small bowl, stir together rosemary, basil, garlic, and pepper.", 
        "Heat olive oil in a large skillet over medium heat. Dip pork chops in lemon juice, and sprinkle both sides with herb mixture. Place pork chops in skillet, and sear both sides, about 7 minutes per side. Reduce heat to low. Sprinkle feta on top of chops; cover skillet, and cook until cheese begins to melt, about 5 minutes."
    ], 
    "prep_time": "30 mins", 
    "recipe_name": "Pork Chop and Feta Skillet"
}