{
    "ingredients": [
        {
            "amount": "1 pound", 
            "ingredient": "beef sirloin, cut into thin 2 inch strips"
        }, 
        {
            "amount": "1/2 teaspoon", 
            "ingredient": "salt"
        }, 
        {
            "amount": "1/2 teaspoon", 
            "ingredient": "black pepper"
        }, 
        {
            "amount": "1/2 teaspoon", 
            "ingredient": "paprika"
        }, 
        {
            "amount": "1/2 teaspoon", 
            "ingredient": "chili powder"
        }, 
        {
            "amount": "1/2 teaspoon", 
            "ingredient": "onion powder"
        }, 
        {
            "amount": "1/2 teaspoon", 
            "ingredient": "garlic powder"
        }, 
        {
            "amount": "1/2 teaspoon", 
            "ingredient": "dried thyme"
        }, 
        {
            "amount": "1/2 teaspoon", 
            "ingredient": "dried marjoram"
        }, 
        {
            "amount": "1/2 teaspoon", 
            "ingredient": "dried basil"
        }, 
        {
            "amount": "3 tablespoons", 
            "ingredient": "vegetable oil"
        }, 
        {
            "amount": "1", 
            "ingredient": "onion, sliced"
        }, 
        {
            "amount": "1", 
            "ingredient": "green bell pepper, julienned"
        }, 
        {
            "amount": "3 ounces", 
            "ingredient": "Swiss cheese, thinly sliced"
        }, 
        {
            "amount": "4", 
            "ingredient": "hoagie rolls, split lengthwise"
        }
    ], 
    "prep_steps": [
        "Place the beef in a large bowl. In a small bowl, mix together salt, pepper, paprika, chili powder, onion powder, garlic powder, thyme, marjoram and basil. Sprinkle over beef.", 
        "Heat half of the oil in a skillet over medium-high heat. Saute beef to desired doneness, and remove from pan. Heat the remaining oil in the skillet, and saute the onion and green pepper.", 
        "Preheat oven on broiler setting.", 
        "Divide the meat between the bottoms of 4 rolls, layer with onion and green pepper, then top with sliced cheese. Place on cookie sheet, and broil until cheese is melted. Cover with tops of rolls, and serve."
    ], 
    "prep_time": "40 mins", 
    "recipe_name": "Philly Steak Sandwich"
}