{
    "ingredients": [
        {
            "amount": "1 (8 ounce) wheel", 
            "ingredient": "Brie cheese"
        }, 
        {
            "amount": "3 tablespoons", 
            "ingredient": "apricot preserves"
        }, 
        {
            "amount": "1/2 (17.5 ounce) package", 
            "ingredient": "frozen puff pastry, thawed"
        }, 
        {
            "amount": "1", 
            "ingredient": "egg white"
        }
    ], 
    "prep_steps": [
        "Preheat oven to 350 degrees F (175 degrees C). Lightly grease a cookie sheet.", 
        "Slice one wheel of Brie cheese in half so you have 2 circles of cheese. Spread apricot or peach preserves on (the cut side) half of one circle of brie. Make sandwich out of the two halves of Brie, so that the preserves are in the center of both halves. Wrap the entire wheel of Brie with one sheet of puffed pastry and flip the entire concoction onto the prepared cooking sheet so the seam is on bottom. Brush the puffed pastry with the egg white.", 
        "Bake for 30 minutes, or until the pastry in golden brown. Serve immediately."
    ], 
    "prep_time": "40 mins", 
    "recipe_name": "Brie Cheese Appetizer"
}