{
    "ingredients": [
        {
            "amount": "1 bunch", 
            "ingredient": "spinach, rinsed"
        }, 
        {
            "amount": "10 large", 
            "ingredient": "strawberries, sliced"
        }, 
        {
            "amount": "1/2 cup", 
            "ingredient": "white sugar"
        }, 
        {
            "amount": "1 teaspoon", 
            "ingredient": "salt"
        }, 
        {
            "amount": "1/3 cup", 
            "ingredient": "white wine vinegar"
        }, 
        {
            "amount": "1 cup", 
            "ingredient": "vegetable oil"
        }, 
        {
            "amount": "1 tablespoon", 
            "ingredient": "poppy seeds"
        }
    ], 
    "prep_steps": [
        "In a large bowl, mix the spinach and strawberries.", 
        "In a blender, place the sugar, salt, vinegar, and oil, and blend until smooth. Stir in the poppy seeds. Pour over the spinach and strawberries, and toss to coat."
    ], 
    "prep_time": "15 mins", 
    "recipe_name": "Spring Strawberry Spinach Salad"
}