{
    "ingredients": [
        {
            "amount": "1/2 cup", 
            "ingredient": "packed brown sugar"
        }, 
        {
            "amount": "1/2 cup", 
            "ingredient": "ketchup"
        }, 
        {
            "amount": "1 1/2 pounds", 
            "ingredient": "lean ground beef"
        }, 
        {
            "amount": "3/4 cup", 
            "ingredient": "milk"
        }, 
        {
            "amount": "2", 
            "ingredient": "eggs"
        }, 
        {
            "amount": "1 1/2 teaspoons", 
            "ingredient": "salt"
        }, 
        {
            "amount": "1/4 teaspoon", 
            "ingredient": "ground black pepper"
        }, 
        {
            "amount": "1 small", 
            "ingredient": "onion, chopped"
        }, 
        {
            "amount": "1/4 teaspoon", 
            "ingredient": "ground ginger"
        }, 
        {
            "amount": "3/4 cup", 
            "ingredient": "finely crushed saltine cracker crumbs"
        }
    ], 
    "prep_steps": [
        "Preheat oven to 350 degrees F (175 degrees C). Lightly grease a 5x9 inch loaf pan.", 
        "Press the brown sugar in the bottom of the prepared loaf pan and spread the ketchup over the sugar.", 
        "In a mixing bowl, mix thoroughly all remaining ingredients and shape into a loaf. Place on top of the ketchup.", 
        "Bake in preheated oven for 1 hour or until juices are clear."
    ], 
    "prep_time": "1\u00bd hrs", 
    "recipe_name": "Brown Sugar Meatloaf"
}