{
    "ingredients": [
        {
            "amount": "3 cups", 
            "ingredient": "canned pumpkin puree"
        }, 
        {
            "amount": "1 1/2 cups", 
            "ingredient": "vegetable oil"
        }, 
        {
            "amount": "4 cups", 
            "ingredient": "white sugar"
        }, 
        {
            "amount": "6", 
            "ingredient": "eggs"
        }, 
        {
            "amount": "4 3/4 cups", 
            "ingredient": "all-purpose flour"
        }, 
        {
            "amount": "1 1/2 teaspoons", 
            "ingredient": "baking powder"
        }, 
        {
            "amount": "1 1/2 teaspoons", 
            "ingredient": "baking soda"
        }, 
        {
            "amount": "1 1/2 teaspoons", 
            "ingredient": "salt"
        }, 
        {
            "amount": "1 1/2 teaspoons", 
            "ingredient": "ground cinnamon"
        }, 
        {
            "amount": "1 1/2 teaspoons", 
            "ingredient": "ground nutmeg"
        }, 
        {
            "amount": "1 1/2 teaspoons", 
            "ingredient": "ground cloves"
        }
    ], 
    "prep_steps": [
        "Preheat the oven to 350 degrees F (175 degrees C). Grease and flour three 9x5 inch loaf pans.", 
        "In a large bowl, mix together the pumpkin, oil, sugar, and eggs. Combine the flour, baking powder, baking soda, salt, cinnamon, nutmeg, and cloves; stir into the pumpkin mixture until well blended. Divide the batter evenly between the prepared pans.", 
        "Bake in preheated oven for 45 minutes to 1 hour. The top of the loaf should spring back when lightly pressed."
    ], 
    "prep_time": "1\u00bc hrs", 
    "recipe_name": "Pumpkin Bread IV"
}