{
    "ingredients": [
        {
            "amount": "6 slices", 
            "ingredient": "rye bread, cubed"
        }, 
        {
            "amount": "1 (16 ounce) can", 
            "ingredient": "sauerkraut, drained and rinsed"
        }, 
        {
            "amount": "1 pound", 
            "ingredient": "deli sliced corned beef, cut into strips"
        }, 
        {
            "amount": "3/4 cup", 
            "ingredient": "Russian-style salad dressing"
        }, 
        {
            "amount": "2 cups", 
            "ingredient": "shredded Swiss cheese"
        }
    ], 
    "prep_steps": [
        "Preheat oven to 400 degrees F (200 degrees C).", 
        "Spread bread cubes in the bottom of a 9x13 inch baking dish. Spread sauerkraut evenly over the bread cubes, then layer beef strips over sauerkraut. Pour dressing over all.", 
        "Spray aluminum foil with cooking spray and use to cover baking dish, sprayed side down. Bake in the preheated oven for 20 minutes.", 
        "Remove cover, sprinkle with cheese and bake uncovered for another 10 minutes, or until cheese is melted and bubbly."
    ], 
    "prep_time": "45 mins", 
    "recipe_name": "Reuben Casserole"
}