{
    "ingredients": [
        {
            "amount": "1/2 cup", 
            "ingredient": "minced onion"
        }, 
        {
            "amount": "1/2 cup", 
            "ingredient": "peanut oil"
        }, 
        {
            "amount": "1/3 cup", 
            "ingredient": "rice wine vinegar"
        }, 
        {
            "amount": "2 tablespoons", 
            "ingredient": "water"
        }, 
        {
            "amount": "2 tablespoons", 
            "ingredient": "minced fresh ginger root"
        }, 
        {
            "amount": "2 tablespoons", 
            "ingredient": "minced celery"
        }, 
        {
            "amount": "2 tablespoons", 
            "ingredient": "ketchup"
        }, 
        {
            "amount": "4 teaspoons", 
            "ingredient": "soy sauce"
        }, 
        {
            "amount": "2 teaspoons", 
            "ingredient": "white sugar"
        }, 
        {
            "amount": "2 teaspoons", 
            "ingredient": "lemon juice"
        }, 
        {
            "amount": "1/2 teaspoon", 
            "ingredient": "minced garlic"
        }, 
        {
            "amount": "1/2 teaspoon", 
            "ingredient": "salt"
        }, 
        {
            "amount": "1/4 teaspoon", 
            "ingredient": "ground black pepper"
        }
    ], 
    "prep_steps": [
        "In a blender, combine the minced onion, peanut oil, rice vinegar, water, ginger, celery, ketchup, soy sauce, sugar, lemon juice, garlic, salt and pepper . Blend on high speed for about 30 seconds or until all of the ingredients are well-pureed."
    ], 
    "prep_time": "10 mins", 
    "recipe_name": "Famous Japanese Restaurant-Style Salad Dressing"
}