{
    "ingredients": [
        {
            "amount": "5 slices", 
            "ingredient": "bacon"
        }, 
        {
            "amount": "1 (5 1/2 pound)", 
            "ingredient": "bone-in turkey breast, skin removed"
        }, 
        {
            "amount": "1/2 teaspoon", 
            "ingredient": "garlic pepper"
        }, 
        {
            "amount": "1 (10.5 ounce) can", 
            "ingredient": "turkey gravy"
        }, 
        {
            "amount": "2 tablespoons", 
            "ingredient": "all-purpose flour"
        }, 
        {
            "amount": "1 tablespoon", 
            "ingredient": "Worcestershire sauce"
        }, 
        {
            "amount": "1 teaspoon", 
            "ingredient": "dried sage"
        }
    ], 
    "prep_steps": [
        "Place bacon in a skillet over medium-high heat, and cook until evenly brown. Drain and crumble.", 
        "Spray a slow cooker with cooking spray. Place turkey in the slow cooker. Season with garlic pepper. In a bowl, mix the bacon, gravy, flour, Worcestershire sauce, and sage. Pour over turkey in the slow cooker.", 
        "Cover slow cooker, and cook turkey 8 hours on Low."
    ], 
    "prep_time": "8 hrs", 
    "recipe_name": "Slow Cooker Thanksgiving Turkey"
}