{
    "ingredients": [
        {
            "amount": "1/2 cup", 
            "ingredient": "all-purpose flour"
        }, 
        {
            "amount": "1/4 teaspoon", 
            "ingredient": "salt"
        }, 
        {
            "amount": "1/2 teaspoon", 
            "ingredient": "freshly ground black pepper"
        }, 
        {
            "amount": "1/4 teaspoon", 
            "ingredient": "cayenne pepper"
        }, 
        {
            "amount": "1 1/2 pounds", 
            "ingredient": "fresh shrimp, shelled and deveined without tails"
        }, 
        {
            "amount": "1/2 cup", 
            "ingredient": "olive oil"
        }, 
        {
            "amount": "4 cloves", 
            "ingredient": "garlic, minced"
        }, 
        {
            "amount": "1", 
            "ingredient": "shallot, chopped"
        }, 
        {
            "amount": "1/2 cup", 
            "ingredient": "fresh parsley, minced"
        }, 
        {
            "amount": "1/2 teaspoon", 
            "ingredient": "dried oregano, crushed"
        }, 
        {
            "amount": "2 tablespoons", 
            "ingredient": "white wine"
        }, 
        {
            "amount": "2 tablespoons", 
            "ingredient": "brandy"
        }
    ], 
    "prep_steps": [
        "In a small bowl, combine flour, salt, pepper and cayenne pepper. Mix thoroughly. Dredge shrimp in flour mixture.", 
        "In a large skillet, saute dredged shrimp in olive oil for 5 minutes over high heat. Toss shrimp often to prevent burning. Transfer shrimp with a slotted spoon to a serving dish, leaving the oil in the pan.", 
        "In the same pan, saute the garlic, shallot, parsley and oregano over medium heat for 3 minutes; stirring constantly. Spoon the mixture over the shrimp. Return pan to the heat. Preheat your broiler for medium heat.", 
        "Pour the wine and brandy into the skillet and ignite with a match or lighter. When the flames die down, stir to loosen any browned bits on the bottom of the skillet; pour over shrimp.", 
        "Place the serving dish of shrimp in a preheated broiler for about 2 minutes."
    ], 
    "prep_time": "40 mins", 
    "recipe_name": "Absolutely The Best Shrimp Scampi"
}