{
    "ingredients": [
        {
            "amount": "1 teaspoon", 
            "ingredient": "olive oil"
        }, 
        {
            "amount": "1", 
            "ingredient": "onion, chopped"
        }, 
        {
            "amount": "2 cloves", 
            "ingredient": "garlic, minced"
        }, 
        {
            "amount": "3", 
            "ingredient": "red bell peppers"
        }, 
        {
            "amount": "4 large", 
            "ingredient": "tomatoes - peeled, seeded and chopped"
        }, 
        {
            "amount": "1 1/2 teaspoons", 
            "ingredient": "dried thyme"
        }, 
        {
            "amount": "2 teaspoons", 
            "ingredient": "paprika"
        }, 
        {
            "amount": "1/8 teaspoon", 
            "ingredient": "white sugar"
        }, 
        {
            "amount": "6 cups", 
            "ingredient": "chicken broth"
        }, 
        {
            "amount": "1 pinch", 
            "ingredient": "ground cayenne pepper"
        }, 
        {
            "amount": "1 dash", 
            "ingredient": "hot pepper sauce"
        }, 
        {
            "amount": "2 tablespoons", 
            "ingredient": "butter"
        }, 
        {
            "amount": "1 1/2 tablespoons", 
            "ingredient": "all-purpose flour"
        }, 
        {
            "amount": "6 tablespoons", 
            "ingredient": "sour cream"
        }
    ], 
    "prep_steps": [
        "Roast peppers: rub oil on peppers and put them under the broiler until blackened, turn to get all sides. Put into paper bag and seal. Let rest for 15 minutes, then peel will come right off and core and seeds will fall out. Chop peppers. Reserve one chopped pepper; set aside.", 
        "Heat olive oil over moderate heat. Add onion and garlic and cook until soft but not brown, about 5 minutes. Stir in tomato, bell peppers (except reserved), thyme, paprika, and sugar. Cook over medium-low heat until all the tomato juices have evaporated, about 25 minutes.", 
        "Stir in chicken stock, salt and pepper, cayenne pepper, and hot sauce (if using). Bring to boiling, lower heat, and simmer, partially covered, for 25 minutes or until vegetables are tender.", 
        "Strain soup, reserving broth. Place solids in food processor or blender, and process until fairly smooth. Add puree back into broth.", 
        "Melt butter and stir in the flour, cook for 1 minute. Stirring slowly, add the broth/vegetable mixture. Add reserved chopped pepper and bring to boiling. Lower heat and simmer 10 minutes.", 
        "Ladle into bowls and add 1 tablespoon of sour cream to each bowl. For a lighter soup, this is also delicious without the sour cream."
    ], 
    "prep_time": "1\u00be hrs", 
    "recipe_name": "Roasted Red Pepper and Tomato Soup"
}