{
    "ingredients": [
        {
            "amount": "1 1/4 cups", 
            "ingredient": "white sugar"
        }, 
        {
            "amount": "1 1/4 cups", 
            "ingredient": "brown sugar"
        }, 
        {
            "amount": "1/2 cup", 
            "ingredient": "salt"
        }, 
        {
            "amount": "1/4 cup", 
            "ingredient": "freshly ground black pepper"
        }, 
        {
            "amount": "1/4 cup", 
            "ingredient": "paprika"
        }
    ], 
    "prep_steps": [
        "In a medium bowl, mix together white and brown sugars, salt, pepper, and paprika. Rub onto pork 10 minutes prior to grilling. Store any leftover rub in a sealed container."
    ], 
    "prep_time": "10 mins", 
    "recipe_name": "BBQ Dry Rub"
}