{
    "ingredients": [
        {
            "amount": "2", 
            "ingredient": "eggs"
        }, 
        {
            "amount": "1 cup", 
            "ingredient": "torn baby spinach leaves"
        }, 
        {
            "amount": "1 1/2 tablespoons", 
            "ingredient": "grated Parmesan cheese"
        }, 
        {
            "amount": "1/4 teaspoon", 
            "ingredient": "onion powder"
        }, 
        {
            "amount": "1/8 teaspoon", 
            "ingredient": "ground nutmeg"
        }
    ], 
    "prep_steps": [
        "In a bowl, beat the eggs, and stir in the baby spinach and Parmesan cheese. Season with onion powder, nutmeg, salt, and pepper.", 
        "In a small skillet coated with cooking spray over medium heat, cook the egg mixture about 3 minutes, until partially set. Flip with a spatula, and continue cooking 2 to 3 minutes. Reduce heat to low, and continue cooking 2 to 3 minutes, or to desired doneness."
    ], 
    "prep_time": "15 mins", 
    "recipe_name": "Baby Spinach Omelet"
}