{
    "ingredients": [
        {
            "amount": "2 pounds", 
            "ingredient": "ground turkey"
        }, 
        {
            "amount": "3/4 teaspoon", 
            "ingredient": "ground ginger"
        }, 
        {
            "amount": "1 1/2 teaspoons", 
            "ingredient": "salt"
        }, 
        {
            "amount": "1 teaspoon", 
            "ingredient": "dried sage"
        }, 
        {
            "amount": "1/4 teaspoon", 
            "ingredient": "cayenne pepper"
        }, 
        {
            "amount": "1 1/2 teaspoons", 
            "ingredient": "ground black pepper"
        }
    ], 
    "prep_steps": [
        "In a large bowl, mix together the ground turkey, ginger, salt, sage, cayenne pepper, and black pepper until well blended.", 
        "Heat a skillet over medium-high heat, and coat with nonstick cooking spray. Form the turkey sausage into patties, and fry until browned on both sides, and no longer pink in the center. This should take about 15 minutes."
    ], 
    "prep_time": "20 mins", 
    "recipe_name": "Mom's Turkey Sausage Patties"
}