{
    "ingredients": [
        {
            "amount": "1 pound", 
            "ingredient": "dry fettuccine pasta"
        }, 
        {
            "amount": "1/4 cup", 
            "ingredient": "butter"
        }, 
        {
            "amount": "1/2 cup", 
            "ingredient": "finely diced onion"
        }, 
        {
            "amount": "3 cloves", 
            "ingredient": "garlic, minced"
        }, 
        {
            "amount": "1 pound", 
            "ingredient": "fresh sliced mushrooms"
        }, 
        {
            "amount": "2 teaspoons", 
            "ingredient": "dried oregano"
        }, 
        {
            "amount": "2 teaspoons", 
            "ingredient": "dried basil"
        }, 
        {
            "amount": "2 teaspoons", 
            "ingredient": "dried parsley"
        }, 
        {
            "amount": "6 slices", 
            "ingredient": "ham, chopped"
        }, 
        {
            "amount": "1 1/2 cups", 
            "ingredient": "heavy whipping cream"
        }, 
        {
            "amount": "1 cup", 
            "ingredient": "spaghetti sauce"
        }, 
        {
            "amount": "1 teaspoon", 
            "ingredient": "crushed red pepper"
        }
    ], 
    "prep_steps": [
        "Bring a large pot of lightly salted water to a boil. Add pasta and cook for 8 to 10 minutes or until al dente; drain.", 
        "In a large saute pan, melt the butter over medium heat. Add the onion and garlic and cook until softened. Stir in the sliced mushrooms and the oregano, basil, and parsley. Cook, stirring occasionally, until the liquid from the mushrooms has evaporated. Add the ham pieces and cook for another 4 to 5 minutes.", 
        "Pour in the heavy cream and bring to a boil. Slowly stir in the spaghetti sauce and crushed red pepper blending it into the cream. Cook, stirring occasionally, until the sauce has reduced by a third and is thick.", 
        "Place fettuccini on plates and ladle even portions of sauce over top."
    ], 
    "prep_time": "30 mins", 
    "recipe_name": "Fettuccini with Mushroom, Ham and Rose Sauce"
}