{
    "ingredients": [
        {
            "amount": "1 (10 pound)", 
            "ingredient": "prime rib roast"
        }, 
        {
            "amount": "10 cloves", 
            "ingredient": "garlic, minced"
        }, 
        {
            "amount": "2 tablespoons", 
            "ingredient": "olive oil"
        }, 
        {
            "amount": "2 teaspoons", 
            "ingredient": "salt"
        }, 
        {
            "amount": "2 teaspoons", 
            "ingredient": "ground black pepper"
        }, 
        {
            "amount": "2 teaspoons", 
            "ingredient": "dried thyme"
        }
    ], 
    "prep_steps": [
        "Place the roast in a roasting pan with the fatty side up. In a small bowl, mix together the garlic, olive oil, salt, pepper and thyme. Spread the mixture over the fatty layer of the roast, and let the roast sit out until it is at room temperature, no longer than 1 hour.", 
        "Preheat the oven to 500 degrees F (260 degrees C).", 
        "Bake the roast for 20 minutes in the preheated oven, then reduce the temperature to 325 degrees F (165 degrees C), and continue roasting for an additional 60 to 75 minutes. The internal temperature of the roast should be at 135 degrees F (57 degrees C) for medium rare.", 
        "Allow the roast to rest for 10 or 15 minutes before carving so the meat can retain its juices."
    ], 
    "prep_time": "1\u00be hrs", 
    "recipe_name": "Garlic Prime Rib"
}