{
    "ingredients": [
        {
            "amount": "1 1/2 cups", 
            "ingredient": "shredded cooked turkey"
        }, 
        {
            "amount": "4 cups", 
            "ingredient": "vegetable broth"
        }, 
        {
            "amount": "1 (28 ounce) can", 
            "ingredient": "whole peeled tomatoes"
        }, 
        {
            "amount": "1 (4 ounce) can", 
            "ingredient": "chopped green chile peppers"
        }, 
        {
            "amount": "2", 
            "ingredient": "roma (plum) tomatoes, chopped"
        }, 
        {
            "amount": "1", 
            "ingredient": "onion, chopped"
        }, 
        {
            "amount": "2 cloves", 
            "ingredient": "garlic, crushed"
        }, 
        {
            "amount": "1 tablespoon", 
            "ingredient": "lime juice"
        }, 
        {
            "amount": "1/2 teaspoon", 
            "ingredient": "cayenne pepper"
        }, 
        {
            "amount": "1/2 teaspoon", 
            "ingredient": "ground cumin"
        }, 
        {
            "amount": "1", 
            "ingredient": "avocado - peeled, pitted and diced"
        }, 
        {
            "amount": "1/2 teaspoon", 
            "ingredient": "dried cilantro"
        }, 
        {
            "amount": "1 cup", 
            "ingredient": "shredded Monterey Jack cheese"
        }
    ], 
    "prep_steps": [
        "In a large pot over medium heat, combine turkey, broth, canned tomatoes, green chiles, fresh tomatoes, onion, garlic, and lime juice. Season with cayenne, cumin, salt, and pepper. Bring to a boil, then reduce heat, and simmer 15 to 20 minutes.", 
        "Stir in avocado and cilantro, and simmer 15 to 20 minutes, until slightly thickened. Spoon into serving bowls, and top with shredded cheese."
    ], 
    "prep_time": "45 mins", 
    "recipe_name": "Southwestern Turkey Soup"
}