{
    "ingredients": [
        {
            "amount": "7 cups", 
            "ingredient": "vegetable or chicken stock"
        }, 
        {
            "amount": "1 tablespoon", 
            "ingredient": "butter"
        }, 
        {
            "amount": "1 medium", 
            "ingredient": "onion, chopped"
        }, 
        {
            "amount": "2 cups", 
            "ingredient": "Arborio rice, uncooked"
        }, 
        {
            "amount": "1/2", 
            "ingredient": "medium zucchini, thinly sliced with a vegetable peeler"
        }, 
        {
            "amount": "10", 
            "ingredient": "sun-dried tomatoes, softened and chopped"
        }, 
        {
            "amount": "1 teaspoon", 
            "ingredient": "dried thyme, crushed"
        }, 
        {
            "amount": "6 tablespoons", 
            "ingredient": "freshly grated Parmesan (or mozzarella) cheese"
        }, 
        {
            "amount": "1 tablespoon", 
            "ingredient": "chopped fresh basil leaves, or to taste"
        }
    ], 
    "prep_steps": [
        "Bring vegetable or chicken stock to a boil in a medium stock pot, then reduce heat to a low simmer.", 
        "Melt butter in a large, heavy bottomed stock pot over medium heat. Stir in onions and cook for 2 minutes, or until softened. Add the rice and cook for another 2 minutes, stirring constantly, until lightly toasted. Gradually ladle in simmering vegetable stock, stirring continuously. Risotto will become \"creamy\" and slightly sticky, yet still firm in the center, or al dente.", 
        "When almost finished, stir in the zucchini, sun-dried tomatoes, and thyme, adding stock as needed and stirring continuously. Stir in basil and 3 tablespoons cheese just before serving. Divide risotto among 6 bowls, sprinkle with remaining cheese, and season with pepper to taste."
    ], 
    "prep_time": "45 mins", 
    "recipe_name": "Zucchini Risotto"
}