{
    "ingredients": [
        {
            "amount": "1 tablespoon", 
            "ingredient": "olive oil"
        }, 
        {
            "amount": "1 large", 
            "ingredient": "onion, chopped"
        }, 
        {
            "amount": "3 cloves", 
            "ingredient": "garlic, peeled and chopped"
        }, 
        {
            "amount": "2 (10 ounce) packages", 
            "ingredient": "chopped frozen broccoli, thawed"
        }, 
        {
            "amount": "1", 
            "ingredient": "potato, peeled and chopped"
        }, 
        {
            "amount": "4 cups", 
            "ingredient": "chicken broth"
        }, 
        {
            "amount": "1/4 teaspoon", 
            "ingredient": "ground nutmeg"
        }
    ], 
    "prep_steps": [
        "Heat olive oil in a large saucepan, and saute onion and garlic until tender. Mix in broccoli, potato, and chicken broth. Bring to a boil, reduce heat, and simmer 15 minutes, until vegetables are tender.", 
        "With a hand mixer or in a blender, puree the mixture until smooth. Return to the saucepan, and reheat. Season with nutmeg, salt, and pepper."
    ], 
    "prep_time": "40 mins", 
    "recipe_name": "Broccoli Soup"
}