{
    "ingredients": [
        {
            "amount": "4", 
            "ingredient": "skinless, boneless chicken breasts"
        }, 
        {
            "amount": "2 tablespoons", 
            "ingredient": "real maple syrup"
        }, 
        {
            "amount": "1 cup", 
            "ingredient": "chopped pecans"
        }, 
        {
            "amount": "3 tablespoons", 
            "ingredient": "all-purpose flour"
        }, 
        {
            "amount": "1 teaspoon", 
            "ingredient": "salt"
        }, 
        {
            "amount": "2 tablespoons", 
            "ingredient": "butter"
        }, 
        {
            "amount": "1 tablespoon", 
            "ingredient": "vegetable oil"
        }
    ], 
    "prep_steps": [
        "On waxed paper, combine pecans, flour, and salt.", 
        "Brush chicken breasts all over with maple syrup. Coat chicken breasts completely with nut mixture.", 
        "In a large skillet over medium heat, melt butter and stir in the vegetable oil. Add chicken, and cook for 12 to 15 minutes until chicken is browned on all sides and tender."
    ], 
    "prep_time": "25 mins", 
    "recipe_name": "Pecan Breaded Chicken Breasts"
}