{
    "ingredients": [
        {
            "amount": "1 1/2 cups", 
            "ingredient": "graham cracker crumbs"
        }, 
        {
            "amount": "1/3 cup", 
            "ingredient": "packed brown sugar"
        }, 
        {
            "amount": "1/2 teaspoon", 
            "ingredient": "ground cinnamon"
        }, 
        {
            "amount": "1/3 cup", 
            "ingredient": "butter, melted"
        }, 
        {
            "amount": "2 (8 ounce) packages", 
            "ingredient": "cream cheese"
        }, 
        {
            "amount": "2 teaspoons", 
            "ingredient": "lemon juice"
        }, 
        {
            "amount": "1 pint", 
            "ingredient": "heavy whipping cream"
        }, 
        {
            "amount": "1/3 cup", 
            "ingredient": "white sugar"
        }, 
        {
            "amount": "1 (21 ounce) can", 
            "ingredient": "cherry pie filling"
        }
    ], 
    "prep_steps": [
        "In a small bowl, stir together the graham cracker crumbs, brown sugar and cinnamon. Add melted butter and mix well. Press into the bottom of an 8 or 10 inch springform pan. Chill until firm.", 
        "In a medium bowl, beat together the cream cheese and lemon juice until soft. Add whipping cream and beat with an electric mixer until batter becomes thick. Add the sugar and continue to beat until stiff. Pour into chilled crust, and top with pie filling. Chill several hours or overnight. Just before serving, remove the sides of the springform pan."
    ], 
    "prep_time": "30 mins", 
    "recipe_name": "Best No-Bake Cheesecake"
}