{
    "ingredients": [
        {
            "amount": "7", 
            "ingredient": "tomatoes"
        }, 
        {
            "amount": "1 small", 
            "ingredient": "yellow onion"
        }, 
        {
            "amount": "1/2 cup", 
            "ingredient": "white sugar"
        }, 
        {
            "amount": "1/2 cup", 
            "ingredient": "distilled white vinegar"
        }, 
        {
            "amount": "1/2 cup", 
            "ingredient": "vegetable oil"
        }
    ], 
    "prep_steps": [
        "Thinly slice the tomatoes. Cut the onion in half through root end, then thinly slice into half-circles.", 
        "In a large bowl, toss together tomatoes, onion, sugar, vinegar, oil, salt, and pepper. You may adjust the amounts of vinegar and sugar according to your taste. Serve at room temperature."
    ], 
    "prep_time": "30 mins", 
    "recipe_name": "Chrissy's Sweet 'n' Sour Tomato Salad"
}