{
    "ingredients": [
        {
            "amount": "2 cups", 
            "ingredient": "rolled oats"
        }, 
        {
            "amount": "3/4 cup", 
            "ingredient": "packed brown sugar"
        }, 
        {
            "amount": "1/2 cup", 
            "ingredient": "wheat germ"
        }, 
        {
            "amount": "3/4 teaspoon", 
            "ingredient": "ground cinnamon"
        }, 
        {
            "amount": "1 cup", 
            "ingredient": "all-purpose flour"
        }, 
        {
            "amount": "3/4 cup", 
            "ingredient": "raisins"
        }, 
        {
            "amount": "3/4 teaspoon", 
            "ingredient": "salt"
        }, 
        {
            "amount": "1/2 cup", 
            "ingredient": "honey"
        }, 
        {
            "amount": "1", 
            "ingredient": "egg, beaten"
        }, 
        {
            "amount": "1/2 cup", 
            "ingredient": "vegetable oil"
        }, 
        {
            "amount": "2 teaspoons", 
            "ingredient": "vanilla extract"
        }
    ], 
    "prep_steps": [
        "Preheat the oven to 350 degrees F (175 degrees C). Generously grease a 9x13 inch baking pan.", 
        "In a large bowl, mix together the oats, brown sugar, wheat germ, cinnamon, flour, raisins and salt. Make a well in the center, and pour in the honey, egg, oil and vanilla. Mix well using your hands. Pat the mixture evenly into the prepared pan.", 
        "Bake for 30 to 35 minutes in the preheated oven, until the bars begin to turn golden at the edges. Cool for 5 minutes, then cut into bars while still warm. Do not allow the bars to cool completely before cutting, or they will be too hard to cut."
    ], 
    "prep_time": "50 mins", 
    "recipe_name": "Playgroup Granola Bars"
}