{
    "ingredients": [
        {
            "amount": "5", 
            "ingredient": "fresh jalapeno peppers"
        }, 
        {
            "amount": "4 pounds", 
            "ingredient": "ground beef"
        }, 
        {
            "amount": "1", 
            "ingredient": "egg"
        }, 
        {
            "amount": "1/4 cup", 
            "ingredient": "steak sauce, (e.g. Heinz 57)"
        }, 
        {
            "amount": "1/4 cup", 
            "ingredient": "minced white onion"
        }, 
        {
            "amount": "1 teaspoon", 
            "ingredient": "hot pepper sauce (e.g. Tabasco\u2122)"
        }, 
        {
            "amount": "1 pinch", 
            "ingredient": "dried oregano"
        }, 
        {
            "amount": "1 tablespoon", 
            "ingredient": "Worcestershire sauce"
        }, 
        {
            "amount": "1 teaspoon", 
            "ingredient": "garlic salt"
        }, 
        {
            "amount": "1/4 cup", 
            "ingredient": "crushed Fritos\u00ae corn chips"
        }, 
        {
            "amount": "8", 
            "ingredient": "large potato hamburger buns"
        }, 
        {
            "amount": "8 slices", 
            "ingredient": "pepperjack cheese"
        }
    ], 
    "prep_steps": [
        "Preheat a grill for high heat. When the grill is hot, roast the jalapeno peppers until blackened on all sides. Place in a plastic bag to sweat and loosen the blackened skin. Rub the skin off, then seed if desired, and chop.", 
        "In a large bowl, use your hands to mix together the chopped jalapenos, ground beef, salt, pepper, egg, steak sauce, onion, hot pepper sauce, oregano, Worcestershire sauce, garlic salt and Fritos\u00ae. Divide into 8 balls, and flatten into patties.", 
        "Grill patties for 10 to 15 minutes, turning once, or until well done. I always drink one beer, then flip, drink another beer, then remove from the grill and place on buns. Top each one with a slice of pepperjack cheese and pig out!"
    ], 
    "prep_time": "25 mins", 
    "recipe_name": "Bronco Burger"
}