{
    "ingredients": [
        {
            "amount": "2 tablespoons", 
            "ingredient": "butter"
        }, 
        {
            "amount": "1 large", 
            "ingredient": "onion, chopped"
        }, 
        {
            "amount": "4 cloves", 
            "ingredient": "garlic, minced"
        }, 
        {
            "amount": "2 large", 
            "ingredient": "potatoes, peeled and cubed"
        }, 
        {
            "amount": "2", 
            "ingredient": "carrots, chopped"
        }, 
        {
            "amount": "2 (14.5 ounce) cans", 
            "ingredient": "chicken broth"
        }, 
        {
            "amount": "1 head", 
            "ingredient": "cauliflower, chopped"
        }, 
        {
            "amount": "1 cup", 
            "ingredient": "milk"
        }, 
        {
            "amount": "1 teaspoon", 
            "ingredient": "salt"
        }, 
        {
            "amount": "1/2 teaspoon", 
            "ingredient": "ground black pepper"
        }, 
        {
            "amount": "1/8 teaspoon", 
            "ingredient": "ground nutmeg"
        }, 
        {
            "amount": "1 tablespoon", 
            "ingredient": "dry sherry"
        }, 
        {
            "amount": "1 tablespoon", 
            "ingredient": "chopped fresh parsley"
        }
    ], 
    "prep_steps": [
        "In a large pot over medium heat, melt butter. Stir in onion and garlic and cook until onion is translucent, about 5 minutes. Stir in potatoes and carrots and cook 5 minutes more. Pour in chicken broth and bring to a boil. Stir in cauliflower, cover, reduce heat and simmer until vegetables are tender, 10 to 20 minutes. Remove from heat.", 
        "Puree in batches in a blender or food processor, or in the pot using an immersion blender. Return to low heat and stir in milk, salt, pepper, nutmeg and sherry. Heat through. Serve garnished with parsley."
    ], 
    "prep_time": "1 hr", 
    "recipe_name": "Cream of Cauliflower Soup II"
}