{
    "ingredients": [
        {
            "amount": "6", 
            "ingredient": "skinless, boneless chicken breast halves"
        }, 
        {
            "amount": "1 (20 ounce) jar", 
            "ingredient": "salsa"
        }, 
        {
            "amount": "1 large", 
            "ingredient": "red bell pepper, chopped"
        }, 
        {
            "amount": "2 tablespoons", 
            "ingredient": "ground cumin"
        }, 
        {
            "amount": "2 tablespoons", 
            "ingredient": "lemon juice"
        }, 
        {
            "amount": "2 tablespoons", 
            "ingredient": "chili powder"
        }, 
        {
            "amount": "3 cloves", 
            "ingredient": "crushed garlic"
        }, 
        {
            "amount": "2 (15 ounce) cans", 
            "ingredient": "black beans, rinsed and drained"
        }
    ], 
    "prep_steps": [
        "Preheat oven to 400 degrees F (205 degrees C).", 
        "Arrange the chicken pieces in a 3 quart casserole dish or a 9x13 inch baking dish. Combine the salsa, red bell pepper, cumin, lemon juice, chili powder and garlic. Pour the mixture over the chicken. Pour the black beans on top and cover. Bake in the preheated oven for 1 to 1 1/2 hours. Serve with rice if desired."
    ], 
    "recipe_name": "Mexican Chicken I"
}