{
    "ingredients": [
        {
            "amount": "1 pound", 
            "ingredient": "spaghetti"
        }, 
        {
            "amount": "1 tablespoon", 
            "ingredient": "olive oil"
        }, 
        {
            "amount": "8 slices", 
            "ingredient": "bacon, diced"
        }, 
        {
            "amount": "1 tablespoon", 
            "ingredient": "olive oil"
        }, 
        {
            "amount": "1", 
            "ingredient": "onion, chopped"
        }, 
        {
            "amount": "1 clove", 
            "ingredient": "garlic, minced"
        }, 
        {
            "amount": "1/4 cup", 
            "ingredient": "dry white wine"
        }, 
        {
            "amount": "4", 
            "ingredient": "eggs"
        }, 
        {
            "amount": "1/2 cup", 
            "ingredient": "grated Parmesan cheese"
        }, 
        {
            "amount": "1 pinch", 
            "ingredient": "salt and black pepper to taste"
        }, 
        {
            "amount": "2 tablespoons", 
            "ingredient": "chopped fresh parsley"
        }, 
        {
            "amount": "2 tablespoons", 
            "ingredient": "grated Parmesan cheese"
        }
    ], 
    "prep_steps": [
        "In a large pot of boiling salted water, cook spaghetti pasta until al dente. Drain well. Toss with 1 tablespoon of olive oil, and set aside.", 
        "Meanwhile in a large skillet, cook chopped bacon until slightly crisp; remove and drain onto paper towels. Reserve 2 tablespoons of bacon fat; add remaining 1 tablespoon olive oil, and heat in reused large skillet. Add chopped onion, and cook over medium heat until onion is translucent. Add minced garlic, and cook 1 minute more. Add wine if desired; cook one more minute.", 
        "Return cooked bacon to pan; add cooked and drained spaghetti. Toss to coat and heat through, adding more olive oil if it seems dry or is sticking together. Add beaten eggs and cook, tossing constantly with tongs or large fork until eggs are barely set. Quickly add 1/2 cup Parmesan cheese, and toss again. Add salt and pepper to taste (remember that bacon and Parmesan are very salty).", 
        "Serve immediately with chopped parsley sprinkled on top, and extra Parmesan cheese at table."
    ], 
    "prep_time": "40 mins", 
    "recipe_name": "Spaghetti Carbonara II"
}