{
    "ingredients": [
        {
            "amount": "1 (10 inch)", 
            "ingredient": "pie crust, baked and cooled"
        }, 
        {
            "amount": "1 tablespoon", 
            "ingredient": "grated lime zest"
        }, 
        {
            "amount": "1 cup", 
            "ingredient": "fresh lime juice"
        }, 
        {
            "amount": "1 (14 ounce) can", 
            "ingredient": "sweetened condensed milk"
        }, 
        {
            "amount": "1 (3.5 ounce) package", 
            "ingredient": "instant vanilla pudding mix"
        }, 
        {
            "amount": "1 (8 ounce) container", 
            "ingredient": "frozen whipped topping, thawed"
        }
    ], 
    "prep_steps": [
        "In a large bowl, mix together lime rind, lime juice, and condensed milk. Whisk in pudding mix and allow to set up 5 minutes. Fold in 8 ounce tub of whipped topping. Pour mixture into pastry shell. Chill at least 2 hours before serving. Garnish with additional whipped topping if desired."
    ], 
    "prep_time": "2\u00bd hrs", 
    "recipe_name": "Key Lime Pie VIII"
}