{
    "ingredients": [
        {
            "amount": "3 tablespoons", 
            "ingredient": "butter, melted"
        }, 
        {
            "amount": "1 (16 ounce) package", 
            "ingredient": "frozen mixed vegetables"
        }, 
        {
            "amount": "1 (5 ounce) can", 
            "ingredient": "chicken chunks, drained"
        }, 
        {
            "amount": "2 (10.75 ounce) cans", 
            "ingredient": "condensed cream of chicken soup"
        }, 
        {
            "amount": "1/2 cup", 
            "ingredient": "milk"
        }, 
        {
            "amount": "1 (10 ounce) can", 
            "ingredient": "refrigerated layered biscuits"
        }
    ], 
    "prep_steps": [
        "Preheat oven to 425 degrees F (220 degrees C). Lightly butter a 9 inch deep dish pie pan with melted butter; reserve some of the melted butter.", 
        "In a saucepan over medium heat, combine mixed vegetables and chicken; cook until vegetables are tender. Fold in soup; mix well. Pour in milk and mix until smooth; mixture should not be runny. Add salt and pepper to taste. Bring to a boil.", 
        "Remove from heat and spread mixture into bottom of pie pan. Separate biscuits into layers and place gently on top of mixture. Drizzle remaining butter on top of biscuit layers.", 
        "Bake in preheated oven for 15 minutes, or until golden brown. Let stand for 15 minutes before serving."
    ], 
    "prep_time": "45 mins", 
    "recipe_name": "Cheater Pot Pie"
}