{
    "ingredients": [
        {
            "amount": "1/2 cup", 
            "ingredient": "butter, melted"
        }, 
        {
            "amount": "4 cups", 
            "ingredient": "fresh peaches - peeled, pitted and sliced"
        }, 
        {
            "amount": "2 tablespoons", 
            "ingredient": "white sugar"
        }, 
        {
            "amount": "1 cup", 
            "ingredient": "white sugar"
        }, 
        {
            "amount": "1/4 teaspoon", 
            "ingredient": "salt"
        }, 
        {
            "amount": "1 teaspoon", 
            "ingredient": "baking powder"
        }, 
        {
            "amount": "1 cup", 
            "ingredient": "all-purpose flour"
        }, 
        {
            "amount": "1 teaspoon", 
            "ingredient": "ground cinnamon"
        }, 
        {
            "amount": "1/2 cup", 
            "ingredient": "milk"
        }
    ], 
    "prep_steps": [
        "Preheat oven to 350 degrees F (175 degrees C). Pour butter in to the bottom of a large casserole or 9 x 13 inch pan.", 
        "In the prepared dish, toss together the peaches and 2 tablespoons sugar.", 
        "In a mixing bowl, combine the 1 cup sugar, salt, baking powder, flour, cinnamon, and milk. Spoon batter over the peaches.", 
        "Bake for 45 minutes in the preheated oven, or until top is golden brown."
    ], 
    "prep_time": "1\u00bc hrs", 
    "recipe_name": "Peach Cobbler I"
}