{
    "ingredients": [
        {
            "amount": "3/4 cup", 
            "ingredient": "butter"
        }, 
        {
            "amount": "1 cup", 
            "ingredient": "white sugar"
        }, 
        {
            "amount": "1", 
            "ingredient": "egg"
        }, 
        {
            "amount": "2 tablespoons", 
            "ingredient": "corn syrup"
        }, 
        {
            "amount": "1 teaspoon", 
            "ingredient": "lemon extract"
        }, 
        {
            "amount": "2 cups", 
            "ingredient": "all-purpose flour"
        }, 
        {
            "amount": "1 teaspoon", 
            "ingredient": "baking soda"
        }, 
        {
            "amount": "1 teaspoon", 
            "ingredient": "baking powder"
        }, 
        {
            "amount": "1/2 cup", 
            "ingredient": "white sugar"
        }
    ], 
    "prep_steps": [
        "In a medium bowl, cream together butter and 1 cup sugar until light and fluffy. Beat in egg, corn syrup, and lemon extract. Stir in flour, baking soda, and baking powder. Cover dough, and chill in the refrigerator at least 1 hour.", 
        "Preheat oven to 325 degrees F (165 degrees C). Line a cookie sheet with parchment paper. Roll chilled dough into walnut sized balls. Roll balls in remaining sugar, and place on the prepared cookie sheet.", 
        "Bake 12 minutes in the preheated oven, or until lightly browned."
    ], 
    "prep_time": "2 hr", 
    "recipe_name": "Lemon Sugar Tea Cookies"
}