{
    "ingredients": [
        {
            "amount": "1 (1 ounce) package", 
            "ingredient": "Ranch-style dressing mix"
        }, 
        {
            "amount": "1/2 teaspoon", 
            "ingredient": "dried dill weed"
        }, 
        {
            "amount": "1/4 cup", 
            "ingredient": "vegetable oil"
        }, 
        {
            "amount": "1/4 teaspoon", 
            "ingredient": "lemon pepper"
        }, 
        {
            "amount": "1/4 teaspoon", 
            "ingredient": "garlic powder"
        }, 
        {
            "amount": "5 cups", 
            "ingredient": "oyster crackers"
        }
    ], 
    "prep_steps": [
        "Preheat oven to 250 degrees F (120 degrees C).", 
        "In a large bowl, combine the dressing mix, dill weed, vegetable oil, lemon pepper, and garlic powder. Add oyster crackers, and toss to coat. Spread evenly on a baking sheet.", 
        "Bake for 15 to 20 minutes in the preheated oven, stirring gently after 10 minutes. Remove from oven, and allow to cool before serving."
    ], 
    "prep_time": "45 mins", 
    "recipe_name": "Ranch Oyster Crackers"
}