{
    "ingredients": [
        {
            "amount": "1 tablespoon", 
            "ingredient": "vegetable oil"
        }, 
        {
            "amount": "1 cup", 
            "ingredient": "diced onion"
        }, 
        {
            "amount": "3 tablespoons", 
            "ingredient": "chopped garlic"
        }, 
        {
            "amount": "1 teaspoon", 
            "ingredient": "dried oregano"
        }, 
        {
            "amount": "1 teaspoon", 
            "ingredient": "ground cumin"
        }, 
        {
            "amount": "1/4 teaspoon", 
            "ingredient": "ground cinnamon"
        }, 
        {
            "amount": "3 tablespoons", 
            "ingredient": "all-purpose flour"
        }, 
        {
            "amount": "5 tablespoons", 
            "ingredient": "hot chili powder"
        }, 
        {
            "amount": "4 1/2 cups", 
            "ingredient": "chicken broth"
        }, 
        {
            "amount": "1/2 (1 ounce) square", 
            "ingredient": "semisweet chocolate"
        }
    ], 
    "prep_steps": [
        "Heat oil in a large saucepan over medium-high high heat. Saute onion until tender. Stir in garlic, oregano, cumin and cinnamon; saute for a few minutes.", 
        "Stir in flour and chili powder, stirring until sauce thickens. Slowly whisk in chicken broth; reduce until sauce reaches desired consistency. Stir in chocolate until melted and well blended."
    ], 
    "prep_time": "40 mins", 
    "recipe_name": "Enchilada Sauce"
}