{
    "ingredients": [
        {
            "amount": "3", 
            "ingredient": "eggs"
        }, 
        {
            "amount": "3/4 cup", 
            "ingredient": "vegetable oil"
        }, 
        {
            "amount": "2/3 cup", 
            "ingredient": "packed brown sugar"
        }, 
        {
            "amount": "1 cup", 
            "ingredient": "white sugar"
        }, 
        {
            "amount": "1 cup", 
            "ingredient": "grated zucchini"
        }, 
        {
            "amount": "2", 
            "ingredient": "bananas, mashed"
        }, 
        {
            "amount": "2 teaspoons", 
            "ingredient": "vanilla extract"
        }, 
        {
            "amount": "3 1/2 cups", 
            "ingredient": "all-purpose flour"
        }, 
        {
            "amount": "1 tablespoon", 
            "ingredient": "ground cinnamon"
        }, 
        {
            "amount": "1 1/2 teaspoons", 
            "ingredient": "baking powder"
        }, 
        {
            "amount": "1 teaspoon", 
            "ingredient": "baking soda"
        }, 
        {
            "amount": "1 teaspoon", 
            "ingredient": "salt"
        }, 
        {
            "amount": "1/2 cup", 
            "ingredient": "dried cranberries"
        }, 
        {
            "amount": "1/2 cup", 
            "ingredient": "chopped walnuts"
        }
    ], 
    "prep_steps": [
        "Preheat oven to 325 degrees F (165 degrees C). Grease and flour two 8x4 inch bread loaf pans.", 
        "In a large bowl, beat eggs until light yellow and frothy. Add oil, brown sugar, white sugar, grated zucchini, bananas, and vanilla; blend together until well combined. Stir in the flour, cinnamon, baking powder, baking soda, and salt. Mix in the cranberries and nuts. Divide the batter evenly between the two prepared loaf pans.", 
        "Bake in the preheated oven until a toothpick inserted in the center comes out clean, about 50 minutes. Allow to cool in the loaf pans on a wire rack before removing and serving."
    ], 
    "prep_time": "1\u00bc hrs", 
    "recipe_name": "Banana-Zucchini Bread"
}