{
    "ingredients": [
        {
            "amount": "1 pinch", 
            "ingredient": "salt"
        }, 
        {
            "amount": "1/2 cup", 
            "ingredient": "all-purpose flour"
        }, 
        {
            "amount": "2 (6 ounce)", 
            "ingredient": "skinless, boneless chicken breast halves"
        }, 
        {
            "amount": "2 tablespoons", 
            "ingredient": "olive oil"
        }, 
        {
            "amount": "1/4 cup", 
            "ingredient": "dry white wine"
        }, 
        {
            "amount": "1/4 cup", 
            "ingredient": "lemon juice"
        }, 
        {
            "amount": "1/4 cup", 
            "ingredient": "cold unsalted butter, cut into pieces"
        }, 
        {
            "amount": "2 tablespoons", 
            "ingredient": "capers, drained"
        }, 
        {
            "amount": "2", 
            "ingredient": "lemon wedges"
        }
    ], 
    "prep_steps": [
        "Mix together salt and flour in a small dish or plastic bag, then coat chicken and shake off excess. Heat olive oil in a skillet over medium-high heat. Shake excess flour from chicken, then brown in hot oil until both sides are golden-brown, and the inside has turned white and firm, 3 to 4 minutes per side.", 
        "Remove the chicken, and set aside in a warm place. Pour white wine into the skillet, and allow to boil as you dissolve the cooked bits from the bottom of the pan. Add the lemon juice, and allow to come to a boil, cook for a few minutes until reduced by half.", 
        "Sprinkle the cubed butter into the boiling sauce. Swirl and shake the pan vigorously to dissolve the butter, thus thickening the sauce. The butter must never come to rest, or the sauce will separate and become oily. Once the butter has completely incorporated, remove from heat and stir in capers.", 
        "To serve, pour lemon-caper sauce over the chicken, and serve with a wedge of lemon."
    ], 
    "prep_time": "30 mins", 
    "recipe_name": "Chicken with Lemon-Caper Sauce"
}