{
    "ingredients": [
        {
            "amount": "1 pound", 
            "ingredient": "bok choy"
        }, 
        {
            "amount": "1 tablespoon", 
            "ingredient": "vegetable oil"
        }, 
        {
            "amount": "1 tablespoon", 
            "ingredient": "sesame oil"
        }, 
        {
            "amount": "1/4 cup", 
            "ingredient": "water"
        }, 
        {
            "amount": "1 teaspoon", 
            "ingredient": "grated fresh ginger root"
        }, 
        {
            "amount": "2 cloves", 
            "ingredient": "garlic, minced"
        }, 
        {
            "amount": "1 tablespoon", 
            "ingredient": "oyster sauce"
        }, 
        {
            "amount": "1 tablespoon", 
            "ingredient": "light soy sauce"
        }, 
        {
            "amount": "1 tablespoon", 
            "ingredient": "brown sugar"
        }, 
        {
            "amount": "1/8 teaspoon", 
            "ingredient": "crushed red pepper flakes"
        }
    ], 
    "prep_steps": [
        "Trim off the ends of the bok choy and chop, keeping the white parts separate from the green as they will need to cook longer. Rinse and spin or pat dry. Set aside.", 
        "In a small bowl or cup, stir together the vegetable oil and sesame oil. In a separate larger bowl, stir together the water, ginger, garlic, oyster sauce, soy sauce, brown sugar and red pepper flakes. Set this aside.", 
        "Heat the oil in a large skillet or wok over medium-high heat. Add the bok choy stems first; stir fry for a few minutes or until the pieces start to turn a pale green. When stems are almost cooked, add the leaves; cook and stir until leaves are wilted, 1 to 2 minutes. Remove from the heat and transfer the bok choy to a serving dish. Pour the sauce into the skillet or wok, and set over medium-high heat. Cook, stirring constantly, until sauce has thickened slightly, about 3 minutes. Pour over the bok choy and toss lightly to coat."
    ], 
    "prep_time": "30 mins", 
    "recipe_name": "Spicy Bok Choy in Garlic Sauce"
}