{
    "ingredients": [
        {
            "amount": "1/2 cup", 
            "ingredient": "chopped red bell pepper"
        }, 
        {
            "amount": "1/2 cup", 
            "ingredient": "chopped onion"
        }, 
        {
            "amount": "1/4 cup", 
            "ingredient": "margarine"
        }, 
        {
            "amount": "1 cup", 
            "ingredient": "chopped celery"
        }, 
        {
            "amount": "1 cup", 
            "ingredient": "cauliflower, chopped"
        }, 
        {
            "amount": "1 cup", 
            "ingredient": "diced carrots"
        }, 
        {
            "amount": "1 cup", 
            "ingredient": "fresh chopped broccoli"
        }, 
        {
            "amount": "3 cups", 
            "ingredient": "water"
        }, 
        {
            "amount": "3 cubes", 
            "ingredient": "chicken bouillon"
        }, 
        {
            "amount": "1/2 cup", 
            "ingredient": "all-purpose flour"
        }, 
        {
            "amount": "1 tablespoon", 
            "ingredient": "chopped fresh parsley"
        }, 
        {
            "amount": "3 cups", 
            "ingredient": "shredded Cheddar cheese"
        }, 
        {
            "amount": "1 1/2 cups", 
            "ingredient": "milk"
        }
    ], 
    "prep_steps": [
        "In a Dutch oven or soup kettle, saute the pepper and onions in butter or margarine until tender.", 
        "Add remaining vegetables, water, bouillon, salt, and pepper; bring to a boil. Reduce heat; simmer covered for 20 minutes, or until the vegetables are tender.", 
        "Combine flour and milk until smooth; stir into pan. Bring soup to a boil; cook and stir for 2 minutes. Mix in the parsley. Just before serving, stir in the cheese until melted."
    ], 
    "prep_time": "50 mins", 
    "recipe_name": "Vegetable Chowder"
}