{
    "ingredients": [
        {
            "amount": "1/2 pound", 
            "ingredient": "bacon"
        }, 
        {
            "amount": "1 pound", 
            "ingredient": "ground round"
        }, 
        {
            "amount": "1 pound", 
            "ingredient": "ground pork"
        }, 
        {
            "amount": "1", 
            "ingredient": "green bell pepper, diced"
        }, 
        {
            "amount": "1", 
            "ingredient": "yellow onion, diced"
        }, 
        {
            "amount": "6", 
            "ingredient": "jalapeno peppers, seeded and chopped"
        }, 
        {
            "amount": "6", 
            "ingredient": "habanero peppers, seeded and chopped"
        }, 
        {
            "amount": "8", 
            "ingredient": "Anaheim peppers, seeded and diced"
        }, 
        {
            "amount": "2 cloves", 
            "ingredient": "garlic, minced"
        }, 
        {
            "amount": "1 1/2 tablespoons", 
            "ingredient": "ground cumin"
        }, 
        {
            "amount": "1 tablespoon", 
            "ingredient": "crushed red pepper flakes"
        }, 
        {
            "amount": "3 tablespoons", 
            "ingredient": "chili powder"
        }, 
        {
            "amount": "2 tablespoons", 
            "ingredient": "beef bouillon granules"
        }, 
        {
            "amount": "1 (28 ounce) can", 
            "ingredient": "crushed tomatoes"
        }, 
        {
            "amount": "2 (16 ounce) cans", 
            "ingredient": "whole peeled tomatoes, drained"
        }, 
        {
            "amount": "2 (16 ounce) cans", 
            "ingredient": "chili beans, drained"
        }, 
        {
            "amount": "1 (12 fluid ounce) can", 
            "ingredient": "beer"
        }, 
        {
            "amount": "3 ounces", 
            "ingredient": "tomato paste"
        }, 
        {
            "amount": "1 ounce", 
            "ingredient": "chile paste"
        }, 
        {
            "amount": "2 cups", 
            "ingredient": "water"
        }
    ], 
    "prep_steps": [
        "Place bacon in a large soup pot. Cook over medium high heat until evenly brown. Drain excess grease, leaving enough to coat bottom of pot Remove bacon, drain on paper towels and chop.", 
        "Brown beef and pork in pot over medium high heat. When meat is browned, stir in the bell pepper, onion, jalapeno peppers, habanero peppers, Anaheim peppers, garlic, cumin, red pepper flakes, chili powder, bouillon, crushed tomatoes, whole tomatoes, beer, tomato paste, chile paste and water.", 
        "Reduce heat to low and simmer for 45 to 60 minutes, stirring occasionally. Add beans and bacon and continue simmering for another 30 minutes."
    ], 
    "prep_time": "2 hr", 
    "recipe_name": "Habanero Hellfire Chili"
}