{
    "ingredients": [
        {
            "amount": "1 (16 ounce) package", 
            "ingredient": "dry lentils"
        }, 
        {
            "amount": "1 (16 ounce) can", 
            "ingredient": "diced tomatoes, drained"
        }, 
        {
            "amount": "2 (14 ounce) cans", 
            "ingredient": "beef broth"
        }, 
        {
            "amount": "3 cups", 
            "ingredient": "water"
        }, 
        {
            "amount": "1", 
            "ingredient": "carrot, chopped"
        }, 
        {
            "amount": "2 pounds", 
            "ingredient": "kielbasa (Polish) sausage, cut into 1/2 inch pieces"
        }, 
        {
            "amount": "1 stalk", 
            "ingredient": "celery, chopped"
        }
    ], 
    "prep_steps": [
        "Rinse and drain lentils, but do not soak. In a slow cooker, stir together the lentils, tomatoes, broth, water, carrot, sausage, and celery.", 
        "Cover, and cook on High for 3 hours, or Low for 6 to 7 hours. Stir well before serving."
    ], 
    "prep_time": "3 hrs", 
    "recipe_name": "Slow Cooker Lentils and Sausage"
}