{
    "ingredients": [
        {
            "amount": "2 tablespoons", 
            "ingredient": "vegetable oil"
        }, 
        {
            "amount": "1 pound", 
            "ingredient": "round steak, cut into thin strips on the diagonal"
        }, 
        {
            "amount": "1/4 cup", 
            "ingredient": "orange peel, cut into slivers"
        }, 
        {
            "amount": "1 clove", 
            "ingredient": "garlic, minced"
        }, 
        {
            "amount": "1/2 teaspoon", 
            "ingredient": "ground ginger"
        }, 
        {
            "amount": "2 tablespoons", 
            "ingredient": "cornstarch"
        }, 
        {
            "amount": "1 cup", 
            "ingredient": "beef broth"
        }, 
        {
            "amount": "1/4 cup", 
            "ingredient": "soy sauce"
        }, 
        {
            "amount": "1/4 cup", 
            "ingredient": "sherry"
        }, 
        {
            "amount": "1/4 cup", 
            "ingredient": "orange marmalade"
        }, 
        {
            "amount": "1/2 teaspoon", 
            "ingredient": "crushed red pepper flakes"
        }
    ], 
    "prep_steps": [
        "In a wok or skillet, heat oil over medium-high heat. Add beef strips 1/3 at a time. Stir-fry for 3 minutes or until browned, removing the done pieces to a plate lined with paper towels.", 
        "Return all the beef to the wok. Stir in orange peel, garlic, and ginger; stir-fry 1 minute.", 
        "In a medium bowl, combine cornstarch, broth, soy sauce, sherry, marmalade, and red pepper. Pour this mixture into the beef, stirring constantly. Bring to a boil over medium heat and cook for 1 minute. Serve hot."
    ], 
    "prep_time": "30 mins", 
    "recipe_name": "Spicy Orange Beef"
}