{
    "ingredients": [
        {
            "amount": "3/4 cup", 
            "ingredient": "butter"
        }, 
        {
            "amount": "3/4 cup", 
            "ingredient": "all-purpose flour"
        }, 
        {
            "amount": "9 cups", 
            "ingredient": "chicken stock"
        }, 
        {
            "amount": "9 cups", 
            "ingredient": "milk"
        }, 
        {
            "amount": "1 teaspoon", 
            "ingredient": "salt"
        }, 
        {
            "amount": "1 1/2 teaspoons", 
            "ingredient": "white pepper"
        }, 
        {
            "amount": "5 cups", 
            "ingredient": "fresh broccoli florets"
        }, 
        {
            "amount": "1 1/2 pounds", 
            "ingredient": "processed cheese, shredded"
        }, 
        {
            "amount": "3 cups", 
            "ingredient": "shredded Cheddar cheese"
        }
    ], 
    "prep_steps": [
        "Melt the butter in a large pot over medium heat, and mix in the flour. Reduce heat to low, and cook, stirring constantly, about 2 minutes. Mix in the chicken stock and milk, and season with salt and white pepper. Bring to a boil, reduce heat to low, and simmer about 10 minutes.", 
        "Bring a pot of lightly salted water to a boil. Place the broccoli in the boiling water, and cook 2 minutes, or until just tender. Remove from heat, drain, and set aside.", 
        "Gradually mix the processed cheese and Cheddar cheese into the large pot until melted. Mix in the broccoli. Continue cooking about 5 minutes."
    ], 
    "prep_time": "45 mins", 
    "recipe_name": "Excellent Broccoli Cheese Soup"
}