{
    "ingredients": [
        {
            "amount": "1 tablespoon", 
            "ingredient": "butter"
        }, 
        {
            "amount": "1/2 cup", 
            "ingredient": "chopped green bell pepper"
        }, 
        {
            "amount": "1/4 cup", 
            "ingredient": "sliced green onions"
        }, 
        {
            "amount": "1 clove", 
            "ingredient": "garlic, minced"
        }, 
        {
            "amount": "3 cups", 
            "ingredient": "tomato-vegetable juice cocktail"
        }, 
        {
            "amount": "1 (8 ounce) bottle", 
            "ingredient": "clam juice"
        }, 
        {
            "amount": "1/2 cup", 
            "ingredient": "water"
        }, 
        {
            "amount": "1/4 teaspoon", 
            "ingredient": "dried thyme"
        }, 
        {
            "amount": "1/4 teaspoon", 
            "ingredient": "dried basil"
        }, 
        {
            "amount": "1/4 teaspoon", 
            "ingredient": "red pepper flakes"
        }, 
        {
            "amount": "1", 
            "ingredient": "bay leaf"
        }, 
        {
            "amount": "1/2 teaspoon", 
            "ingredient": "salt"
        }, 
        {
            "amount": "1/2 cup", 
            "ingredient": "uncooked long-grain white rice"
        }, 
        {
            "amount": "3/4 pound", 
            "ingredient": "fresh shrimp, peeled and deveined"
        }
    ], 
    "prep_steps": [
        "Melt butter in a large pot over medium heat. Saute green bell pepper, onions, and garlic until tender. Stir in vegetable juice, clam juice, and water. Season with thyme, basil, red pepper, bay leaf, and salt. Bring to a boil, and stir in rice. Reduce heat, and cover. Simmer 15 minutes, until rice is tender.", 
        "Stir in shrimp, and cook 5 minutes, or until shrimp are opaque. Remove the bay leaf, and season with hot sauce."
    ], 
    "prep_time": "40 mins", 
    "recipe_name": "Big Ed's Cajun Shrimp Soup"
}