{
    "ingredients": [
        {
            "amount": "5 slices", 
            "ingredient": "bacon"
        }, 
        {
            "amount": "1 tablespoon", 
            "ingredient": "olive oil"
        }, 
        {
            "amount": "1/2", 
            "ingredient": "white onion, chopped"
        }, 
        {
            "amount": "2 teaspoons", 
            "ingredient": "garlic, minced"
        }, 
        {
            "amount": "2 cups", 
            "ingredient": "beef stock"
        }, 
        {
            "amount": "1 (15.5 ounce) can", 
            "ingredient": "pinto beans"
        }, 
        {
            "amount": "1 (14.5 ounce) can", 
            "ingredient": "Italian-style stewed tomatoes"
        }, 
        {
            "amount": "2 stalks", 
            "ingredient": "celery, chopped"
        }, 
        {
            "amount": "1", 
            "ingredient": "bay leaf"
        }, 
        {
            "amount": "1", 
            "ingredient": "medium apple, thinly sliced"
        }, 
        {
            "amount": "1/2 cup", 
            "ingredient": "red wine"
        }
    ], 
    "prep_steps": [
        "Place bacon in a large, deep skillet. Cook over medium high heat until evenly brown. Drain, coarsely chop, and set aside.", 
        "Heat olive oil in a large saucepan over medium heat, and saute white onion and garlic 3 to 5 minutes, or until tender. Stir in beef stock, pinto beans, tomatoes, celery, and bay leaf. Bring the mixture to a boil. Reduce heat, and simmer.", 
        "In a small saucepan over medium heat, cook and stir the apple in the red wine until soft.", 
        "Mix bacon, apple, and remaining red wine into the soup mixture. Season with salt and pepper. Continue to simmer, stirring occasionally until well blended."
    ], 
    "prep_time": "45 mins", 
    "recipe_name": "Apple Bacon Tomato Soup"
}