{
    "ingredients": [
        {
            "amount": "1/2 cup", 
            "ingredient": "shortening"
        }, 
        {
            "amount": "1 cup", 
            "ingredient": "white sugar"
        }, 
        {
            "amount": "2", 
            "ingredient": "eggs, beaten"
        }, 
        {
            "amount": "1/2 teaspoon", 
            "ingredient": "vanilla extract"
        }, 
        {
            "amount": "1 cup", 
            "ingredient": "all-purpose flour"
        }, 
        {
            "amount": "1 cup", 
            "ingredient": "quick cooking oats"
        }, 
        {
            "amount": "1 teaspoon", 
            "ingredient": "baking soda"
        }, 
        {
            "amount": "1/2 teaspoon", 
            "ingredient": "salt"
        }, 
        {
            "amount": "1/4 cup", 
            "ingredient": "milk"
        }, 
        {
            "amount": "1/2 teaspoon", 
            "ingredient": "ground cinnamon"
        }, 
        {
            "amount": "1 1/2 cups", 
            "ingredient": "mashed bananas"
        }, 
        {
            "amount": "1/2 cup", 
            "ingredient": "chopped raisins"
        }
    ], 
    "prep_steps": [
        "Preheat oven to 350 degrees F (175 degrees C). Grease a 9x5-inch loaf pan and set aside.", 
        "Cream together the shortening and sugar. Add eggs and vanilla; beat until fluffy.", 
        "Sift together the flour, oatmeal, baking soda, salt and cinnamon. Add dry ingredients alternately with bananas and milk. Mix until blended.", 
        "Fold in raisins and pour into prepared pan. Bake for 50 to 60 minutes; remove from oven and cover for 5 minutes."
    ], 
    "prep_time": "1\u00bd hrs", 
    "recipe_name": "Banana Oatmeal Bread"
}