{
    "ingredients": [
        {
            "amount": "2 medium", 
            "ingredient": "cucumbers, cubed"
        }, 
        {
            "amount": "2", 
            "ingredient": "avocados, cubed"
        }, 
        {
            "amount": "4 tablespoons", 
            "ingredient": "chopped fresh cilantro"
        }, 
        {
            "amount": "1 clove", 
            "ingredient": "garlic, minced"
        }, 
        {
            "amount": "2 tablespoons", 
            "ingredient": "minced green onions"
        }, 
        {
            "amount": "1/4 teaspoon", 
            "ingredient": "salt"
        }, 
        {
            "amount": "1/4 large", 
            "ingredient": "lemon"
        }, 
        {
            "amount": "1", 
            "ingredient": "lime"
        }
    ], 
    "prep_steps": [
        "In a large bowl, combine cucumbers, avocados, and cilantro. Stir in garlic, onions, salt, and pepper. Squeeze lemon and lime over the top, and toss. Cover, and refrigerate at least 30 minutes."
    ], 
    "prep_time": "45 mins", 
    "recipe_name": "Tangy Cucumber and Avocado Salad"
}