{
    "ingredients": [
        {
            "amount": "3 cups", 
            "ingredient": "white sugar"
        }, 
        {
            "amount": "3/4 cup", 
            "ingredient": "butter"
        }, 
        {
            "amount": "3/4 cup", 
            "ingredient": "milk"
        }, 
        {
            "amount": "1/2 teaspoon", 
            "ingredient": "vanilla extract"
        }, 
        {
            "amount": "1 1/2 cups", 
            "ingredient": "peanut butter"
        }, 
        {
            "amount": "4 1/2 cups", 
            "ingredient": "quick-cooking oats"
        }
    ], 
    "prep_steps": [
        "In a saucepan over medium heat, combine sugar, butter and milk. Bring to a rapid boil and boil for one full minute. Remove from heat and stir in the vanilla and peanut butter. Mix in the oats, stirring until the mixture begins to cool. Transfer to a large bowl if it does not fit into the pan well. Drop batter by teaspoonfuls onto waxed paper. Let cool until set."
    ], 
    "prep_time": "10 mins", 
    "recipe_name": "No-Bake Peanut Butter Cookies III"
}