{
    "ingredients": [
        {
            "amount": "1 (8 ounce) package", 
            "ingredient": "cream cheese, softened"
        }, 
        {
            "amount": "4", 
            "ingredient": "green onions, finely chopped"
        }, 
        {
            "amount": "1/4 cup", 
            "ingredient": "salsa"
        }, 
        {
            "amount": "4 ounces", 
            "ingredient": "shredded Cheddar cheese"
        }, 
        {
            "amount": "10 (10 inch)", 
            "ingredient": "flour tortillas"
        }
    ], 
    "prep_steps": [
        "In a medium bowl, mix together the cream cheese, green onions, salsa and Cheddar cheese.", 
        "Spread the cream cheese mixture on the tortillas. Roll the tortillas and refrigerate about 4 hours before slicing into 1 inch long pieces."
    ], 
    "prep_time": "4 hrs", 
    "recipe_name": "Tortilla Rollups II"
}