{
    "ingredients": [
        {
            "amount": "1 1/2 cups", 
            "ingredient": "unsalted butter"
        }, 
        {
            "amount": "3/4 cup", 
            "ingredient": "confectioners' sugar"
        }, 
        {
            "amount": "3/4 teaspoon", 
            "ingredient": "salt"
        }, 
        {
            "amount": "1 1/2 cups", 
            "ingredient": "finely ground almonds"
        }, 
        {
            "amount": "4 1/2 teaspoons", 
            "ingredient": "vanilla extract"
        }, 
        {
            "amount": "3 cups", 
            "ingredient": "sifted all-purpose flour"
        }, 
        {
            "amount": "1/3 cup", 
            "ingredient": "confectioners' sugar for rolling"
        }
    ], 
    "prep_steps": [
        "Preheat oven to 325 degrees F (165 degrees C).", 
        "Cream butter or margarine in a bowl, gradually add confectioners' sugar and salt. Beat until light and fluffy. Add almonds and vanilla. Blend in flour gradually and mix well.", 
        "Shape into balls (or crescents) using about 1 teaspoon for each cookie. Place on ungreased cookie sheets, and bake for 15-20 min. Do not brown. Cool slightly, then roll in the extra confectioners' sugar."
    ], 
    "prep_time": "1\u00bd hrs", 
    "recipe_name": "Italian Wedding Cookies III"
}