{
    "ingredients": [
        {
            "amount": "1/2 (12 ounce) package", 
            "ingredient": "uncooked lasagna noodles"
        }, 
        {
            "amount": "1 (12 ounce) package", 
            "ingredient": "firm tofu, crumbled"
        }, 
        {
            "amount": "2", 
            "ingredient": "eggs"
        }, 
        {
            "amount": "1/4 teaspoon", 
            "ingredient": "salt"
        }, 
        {
            "amount": "1/4 teaspoon", 
            "ingredient": "black pepper"
        }, 
        {
            "amount": "1/4 teaspoon", 
            "ingredient": "ground nutmeg"
        }, 
        {
            "amount": "2 tablespoons", 
            "ingredient": "milk"
        }, 
        {
            "amount": "1 cup", 
            "ingredient": "spaghetti sauce"
        }, 
        {
            "amount": "1 tablespoon", 
            "ingredient": "dried parsley"
        }, 
        {
            "amount": "2 cups", 
            "ingredient": "shredded mozzarella cheese, divided"
        }, 
        {
            "amount": "1/2 cup", 
            "ingredient": "grated Parmesan cheese"
        }
    ], 
    "prep_steps": [
        "Preheat oven to 350 degrees F (175 degrees C).", 
        "Bring a large pot of lightly salted water to a boil. Add lasagna and cook for 8 to 10 minutes or until al dente; drain.", 
        "In a medium bowl combine tofu, eggs, salt, pepper, nutmeg, milk, spaghetti sauce, parsley and 1 cup of mozzarella cheese. Spread a layer in the bottom of a 9x13 inch baking dish.", 
        "Layer lasagna noodles with the sauce mixture, ending with sauce. Sprinkle with remaining mozzarella and Parmesan cheese.", 
        "Bake in preheated oven for 25 to 35 minutes."
    ], 
    "prep_time": "55 mins", 
    "recipe_name": "Tofu Lasagna"
}