{
    "ingredients": [
        {
            "amount": "2 cups", 
            "ingredient": "thinly sliced celery"
        }, 
        {
            "amount": "1 1/2 cups", 
            "ingredient": "sliced green onions"
        }, 
        {
            "amount": "2 tablespoons", 
            "ingredient": "butter"
        }, 
        {
            "amount": "1 1/2 pounds", 
            "ingredient": "hot dogs (beef and pork frankfurters)"
        }, 
        {
            "amount": "2", 
            "ingredient": "eggs"
        }, 
        {
            "amount": "1 1/2 cups", 
            "ingredient": "milk"
        }, 
        {
            "amount": "2 teaspoons", 
            "ingredient": "ground sage"
        }, 
        {
            "amount": "1/4 teaspoon", 
            "ingredient": "ground black pepper"
        }, 
        {
            "amount": "2 (8.5 ounce) packages", 
            "ingredient": "dry corn bread mix"
        }, 
        {
            "amount": "2 cups", 
            "ingredient": "shredded Cheddar cheese, divided"
        }
    ], 
    "prep_steps": [
        "In a medium skillet, saute celery and green onions in butter for 5 minutes. Place saute mixture in a large bowl; set aside.", 
        "Slice hot dogs lengthwise into quarters, then cut into thirds. In same skillet, saute hot dogs for 5 minutes or until lightly browned. Add to celery/onion mixture and mix all together. Set aside 1 cup of mixture.", 
        "Preheat oven to 400 degrees F (200 degrees C).", 
        "In a large bowl combine the eggs, milk, sage and pepper. Add all but reserved 1 cup hot dog mixture. Stir in corn bread mix and 1 1/2 cups shredded cheese. Mix all together and spread mixture into a shallow 3 quart baking dish. Top with reserved 1 cup hot dog mixture and remaining 1/2 cup shredded cheese.", 
        "Bake uncovered in preheated oven for 30 minutes, or until golden brown."
    ], 
    "prep_time": "45 mins", 
    "recipe_name": "Corn Dog Casserole"
}