{
    "ingredients": [
        {
            "amount": "1 large head", 
            "ingredient": "cauliflower, broken into small florets"
        }, 
        {
            "amount": "1/2 cup", 
            "ingredient": "butter, melted"
        }, 
        {
            "amount": "1/4 cup", 
            "ingredient": "grated Parmesan cheese"
        }, 
        {
            "amount": "2/3 cup", 
            "ingredient": "Italian seasoned bread crumbs"
        }, 
        {
            "amount": "1 pinch", 
            "ingredient": "salt"
        }, 
        {
            "amount": "1 teaspoon", 
            "ingredient": "crushed red pepper flakes"
        }, 
        {
            "amount": "1 cup", 
            "ingredient": "shredded Cheddar cheese"
        }
    ], 
    "prep_steps": [
        "Preheat oven to 350 degrees F (175 degrees C).", 
        "Bring 2 inches of water to a boil in a medium saucepan. Add cauliflower, cover, and cook for about 10 minutes. Drain, and place in a 2 quart casserole dish.", 
        "In a small bowl mix together butter, Parmesan cheese, bread crumbs, salt, and red pepper flakes. Sprinkle mixture over cauliflower, and top with Cheddar cheese.", 
        "Bake in the preheated oven for 20 minutes, or until cheese is melted and bubbly."
    ], 
    "prep_time": "45 mins", 
    "recipe_name": "Cauliflower Casserole"
}