{
    "ingredients": [
        {
            "amount": "1 cup", 
            "ingredient": "butterscotch chips"
        }, 
        {
            "amount": "1/2 cup", 
            "ingredient": "peanut butter"
        }, 
        {
            "amount": "1/2 cup", 
            "ingredient": "salted peanuts"
        }, 
        {
            "amount": "2 cups", 
            "ingredient": "chow mein noodles"
        }
    ], 
    "prep_steps": [
        "Melt butterscotch chips and peanut butter on top of a double boiler, or in a microwave. Blend together.", 
        "Stir peanuts and noodles gently into the melted peanut butter mixture.", 
        "Drop dough by forkfuls onto waxed paper. Cool until set."
    ], 
    "recipe_name": "Peanut Butter Haystacks"
}