{
    "ingredients": [
        {
            "amount": "1 1/4 cups", 
            "ingredient": "warm water (110 degrees F/45 degrees C)"
        }, 
        {
            "amount": "3 cups", 
            "ingredient": "bread flour"
        }, 
        {
            "amount": "2 tablespoons", 
            "ingredient": "dry milk powder"
        }, 
        {
            "amount": "2 tablespoons", 
            "ingredient": "white sugar"
        }, 
        {
            "amount": "1 1/2 teaspoons", 
            "ingredient": "salt"
        }, 
        {
            "amount": "2 tablespoons", 
            "ingredient": "butter, softened"
        }, 
        {
            "amount": "3 tablespoons", 
            "ingredient": "grated Parmesan cheese"
        }, 
        {
            "amount": "1 1/2 teaspoons", 
            "ingredient": "dried marjoram"
        }, 
        {
            "amount": "1 1/2 teaspoons", 
            "ingredient": "dried thyme"
        }, 
        {
            "amount": "1 teaspoon", 
            "ingredient": "dried basil"
        }, 
        {
            "amount": "1 teaspoon", 
            "ingredient": "dried oregano"
        }, 
        {
            "amount": "1 tablespoon", 
            "ingredient": "active dry yeast"
        }
    ], 
    "prep_steps": [
        "Place ingredients in bread machine pan in the order suggested by the manufacturer. Select the Basic or White Bread cycle, and press Start."
    ], 
    "prep_time": "3 hr", 
    "recipe_name": "Cheese Herb Bread"
}