{
    "ingredients": [
        {
            "amount": "3 tablespoons", 
            "ingredient": "crumbled blue cheese"
        }, 
        {
            "amount": "2 tablespoons", 
            "ingredient": "butter, softened"
        }, 
        {
            "amount": "1 teaspoon", 
            "ingredient": "fresh chives"
        }, 
        {
            "amount": "1 tablespoon", 
            "ingredient": "coarsely ground black pepper"
        }, 
        {
            "amount": "1 teaspoon", 
            "ingredient": "garlic salt"
        }, 
        {
            "amount": "1 teaspoon", 
            "ingredient": "onion powder"
        }, 
        {
            "amount": "1/4 teaspoon", 
            "ingredient": "ground cayenne pepper"
        }, 
        {
            "amount": "1 (2 pound)", 
            "ingredient": "beef flank steak"
        }, 
        {
            "amount": "2 tablespoons", 
            "ingredient": "olive oil, divided"
        }
    ], 
    "prep_steps": [
        "Preheat the grill for low heat.", 
        "In a bowl, mix the blue cheese, butter, and chives. Set aside. In a separate bowl, mix the black pepper, garlic salt, onion powder, and cayenne pepper.", 
        "Rub the steak with olive oil. Coat both sides of the meat with the spice mixture, and rub in by hand or press with a spatula.", 
        "Lightly oil the grill grate. Place meat on the grill, and cook 10 to 15 minutes per side, or to desired doneness. Grill to rare or medium rare for best flavor. Remove from grill, and slice lengthwise into thin strips. Top with a large dollop of blue cheese butter, and serve."
    ], 
    "prep_time": "55 mins", 
    "recipe_name": "Kickin' London Broil with Bleu Cheese Butter"
}