{
    "ingredients": [
        {
            "amount": "1 1/2 cups", 
            "ingredient": "all-purpose flour"
        }, 
        {
            "amount": "3/4 cup", 
            "ingredient": "unsweetened cocoa powder"
        }, 
        {
            "amount": "1 1/4 teaspoons", 
            "ingredient": "baking powder"
        }, 
        {
            "amount": "1/8 teaspoon", 
            "ingredient": "salt"
        }, 
        {
            "amount": "3/4 cup", 
            "ingredient": "butter, softened"
        }, 
        {
            "amount": "1 1/4 cups", 
            "ingredient": "white sugar"
        }, 
        {
            "amount": "1", 
            "ingredient": "egg"
        }
    ], 
    "prep_steps": [
        "Sift together the flour, cocoa, baking powder and salt; set aside. In a medium bowl, cream together the butter and sugar until smooth. Beat in the egg. Gradually stir in the sifted ingredients to form a soft dough. Divide dough into 2 pieces, flatten and wrap in plastic wrap. Refrigerate for 2 hours.", 
        "Preheat the oven to 375 degrees F (190 degrees C). On a lightly floured surface, roll the dough out to 1/8 inch in thickness. Cut into desired shapes with cookie cutters. Dough is sticky so be sure to add more flour to the rolling surface as needed. Place cookies 1 1/2 inches apart onto cookie sheets.", 
        "Bake for 8 to 10 minutes in the preheated oven. Allow cookies to cool on baking sheet for 5 minutes before removing to a wire rack to cool completely."
    ], 
    "prep_time": "2\u00bd hrs", 
    "recipe_name": "Best Ever Chocolate Cutout Cookies"
}