{
    "ingredients": [
        {
            "amount": "2 teaspoons", 
            "ingredient": "peanut oil"
        }, 
        {
            "amount": "2 stalks", 
            "ingredient": "celery, chopped"
        }, 
        {
            "amount": "2", 
            "ingredient": "carrots, peeled and diagonally sliced"
        }, 
        {
            "amount": "1 1/2 pounds", 
            "ingredient": "skinless, boneless chicken breast halves - cut into strips"
        }, 
        {
            "amount": "1 tablespoon", 
            "ingredient": "cornstarch"
        }, 
        {
            "amount": "3/4 cup", 
            "ingredient": "orange juice"
        }, 
        {
            "amount": "3 tablespoons", 
            "ingredient": "light soy sauce"
        }, 
        {
            "amount": "1 tablespoon", 
            "ingredient": "honey"
        }, 
        {
            "amount": "1 teaspoon", 
            "ingredient": "minced fresh ginger root"
        }, 
        {
            "amount": "1/4 cup", 
            "ingredient": "cashews"
        }, 
        {
            "amount": "1/4 cup", 
            "ingredient": "minced green onions"
        }
    ], 
    "prep_steps": [
        "Heat 1 teaspoon of the oil in a wok over high heat. Add the carrots and celery and stir fry for 3 minutes. Add remaining 1 teaspoon oil, then add the chicken and stir fry for 5 more minutes.", 
        "In a small bowl, dissolve the cornstarch into the orange juice. Mix in the soy sauce, honey and ginger. Add this sauce to the wok and cook over medium heat until thickened. Top with the cashews and green onions."
    ], 
    "prep_time": "20 mins", 
    "recipe_name": "Chicken Honey Nut Stir Fry"
}