{
    "ingredients": [
        {
            "amount": "1/2 cup", 
            "ingredient": "butter, softened"
        }, 
        {
            "amount": "1 1/3 cups", 
            "ingredient": "all-purpose flour"
        }, 
        {
            "amount": "1/4 cup", 
            "ingredient": "white sugar"
        }, 
        {
            "amount": "2", 
            "ingredient": "eggs"
        }, 
        {
            "amount": "3/4 cup", 
            "ingredient": "white sugar"
        }, 
        {
            "amount": "2 tablespoons", 
            "ingredient": "all-purpose flour"
        }, 
        {
            "amount": "1/4 teaspoon", 
            "ingredient": "baking powder"
        }, 
        {
            "amount": "3 1/2 tablespoons", 
            "ingredient": "lemon juice"
        }
    ], 
    "prep_steps": [
        "Preheat oven to 350 degrees F (180 degrees C).", 
        "To make crust: Mix together the butter, 1 1/3 cups flour and 1/4 cup sugar with a fork until crumbly. Press into an 8 inch square pan and bake for 20 minutes. Crust will look white. Do not brown!", 
        "Combine the eggs, 3/4 cup of sugar, 2 tablespoons flour, baking powder and lemon juice in a blender. Blend until well mixed. Pour over pre-baked crust.", 
        "Return to oven and bake an additional 20 minutes. Remove from oven and sprinkle with powdered sugar. Let bars cool before cutting."
    ], 
    "prep_time": "55 mins", 
    "recipe_name": "Annemarie's Lemon Bars"
}