{
    "ingredients": [
        {
            "amount": "19 ounces", 
            "ingredient": "garbanzo beans, drained"
        }, 
        {
            "amount": "2 tablespoons", 
            "ingredient": "red onion, chopped"
        }, 
        {
            "amount": "2 cloves", 
            "ingredient": "garlic, minced"
        }, 
        {
            "amount": "1", 
            "ingredient": "tomato, chopped"
        }, 
        {
            "amount": "1/2 cup", 
            "ingredient": "chopped parsley"
        }, 
        {
            "amount": "3 tablespoons", 
            "ingredient": "olive oil"
        }, 
        {
            "amount": "1 tablespoon", 
            "ingredient": "lemon juice"
        }
    ], 
    "prep_steps": [
        "In a large bowl, combine the chickpeas, red onion, garlic, tomato, parsley, olive oil, lemon juice and salt and pepper to taste. Chill for 2 hours before serving. Taste and adjust seasoning. Serve."
    ], 
    "prep_time": "2\u00bc hrs", 
    "recipe_name": "Chickpea Salad with Red Onion and Tomato"
}