{
    "ingredients": [
        {
            "amount": "1 (16 ounce) package", 
            "ingredient": "extra-firm tofu, drained and pressed"
        }, 
        {
            "amount": "2 cups", 
            "ingredient": "vegetable broth"
        }, 
        {
            "amount": "3 tablespoons", 
            "ingredient": "vegetable oil"
        }, 
        {
            "amount": "1/2 cup", 
            "ingredient": "all-purpose flour"
        }, 
        {
            "amount": "3 tablespoons", 
            "ingredient": "nutritional yeast"
        }, 
        {
            "amount": "1 teaspoon", 
            "ingredient": "salt"
        }, 
        {
            "amount": "1/2 teaspoon", 
            "ingredient": "freshly ground black pepper"
        }, 
        {
            "amount": "1 teaspoon", 
            "ingredient": "sage"
        }, 
        {
            "amount": "1/2 teaspoon", 
            "ingredient": "cayenne pepper"
        }
    ], 
    "prep_steps": [
        "Cut pressed tofu into 1/2-inch thick slices; then cut again into 1/2-inch wide sticks. Place tofu in a bowl, and pour broth over the top. Set aside to soak.", 
        "In a separate bowl, stir together flour, yeast, salt, pepper, sage, and cayenne.", 
        "Warm oil in a large skillet over medium-high heat.", 
        "Remove tofu sticks from broth, and squeeze most (but not all) of the liquid from them. Roll sticks in breading. (You may have to roll sticks twice to end up with a fairly dry outer layer of breading.) Place tofu in hot oil; fry until crisp and browned on all sides. Add more oil if necessary."
    ], 
    "prep_time": "30 mins", 
    "recipe_name": "Breaded, Fried, Softly Spiced Tofu"
}