{
    "ingredients": [
        {
            "amount": "2 1/2 cups", 
            "ingredient": "all-purpose flour"
        }, 
        {
            "amount": "4 teaspoons", 
            "ingredient": "baking powder"
        }, 
        {
            "amount": "2 teaspoons", 
            "ingredient": "ground cinnamon"
        }, 
        {
            "amount": "1 teaspoon", 
            "ingredient": "ground allspice"
        }, 
        {
            "amount": "1 teaspoon", 
            "ingredient": "ground ginger"
        }, 
        {
            "amount": "1/2 teaspoon", 
            "ingredient": "salt"
        }, 
        {
            "amount": "1/4 cup", 
            "ingredient": "packed brown sugar"
        }, 
        {
            "amount": "1 cup", 
            "ingredient": "canned pumpkin"
        }, 
        {
            "amount": "2 cups", 
            "ingredient": "milk"
        }, 
        {
            "amount": "4", 
            "ingredient": "eggs, separated"
        }, 
        {
            "amount": "1/4 cup", 
            "ingredient": "butter, melted"
        }, 
        {
            "amount": "1/2 cup", 
            "ingredient": "white sugar"
        }, 
        {
            "amount": "1 tablespoon", 
            "ingredient": "cornstarch"
        }, 
        {
            "amount": "1 teaspoon", 
            "ingredient": "ground cinnamon"
        }, 
        {
            "amount": "1 cup", 
            "ingredient": "apple cider"
        }, 
        {
            "amount": "1 tablespoon", 
            "ingredient": "lemon juice"
        }, 
        {
            "amount": "2 tablespoons", 
            "ingredient": "butter"
        }
    ], 
    "prep_steps": [
        "Preheat a waffle iron according to manufacturer's instructions.", 
        "Combine the flour, baking powder, cinnamon, allspice, ginger, salt, and brown sugar in a mixing bowl. In a separate bowl, stir together the pumpkin, milk, and egg yolks. Whip the egg whites in a clean dry bowl until soft peaks form.", 
        "Stir the flour mixture and 1/4 cup melted butter to the pumpkin mixture, stirring just to combine. Use a whisk or rubber spatula to fold 1/3 of the egg whites into the batter, stirring gently until incorporated. Fold in the remaining egg whites. Cook waffles according to manufacturer's instructions.", 
        "To make the syrup, stir together the sugar, cornstarch, and cinnamon in a saucepan. Stir in the apple cider and lemon juice. Cook over medium heat until mixture begins to boil; boil until the syrup thickens. Remove from heat and stir in the 2 tablespoons of butter until melted. Serve warm."
    ], 
    "prep_time": "45 mins", 
    "recipe_name": "Pumpkin Waffles with Apple Cider Syrup"
}