{
    "ingredients": [
        {
            "amount": "2 cups", 
            "ingredient": "all-purpose flour"
        }, 
        {
            "amount": "1 teaspoon", 
            "ingredient": "baking powder"
        }, 
        {
            "amount": "1/2 teaspoon", 
            "ingredient": "baking soda"
        }, 
        {
            "amount": "1/2 teaspoon", 
            "ingredient": "salt"
        }, 
        {
            "amount": "1/2 cup", 
            "ingredient": "butter"
        }, 
        {
            "amount": "1 cup", 
            "ingredient": "white sugar"
        }, 
        {
            "amount": "2", 
            "ingredient": "eggs"
        }, 
        {
            "amount": "1 1/4 teaspoons", 
            "ingredient": "vanilla"
        }, 
        {
            "amount": "1 1/2 cups", 
            "ingredient": "chopped apples"
        }, 
        {
            "amount": "1/3 cup", 
            "ingredient": "packed brown sugar"
        }, 
        {
            "amount": "1 tablespoon", 
            "ingredient": "all-purpose flour"
        }, 
        {
            "amount": "1/8 teaspoon", 
            "ingredient": "ground cinnamon"
        }, 
        {
            "amount": "1 tablespoon", 
            "ingredient": "butter"
        }
    ], 
    "prep_steps": [
        "Preheat oven to 375 degrees F (190 degrees C). Grease a 12 cup muffin pan.", 
        "In a medium bowl, mix flour, baking powder, baking soda and salt.", 
        "In a large bowl, beat together butter, sugar and eggs until smooth. Mix in vanilla. Stir in apples, and gradually blend in the flour mixture. Spoon the mixture into the prepared muffin pan.", 
        "In a small bowl, mix brown sugar, flour and cinnamon. Cut in butter until mixture is like coarse crumbs. Sprinkle over tops of mixture in muffin pan.", 
        "Bake 20 minutes in the preheated oven, or until a toothpick inserted in the center of a muffin comes out clean. Allow to sit 5 minutes before removing muffins from pan. Cool on a wire rack."
    ], 
    "prep_time": "1 hr", 
    "recipe_name": "Apple Strudel Muffins"
}