{
    "ingredients": [
        {
            "amount": "3 tablespoons", 
            "ingredient": "butter"
        }, 
        {
            "amount": "2 small", 
            "ingredient": "onion, chopped"
        }, 
        {
            "amount": "2", 
            "ingredient": "apples - peeled, cored and finely chopped"
        }, 
        {
            "amount": "3 tablespoons", 
            "ingredient": "all-purpose flour"
        }, 
        {
            "amount": "1 tablespoon", 
            "ingredient": "curry powder"
        }, 
        {
            "amount": "8", 
            "ingredient": "skinless, boneless chicken breasts"
        }, 
        {
            "amount": "1 cup", 
            "ingredient": "hot chicken broth"
        }, 
        {
            "amount": "1 cup", 
            "ingredient": "milk"
        }
    ], 
    "prep_steps": [
        "Preheat oven to 350 degrees F (175 degrees C).", 
        "Saute apple and onion in butter or margarine until tender. Add curry powder and saute 1 minute more. Add flour and continue to cook 1 minute longer. Add stock or broth and milk; stir well.", 
        "Salt and pepper chicken breasts to taste and lay in a single layer in a 9x13 inch (or larger) baking dish. Pour sauce mixture over chicken breasts and bake in preheated oven for 45 to 50 minutes, until chicken is done."
    ], 
    "prep_time": "1\u00bc hrs", 
    "recipe_name": "Chicken and Apple Curry"
}