{
    "ingredients": [
        {
            "amount": "3/4 cup", 
            "ingredient": "butter"
        }, 
        {
            "amount": "2/3 cup", 
            "ingredient": "white sugar"
        }, 
        {
            "amount": "2/3 cup", 
            "ingredient": "brown sugar"
        }, 
        {
            "amount": "1", 
            "ingredient": "egg, beaten"
        }, 
        {
            "amount": "1 teaspoon", 
            "ingredient": "vanilla extract"
        }, 
        {
            "amount": "1 cup", 
            "ingredient": "mashed bananas"
        }, 
        {
            "amount": "1 3/4 cups", 
            "ingredient": "all-purpose flour"
        }, 
        {
            "amount": "2 teaspoons", 
            "ingredient": "baking powder"
        }, 
        {
            "amount": "1/2 teaspoon", 
            "ingredient": "salt"
        }, 
        {
            "amount": "1 cup", 
            "ingredient": "semisweet chocolate chips"
        }
    ], 
    "prep_steps": [
        "Preheat oven to 350 degrees F (175 degrees C). Grease and flour a 10x15 inch jelly roll pan.", 
        "In a large bowl, cream butter, white sugar and brown sugar until fluffy. Beat in egg and vanilla. Fold in mashed banana. In a separate bowl, mix flour, baking powder and salt. Fold flour mixture into butter mixture. Stir in chocolate chips. Spread in prepared pan.", 
        "Bake in preheated oven 20 minutes, until set. Cool before cutting into squares."
    ], 
    "prep_time": "40 mins", 
    "recipe_name": "Banana Chocolate Chip Dessert "
}