{
    "ingredients": [
        {
            "amount": "1 head", 
            "ingredient": "romaine lettuce - rinsed, dried and chopped"
        }, 
        {
            "amount": "2 (11 ounce) cans", 
            "ingredient": "mandarin oranges, drained"
        }, 
        {
            "amount": "6", 
            "ingredient": "green onions, thinly sliced"
        }, 
        {
            "amount": "2 tablespoons", 
            "ingredient": "white sugar"
        }, 
        {
            "amount": "1/2 cup", 
            "ingredient": "sliced almonds"
        }, 
        {
            "amount": "1/4 cup", 
            "ingredient": "red wine vinegar"
        }, 
        {
            "amount": "1/2 cup", 
            "ingredient": "olive oil"
        }, 
        {
            "amount": "1 tablespoon", 
            "ingredient": "white sugar"
        }, 
        {
            "amount": "1/8 teaspoon", 
            "ingredient": "crushed red pepper flakes"
        }
    ], 
    "prep_steps": [
        "In a large bowl, combine the romaine lettuce, oranges and green onions.", 
        "Heat 2 tablespoons sugar with the almonds in saucepan over medium heat. Cook and stir while sugar starts to melt and coat almonds. Stir constantly until almonds are light brown. Turn onto a plate, and cool for 10 minutes.", 
        "Combine red wine vinegar, olive oil, one tablespoon sugar, red pepper flakes and black pepper in a jar with a tight fitting lid. Shake vigorously until sugar is dissolved.", 
        "Before serving, toss lettuce with salad dressing until coated. Transfer to a decorative serving bowl, and sprinkle with sugared almonds."
    ], 
    "prep_time": "40 mins", 
    "recipe_name": "Mandarin Almond Salad"
}