{
    "ingredients": [
        {
            "amount": "1 cup", 
            "ingredient": "shortening"
        }, 
        {
            "amount": "2 cups", 
            "ingredient": "all-purpose flour"
        }, 
        {
            "amount": "1 teaspoon", 
            "ingredient": "salt"
        }, 
        {
            "amount": "1 teaspoon", 
            "ingredient": "ground black pepper"
        }, 
        {
            "amount": "1 (2 to 3 pound)", 
            "ingredient": "whole chicken, cut into pieces"
        }
    ], 
    "prep_steps": [
        "Heat the shortening in a large, cast iron skillet over medium-high heat.", 
        "In a brown paper lunch bag, combine the flour, salt, and pepper. Shake two chicken pieces in the bag to coat, and place them in the skillet. Repeat until all of the chicken is coated and in the skillet.", 
        "Fry the chicken over medium-high heat until all of the pieces have been browned on both sides. Turn the heat to medium-low, cover, and cook for 25 minutes. Remove the lid, and increase heat to medium-high. Continue frying until chicken pieces are a deep golden brown, and the juices run clear."
    ], 
    "prep_time": "45 mins", 
    "recipe_name": "Deep South Fried Chicken"
}