{
    "ingredients": [
        {
            "amount": "1 1/2 cups", 
            "ingredient": "creamy peanut butter"
        }, 
        {
            "amount": "1/2 cup", 
            "ingredient": "coconut milk"
        }, 
        {
            "amount": "3 tablespoons", 
            "ingredient": "water"
        }, 
        {
            "amount": "3 tablespoons", 
            "ingredient": "fresh lime juice"
        }, 
        {
            "amount": "3 tablespoons", 
            "ingredient": "soy sauce"
        }, 
        {
            "amount": "1 tablespoon", 
            "ingredient": "fish sauce"
        }, 
        {
            "amount": "1 tablespoon", 
            "ingredient": "hot sauce"
        }, 
        {
            "amount": "1 tablespoon", 
            "ingredient": "minced fresh ginger root"
        }, 
        {
            "amount": "3 cloves", 
            "ingredient": "garlic, minced"
        }, 
        {
            "amount": "1/4 cup", 
            "ingredient": "chopped fresh cilantro"
        }
    ], 
    "prep_steps": [
        "In a bowl, mix the peanut butter, coconut milk, water, lime juice, soy sauce, fish sauce, hot sauce, ginger, and garlic. Mix in the cilantro just before serving."
    ], 
    "prep_time": "15 mins", 
    "recipe_name": "The Best Thai Peanut Sauce"
}