{
    "ingredients": [
        {
            "amount": "1 (18.25 ounce) package", 
            "ingredient": "yellow cake mix"
        }, 
        {
            "amount": "1 (5.9 ounce) package", 
            "ingredient": "instant chocolate pudding mix"
        }, 
        {
            "amount": "4", 
            "ingredient": "eggs, beaten"
        }, 
        {
            "amount": "2/3 cup", 
            "ingredient": "vegetable oil"
        }, 
        {
            "amount": "2/3 cup", 
            "ingredient": "white sugar"
        }, 
        {
            "amount": "1/3 cup", 
            "ingredient": "water"
        }, 
        {
            "amount": "1 (8 ounce) container", 
            "ingredient": "sour cream"
        }, 
        {
            "amount": "1 cup", 
            "ingredient": "semisweet chocolate chips"
        }
    ], 
    "prep_steps": [
        "Preheat oven to 350 degrees F (175 degrees C). Grease and flour a Bundt pan.", 
        "In a bowl, mix the yellow cake mix, pudding mix, eggs, vegetable oil, sugar, and water. Gently fold in the sour cream and chocolate chips. Pour batter into the prepared Bundt pan.", 
        "Bake in the preheated oven for 55 minutes. Cool in pan for 10 minutes before transferring to cooling racks."
    ], 
    "prep_time": "1\u00bd hrs", 
    "recipe_name": "Easy Dump Cake"
}