{
    "ingredients": [
        {
            "amount": "1 pound", 
            "ingredient": "ground beef"
        }, 
        {
            "amount": "1 pound", 
            "ingredient": "ground pork"
        }, 
        {
            "amount": "2 tablespoons", 
            "ingredient": "olive oil"
        }, 
        {
            "amount": "1 large", 
            "ingredient": "onion, chopped, divided"
        }, 
        {
            "amount": "1", 
            "ingredient": "green bell pepper, chopped"
        }, 
        {
            "amount": "1", 
            "ingredient": "habanero peppers, seeded and minced"
        }, 
        {
            "amount": "2", 
            "ingredient": "jalapeno pepper, seeded and minced"
        }, 
        {
            "amount": "3 cloves", 
            "ingredient": "garlic, minced"
        }, 
        {
            "amount": "3 tablespoons", 
            "ingredient": "chopped green onion"
        }, 
        {
            "amount": "3 (15 ounce) cans", 
            "ingredient": "chili beans"
        }, 
        {
            "amount": "1 (14.5 ounce) can", 
            "ingredient": "diced tomatoes"
        }, 
        {
            "amount": "1 (6 ounce) can", 
            "ingredient": "tomato paste"
        }, 
        {
            "amount": "1 (8 ounce) can", 
            "ingredient": "tomato sauce"
        }, 
        {
            "amount": "1 (12 ounce) bottle", 
            "ingredient": "lager-style beer"
        }, 
        {
            "amount": "2 tablespoons", 
            "ingredient": "cornmeal"
        }, 
        {
            "amount": "1 cup", 
            "ingredient": "water"
        }, 
        {
            "amount": "1/4 cup", 
            "ingredient": "chili powder"
        }, 
        {
            "amount": "1 tablespoon", 
            "ingredient": "ground cumin"
        }, 
        {
            "amount": "1 teaspoon", 
            "ingredient": "garlic powder"
        }, 
        {
            "amount": "1/2 teaspoon", 
            "ingredient": "cayenne pepper"
        }, 
        {
            "amount": "1 tablespoon", 
            "ingredient": "salt"
        }, 
        {
            "amount": "1 1/2 teaspoons", 
            "ingredient": "ground black pepper"
        }, 
        {
            "amount": "1 cup", 
            "ingredient": "shredded Cheddar cheese"
        }
    ], 
    "prep_steps": [
        "Cook ground beef and pork in a large skillet over medium-high heat until the meat is crumbly, evenly browned, and no longer pink. Drain and discard any excess grease.", 
        "Meanwhile, heat the olive oil in a large pot over medium heat. Stir in 3/4 of the onion and all of the green pepper, habanero pepper, jalapeno pepper, and garlic. Cook and stir until the onion has softened and turned translucent, about 5 minutes. Stir the drained meat into the onion mixture along with the green onion, chili beans, diced tomatoes, tomato paste, tomato sauce, beer, and water. Sprinkle with the cornmeal, then season with chili powder, cumin, garlic powder, cayenne pepper, salt, and black pepper.", 
        "Bring to a simmer over medium heat, then reduce heat to medium-low. Simmer at least 2 hours, stirring occasionally. Refrigerate overnight.", 
        "Reheat the chili over medium heat until it begins to simmer again. Top individual servings of chili with cheese and remaining chopped onion."
    ], 
    "prep_time": "23 hr", 
    "recipe_name": "Wazzu Tailgate Chili"
}