{
    "ingredients": [
        {
            "amount": "3 tablespoons", 
            "ingredient": "butter"
        }, 
        {
            "amount": "2 tablespoons", 
            "ingredient": "all-purpose flour"
        }, 
        {
            "amount": "1 (12 fluid ounce) can", 
            "ingredient": "evaporated milk"
        }, 
        {
            "amount": "1 cup", 
            "ingredient": "water"
        }, 
        {
            "amount": "1/4 teaspoon", 
            "ingredient": "salt"
        }, 
        {
            "amount": "1/4 teaspoon", 
            "ingredient": "freshly ground black pepper"
        }, 
        {
            "amount": "1/4 teaspoon", 
            "ingredient": "onion powder"
        }, 
        {
            "amount": "2 tablespoons", 
            "ingredient": "butter"
        }, 
        {
            "amount": "1 cup", 
            "ingredient": "finely crushed herb-seasoned dry bread stuffing mix"
        }, 
        {
            "amount": "1 cup", 
            "ingredient": "cooked, diced turkey meat"
        }, 
        {
            "amount": "1 cup", 
            "ingredient": "shredded Cheddar cheese"
        }, 
        {
            "amount": "2 cups", 
            "ingredient": "leftover mashed potatoes"
        }
    ], 
    "prep_steps": [
        "Preheat oven to 350 degrees F (175 degrees C). Lightly grease a 9x13 inch baking dish.", 
        "Melt 3 tablespoons butter in a saucepan over low heat. Blend in the flour. Slowly stir in evaporated milk and water, then season with salt, pepper, and onion powder. Stir sauce over low heat for 5 minutes.", 
        "In a separate saucepan over low heat, melt 2 tablespoons butter. Blend in the dry stuffing mix. Place the turkey in the prepared baking dish. Pour the sauce over turkey, then sprinkle with Cheddar cheese. Spread mashed potatoes over cheese. Top mashed potatoes with the stuffing mixture.", 
        "Bake 45 minutes in the preheated oven."
    ], 
    "prep_time": "1\u00bc hrs", 
    "recipe_name": "Thanksgiving Leftover Casserole"
}