{
    "ingredients": [
        {
            "amount": "1 (10 ounce) can", 
            "ingredient": "refrigerated pizza crust dough"
        }, 
        {
            "amount": "1 cup", 
            "ingredient": "hummus spread"
        }, 
        {
            "amount": "1 1/2 cups", 
            "ingredient": "sliced bell peppers, any color"
        }, 
        {
            "amount": "1 cup", 
            "ingredient": "broccoli florets"
        }, 
        {
            "amount": "2 cups", 
            "ingredient": "shredded Monterey Jack cheese"
        }
    ], 
    "prep_steps": [
        "Preheat the oven to 475 degrees C (220 degrees C).", 
        "Roll out pizza crust and place on a pizza pan or baking sheet. Spread a thin layer of hummus over the crust. Arrange sliced peppers and broccoli over the hummus, and top with shredded cheese.", 
        "Bake for 10 to 15 minutes in the preheated oven, until the crust is golden brown and cheese is melted in the center. Slice and serve."
    ], 
    "prep_time": "30 mins", 
    "recipe_name": "Hummus Pizza"
}