{
    "ingredients": [
        {
            "amount": "1 (16 ounce) package", 
            "ingredient": "creamed cottage cheese"
        }, 
        {
            "amount": "4", 
            "ingredient": "eggs, beaten"
        }, 
        {
            "amount": "1/4 cup", 
            "ingredient": "vegetable oil"
        }, 
        {
            "amount": "1 (1 ounce) envelope", 
            "ingredient": "dry onion soup mix"
        }, 
        {
            "amount": "1 cup", 
            "ingredient": "finely chopped walnuts"
        }, 
        {
            "amount": "1 1/2 cups", 
            "ingredient": "cornflakes cereal"
        }
    ], 
    "prep_steps": [
        "Preheat oven to 350 degrees F (175 degrees C). Grease a loaf pan.", 
        "In a large bowl, combine cottage cheese, eggs, vegetable oil, soup mix, walnuts and cereal. Spoon into prepared pan.", 
        "Bake in preheated oven for 35 to 40 minutes."
    ], 
    "prep_time": "50 mins", 
    "recipe_name": "Cottage Cheese Roast"
}