{
    "ingredients": [
        {
            "amount": "4 (4 ounce)", 
            "ingredient": "salmon fillets"
        }, 
        {
            "amount": "2 tablespoons", 
            "ingredient": "butter, melted"
        }, 
        {
            "amount": "2 tablespoons", 
            "ingredient": "soy sauce"
        }
    ], 
    "prep_steps": [
        "Preheat the oven broiler. Lightly grease a baking sheet.", 
        "Place salmon on the baking sheet. Mix the melted butter and soy sauce in a small bowl, and brush over the salmon. Sprinkle salmon with lemon pepper.", 
        "Broil salmon 6 to 8 minutes, depending on thickness, or until easily flaked with a fork."
    ], 
    "prep_time": "23 mins", 
    "recipe_name": "Lemon-Pepper Salmon II"
}