{
    "ingredients": [
        {
            "amount": "1 cup", 
            "ingredient": "butter"
        }, 
        {
            "amount": "2 large", 
            "ingredient": "white onions, chopped"
        }, 
        {
            "amount": "6 stalks", 
            "ingredient": "celery, chopped"
        }, 
        {
            "amount": "3 cloves", 
            "ingredient": "garlic, pressed"
        }, 
        {
            "amount": "4 tablespoons", 
            "ingredient": "all-purpose flour"
        }, 
        {
            "amount": "5 pounds", 
            "ingredient": "fresh shrimp, peeled, deveined and chopped"
        }, 
        {
            "amount": "1 cup", 
            "ingredient": "chopped fresh mushrooms"
        }, 
        {
            "amount": "3 tablespoons", 
            "ingredient": "paprika"
        }
    ], 
    "prep_steps": [
        "In a large skillet, melt butter and saute onions, celery and garlic for about 45 minutes or until they are cooked down.", 
        "Stir in flour and cook briefly, do not brown. Stir in chopped shrimp and cook for 20 minutes.", 
        "Pour in 2 to 3 cups of water and mushrooms. Stir in paprika and season with salt, pepper and red pepper flakes. Cook for 30 minutes. Should be a thick and have a gravy-like consistency."
    ], 
    "prep_time": "2\u00bd hrs", 
    "recipe_name": "Ann's Shrimp Etouffee"
}