{
    "ingredients": [
        {
            "amount": "1 1/2 cups", 
            "ingredient": "cold coffee"
        }, 
        {
            "amount": "2 cups", 
            "ingredient": "milk"
        }, 
        {
            "amount": "1/4 cup", 
            "ingredient": "chocolate syrup"
        }, 
        {
            "amount": "1/4 cup", 
            "ingredient": "white sugar"
        }
    ], 
    "prep_steps": [
        "Pour coffee into ice cube tray. Freeze until solid, or overnight.", 
        "In a blender, combine coffee ice cubes, milk, chocolate syrup and sugar. Blend until smooth. Pour into glasses and serve."
    ], 
    "prep_time": "1 days", 
    "recipe_name": "Iced Mochas"
}