{
    "ingredients": [
        {
            "amount": "9 large", 
            "ingredient": "potatoes"
        }, 
        {
            "amount": "8 ounces", 
            "ingredient": "cream cheese"
        }, 
        {
            "amount": "1 cup", 
            "ingredient": "sour cream"
        }, 
        {
            "amount": "2 teaspoons", 
            "ingredient": "onion salt"
        }, 
        {
            "amount": "1 teaspoon", 
            "ingredient": "salt"
        }, 
        {
            "amount": "1/4 teaspoon", 
            "ingredient": "ground black pepper"
        }, 
        {
            "amount": "2 tablespoons", 
            "ingredient": "butter"
        }
    ], 
    "prep_steps": [
        "Preheat oven to 350 degrees F (175 degrees C). Grease a 2 quart casserole dish, and set aside.", 
        "Bring a large pot of lightly salted water to a boil. Cook potatoes in boiling water until tender. Drain, and transfer to a large mixing bowl. Mash until smooth. Stir in cream cheese, sour cream, onion salt, salt, and pepper. Beat until light and fluffy. Transfer to the prepared casserole dish, and dot with pieces of butter.", 
        "Bake for 30 minutes in the preheated oven, or until heated through."
    ], 
    "prep_time": "55 mins", 
    "recipe_name": "Party Potatoes"
}