{
    "ingredients": [
        {
            "amount": "1/4 cup", 
            "ingredient": "prepared mustard"
        }, 
        {
            "amount": "1/4 cup", 
            "ingredient": "white sugar"
        }, 
        {
            "amount": "1/4 cup", 
            "ingredient": "soy sauce"
        }, 
        {
            "amount": "1/4 cup", 
            "ingredient": "distilled white vinegar"
        }, 
        {
            "amount": "1 cup", 
            "ingredient": "ketchup"
        }, 
        {
            "amount": "1 cup", 
            "ingredient": "water"
        }, 
        {
            "amount": "1 (3 pound)", 
            "ingredient": "whole chicken"
        }
    ], 
    "prep_steps": [
        "In a medium pot with a lid, blend together mustard, sugar, soy sauce, white vinegar, ketchup and water in the order listed. Bring the sauce to a boil.", 
        "Add the chicken pieces, and turn down the heat. Place the lid slightly ajar on the pot. Simmer for approximately 45 minutes, or till the chicken is no longer pink and the juices run clear."
    ], 
    "prep_time": "1 hr", 
    "recipe_name": "Bou's Chicken"
}