{
    "ingredients": [
        {
            "amount": "1/2 cup", 
            "ingredient": "extra virgin olive oil"
        }, 
        {
            "amount": "1/2 cup", 
            "ingredient": "Worcestershire sauce"
        }, 
        {
            "amount": "1/4 cup", 
            "ingredient": "minced garlic"
        }, 
        {
            "amount": "1/4 cup", 
            "ingredient": "steak seasoning"
        }, 
        {
            "amount": "1 tablespoon", 
            "ingredient": "red wine vinegar"
        }, 
        {
            "amount": "1/2 teaspoon", 
            "ingredient": "dried basil"
        }, 
        {
            "amount": "1/2 teaspoon", 
            "ingredient": "Italian seasoning"
        }, 
        {
            "amount": "4 (1/2 pound)", 
            "ingredient": "New York strip steaks"
        }
    ], 
    "prep_steps": [
        "In a bowl, mix the olive oil, Worcestershire sauce, garlic, steak seasoning, red wine vinegar, basil, and Italian seasoning. Pour into a large resealable plastic bag. Pierce steaks on all sides with a fork, and place in the bag. Gently shake to coat. Seal bag and marinate steaks a minimum of 2 hours in the refrigerator.", 
        "Preheat grill for high heat.", 
        "Lightly oil the grill grate. Discard marinade. Place steaks on the grill, and cook 7 minutes on each side, or to desired doneness."
    ], 
    "prep_time": "2\u00bd hrs", 
    "recipe_name": "BBQ NY Strip"
}