{
    "ingredients": [
        {
            "amount": "1 teaspoon", 
            "ingredient": "ground cinnamon"
        }, 
        {
            "amount": "1 teaspoon", 
            "ingredient": "ground cumin"
        }, 
        {
            "amount": "1 teaspoon", 
            "ingredient": "kosher salt"
        }, 
        {
            "amount": "1/2 teaspoon", 
            "ingredient": "ground ginger"
        }, 
        {
            "amount": "1/4 teaspoon", 
            "ingredient": "ground cloves"
        }, 
        {
            "amount": "1/4 teaspoon", 
            "ingredient": "ground nutmeg"
        }, 
        {
            "amount": "1/4 teaspoon", 
            "ingredient": "ground turmeric"
        }, 
        {
            "amount": "1/8 teaspoon", 
            "ingredient": "curry powder"
        }, 
        {
            "amount": "1 tablespoon", 
            "ingredient": "butter"
        }, 
        {
            "amount": "1", 
            "ingredient": "sweet onion, chopped"
        }, 
        {
            "amount": "2 cups", 
            "ingredient": "finely shredded kale"
        }, 
        {
            "amount": "4 (14 ounce) cans", 
            "ingredient": "organic vegetable broth"
        }, 
        {
            "amount": "1 (15 ounce) can", 
            "ingredient": "garbanzo beans, drained"
        }, 
        {
            "amount": "1 (14.5 ounce) can", 
            "ingredient": "diced tomatoes, undrained"
        }, 
        {
            "amount": "3 large", 
            "ingredient": "potatoes, peeled and diced"
        }, 
        {
            "amount": "2", 
            "ingredient": "sweet potatoes, peeled and diced"
        }, 
        {
            "amount": "4 large", 
            "ingredient": "carrots, chopped"
        }, 
        {
            "amount": "1 cup", 
            "ingredient": "dried lentils, rinsed"
        }, 
        {
            "amount": "1/2 cup", 
            "ingredient": "chopped dried apricots"
        }, 
        {
            "amount": "1 tablespoon", 
            "ingredient": "honey"
        }, 
        {
            "amount": "1 teaspoon", 
            "ingredient": "ground black pepper, to taste"
        }, 
        {
            "amount": "1 tablespoon", 
            "ingredient": "cornstarch"
        }, 
        {
            "amount": "1 tablespoon", 
            "ingredient": "water"
        }
    ], 
    "prep_steps": [
        "Combine cinnamon, cumin, salt, ginger, cloves, nutmeg, turmeric, and curry powder in a large bowl.", 
        "Melt butter in a large pot over medium heat. Cook the onion in the butter until soft and just beginning to brown, 5 to 10 minutes. Stir in kale and spice mixture; cook until kale begins to wilt and spices are fragrant, about 2 minutes.", 
        "Pour the vegetable broth into the pot. Stir garbanzo beans, tomatoes, potatoes, sweet potatoes, carrots, lentils, apricots, and honey, into the broth; bring to boil, reduce heat to low, and simmer until vegetables and lentils are cooked and tender, about 30 minutes. Season stew with black pepper.", 
        "Dissolve cornstarch in water; stir into stew and simmer thickened, about 5 minutes."
    ], 
    "prep_time": "1\u00bc hrs", 
    "recipe_name": "Make-Ahead Vegetarian Moroccan Stew"
}