{
    "ingredients": [
        {
            "amount": "3/4 cup", 
            "ingredient": "milk"
        }, 
        {
            "amount": "1 teaspoon", 
            "ingredient": "vanilla extract"
        }, 
        {
            "amount": "3 tablespoons", 
            "ingredient": "granulated sugar"
        }, 
        {
            "amount": "3 tablespoons", 
            "ingredient": "mocha flavored instant coffee mix"
        }, 
        {
            "amount": "1 cup", 
            "ingredient": "crushed ice"
        }
    ], 
    "prep_steps": [
        "In a blender or food processor, combine milk, vanilla, sugar, coffee powder and crushed ice. Blend until smooth. Pour into glasses and serve."
    ], 
    "prep_time": "5 mins", 
    "recipe_name": "Iced Mocha Fusion Shake"
}