{
    "ingredients": [
        {
            "amount": "1 pound", 
            "ingredient": "ground beef"
        }, 
        {
            "amount": "1 (10.75 ounce) can", 
            "ingredient": "Campbell's\u00ae Condensed Tomato Soup (Regular or 25% Less Sodium)"
        }, 
        {
            "amount": "1/2 cup", 
            "ingredient": "salsa"
        }, 
        {
            "amount": "1/2 cup", 
            "ingredient": "water"
        }, 
        {
            "amount": "6 (6 inch)", 
            "ingredient": "flour tortillas, cut into 1-inch pieces"
        }, 
        {
            "amount": "1/2 cup", 
            "ingredient": "shredded Cheddar cheese"
        }
    ], 
    "prep_steps": [
        "Cook beef in 10-inch skillet until well browned, stirring to break up meat. Pour off fat.", 
        "Stir in soup, salsa, water, tortillas. Heat to a boil. Reduce heat to low and cook for 5 minutes Stir. Top with cheese."
    ], 
    "prep_time": "25 mins", 
    "recipe_name": "Beef Taco Skillet"
}