{
    "ingredients": [
        {
            "amount": "4 cups", 
            "ingredient": "all-purpose flour"
        }, 
        {
            "amount": "2 teaspoons", 
            "ingredient": "baking powder"
        }, 
        {
            "amount": "1 teaspoon", 
            "ingredient": "salt"
        }, 
        {
            "amount": "4 tablespoons", 
            "ingredient": "shortening"
        }, 
        {
            "amount": "1 1/2 cups", 
            "ingredient": "warm water"
        }, 
        {
            "amount": "2 quarts", 
            "ingredient": "oil for frying"
        }
    ], 
    "prep_steps": [
        "In a large bowl, stir together flour, baking powder, salt and shortening. Stir in water; mix until dough is smooth. Cover and let stand for 20 minutes.", 
        "Roll out on floured board until 1/8 to 1/4 inch thick. Cut into 3 inch squares. Heat oil in deep-fryer to 375 degrees F (190 degrees C). Fry until golden brown on both sides. Drain on paper towels and serve hot."
    ], 
    "prep_time": "45 mins", 
    "recipe_name": "Real Sopapillas"
}