{
    "ingredients": [
        {
            "amount": "1", 
            "ingredient": "egg white, lightly beaten"
        }, 
        {
            "amount": "1 tablespoon", 
            "ingredient": "water"
        }, 
        {
            "amount": "3 cups", 
            "ingredient": "pecan halves"
        }, 
        {
            "amount": "1/2 cup", 
            "ingredient": "white sugar"
        }, 
        {
            "amount": "1/2 teaspoon", 
            "ingredient": "salt"
        }, 
        {
            "amount": "1 teaspoon", 
            "ingredient": "ground cinnamon"
        }, 
        {
            "amount": "1/2 teaspoon", 
            "ingredient": "ground cloves"
        }, 
        {
            "amount": "1/2 teaspoon", 
            "ingredient": "ground nutmeg"
        }
    ], 
    "prep_steps": [
        "Preheat oven to 350 degrees F (175 degrees C). Line a baking sheet with aluminum foil.", 
        "In a small bowl beat the egg white with the water. Stir in the pecans, mixing until well moistened.", 
        "In a small bowl, mix together sugar, salt, cinnamon, cloves and nutmeg. Sprinkle over the moistened nuts. Spread nuts on prepared pan.", 
        "Bake in preheated oven for 30 minutes, stirring once or twice. Be careful not to overcook and burn the nuts."
    ], 
    "prep_time": "40 mins", 
    "recipe_name": "Spiced Pecans"
}