{
    "ingredients": [
        {
            "amount": "1 pound", 
            "ingredient": "ground beef"
        }, 
        {
            "amount": "1 large", 
            "ingredient": "onion, chopped"
        }, 
        {
            "amount": "1 pound", 
            "ingredient": "potatoes, cut into small chunks"
        }, 
        {
            "amount": "2 tablespoons", 
            "ingredient": "beef bouillon"
        }
    ], 
    "prep_steps": [
        "Brown beef and onion in a large saucepan until meat is no longer pink. Add potatoes, bouillon and water to cover.", 
        "Cover saucepan, lower heat and let simmer for 30 minutes, or until potatoes are tender and water has reduced/evaporated."
    ], 
    "prep_time": "45 mins", 
    "recipe_name": "Hamburger Hash"
}