{
    "ingredients": [
        {
            "amount": "1 tablespoon", 
            "ingredient": "olive oil"
        }, 
        {
            "amount": "1", 
            "ingredient": "yellow onion, halved and sliced"
        }, 
        {
            "amount": "1", 
            "ingredient": "red bell pepper, chopped"
        }, 
        {
            "amount": "2 tablespoons", 
            "ingredient": "balsamic vinegar"
        }, 
        {
            "amount": "2 (8 ounce) fillets", 
            "ingredient": "tilapia fillets"
        }, 
        {
            "amount": "2 teaspoons", 
            "ingredient": "olive oil"
        }, 
        {
            "amount": "1 cup", 
            "ingredient": "crumbled blue cheese"
        }, 
        {
            "amount": "4 cups", 
            "ingredient": "mixed salad greens"
        }
    ], 
    "prep_steps": [
        "Preheat an oven to 350 degrees F (175 degrees C).", 
        "Heat 1 tablespoon olive oil in a large skillet over medium-high heat. Cook onion and red pepper in the oil until onion is tender and golden, and peppers are slightly soft, about 10 minutes. Stir balsamic vinegar into the vegetables; season with salt and pepper.", 
        "Rub tilapia filets with 2 teaspoons olive oil and a sprinkle of salt and pepper. Place fillets in a small baking dish, and top with the balsamic onion mixture. Sprinkle fish evenly with blue cheese.", 
        "Bake in preheated oven until fish flakes easily. Serve atop salad greens."
    ], 
    "prep_time": "40 mins", 
    "recipe_name": "Balsamic Baked Tilapia"
}