{
    "ingredients": [
        {
            "amount": "1 tablespoon", 
            "ingredient": "extra-virgin olive oil"
        }, 
        {
            "amount": "1 (10 ounce) bag", 
            "ingredient": "spinach leaves"
        }, 
        {
            "amount": "1 1/2 teaspoons", 
            "ingredient": "garlic salt"
        }, 
        {
            "amount": "1/4 cup", 
            "ingredient": "grated Parmesan cheese"
        }
    ], 
    "prep_steps": [
        "Heat the olive oil in a large skillet over medium heat. Add the spinach to the skillet and cover; allow to cook 5 minutes. Stir in the garlic salt and cover again for another 5 minutes; remove from heat. Sprinkle with Parmesan cheese to serve."
    ], 
    "prep_time": "15 mins", 
    "recipe_name": "Quick and Easy Sauteed Spinach"
}