{
    "ingredients": [
        {
            "amount": "2 cups", 
            "ingredient": "white sugar"
        }, 
        {
            "amount": "1/2 cup", 
            "ingredient": "butter"
        }, 
        {
            "amount": "1/2 cup", 
            "ingredient": "milk"
        }, 
        {
            "amount": "3 tablespoons", 
            "ingredient": "cocoa powder"
        }, 
        {
            "amount": "3 cups", 
            "ingredient": "quick cooking oats"
        }, 
        {
            "amount": "1 teaspoon", 
            "ingredient": "vanilla extract"
        }
    ], 
    "prep_steps": [
        "Mix together sugar, butter or margarine, and milk in a saucepan. Bring to a boil and boil for one minute, stirring constantly.", 
        "Remove from heat and mix in cocoa, quick oatmeal and vanilla. Drop by spoonfuls on waxed paper."
    ], 
    "recipe_name": "No Bake Cookies II"
}