{
    "ingredients": [
        {
            "amount": "1 cup", 
            "ingredient": "butter"
        }, 
        {
            "amount": "2 cups", 
            "ingredient": "white sugar"
        }, 
        {
            "amount": "2", 
            "ingredient": "eggs"
        }, 
        {
            "amount": "16 ounces", 
            "ingredient": "ricotta cheese"
        }, 
        {
            "amount": "2 teaspoons", 
            "ingredient": "vanilla extract"
        }, 
        {
            "amount": "4 cups", 
            "ingredient": "all-purpose flour"
        }, 
        {
            "amount": "1 teaspoon", 
            "ingredient": "baking powder"
        }, 
        {
            "amount": "1 teaspoon", 
            "ingredient": "baking soda"
        }, 
        {
            "amount": "1/2 cup", 
            "ingredient": "milk"
        }, 
        {
            "amount": "1/2 teaspoon", 
            "ingredient": "butter"
        }, 
        {
            "amount": "1/2 teaspoon", 
            "ingredient": "shortening"
        }, 
        {
            "amount": "4 cups", 
            "ingredient": "confectioners' sugar"
        }, 
        {
            "amount": "1 tablespoon", 
            "ingredient": "lemon extract"
        }, 
        {
            "amount": "1/2 cup", 
            "ingredient": "colored candy sprinkles"
        }
    ], 
    "prep_steps": [
        "Preheat oven to 350 degrees F (175 degrees C). Grease cookie sheets.", 
        "In a large bowl, cream together the 1 cup of butter and sugar. Beat in the eggs, one at a time, then stir in the ricotta cheese and vanilla. Combine the flour, baking powder and baking soda, stir into the ricotta mixture. Drop by rounded spoonfuls onto the prepared cookie sheet.", 
        "Bake for 8 to 10 minutes in the preheated oven. Allow cookies to cool on baking sheet for 5 minutes before removing to a wire rack to cool completely.", 
        "To make the frosting warm the milk, 1/2 teaspoon of butter and shortening, in a small saucepan. Cook over medium heat, stirring occasionally until solids are melted. Remove from heat and gradually stir in the confectioners' sugar and lemon extract. Dip each cookie into the icing then dip in colored sugar or sprinkles."
    ], 
    "prep_time": "30 mins", 
    "recipe_name": "Ricotta Cookies III"
}