{
    "ingredients": [
        {
            "amount": "3", 
            "ingredient": "eggs"
        }, 
        {
            "amount": "1/2 cup", 
            "ingredient": "butter, softened"
        }, 
        {
            "amount": "1 1/2 cups", 
            "ingredient": "white sugar"
        }, 
        {
            "amount": "3 tablespoons", 
            "ingredient": "all-purpose flour"
        }, 
        {
            "amount": "1 cup", 
            "ingredient": "buttermilk"
        }, 
        {
            "amount": "1 teaspoon", 
            "ingredient": "vanilla extract"
        }, 
        {
            "amount": "1 tablespoon", 
            "ingredient": "lemon juice"
        }, 
        {
            "amount": "1/8 tablespoon", 
            "ingredient": "freshly grated nutmeg"
        }, 
        {
            "amount": "1 (9 inch)", 
            "ingredient": "unbaked pie crust"
        }
    ], 
    "prep_steps": [
        "Preheat oven to 350 degrees (175 degrees C).", 
        "Beat eggs until frothy; add butter, sugar and flour. Beat until smooth.", 
        "Stir in buttermilk, vanilla, lemon juice and nutmeg; pour into pie shell.", 
        "Bake for 40 to 60 minutes, or until center is firm."
    ], 
    "recipe_name": "Buttermilk Pie"
}