{
    "ingredients": [
        {
            "amount": "1 1/2 cups", 
            "ingredient": "all-purpose flour"
        }, 
        {
            "amount": "1 1/2 teaspoons", 
            "ingredient": "baking powder"
        }, 
        {
            "amount": "6 tablespoons", 
            "ingredient": "white sugar"
        }, 
        {
            "amount": "1/2 teaspoon", 
            "ingredient": "salt"
        }, 
        {
            "amount": "1/3 cup", 
            "ingredient": "shortening"
        }, 
        {
            "amount": "1/2 cup", 
            "ingredient": "milk"
        }, 
        {
            "amount": "1", 
            "ingredient": "egg"
        }, 
        {
            "amount": "1/2 teaspoon", 
            "ingredient": "vanilla extract"
        }, 
        {
            "amount": "2 tablespoons", 
            "ingredient": "butter, melted"
        }, 
        {
            "amount": "1/2 cup", 
            "ingredient": "brown sugar"
        }, 
        {
            "amount": "2 tablespoons", 
            "ingredient": "all-purpose flour"
        }, 
        {
            "amount": "1/2 teaspoon", 
            "ingredient": "ground cinnamon"
        }
    ], 
    "prep_steps": [
        "Preheat oven to 425 degrees F (220 degrees C). Grease and flour a 9 inch square pan.", 
        "In a large bowl mix together the flour, baking powder, sugar and salt. Cut in the shortening with a pastry blender to the size of small peas.", 
        "In a separate small bowl, beat the egg well, then stir in the milk and vanilla. Add the egg-milk mixture to the flour mixture all at once. Stir carefully until just blended.", 
        "Pour batter into prepared pan and spread evenly. Drizzle top with melted butter.", 
        "In a small bowl mix together brown sugar, 2 tablespoons flour and 1/2 teaspoon cinnamon. Sprinkle on top of cake. Pour batter into prepared pan. Bake in the preheated oven for 15 to 20 minutes, or until a toothpick inserted into the center of the cake comes out clean."
    ], 
    "prep_time": "30 mins", 
    "recipe_name": "Quick Coffee Cake"
}