{
    "ingredients": [
        {
            "amount": "2 teaspoons", 
            "ingredient": "salt"
        }, 
        {
            "amount": "2 teaspoons", 
            "ingredient": "paprika"
        }, 
        {
            "amount": "1 teaspoon", 
            "ingredient": "black pepper"
        }, 
        {
            "amount": "1 (5 pound)", 
            "ingredient": "whole duck"
        }, 
        {
            "amount": "1/2 cup", 
            "ingredient": "melted butter"
        }
    ], 
    "prep_steps": [
        "Preheat oven to 375 degrees F (190 degrees C).", 
        "Rub salt, pepper, and paprika into the skin of the duck. Place in a roasting pan.", 
        "Roast duck in preheated oven for 1 hour. Spoon 1/4 cup melted butter over bird, and continue cooking for 45 more minutes. Spoon remaining 1/4 cup melted butter over duck, and cook for 15 more minutes, or until golden brown."
    ], 
    "prep_time": "2\u00bc hrs", 
    "recipe_name": "Roasted Duck"
}