{
    "ingredients": [
        {
            "amount": "4 pounds", 
            "ingredient": "baby back pork ribs"
        }, 
        {
            "amount": "2/3 cup", 
            "ingredient": "water"
        }, 
        {
            "amount": "1/3 cup", 
            "ingredient": "red wine vinegar"
        }, 
        {
            "amount": "1 cup", 
            "ingredient": "ketchup"
        }, 
        {
            "amount": "1 cup", 
            "ingredient": "water"
        }, 
        {
            "amount": "1/2 cup", 
            "ingredient": "cider vinegar"
        }, 
        {
            "amount": "1/3 cup", 
            "ingredient": "Worcestershire sauce"
        }, 
        {
            "amount": "1/4 cup", 
            "ingredient": "prepared mustard"
        }, 
        {
            "amount": "4 tablespoons", 
            "ingredient": "butter"
        }, 
        {
            "amount": "1/2 cup", 
            "ingredient": "packed brown sugar"
        }, 
        {
            "amount": "1 teaspoon", 
            "ingredient": "hot pepper sauce"
        }, 
        {
            "amount": "1/8 teaspoon", 
            "ingredient": "salt"
        }
    ], 
    "prep_steps": [
        "Preheat oven to 350 degrees F (175 degrees C). Place ribs in two 10x15 inch roasting pans. Pour water and red wine vinegar into a bowl, and stir. Pour diluted vinegar over ribs and cover with foil. Bake in the preheated oven for 45 minutes. Baste the ribs with their juices halfway through cooking.", 
        "In a medium saucepan, mix together ketchup, water, vinegar, Worcestershire sauce, mustard, butter, brown sugar, hot pepper sauce, and salt; bring to a boil. Reduce heat to low, cover, and simmer barbeque sauce for 1 hour.", 
        "Preheat grill for medium heat.", 
        "Lightly oil preheated grill. Transfer ribs from the oven to the grill, discarding cooking liquid. Grill over medium heat for 15 minutes, turning ribs once. Baste ribs generously with barbeque sauce, and grill 8 minutes. Turn ribs, baste again with barbeque sauce, and grill 8 minutes."
    ], 
    "prep_time": "2 hrs", 
    "recipe_name": "Southern Grilled Barbecued Ribs"
}