{
    "ingredients": [
        {
            "amount": "2 1/4 teaspoons", 
            "ingredient": "active dry yeast"
        }, 
        {
            "amount": "1 1/2 cups", 
            "ingredient": "warm water (110 degrees F/45 degrees C)"
        }, 
        {
            "amount": "1/2 cup", 
            "ingredient": "white sugar"
        }, 
        {
            "amount": "1 teaspoon", 
            "ingredient": "salt"
        }, 
        {
            "amount": "2", 
            "ingredient": "eggs"
        }, 
        {
            "amount": "1 cup", 
            "ingredient": "evaporated milk"
        }, 
        {
            "amount": "7 cups", 
            "ingredient": "all-purpose flour"
        }, 
        {
            "amount": "1/4 cup", 
            "ingredient": "shortening"
        }, 
        {
            "amount": "1 quart", 
            "ingredient": "vegetable oil for frying"
        }, 
        {
            "amount": "1/4 cup", 
            "ingredient": "confectioners' sugar"
        }
    ], 
    "prep_steps": [
        "In a large bowl, dissolve yeast in warm water. Add sugar, salt, eggs, evaporated milk, and blend well. Mix in 4 cups of the flour and beat until smooth. Add the shortening, and then the remaining 3 cups of flour. Cover and chill for up to 24 hours.", 
        "Roll out dough 1/8 inch thick. Cut into 2 1/2 inch squares. Fry in 360 degree F (180 degrees C) hot oil. If beignets do not pop up, oil is not hot enough. Drain onto paper towels.", 
        "Shake confectioners' sugar on hot beignets. Serve warm."
    ], 
    "prep_time": "3 hr", 
    "recipe_name": "Beignets"
}