{
    "ingredients": [
        {
            "amount": "1 medium head", 
            "ingredient": "shredded cabbage"
        }, 
        {
            "amount": "2", 
            "ingredient": "red onions, cut into strips"
        }, 
        {
            "amount": "1/2 cup", 
            "ingredient": "butter"
        }, 
        {
            "amount": "1 (16 ounce) package", 
            "ingredient": "wide egg noodles"
        }
    ], 
    "prep_steps": [
        "Cook pasta in a large pot of boiling salted water.", 
        "Meanwhile, heat butter or margarine in a skillet over medium heat. Saute cabbage and onions until tender.", 
        "Drain pasta, and return to the pot. Add cabbage and onion mixture to the noodles, and toss. Season with salt and pepper to taste."
    ], 
    "recipe_name": "Polish Cabbage Noodles"
}