{
    "ingredients": [
        {
            "amount": "1 tablespoon", 
            "ingredient": "vegetable oil"
        }, 
        {
            "amount": "3 pounds", 
            "ingredient": "skinless, boneless chicken breast meat - cubed"
        }, 
        {
            "amount": "1 cup", 
            "ingredient": "chopped onion"
        }, 
        {
            "amount": "2 cups", 
            "ingredient": "chicken broth"
        }, 
        {
            "amount": "2 (4 ounce) cans", 
            "ingredient": "chopped green chile peppers"
        }, 
        {
            "amount": "5 (14.5 ounce) cans", 
            "ingredient": "great Northern beans, undrained"
        }, 
        {
            "amount": "1 tablespoon", 
            "ingredient": "garlic powder"
        }, 
        {
            "amount": "1 tablespoon", 
            "ingredient": "ground cumin"
        }, 
        {
            "amount": "1 tablespoon", 
            "ingredient": "dried oregano"
        }, 
        {
            "amount": "2 teaspoons", 
            "ingredient": "chopped fresh cilantro"
        }, 
        {
            "amount": "1 teaspoon", 
            "ingredient": "crushed red pepper"
        }
    ], 
    "prep_steps": [
        "In a large skillet over medium-high heat, place the vegetable oil and chicken. Cook the chicken, stirring occasionally, until all pieces are evenly brown. Stir in the onions. Cook until translucent. Drain mixture and set aside.", 
        "In a large saucepan over medium heat, bring the chicken broth and green chile peppers to a boil. Stir in 3 cans great northern beans, garlic powder, cumin, oregano, cilantro and crushed red pepper. Stir in the chicken and onion mixture, and reduce heat. Simmer 30 minutes or longer, adding additional beans from the remaining cans for a thicker consistency as desired."
    ], 
    "prep_time": "1 hr", 
    "recipe_name": "Michelle's Blonde Chicken Chili"
}