{
    "ingredients": [
        {
            "amount": "1 pound", 
            "ingredient": "fresh shrimp, peeled and deveined"
        }, 
        {
            "amount": "1 tablespoon", 
            "ingredient": "olive oil"
        }, 
        {
            "amount": "1 tablespoon", 
            "ingredient": "Cajun seasoning"
        }, 
        {
            "amount": "6 ounces", 
            "ingredient": "fettuccini pasta"
        }, 
        {
            "amount": "1 tablespoon", 
            "ingredient": "butter"
        }, 
        {
            "amount": "3 cups", 
            "ingredient": "fresh mushrooms, sliced"
        }, 
        {
            "amount": "1 tablespoon", 
            "ingredient": "chopped shallots"
        }, 
        {
            "amount": "2/3 cup", 
            "ingredient": "chicken broth"
        }, 
        {
            "amount": "1/2 cup", 
            "ingredient": "sour cream"
        }, 
        {
            "amount": "1 tablespoon", 
            "ingredient": "cornstarch"
        }, 
        {
            "amount": "1 cup", 
            "ingredient": "chicken broth"
        }, 
        {
            "amount": "1 (7 ounce) jar", 
            "ingredient": "roasted red bell peppers"
        }, 
        {
            "amount": "1 tablespoon", 
            "ingredient": "drained capers"
        }
    ], 
    "prep_steps": [
        "Combine peeled shrimp, oil, and Cajun seasoning in a medium bowl. Set aside.", 
        "Bring a large pot of lightly salted water to a boil. Add pasta and cook for 8 to 10 minutes or until al dente; drain.", 
        "Meanwhile, melt butter over medium heat in a large frying pan. Cook and stir mushrooms and shallot in butter until tender. Remove from pan. Add shrimp cook until shrimp turn pink about 2 to 3 minutes. Remove from pan. Add 2/3 cup chicken broth to pan, and bring to a boil. Cook, uncovered, until reduced to 1/4 cup (2 to 3 minutes).", 
        "In a small bowl, stir together sour cream and cornstarch; mix in 1 cup chicken broth. Stir into reduced chicken broth in the frying pan. Cook and stir until thick and bubbly. Cook 1 minute more. Stir in shrimp, mushroom mixture, roasted red peppers, and capers. Heat through, and season to taste. Serve over pasta."
    ], 
    "prep_time": "1 hr", 
    "recipe_name": "Blackened Shrimp Stroganoff"
}