{
    "ingredients": [
        {
            "amount": "1 tablespoon", 
            "ingredient": "olive oil"
        }, 
        {
            "amount": "4 (4 ounce) fillets", 
            "ingredient": "orange roughy"
        }, 
        {
            "amount": "1", 
            "ingredient": "orange, juiced"
        }, 
        {
            "amount": "1", 
            "ingredient": "lemon, juiced"
        }, 
        {
            "amount": "1/2 teaspoon", 
            "ingredient": "lemon pepper"
        }
    ], 
    "prep_steps": [
        "Heat oil in a large skillet over medium-high heat. Arrange fillets in the skillet, and drizzle with orange juice and lemon juice. Sprinkle with lemon pepper. Cook for 5 minutes, or until fish is easily flaked with a fork."
    ], 
    "prep_time": "20 mins", 
    "recipe_name": "Lemon-Orange Orange Roughy"
}