{
    "ingredients": [
        {
            "amount": "6 cups", 
            "ingredient": "apples - peeled, cored and chopped"
        }, 
        {
            "amount": "3/4 cup", 
            "ingredient": "water"
        }, 
        {
            "amount": "1/8 teaspoon", 
            "ingredient": "ground cinnamon"
        }, 
        {
            "amount": "1/8 teaspoon", 
            "ingredient": "ground cloves"
        }, 
        {
            "amount": "1/2 cup", 
            "ingredient": "white sugar"
        }
    ], 
    "prep_steps": [
        "In a 2 quart saucepan over medium heat, combine apples, water, cinnamon, and cloves. Bring to a boil, reduce heat, and simmer 10 minutes. Stir in sugar, and simmer 5 more minutes."
    ], 
    "prep_time": "35 mins", 
    "recipe_name": "Applesauce"
}