{
    "ingredients": [
        {
            "amount": "1 pound", 
            "ingredient": "ground beef chuck"
        }, 
        {
            "amount": "1 (8 ounce) package", 
            "ingredient": "shredded Cheddar cheese"
        }, 
        {
            "amount": "1 tablespoon", 
            "ingredient": "mayonnaise"
        }, 
        {
            "amount": "1 (1 ounce) package", 
            "ingredient": "dry onion soup mix"
        }, 
        {
            "amount": "24 (2 inch square)", 
            "ingredient": "dinner rolls, split"
        }
    ], 
    "prep_steps": [
        "Preheat oven to 350 degrees F (175 degrees C).", 
        "In a medium bowl, thoroughly mix ground beef chuck, Cheddar cheese, mayonnaise and dry onion soup mix.", 
        "Spread even amounts of the ground beef onto the bottom half of each roll. Place top halves on, forming little sandwiches. If you purchased the rolls in aluminum foil pans, you may return them to the same pan for baking. Otherwise, place them on a baking sheet or baking pan. Cover the pan tightly with aluminum foil.", 
        "Bake for 30 to 35 minutes in the preheated oven, or until meat is cooked through."
    ], 
    "prep_time": "40 mins", 
    "recipe_name": "Super Bowl Bites"
}