{
    "ingredients": [
        {
            "amount": "1/3 cup", 
            "ingredient": "butter, melted"
        }, 
        {
            "amount": "1 cup", 
            "ingredient": "white sugar"
        }, 
        {
            "amount": "1", 
            "ingredient": "lemon, juiced"
        }, 
        {
            "amount": "2", 
            "ingredient": "eggs"
        }, 
        {
            "amount": "1 1/2 cups", 
            "ingredient": "all-purpose flour"
        }, 
        {
            "amount": "1 teaspoon", 
            "ingredient": "baking powder"
        }, 
        {
            "amount": "1/2 teaspoon", 
            "ingredient": "salt"
        }, 
        {
            "amount": "1/2 cup", 
            "ingredient": "milk"
        }, 
        {
            "amount": "2 tablespoons", 
            "ingredient": "lemon zest"
        }, 
        {
            "amount": "1 cup", 
            "ingredient": "fresh blueberries"
        }, 
        {
            "amount": "2 tablespoons", 
            "ingredient": "lemon juice"
        }, 
        {
            "amount": "1/4 cup", 
            "ingredient": "white sugar"
        }
    ], 
    "prep_steps": [
        "Preheat oven to 350 degrees F (175 degrees C). Grease and flour an 8x4-inch loaf pan.", 
        "In a medium bowl, mix flour, baking powder and salt together and set aside.", 
        "In a large bowl, cream the butter and 1 cup sugar until light and fluffy. Add eggs, beating well after each addition. Mix in the juice of 1 lemon. Add the flour mixture, alternating with the milk. Fold in the lemon zest and blueberries. Pour into prepared pan.", 
        "Bake for 60 to 70 minutes, or until a toothpick inserted in the center comes out clean.", 
        "For the glaze, combine 1/4 cup sugar with 2 tablespoons lemon juice. Drizzle over bread while still warm."
    ], 
    "prep_time": "1\u00bd hrs", 
    "recipe_name": "Blueberry Lemon Bread"
}