{
    "ingredients": [
        {
            "amount": "12", 
            "ingredient": "3 to 4 inch long pickling cucumbers"
        }, 
        {
            "amount": "2 cups", 
            "ingredient": "water"
        }, 
        {
            "amount": "1 3/4 cups", 
            "ingredient": "white vinegar"
        }, 
        {
            "amount": "1 1/2 cups", 
            "ingredient": "chopped fresh dill weed"
        }, 
        {
            "amount": "1/2 cup", 
            "ingredient": "white sugar"
        }, 
        {
            "amount": "8 cloves", 
            "ingredient": "garlic, chopped"
        }, 
        {
            "amount": "1 1/2 tablespoons", 
            "ingredient": "coarse salt"
        }, 
        {
            "amount": "1 tablespoon", 
            "ingredient": "pickling spice"
        }, 
        {
            "amount": "1 1/2 teaspoons", 
            "ingredient": "dill seed"
        }, 
        {
            "amount": "1/2 teaspoon", 
            "ingredient": "red pepper flakes, or to taste"
        }, 
        {
            "amount": "4 sprigs", 
            "ingredient": "fresh dill weed"
        }
    ], 
    "prep_steps": [
        "In a large bowl, combine the cucumbers, water, vinegar, chopped dill, sugar, garlic, salt, pickling spice, dill seed, and red pepper flakes. Stir, and let stand at room temperature for 2 hours, until the sugar and salt dissolve.", 
        "Remove the cucumbers to three 1 1/2 pint wide mouth jars, placing 4 cucumbers into each jar. Ladle in the liquid from the bowl to cover. Place a sprig of fresh dill into each jar, and seal with lids. Refrigerate for 10 days before eating. Use within 1 month."
    ], 
    "prep_time": "10 days", 
    "recipe_name": "Spicy Refrigerator Dill Pickles"
}