{
    "ingredients": [
        {
            "amount": "3/4 cup", 
            "ingredient": "butter, softened"
        }, 
        {
            "amount": "3 tablespoons", 
            "ingredient": "brown sugar"
        }, 
        {
            "amount": "2 1/2 cups", 
            "ingredient": "crushed pretzels"
        }, 
        {
            "amount": "1 (6 ounce) package", 
            "ingredient": "strawberry flavored Jell-O\u00ae"
        }, 
        {
            "amount": "2 cups", 
            "ingredient": "boiling water"
        }, 
        {
            "amount": "3 cups", 
            "ingredient": "strawberries, chilled"
        }, 
        {
            "amount": "1 (8 ounce) package", 
            "ingredient": "cream cheese"
        }, 
        {
            "amount": "1 cup", 
            "ingredient": "white sugar"
        }, 
        {
            "amount": "1 (8 ounce) container", 
            "ingredient": "frozen whipped topping, thawed"
        }
    ], 
    "prep_steps": [
        "Preheat oven to 350 degrees F (175 degrees C).", 
        "Cream butter or margarine with the brown sugar. Mix in the pretzels and pat mixture into the bottom of one 9x13 inch baking pan. Bake at 350 degrees F (175 degrees C) for 10 to 12 minutes. Set aside to cool.", 
        "In a medium bowl, dissolve the gelatin in the boiling water and stir in the strawberries. Chill until partially thickened.", 
        "In a small bowl beat the cream cheese and white sugar together until smooth. Fold in the whipped cream. Spread mixture over the top of the cooled crust, making sure to seal the edges. Chill then pour the gelatin mixture over he cream cheese layer. Chill until firm."
    ], 
    "prep_time": "1\u00be hrs", 
    "recipe_name": "Strawberry Pretzel Salad"
}