{
    "ingredients": [
        {
            "amount": "6 medium", 
            "ingredient": "red potatoes, cubed"
        }, 
        {
            "amount": "1/2 cup", 
            "ingredient": "butter, melted and divided"
        }, 
        {
            "amount": "4", 
            "ingredient": "skinless, boneless chicken breast halves"
        }, 
        {
            "amount": "1 tablespoon", 
            "ingredient": "fresh lime juice"
        }, 
        {
            "amount": "1 1/2 cups", 
            "ingredient": "shredded Mexican blend cheese"
        }, 
        {
            "amount": "1/4 cup", 
            "ingredient": "chopped fresh cilantro"
        }, 
        {
            "amount": "1/2 cup", 
            "ingredient": "salsa"
        }, 
        {
            "amount": "1", 
            "ingredient": "lime, cut into wedges"
        }
    ], 
    "prep_steps": [
        "Preheat the oven to 425 degrees F (220 degrees C). Line a 9x13 inch baking dish with aluminum foil.", 
        "Toss potatoes with about 1 tablespoon of melted butter until coated. Arrange in a single layer in the bottom of the prepared baking dish.", 
        "Bake for 10 minutes in the preheated oven. Remove pan from oven, and push potatoes out to the sides of the dish. Place the chicken breast halves in the dish. Stir together the remaining butter and lime juice. Brush onto chicken. Return to the oven.", 
        "Bake for 20 minutes in the preheated oven, or until the chicken is no longer pink and the juices run clear. In a small bowl, toss together the cheese, cilantro and salsa. Sprinkle over the chicken and potatoes. Return to the oven for a few minutes, until the cheese is melted. Serve with lime wedges."
    ], 
    "prep_time": "45 mins", 
    "recipe_name": "Monterey Chicken with Potatoes"
}