{
    "ingredients": [
        {
            "amount": "2", 
            "ingredient": "bananas, broken into chunks"
        }, 
        {
            "amount": "2 cups", 
            "ingredient": "milk"
        }, 
        {
            "amount": "1/2 cup", 
            "ingredient": "peanut butter"
        }, 
        {
            "amount": "2 tablespoons", 
            "ingredient": "honey, or to taste"
        }, 
        {
            "amount": "2 cups", 
            "ingredient": "ice cubes"
        }
    ], 
    "prep_steps": [
        "Place bananas, milk, peanut butter, honey, and ice cubes in a blender; blend until smooth, about 30 seconds."
    ], 
    "prep_time": "5 mins", 
    "recipe_name": "Peanut Butter Banana Smoothie"
}