{
    "ingredients": [
        {
            "amount": "1/2 cup", 
            "ingredient": "olive oil"
        }, 
        {
            "amount": "1/2 cup", 
            "ingredient": "distilled white vinegar"
        }, 
        {
            "amount": "1/2 cup", 
            "ingredient": "fresh lime juice"
        }, 
        {
            "amount": "2 (.7 ounce) packages", 
            "ingredient": "dry Italian-style salad dressing mix"
        }, 
        {
            "amount": "3", 
            "ingredient": "whole boneless, skinless chicken breast, cubed"
        }, 
        {
            "amount": "1", 
            "ingredient": "onion, sliced"
        }, 
        {
            "amount": "1", 
            "ingredient": "green bell pepper, sliced"
        }
    ], 
    "prep_steps": [
        "In a large glass bowl combine the oil, vinegar, lime juice, and dry salad dressing mix. Mix together. Add chicken strips, onion and bell pepper. Cover dish and refrigerate. Marinate for 3 to 6 hours.", 
        "In a large skillet, heat oil. Remove chicken, onion and bell pepper from marinade and saute in oil until chicken is cooked through (juices run clear) and onion is translucent."
    ], 
    "prep_time": "3 hrs", 
    "recipe_name": "Tangy Chicken Fajitas"
}