{
    "ingredients": [
        {
            "amount": "1 cup", 
            "ingredient": "mashed potatoes"
        }, 
        {
            "amount": "1 cup", 
            "ingredient": "reserved potato water"
        }, 
        {
            "amount": "3/4 cup", 
            "ingredient": "butter OR margarine"
        }, 
        {
            "amount": "3/4 cup", 
            "ingredient": "sugar"
        }, 
        {
            "amount": "2 teaspoons", 
            "ingredient": "salt"
        }, 
        {
            "amount": "1 cup", 
            "ingredient": "hot water"
        }, 
        {
            "amount": "2 envelopes", 
            "ingredient": "Fleischmann's\u00ae Active Dry Yeast"
        }, 
        {
            "amount": "1/2 cup", 
            "ingredient": "warm water (100 to 110 degrees F)"
        }, 
        {
            "amount": "2", 
            "ingredient": "eggs"
        }, 
        {
            "amount": "8 1/2 cups", 
            "ingredient": "all-purpose flour, or more if needed"
        }, 
        {
            "amount": "1/2 cup", 
            "ingredient": "butter OR margarine, softened"
        }, 
        {
            "amount": "1 cup", 
            "ingredient": "sugar"
        }, 
        {
            "amount": "1 1/2 teaspoons", 
            "ingredient": "Spice Islands\u00ae Ground Saigon Cinnamon"
        }, 
        {
            "amount": "3 cups", 
            "ingredient": "powdered sugar"
        }, 
        {
            "amount": "6 tablespoons", 
            "ingredient": "butter OR margarine, softened"
        }, 
        {
            "amount": "1 teaspoon", 
            "ingredient": "Spice Islands\u00ae 100% Pure Bourbon Vanilla Extract"
        }, 
        {
            "amount": "5 tablespoons", 
            "ingredient": "milk, or more as needed"
        }
    ], 
    "prep_steps": [
        "Combine potatoes, potato water, butter, sugar, salt and hot water in large mixing bowl. Stir until butter melts; set aside and let cool. Combine yeast and 1/2 cup warm water in small bowl. Let rest 5 minutes. Add eggs, 2 cups flour and yeast mixture to potato mixture. Beat until well mixed. Continue adding flour, 1 cup at a time until soft dough forms.", 
        "Knead on a lightly floured surface until smooth and elastic (about 4 to 6 minutes), OR knead with electric mixer using dough hook. Place in a greased bowl, turning to coat. Cover.", 
        "Let rise in a warm, draft free area about 1 hour, until doubled in size. Punch dough down; divide in half.", 
        "Roll one portion of dough on a lightly floured surface to a 12 x 18-inch rectangle. Spread with half the butter. Combine sugar and cinnamon; sprinkle half of the mixture over surface. Roll up tightly lengthwise, sealing edges. Cut into 12 slices. Place in greased 13 x 9-inch pan. Repeat with remaining dough. Cover.", 
        "Let rise 30 to 45 minutes until nearly doubled.", 
        "Bake in preheated 350 degrees F oven for 25 to 30 minutes.", 
        "Cool for 15 minutes. Combine icing ingredients and drizzle over rolls."
    ], 
    "prep_time": "2\u00be hrs", 
    "recipe_name": "Classic Cinnamon Rolls"
}