{
    "ingredients": [
        {
            "amount": "1 (16 ounce) package", 
            "ingredient": "graham crackers"
        }, 
        {
            "amount": "2 (3.5 ounce) packages", 
            "ingredient": "instant vanilla pudding mix"
        }, 
        {
            "amount": "4 cups", 
            "ingredient": "milk"
        }, 
        {
            "amount": "1 (16 ounce) package", 
            "ingredient": "frozen whipped topping, thawed"
        }, 
        {
            "amount": "1 (16 ounce) package", 
            "ingredient": "prepared chocolate frosting"
        }
    ], 
    "prep_steps": [
        "Line the bottom of a 9x13 inch baking pan with graham crackers. In a large bowl, combine the milk and vanilla pudding according to directions on box. Fold in the whipped topping. Spread a layer of the pudding mixture over the graham crackers. Alternate the graham cracker and pudding layers up to the top of the pan. Cook the container of prepared frosting, uncovered in the microwave for 1 minute on half power. Pour over the top of the cake. Refrigerate for at least 12 hours before serving."
    ], 
    "prep_time": "12 hrs", 
    "recipe_name": "Chocolate Eclair Cake"
}