{
    "ingredients": [
        {
            "amount": "2 (8 ounce) packages", 
            "ingredient": "cream cheese, softened"
        }, 
        {
            "amount": "12 ounces", 
            "ingredient": "smoked salmon, chopped"
        }, 
        {
            "amount": "3 dashes", 
            "ingredient": "Worcestershire sauce"
        }, 
        {
            "amount": "3 drops", 
            "ingredient": "hot pepper sauce"
        }, 
        {
            "amount": "1 teaspoon", 
            "ingredient": "chopped fresh dill weed"
        }, 
        {
            "amount": "2 tablespoons", 
            "ingredient": "chopped green onion"
        }
    ], 
    "prep_steps": [
        "In a medium bowl, stir cream cheese until it is no longer in a hard form. Add salmon, Worcestershire sauce, hot pepper sauce, dill and onion; mix well. Serve."
    ], 
    "prep_time": "5 mins", 
    "recipe_name": "Smoked Salmon Spread"
}