{
    "ingredients": [
        {
            "amount": "3 cups", 
            "ingredient": "self-rising flour"
        }, 
        {
            "amount": "3 tablespoons", 
            "ingredient": "white sugar"
        }, 
        {
            "amount": "1 (12 fluid ounce) can or bottle", 
            "ingredient": "beer, room temperature"
        }, 
        {
            "amount": "1/4 cup", 
            "ingredient": "margarine, melted"
        }
    ], 
    "prep_steps": [
        "Preheat oven to 375 degrees F (190 degrees C). Lightly grease a 9x5 inch baking pan.", 
        "In a large bowl, combine flour, sugar and beer. Mix just until blended. Scoop into prepared baking pan. Pour melted margarine on top of loaf.", 
        "Bake in preheated oven for 45 to 60 minutes, until bottom of loaf sounds hollow when tapped."
    ], 
    "prep_time": "1\u00bc hrs", 
    "recipe_name": "Vickie's Beer Bread"
}