{
    "ingredients": [
        {
            "amount": "1 1/2 cups", 
            "ingredient": "soy sauce"
        }, 
        {
            "amount": "1 1/2 cups", 
            "ingredient": "water"
        }, 
        {
            "amount": "3/4 cup", 
            "ingredient": "vinegar"
        }, 
        {
            "amount": "3 tablespoons", 
            "ingredient": "honey"
        }, 
        {
            "amount": "1 1/2 tablespoons", 
            "ingredient": "minced garlic"
        }, 
        {
            "amount": "3", 
            "ingredient": "bay leaves"
        }, 
        {
            "amount": "1/2 teaspoon", 
            "ingredient": "black pepper"
        }, 
        {
            "amount": "3 pounds", 
            "ingredient": "skinless, boneless chicken thighs"
        }
    ], 
    "prep_steps": [
        "Preheat an outdoor grill for high heat, and lightly oil grate.", 
        "In a large pot, mix soy sauce, water, vinegar, honey, garlic, bay leaves, and pepper. Bring the mixture to a boil, and place the chicken into the pot. Reduce heat, cover, and cook 35 to 40 minutes.", 
        "Remove chicken, drain on paper towels, and set aside. Discard bay leaves. Return the mixture to a boil, and cook until reduced to about 1 1/2 cups.", 
        "Place chicken on the prepared grill, about 5 minutes on each side, until browned and crisp. Serve with the remaining soy sauce mixture."
    ], 
    "prep_time": "50 mins", 
    "recipe_name": "Grilled Chicken Adobo"
}