{
    "ingredients": [
        {
            "amount": "1 pound", 
            "ingredient": "butter"
        }, 
        {
            "amount": "1 cup", 
            "ingredient": "white sugar"
        }, 
        {
            "amount": "1 cup", 
            "ingredient": "packed brown sugar"
        }, 
        {
            "amount": "1 cup", 
            "ingredient": "chopped walnuts"
        }, 
        {
            "amount": "2 cups", 
            "ingredient": "semisweet chocolate chips"
        }
    ], 
    "prep_steps": [
        "In a heavy saucepan, combine butter, white sugar, and brown sugar. Cook over medium heat, stirring constantly until mixture boils. Boil to brittle stage, 300 degrees F (150 degrees C) without stirring. Remove from heat.", 
        "Pour nuts and chocolate chips into a 9x13 inch dish. Pour hot mixture over the nuts and chocolate. Let the mixture cool and break it into pieces before serving."
    ], 
    "prep_time": "1 hr", 
    "recipe_name": "Melt In Your Mouth Toffee"
}