{
    "ingredients": [
        {
            "amount": "1 cup", 
            "ingredient": "butter, softened"
        }, 
        {
            "amount": "1 (3 ounce) package", 
            "ingredient": "cream cheese, softened"
        }, 
        {
            "amount": "1 cup", 
            "ingredient": "white sugar"
        }, 
        {
            "amount": "1", 
            "ingredient": "egg yolk"
        }, 
        {
            "amount": "1/2 teaspoon", 
            "ingredient": "vanilla extract"
        }, 
        {
            "amount": "2 1/2 cups", 
            "ingredient": "all-purpose flour"
        }
    ], 
    "prep_steps": [
        "Preheat oven to 325 degrees F (165 degrees C). Lightly grease cookie sheets.", 
        "In a large bowl, cream together butter, cream cheese, and sugar until light and fluffy. Beat in egg yolk and vanilla. Stir in flour until well blended. Drop dough by spoonfuls or use a cookie press to place onto prepared cookie sheets. If using floral cookie press design, make an indentation in the center with a thimble, fill with preserves, or press candy into center.", 
        "Bake for 15 minutes in preheated oven. Cookies should be pale."
    ], 
    "prep_time": "1 hr", 
    "recipe_name": "Cream Cheese Cookies I"
}