{
    "ingredients": [
        {
            "amount": "1/2 cup", 
            "ingredient": "vegetable oil"
        }, 
        {
            "amount": "1/3 cup", 
            "ingredient": "soy sauce"
        }, 
        {
            "amount": "1/4 cup", 
            "ingredient": "red wine vinegar"
        }, 
        {
            "amount": "2 tablespoons", 
            "ingredient": "fresh lemon juice"
        }, 
        {
            "amount": "1 1/2 tablespoons", 
            "ingredient": "Worcestershire sauce"
        }, 
        {
            "amount": "1 tablespoon", 
            "ingredient": "Dijon mustard"
        }, 
        {
            "amount": "2 cloves", 
            "ingredient": "garlic, minced"
        }, 
        {
            "amount": "1/2 teaspoon", 
            "ingredient": "ground black pepper"
        }, 
        {
            "amount": "1 1/2 pounds", 
            "ingredient": "flank steak"
        }
    ], 
    "prep_steps": [
        "In a medium bowl, mix the oil, soy sauce, vinegar, lemon juice, Worcestershire sauce, mustard, garlic, and ground black pepper. Place meat in a shallow glass dish. Pour marinade over the steak, turning meat to coat thoroughly. Cover, and refrigerate for 6 hours.", 
        "Preheat grill for medium-high heat.", 
        "Oil the grill grate. Place steaks on the grill, and discard the marinade. Grill meat for 5 minutes per side, or to desired doneness."
    ], 
    "prep_time": "6 hrs", 
    "recipe_name": "Marinated Flank Steak"
}