{
    "ingredients": [
        {
            "amount": "1 cup", 
            "ingredient": "white sugar"
        }, 
        {
            "amount": "2 tablespoons", 
            "ingredient": "cornstarch"
        }, 
        {
            "amount": "1/4 teaspoon", 
            "ingredient": "salt"
        }, 
        {
            "amount": "2 cups", 
            "ingredient": "milk"
        }, 
        {
            "amount": "2 (1 ounce) squares", 
            "ingredient": "unsweetened chocolate, chopped"
        }, 
        {
            "amount": "2", 
            "ingredient": "egg yolks"
        }, 
        {
            "amount": "2 tablespoons", 
            "ingredient": "butter"
        }, 
        {
            "amount": "2 teaspoons", 
            "ingredient": "vanilla extract"
        }
    ], 
    "prep_steps": [
        "In a medium saucepan over medium heat, combine sugar, cornstarch and salt. Stir in milk and chocolate. Cook, stirring constantly, until chocolate melts and mixture thickens. Remove from heat and stir in egg yolks. Return to heat and cook 2 minutes more. Remove from heat and stir in butter and vanilla. Chill before serving."
    ], 
    "prep_time": "30 mins", 
    "recipe_name": "Chocolate Cream Pudding"
}