{
    "ingredients": [
        {
            "amount": "1 tablespoon", 
            "ingredient": "olive oil"
        }, 
        {
            "amount": "1", 
            "ingredient": "onion, sliced"
        }, 
        {
            "amount": "2", 
            "ingredient": "tomatoes, peeled and sliced"
        }, 
        {
            "amount": "2 tablespoons", 
            "ingredient": "all-purpose flour"
        }, 
        {
            "amount": "2 teaspoons", 
            "ingredient": "dried basil"
        }, 
        {
            "amount": "3", 
            "ingredient": "eggs, beaten"
        }, 
        {
            "amount": "1/2 cup", 
            "ingredient": "milk"
        }, 
        {
            "amount": "1 (9 inch)", 
            "ingredient": "unbaked deep dish pie crust"
        }, 
        {
            "amount": "1 1/2 cups", 
            "ingredient": "shredded Colby-Monterey Jack cheese, divided"
        }
    ], 
    "prep_steps": [
        "Preheat oven to 400 degrees F (200 degrees C). Bake pie shell in preheated oven for 8 minutes.", 
        "Meanwhile, heat olive oil in a large skillet over medium heat. Saute onion until soft; remove from skillet. Sprinkle tomato slices with flour and basil, then saute 1 minute on each side. In a small bowl, whisk together eggs and milk. season with salt and pepper.", 
        "Spread 1 cup shredded cheese in the bottom of pie crust. Layer onions over cheese, and top with tomatoes. Cover with egg mixture. sprinkle top with remaining 1/2 cup shredded cheese.", 
        "Bake in preheated oven for 10 minutes. Reduce heat to 350 degrees F (175 degrees C), and bake for 15 to 20 minutes, or until filling is puffed and golden brown. Serve warm."
    ], 
    "prep_time": "1 hr", 
    "recipe_name": "Tomato and Basil Quiche"
}