{
    "ingredients": [
        {
            "amount": "3/4 cup", 
            "ingredient": "water"
        }, 
        {
            "amount": "3/4 cup", 
            "ingredient": "white sugar"
        }, 
        {
            "amount": "1", 
            "ingredient": "cinnamon stick"
        }, 
        {
            "amount": "1", 
            "ingredient": "orange"
        }, 
        {
            "amount": "10", 
            "ingredient": "whole cloves"
        }, 
        {
            "amount": "1 (750 milliliter) bottle", 
            "ingredient": "red wine"
        }
    ], 
    "prep_steps": [
        "In a saucepan, combine the water, sugar, and cinnamon stick. Bring to a boil, reduce heat, and simmer.", 
        "Cut the orange in half, and squeeze the juice into the simmering water. Push the cloves into the outside of the orange peel, and place peel in the simmering water. Continue simmering for 30 minutes, until thick and syrupy.", 
        "Pour in the wine, and heat until steaming but not simmering. Remove the clove-studded orange halves. Serve hot in mugs or glasses that have been preheated in warm water (cold glasses will break.)"
    ], 
    "prep_time": "45 mins", 
    "recipe_name": "Gluehwein"
}