{
    "ingredients": [
        {
            "amount": "4 cloves", 
            "ingredient": "garlic"
        }, 
        {
            "amount": "1/3 cup", 
            "ingredient": "white wine"
        }, 
        {
            "amount": "1/4 cup", 
            "ingredient": "lemon juice"
        }, 
        {
            "amount": "2 tablespoons", 
            "ingredient": "soy sauce"
        }, 
        {
            "amount": "2 tablespoons", 
            "ingredient": "olive oil"
        }, 
        {
            "amount": "1 tablespoon", 
            "ingredient": "poultry seasoning"
        }, 
        {
            "amount": "1/4 teaspoon", 
            "ingredient": "salt"
        }, 
        {
            "amount": "1/8 teaspoon", 
            "ingredient": "pepper"
        }, 
        {
            "amount": "4", 
            "ingredient": "swordfish steaks"
        }, 
        {
            "amount": "1 tablespoon", 
            "ingredient": "chopped fresh parsley"
        }, 
        {
            "amount": "4 slices", 
            "ingredient": "lemon, for garnish"
        }
    ], 
    "prep_steps": [
        "In a glass baking dish, combine the garlic, white wine, lemon juice, soy sauce, olive oil, poultry seasoning, salt and pepper. Mix just to blend. Place swordfish steaks into the marinade, and refrigerate for 1 hour, turning frequently.", 
        "Preheat an outdoor grill for high heat, and lightly oil the grate.", 
        "Grill swordfish steaks for 5 to 6 minutes on each side. Garnish with parsley and lemon wedges."
    ], 
    "prep_time": "22 mins", 
    "recipe_name": "Grilled Marinated Swordfish"
}