{
    "ingredients": [
        {
            "amount": "1 cup", 
            "ingredient": "soy sauce"
        }, 
        {
            "amount": "1 cup", 
            "ingredient": "water"
        }, 
        {
            "amount": "3/4 cup", 
            "ingredient": "white sugar"
        }, 
        {
            "amount": "1/4 cup", 
            "ingredient": "Worcestershire sauce"
        }, 
        {
            "amount": "3 tablespoons", 
            "ingredient": "distilled white vinegar"
        }, 
        {
            "amount": "3 tablespoons", 
            "ingredient": "vegetable oil"
        }, 
        {
            "amount": "1/3 cup", 
            "ingredient": "dried onion flakes"
        }, 
        {
            "amount": "2 teaspoons", 
            "ingredient": "garlic powder"
        }, 
        {
            "amount": "1 teaspoon", 
            "ingredient": "grated fresh ginger"
        }
    ], 
    "prep_steps": [
        "In a medium bowl, mix the soy sauce, water, sugar, Worcestershire sauce, vinegar, oil, onions, garlic powder, and ginger. Stir together until sugar dissolves. Voila - marinade!"
    ], 
    "prep_time": "10 mins", 
    "recipe_name": "Teriyaki Marinade"
}