{
    "ingredients": [
        {
            "amount": "3 tablespoons", 
            "ingredient": "vegetable oil"
        }, 
        {
            "amount": "2/3 cup", 
            "ingredient": "diced onion"
        }, 
        {
            "amount": "1 1/2 cups", 
            "ingredient": "uncooked white rice"
        }, 
        {
            "amount": "1 cup", 
            "ingredient": "chopped green bell pepper"
        }, 
        {
            "amount": "1 teaspoon", 
            "ingredient": "ground cumin"
        }, 
        {
            "amount": "1 teaspoon", 
            "ingredient": "chili powder"
        }, 
        {
            "amount": "1 1/2 (8 ounce) cans", 
            "ingredient": "tomato sauce"
        }, 
        {
            "amount": "2 teaspoons", 
            "ingredient": "salt"
        }, 
        {
            "amount": "1 clove", 
            "ingredient": "garlic, minced"
        }, 
        {
            "amount": "1/8 teaspoon", 
            "ingredient": "powdered saffron"
        }, 
        {
            "amount": "3 cups", 
            "ingredient": "water"
        }
    ], 
    "prep_steps": [
        "In a large saucepan, heat vegetable oil over a medium-low heat. Place the onions in the pan, and saute until golden.", 
        "Add rice to pan, and stir to coat grains with oil. Mix in green bell pepper, cumin, chili powder, tomato sauce, salt, garlic, saffron, and water. Cover, bring to a boil, and then reduce heat to simmer. Cook for 30 to 40 minutes, or until rice is tender. Stir occasionally."
    ], 
    "prep_time": "50 mins", 
    "recipe_name": "Mexican Rice"
}