{
    "ingredients": [
        {
            "amount": "4", 
            "ingredient": "pork chops"
        }, 
        {
            "amount": "16 ounces", 
            "ingredient": "sauerkraut with juice"
        }
    ], 
    "prep_steps": [
        "Place the chops in the bottom the slow cooker and pour the sauerkraut over the top. Cook on low for 8 to 9 hours or on high for 4 to 5 hours."
    ], 
    "prep_time": "8 hrs", 
    "recipe_name": "Slow Cooker Pork Chops"
}