{
    "ingredients": [
        {
            "amount": "1", 
            "ingredient": "cooked, boneless chicken breast half, chopped"
        }, 
        {
            "amount": "2 stalks", 
            "ingredient": "celery, chopped"
        }, 
        {
            "amount": "3 tablespoons", 
            "ingredient": "mayonnaise"
        }, 
        {
            "amount": "1/2", 
            "ingredient": "onion, finely diced"
        }, 
        {
            "amount": "2", 
            "ingredient": "dill pickles, chopped"
        }, 
        {
            "amount": "1/4 teaspoon", 
            "ingredient": "garlic powder"
        }
    ], 
    "prep_steps": [
        "Combine the chicken, celery, mayonnaise, onion and pickle; mix well.", 
        "Season with the garlic powder, salt and pepper. Serve with lettuce on fresh crusty bread or bun."
    ], 
    "prep_time": "15 mins", 
    "recipe_name": "Angel's Chunky Chicken Salad"
}