{
    "ingredients": [
        {
            "amount": "1 (8 ounce) package", 
            "ingredient": "egg noodles"
        }, 
        {
            "amount": "1 1/3 tablespoons", 
            "ingredient": "olive oil"
        }, 
        {
            "amount": "1", 
            "ingredient": "onion, chopped"
        }, 
        {
            "amount": "1 cup", 
            "ingredient": "chopped, cooked chicken meat"
        }, 
        {
            "amount": "1", 
            "ingredient": "red bell pepper, chopped"
        }, 
        {
            "amount": "2 stalks", 
            "ingredient": "celery, chopped"
        }, 
        {
            "amount": "1 cup", 
            "ingredient": "chicken stock"
        }, 
        {
            "amount": "1 1/2 cups", 
            "ingredient": "sour cream"
        }, 
        {
            "amount": "1/2 teaspoon", 
            "ingredient": "dried oregano"
        }, 
        {
            "amount": "1 pound", 
            "ingredient": "fresh asparagus, trimmed and cut into 2 inch pieces"
        }, 
        {
            "amount": "8 tablespoons", 
            "ingredient": "grated Parmesan cheese, divided"
        }
    ], 
    "prep_steps": [
        "Preheat oven to 350 degrees F (175 degrees C). Lightly grease a 1 1/2 quart casserole dish.", 
        "Cook noodles in a large pot of boiling water for 5 minutes, or until almost tender. Drain, and rinse under cold water.", 
        "Heat the olive oil in a heavy skillet over medium heat. Cook onion for 4 to 5 minutes, stirring frequently. Add chicken, red bell pepper, celery, and chicken stock. Bring to a boil, and simmer for 5 minutes. Stir in sour cream and oregano.", 
        "Spread half of the chicken mixture into the prepared dish. Arrange the asparagus over the chicken, spread cooked noodles evenly over the asparagus, and top with 5 tablespoons of Parmesan cheese. Cover with the remaining chicken mixture. Sprinkle with the reserved Parmesan cheese.", 
        "Bake 30 minutes in the preheated oven, until lightly brown."
    ], 
    "prep_time": "1\u00bc hrs", 
    "recipe_name": "Fresh Asparagus and Chicken Casserole"
}