{
    "ingredients": [
        {
            "amount": "1 1/2 teaspoons", 
            "ingredient": "vegetable oil"
        }, 
        {
            "amount": "1/2 small", 
            "ingredient": "small onion, diced"
        }, 
        {
            "amount": "2/3 cup", 
            "ingredient": "uncooked long-grain rice"
        }, 
        {
            "amount": "1/2 teaspoon", 
            "ingredient": "ground cumin"
        }, 
        {
            "amount": "1/2 teaspoon", 
            "ingredient": "chili powder"
        }, 
        {
            "amount": "3 ounces", 
            "ingredient": "canned diced tomatoes"
        }, 
        {
            "amount": "1 teaspoon", 
            "ingredient": "salt"
        }, 
        {
            "amount": "1 1/2 cups", 
            "ingredient": "water"
        }
    ], 
    "prep_steps": [
        "In a large saucepan, heat oil over medium heat. Stir in onion and saute until translucent.", 
        "Pour the rice into the pan and stir to coat grains with oil. Mix in cumin, chili powder, tomatoes, salt and water. Cover, bring to a boil then reduce heat to low. Cook at a simmer for 20 to 30 minutes or until rice is tender. Stir occasionally."
    ], 
    "prep_time": "45 mins", 
    "recipe_name": "Mexican Rice I"
}