{
    "ingredients": [
        {
            "amount": "1/4 cup", 
            "ingredient": "all-purpose flour"
        }, 
        {
            "amount": "1 teaspoon", 
            "ingredient": "ground cumin"
        }, 
        {
            "amount": "1/4 teaspoon", 
            "ingredient": "cayenne pepper"
        }, 
        {
            "amount": "1/2 teaspoon", 
            "ingredient": "salt"
        }, 
        {
            "amount": "2 tablespoons", 
            "ingredient": "vegetable oil"
        }, 
        {
            "amount": "4", 
            "ingredient": "boneless pork chops, about 3/4-inch thick"
        }, 
        {
            "amount": "1/3 cup", 
            "ingredient": "chicken broth"
        }, 
        {
            "amount": "1/2 cup", 
            "ingredient": "coconut milk"
        }, 
        {
            "amount": "2 tablespoons", 
            "ingredient": "peanut butter"
        }, 
        {
            "amount": "1 tablespoon", 
            "ingredient": "honey"
        }, 
        {
            "amount": "1 teaspoon", 
            "ingredient": "ground ginger"
        }, 
        {
            "amount": "1/4 teaspoon", 
            "ingredient": "salt"
        }, 
        {
            "amount": "1/4 cup", 
            "ingredient": "chopped green onion"
        }, 
        {
            "amount": "1/4 cup", 
            "ingredient": "sliced red bell pepper"
        }, 
        {
            "amount": "1/4 cup", 
            "ingredient": "coarsely chopped dry roasted peanuts"
        }, 
        {
            "amount": "1/4 cup", 
            "ingredient": "chopped fresh cilantro"
        }
    ], 
    "prep_steps": [
        "On a plate, combine the flour, cumin, cayenne pepper and 1/2 teaspoon of salt. Stir to distribute the spices. Coat the pork chops with the flour mixture, and shake off any excess.", 
        "Heat the oil in a large skillet over medium-high heat. Place the pork chops in the hot skillet, and fry for about 4 minutes per side, until cooked through.", 
        "While the pork chops cook, stir together the chicken broth, coconut milk, peanut butter, honey, ginger and 1/4 teaspoon of salt. Remove the pork chops to a serving platter, and keep warm.", 
        "Pour the peanut sauce into the skillet. Cook, stirring constantly for 2 minutes, or until thickened. Pour peanut sauce over the chops, and garnish with green onion, bell pepper, peanuts and cilantro."
    ], 
    "prep_time": "17 mins", 
    "recipe_name": "Thai Pork with Peanut Sauce"
}