{
    "ingredients": [
        {
            "amount": "1 tablespoon", 
            "ingredient": "onion powder"
        }, 
        {
            "amount": "1 tablespoon", 
            "ingredient": "garlic powder"
        }, 
        {
            "amount": "2 teaspoons", 
            "ingredient": "cracked black pepper, or to taste"
        }, 
        {
            "amount": "1 pound", 
            "ingredient": "lean beef sirloin tip, sliced into 1/8 inch strips"
        }, 
        {
            "amount": "1/2 cup", 
            "ingredient": "brown sugar"
        }, 
        {
            "amount": "2/3 cup", 
            "ingredient": "soy sauce"
        }, 
        {
            "amount": "1/4 cup", 
            "ingredient": "teriyaki sauce"
        }, 
        {
            "amount": "1/4 cup", 
            "ingredient": "Worcestershire sauce"
        }, 
        {
            "amount": "1/3 cup", 
            "ingredient": "balsamic vinegar"
        }, 
        {
            "amount": "5 tablespoons", 
            "ingredient": "liquid smoke flavoring"
        }, 
        {
            "amount": "1/2 cup", 
            "ingredient": "pineapple juice"
        }, 
        {
            "amount": "1 teaspoon", 
            "ingredient": "red pepper flakes, or to taste"
        }
    ], 
    "prep_steps": [
        "In a small bowl or cup, mix together the onion powder, garlic powder, and some cracked black pepper. Season the meat lightly, using only part of the mixture. Reserve the remaining spices. Place into an airtight plastic container or bowl, and refrigerate.", 
        "In a saucepan over medium heat, mix together the brown sugar, soy sauce, teriyaki sauce, Worcestershire sauce, balsamic vinegar, liquid smoke flavoring and pineapple juice. Heat until the brown sugar has completely dissolved. Refrigerate marinade until cool.", 
        "Pour cooled marinade over the seasoned meat, and mix by hand to coat. Seal the bowl, and refrigerate for at least 3 hours.", 
        "Arrange the beef strips on the rack of a dehydrator, and sprinkle with a little bit more of the spice mixture and red pepper flakes if using. Dry for 5 hours, or to your desired dryness."
    ], 
    "prep_time": "5 hrs", 
    "recipe_name": "Jerky Lover's Jerky - Sweet, Hot and Spicy!"
}