{
    "ingredients": [
        {
            "amount": "1 (9 inch)", 
            "ingredient": "unbaked pie crust"
        }, 
        {
            "amount": "1 cup", 
            "ingredient": "milk"
        }, 
        {
            "amount": "1 (14 ounce) can", 
            "ingredient": "coconut milk"
        }, 
        {
            "amount": "1 cup", 
            "ingredient": "white sugar"
        }, 
        {
            "amount": "1 cup", 
            "ingredient": "water"
        }, 
        {
            "amount": "1/2 cup", 
            "ingredient": "cornstarch"
        }, 
        {
            "amount": "1 1/4 cups", 
            "ingredient": "semi-sweet chocolate chips"
        }, 
        {
            "amount": "1 1/2 cups", 
            "ingredient": "heavy cream"
        }, 
        {
            "amount": "1/4 cup", 
            "ingredient": "white sugar"
        }
    ], 
    "prep_steps": [
        "Preheat oven to 350 degrees F (175 degrees C). Bake crust for 15 minutes, or until golden brown. Set aside to cool.", 
        "In a medium saucepan, whisk together milk, coconut milk and 1 cup sugar. In a separate bowl, dissolve the cornstarch in water. Bring coconut mixture to a boil. Reduce to simmer and slowly whisk in the cornstarch. Continue stirring mixture over low heat until thickened, about 3 minutes.", 
        "In a glass bowl, microwave chocolate chips for 1 minute or until melted. Divide the coconut pudding evenly into two bowls. Mix chocolate into one portion. Spread on the bottom of the pie crust. Pour the remaining portion of pudding on top of the chocolate and spread smooth. Refrigerate for about an hour.", 
        "Whip cream with 1/4 cup sugar until stiff peaks form. Layer the cream on pie; if desired garnish with chocolate shavings."
    ], 
    "prep_time": "1\u00be hrs", 
    "recipe_name": "Coconut (Haupia) and Chocolate Pie"
}