{
    "ingredients": [
        {
            "amount": "1 1/2 cups", 
            "ingredient": "uncooked glutinous white rice"
        }, 
        {
            "amount": "1 2/3 cups", 
            "ingredient": "water"
        }, 
        {
            "amount": "1 pound", 
            "ingredient": "boneless beef sirloin steak (3/4 inch thick)"
        }, 
        {
            "amount": "2 tablespoons", 
            "ingredient": "cornstarch"
        }, 
        {
            "amount": "1 (14 ounce) can", 
            "ingredient": "beef broth"
        }, 
        {
            "amount": "2 tablespoons", 
            "ingredient": "soy sauce"
        }, 
        {
            "amount": "1 tablespoon", 
            "ingredient": "packed brown sugar"
        }, 
        {
            "amount": "1/4 teaspoon", 
            "ingredient": "garlic powder"
        }, 
        {
            "amount": "4 cups", 
            "ingredient": "fresh broccoli florets"
        }
    ], 
    "prep_steps": [
        "In a saucepan bring water to a boil. Add rice and stir. Reduce heat, cover and simmer for 20 minutes.", 
        "Meanwhile, slice beef into very thin strips.", 
        "In a mixing bowl, combine the cornstarch, broth, soy sauce, sugar and garlic powder. Mix thoroughly.", 
        "In a large skillet, over medium/high heat, saute the beef strips until browned and juices evaporate.", 
        "Stir broccoli and cornstarch mixture into meat. Cook until mixture boils and thickens, stirring frequently. Serve over the cooked rice."
    ], 
    "prep_time": "45 mins", 
    "recipe_name": "Beef Teriyaki"
}