{
    "ingredients": [
        {
            "amount": "2", 
            "ingredient": "skinless, boneless chicken breast halves"
        }, 
        {
            "amount": "1 1/4 cups", 
            "ingredient": "Italian salad dressing, divided"
        }, 
        {
            "amount": "4 cups", 
            "ingredient": "fresh spinach, torn"
        }, 
        {
            "amount": "1/3 cup", 
            "ingredient": "crumbled feta cheese"
        }, 
        {
            "amount": "8", 
            "ingredient": "sun-dried tomatoes, packed without oil, chopped"
        }, 
        {
            "amount": "1 (1 pound) loaf", 
            "ingredient": "focaccia bread, cut into 1/2-inch thick slices"
        }, 
        {
            "amount": "1/4 cup", 
            "ingredient": "olive oil"
        }
    ], 
    "prep_steps": [
        "Place the chicken and 1 cup salad dressing in a bowl. Cover, and marinate at least 3 hours in the refrigerator.", 
        "Preheat the grill for high heat.", 
        "Lightly oil the grill grate. Discard dressing used for marinating, and grill chicken 7 minutes per side, or until juices run clear. Cool and shred.", 
        "In a large bowl, mix the cooked chicken, spinach, feta cheese, sun-dried tomatoes, and remaining dressing.", 
        "Brush the focaccia bread with olive oil, and cook 1 minute per side on the prepared grill, or until lightly toasted. Place portions of the chicken mixture on the toasted focaccia to serve."
    ], 
    "prep_time": "45 mins", 
    "recipe_name": "Chicken and Sun-Dried Tomato Bruschetta"
}