{
    "ingredients": [
        {
            "amount": "3/4 cup", 
            "ingredient": "melted butter"
        }, 
        {
            "amount": "1 1/2 tablespoons", 
            "ingredient": "Dijon mustard"
        }, 
        {
            "amount": "1 1/2 teaspoons", 
            "ingredient": "Worcestershire sauce"
        }, 
        {
            "amount": "1 1/2 tablespoons", 
            "ingredient": "poppy seeds"
        }, 
        {
            "amount": "1 tablespoon", 
            "ingredient": "dried minced onion"
        }, 
        {
            "amount": "24", 
            "ingredient": "mini sandwich rolls"
        }, 
        {
            "amount": "1 pound", 
            "ingredient": "thinly sliced cooked deli ham"
        }, 
        {
            "amount": "1 pound", 
            "ingredient": "thinly sliced Swiss cheese"
        }
    ], 
    "prep_steps": [
        "Preheat oven to 350 degrees F (175 degrees C). Grease a 9x13-inch baking dish.", 
        "In a bowl, mix together butter, Dijon mustard, Worcestershire sauce, poppy seeds, and dried onion. Separate the tops from bottoms of the rolls, and place the bottom pieces into the prepared baking dish. Layer about half the ham onto the rolls. Arrange the Swiss cheese over the ham, and top with remaining ham slices in a layer. Place the tops of the rolls onto the sandwiches. Pour the mustard mixture evenly over the rolls.", 
        "Bake in the preheated oven until the rolls are lightly browned and the cheese has melted, about 20 minutes. Slice into individual rolls through the ham and cheese layers to serve."
    ], 
    "prep_time": "35 mins", 
    "recipe_name": "Baked Ham and Cheese Party Sandwiches"
}