{
    "ingredients": [
        {
            "amount": "3 (15 ounce) cans", 
            "ingredient": "black beans, drained and rinsed"
        }, 
        {
            "amount": "1 (11 ounce) can", 
            "ingredient": "Mexican-style corn, drained"
        }, 
        {
            "amount": "2 (10 ounce) cans", 
            "ingredient": "diced tomatoes with green chile peppers, partially drained"
        }, 
        {
            "amount": "2", 
            "ingredient": "tomatoes, diced"
        }, 
        {
            "amount": "2 bunches", 
            "ingredient": "green onions, chopped"
        }
    ], 
    "prep_steps": [
        "In a large bowl, mix together black beans, Mexican-style corn, diced tomatoes with green chile peppers, tomatoes and green onion stalks. Garnish with desired amount of cilantro leaves. Chill in the refrigerator at least 8 hours, or overnight, before serving."
    ], 
    "prep_time": "8 hrs", 
    "recipe_name": "Black Bean Salsa"
}