{
    "ingredients": [
        {
            "amount": "1 1/2 cups", 
            "ingredient": "uncooked long-grain white rice"
        }, 
        {
            "amount": "1 (14 ounce) can", 
            "ingredient": "beef broth"
        }, 
        {
            "amount": "1 (10.5 ounce) can", 
            "ingredient": "condensed French onion soup"
        }, 
        {
            "amount": "1/4 cup", 
            "ingredient": "butter, melted"
        }, 
        {
            "amount": "1 tablespoon", 
            "ingredient": "Worcestershire sauce"
        }, 
        {
            "amount": "1 tablespoon", 
            "ingredient": "dried basil leaves"
        }
    ], 
    "prep_steps": [
        "Preheat oven to 350 degrees F (175 degrees C).", 
        "In a 2 quart casserole dish combine rice, broth, soup, butter, Worcestershire sauce and basil.", 
        "Bake covered for 1 hour, stirring once after 30 minutes."
    ], 
    "prep_time": "1\u00bc hrs", 
    "recipe_name": "Brown Rice"
}