{
    "ingredients": [
        {
            "amount": "2 pounds", 
            "ingredient": "tomatoes"
        }, 
        {
            "amount": "2 cubes", 
            "ingredient": "beef bouillon, crumbled"
        }, 
        {
            "amount": "1 tablespoon", 
            "ingredient": "white sugar"
        }, 
        {
            "amount": "1 teaspoon", 
            "ingredient": "salt"
        }, 
        {
            "amount": "1", 
            "ingredient": "bay leaf"
        }, 
        {
            "amount": "1/4 teaspoon", 
            "ingredient": "dried basil"
        }, 
        {
            "amount": "1/4 teaspoon", 
            "ingredient": "ground black pepper"
        }, 
        {
            "amount": "1/2 cup", 
            "ingredient": "butter"
        }, 
        {
            "amount": "1/3 cup", 
            "ingredient": "all-purpose flour"
        }, 
        {
            "amount": "1 quart", 
            "ingredient": "milk"
        }
    ], 
    "prep_steps": [
        "Run the tomatoes through a food mill to remove the seeds and skins, and place in a large pot over medium heat. Stir in the bouillon, sugar, salt, bay leaf, basil and pepper. Bring to a boil, then reduce heat, and simmer 30 minutes. (If you're going to can this mixture, process it now.)", 
        "In a small saucepan over medium heat, melt butter. Whisk in flour all at once to form a roux, cook 1 minute. Whisk in milk, a little at a time, cooking and stirring constantly until thickened. Stir into tomato mixture and heat through."
    ], 
    "prep_time": "1\u00bc hrs", 
    "recipe_name": "Tomato Bisque II"
}