{
    "ingredients": [
        {
            "amount": "1/2 cup", 
            "ingredient": "butter, softened"
        }, 
        {
            "amount": "1/4 cup", 
            "ingredient": "packed brown sugar"
        }, 
        {
            "amount": "1", 
            "ingredient": "egg"
        }, 
        {
            "amount": "1/2 teaspoon", 
            "ingredient": "vanilla extract"
        }, 
        {
            "amount": "1 cup", 
            "ingredient": "all-purpose flour"
        }, 
        {
            "amount": "1/4 cup", 
            "ingredient": "finely chopped walnuts"
        }, 
        {
            "amount": "2/3 cup", 
            "ingredient": "any flavor fruit jam"
        }, 
        {
            "amount": "1/4 teaspoon", 
            "ingredient": "salt"
        }
    ], 
    "prep_steps": [
        "Preheat oven to 300 degrees F. Grease cookie sheets.", 
        "Separate egg, reserving egg white. Cream butter or margarine, sugar, and egg yolk.", 
        "Add vanilla, flour and salt, mixing well.", 
        "Shape dough into balls. Roll in egg white, then walnuts. Place on cookie sheets about 2 inches apart. Bake for 5 minutes.", 
        "Remove cookies from oven. With thumb, dent each cookie. Put jelly or preserves in each thumbprint. Bake for another 8 minutes."
    ], 
    "recipe_name": "Thumbprint Cookies I"
}