{
    "ingredients": [
        {
            "amount": "4", 
            "ingredient": "skinless, boneless chicken breasts"
        }, 
        {
            "amount": "1", 
            "ingredient": "egg"
        }, 
        {
            "amount": "3 tablespoons", 
            "ingredient": "lemon juice"
        }, 
        {
            "amount": "1/4 cup", 
            "ingredient": "all-purpose flour"
        }, 
        {
            "amount": "1/8 teaspoon", 
            "ingredient": "garlic powder"
        }, 
        {
            "amount": "1/8 teaspoon", 
            "ingredient": "paprika"
        }, 
        {
            "amount": "1/4 cup", 
            "ingredient": "butter"
        }, 
        {
            "amount": "2 teaspoons", 
            "ingredient": "chicken bouillon powder"
        }, 
        {
            "amount": "1/2 cup", 
            "ingredient": "boiling water"
        }
    ], 
    "prep_steps": [
        "In a small bowl, beat the egg together with 1 tablespoon of the lemon juice. Set aside.", 
        "In a shallow bowl or dish mix together the flour, garlic powder and paprika. Dip the chicken in the egg/lemon mixture, then in the seasoned flour.", 
        "In a large skillet, melt butter/margarine and brown the coated chicken pieces.", 
        "Dissolve the bouillon in the boiling water, then add the remaining 2 tablespoons of lemon juice. Pour liquid into skillet. Cover and let simmer for 20 minutes, turning chicken pieces after 10 minutes, until chicken is tender. Garnish as desired and serve."
    ], 
    "prep_time": "45 mins", 
    "recipe_name": "Chicken Piccata II"
}