{
    "ingredients": [
        {
            "amount": "1 (10.75 ounce) can", 
            "ingredient": "condensed cream of mushroom soup"
        }, 
        {
            "amount": "1 (10.75 ounce) can", 
            "ingredient": "condensed Cheddar cheese soup"
        }, 
        {
            "amount": "1 (1.25 ounce) package", 
            "ingredient": "beef with onion soup mix"
        }, 
        {
            "amount": "3 pounds", 
            "ingredient": "beef stew meat"
        }
    ], 
    "prep_steps": [
        "Pour the cream of mushroom soup, cheese soup and onion soup mix into a slow cooker, and mix well. Add beef, cover and cook on Low for 8 hours, or on High for 4 to 5 hours."
    ], 
    "prep_time": "8 hrs", 
    "recipe_name": "Slow Cooker Manly Stew"
}