{
    "ingredients": [
        {
            "amount": "1 (16 ounce) package", 
            "ingredient": "linguine pasta"
        }, 
        {
            "amount": "1/2 cup", 
            "ingredient": "chopped red onion"
        }, 
        {
            "amount": "1 tablespoon", 
            "ingredient": "olive oil"
        }, 
        {
            "amount": "2 cloves", 
            "ingredient": "garlic, crushed"
        }, 
        {
            "amount": "1 pound", 
            "ingredient": "skinless, boneless chicken breast meat - cut into bite-size pieces"
        }, 
        {
            "amount": "1 (14 ounce) can", 
            "ingredient": "marinated artichoke hearts, drained and chopped"
        }, 
        {
            "amount": "1 large", 
            "ingredient": "tomato, chopped"
        }, 
        {
            "amount": "1/2 cup", 
            "ingredient": "crumbled feta cheese"
        }, 
        {
            "amount": "3 tablespoons", 
            "ingredient": "chopped fresh parsley"
        }, 
        {
            "amount": "2 tablespoons", 
            "ingredient": "lemon juice"
        }, 
        {
            "amount": "2 teaspoons", 
            "ingredient": "dried oregano"
        }, 
        {
            "amount": "2", 
            "ingredient": "lemons, wedged, for garnish"
        }
    ], 
    "prep_steps": [
        "Bring a large pot of lightly salted water to a boil. Cook pasta in boiling water until tender yet firm to the bit, 8 to 10 minutes; drain.", 
        "Heat olive oil in a large skillet over medium-high heat. Add onion and garlic; saute until fragrant, about 2 minutes. Stir in the chicken and cook, stirring occasionally, until chicken is no longer pink in the center and the juices run clear, about 5 to 6 minutes.", 
        "Reduce heat to medium-low; add artichoke hearts, tomato, feta cheese, parsley, lemon juice, oregano, and cooked pasta. Cook and stir until heated through, about 2 to 3 minutes. Remove from heat, season with salt and pepper, and garnish with lemon wedges."
    ], 
    "prep_time": "30 mins", 
    "recipe_name": "Greek Chicken Pasta"
}