{
    "ingredients": [
        {
            "amount": "2 (12 ounce) packages", 
            "ingredient": "frozen hash brown potatoes"
        }, 
        {
            "amount": "1/3 cup", 
            "ingredient": "butter, melted"
        }, 
        {
            "amount": "1 cup", 
            "ingredient": "cooked diced ham"
        }, 
        {
            "amount": "1 cup", 
            "ingredient": "shredded Monterey Jack cheese"
        }, 
        {
            "amount": "2", 
            "ingredient": "eggs"
        }, 
        {
            "amount": "1/2 cup", 
            "ingredient": "heavy whipping cream"
        }
    ], 
    "prep_steps": [
        "Preheat oven to 425 degrees F (220 degrees C).", 
        "Squeeze any excess moisture from the potatoes and combine them with the melted butter or margarine in a small bowl. Press this mixture into the bottom and sides of an ungreased 10 inch pie pan.", 
        "Bake at 425 degrees F (220 degrees C) for 25 minutes.", 
        "Remove pan from oven and arrange the ham and cheese evenly over the potatoes. In a separate small bowl, beat together the eggs and the cream. Pour this over the ham and cheese.", 
        "Return pan to oven and bake for 425 degrees F (220 degrees C) for 30 minutes, or until the custard has completely set."
    ], 
    "prep_time": "1\u00bc hrs", 
    "recipe_name": "Ham and Cheese Breakfast Quiche"
}