{
    "ingredients": [
        {
            "amount": "1/2 cup", 
            "ingredient": "chopped walnuts"
        }, 
        {
            "amount": "1/4 cup", 
            "ingredient": "cranberries"
        }, 
        {
            "amount": "1/4 cup", 
            "ingredient": "balsamic vinegar"
        }, 
        {
            "amount": "1 cup", 
            "ingredient": "red onion, chopped"
        }, 
        {
            "amount": "1 tablespoon", 
            "ingredient": "white sugar"
        }, 
        {
            "amount": "1 tablespoon", 
            "ingredient": "Dijon-style prepared mustard"
        }, 
        {
            "amount": "1 cup", 
            "ingredient": "vegetable oil"
        }, 
        {
            "amount": "10 cups", 
            "ingredient": "mixed salad greens, rinsed and dried"
        }, 
        {
            "amount": "2", 
            "ingredient": "Red Delicious apples, cored and thinly sliced"
        }
    ], 
    "prep_steps": [
        "Preheat the oven to 350 degrees F (175 degrees C). Spread the walnuts out on a baking sheet in a single layer. Bake for 8 to 10 minutes in the preheated oven, or until lightly toasted.", 
        "In a food processor, combine the cranberries, vinegar, onion, sugar, and mustard. Puree until smooth; gradually add oil, and season with salt and pepper.", 
        "In a salad bowl, toss together the greens, apples, and enough of the cranberry mixture to coat. Sprinkle with walnuts, and serve."
    ], 
    "prep_time": "20 mins", 
    "recipe_name": "Apple Walnut Salad with Cranberry Vinaigrette"
}