{
    "ingredients": [
        {
            "amount": "2 tablespoons", 
            "ingredient": "olive oil"
        }, 
        {
            "amount": "1 pound", 
            "ingredient": "Italian sausage, casings removed"
        }, 
        {
            "amount": "1 1/2 cups", 
            "ingredient": "chopped onion"
        }, 
        {
            "amount": "1 1/2 cups", 
            "ingredient": "sliced carrots"
        }, 
        {
            "amount": "1 stalk", 
            "ingredient": "celery with leaves, chopped"
        }, 
        {
            "amount": "1 tablespoon", 
            "ingredient": "chopped garlic"
        }, 
        {
            "amount": "1 teaspoon", 
            "ingredient": "dried basil"
        }, 
        {
            "amount": "1 teaspoon", 
            "ingredient": "dried rosemary"
        }, 
        {
            "amount": "1/4 teaspoon", 
            "ingredient": "dried crushed red pepper"
        }, 
        {
            "amount": "1/4 teaspoon", 
            "ingredient": "dried sage"
        }, 
        {
            "amount": "1 (14.5 ounce) can", 
            "ingredient": "canned diced tomatoes"
        }, 
        {
            "amount": "5 cups", 
            "ingredient": "chicken broth"
        }, 
        {
            "amount": "1 (16 ounce) can", 
            "ingredient": "kidney beans, drained"
        }, 
        {
            "amount": "1 cup", 
            "ingredient": "uncooked pasta shells"
        }
    ], 
    "prep_steps": [
        "Heat the oil in a large pot over medium-high heat. Cook the sausage until evenly browned, and break into pieces. Stir in the onions, carrots, celery, garlic, basil, rosemary, red pepper, and sage. Continue cooking 10 minutes, until vegetables are tender. Mix in tomatoes, and cook until heated through. Stir in the broth and beans. Bring to a boil. Reduce heat to low, and simmer 20 minutes.", 
        "Stir pasta into soup, and continue cooking 10 minutes, or until pasta is al dente."
    ], 
    "prep_time": "1\u00bc hrs", 
    "recipe_name": "Italian Sausage Soup II"
}