{
    "ingredients": [
        {
            "amount": "1/4 cup", 
            "ingredient": "butter"
        }, 
        {
            "amount": "1 pound", 
            "ingredient": "leeks, chopped"
        }, 
        {
            "amount": "1", 
            "ingredient": "onion, chopped"
        }, 
        {
            "amount": "2 quarts", 
            "ingredient": "water"
        }, 
        {
            "amount": "3 large", 
            "ingredient": "potatoes, chopped"
        }, 
        {
            "amount": "2 large", 
            "ingredient": "carrots, chopped"
        }, 
        {
            "amount": "1 bunch", 
            "ingredient": "fresh asparagus, trimmed and cut into 1 inch pieces"
        }, 
        {
            "amount": "1/3 cup", 
            "ingredient": "uncooked long-grain white rice"
        }, 
        {
            "amount": "4 teaspoons", 
            "ingredient": "salt"
        }, 
        {
            "amount": "1/2 pound", 
            "ingredient": "fresh spinach"
        }, 
        {
            "amount": "1 cup", 
            "ingredient": "heavy cream"
        }
    ], 
    "prep_steps": [
        "Melt the butter in a large pot over medium heat. Stir in the leeks and onion, and cook until tender.", 
        "Pour water into the pot. Mix in potatoes, carrots, asparagus, and rice. Season with salt. Bring to a boil, reduce heat, and simmer 30 minutes, until vegetables and rice are tender.", 
        "Stir spinach and heavy cream into the soup mixture, and continue cooking about 5 minutes before serving."
    ], 
    "prep_time": "1 hr", 
    "recipe_name": "French Spring Soup"
}