{
    "ingredients": [
        {
            "amount": "1 pound", 
            "ingredient": "ground beef"
        }, 
        {
            "amount": "1", 
            "ingredient": "onion, chopped"
        }, 
        {
            "amount": "2 stalks", 
            "ingredient": "celery, chopped"
        }, 
        {
            "amount": "1/2 cup", 
            "ingredient": "slivered almonds"
        }, 
        {
            "amount": "1 cup", 
            "ingredient": "cooked rice"
        }, 
        {
            "amount": "1 (10.75 ounce) can", 
            "ingredient": "condensed cream of chicken soup"
        }, 
        {
            "amount": "1/2 cup", 
            "ingredient": "water"
        }, 
        {
            "amount": "3 tablespoons", 
            "ingredient": "soy sauce"
        }, 
        {
            "amount": "5 ounces", 
            "ingredient": "chow mein noodles"
        }
    ], 
    "prep_steps": [
        "Preheat oven to 350 degrees F (175 degrees C).", 
        "In a large skillet over medium high heat, saute the ground beef for 5 minutes. Add the onion and celery and saute for 5 more minutes.", 
        "In a separate medium bowl, combine the almonds, rice, soup, water and soy sauce. Mix together well and add to the beef mixture. Place this into a lightly greased 9x13 inch baking dish. Top with chow mein noodles.", 
        "Bake at 350 degrees F (175 degrees C) for 20 minutes."
    ], 
    "prep_time": "40 mins", 
    "recipe_name": "Chow Mein Noodle Casserole"
}