{
    "ingredients": [
        {
            "amount": "1 cup", 
            "ingredient": "olive oil"
        }, 
        {
            "amount": "1/4 cup", 
            "ingredient": "chopped fresh parsley"
        }, 
        {
            "amount": "1", 
            "ingredient": "lemon, juiced"
        }, 
        {
            "amount": "2 tablespoons", 
            "ingredient": "hot pepper sauce"
        }, 
        {
            "amount": "3 cloves", 
            "ingredient": "garlic, minced"
        }, 
        {
            "amount": "1 tablespoon", 
            "ingredient": "tomato paste"
        }, 
        {
            "amount": "2 teaspoons", 
            "ingredient": "dried oregano"
        }, 
        {
            "amount": "1 teaspoon", 
            "ingredient": "salt"
        }, 
        {
            "amount": "1 teaspoon", 
            "ingredient": "ground black pepper"
        }, 
        {
            "amount": "2 pounds", 
            "ingredient": "large shrimp, peeled and deveined with tails attached"
        }
    ], 
    "prep_steps": [
        "In a mixing bowl, mix together olive oil, parsley, lemon juice, hot sauce, garlic, tomato paste, oregano, salt, and black pepper. Reserve a small amount for basting later. Pour remaining marinade into a large resealable plastic bag with shrimp. Seal, and marinate in the refrigerator for 2 hours.", 
        "Preheat grill for medium-low heat. Thread shrimp onto skewers, piercing once near the tail and once near the head. Discard marinade.", 
        "Lightly oil grill grate. Cook shrimp for 5 minutes per side, or until opaque, basting frequently with reserved marinade."
    ], 
    "prep_time": "2\u00be hrs", 
    "recipe_name": "Grilled Marinated Shrimp"
}