{
    "ingredients": [
        {
            "amount": "1 (12 ounce) package", 
            "ingredient": "extra firm tofu"
        }, 
        {
            "amount": "3 tablespoons", 
            "ingredient": "vegetable oil"
        }, 
        {
            "amount": "1", 
            "ingredient": "onion, thinly sliced"
        }, 
        {
            "amount": "1 1/2 cups", 
            "ingredient": "barbecue sauce"
        }, 
        {
            "amount": "6", 
            "ingredient": "hamburger buns"
        }
    ], 
    "prep_steps": [
        "Drain the tofu between paper towels until most of the water has been squeezed out.", 
        "Slice tofu into 1/4 inch thick slices.", 
        "Heat vegetable oil in a large skillet, fry tofu strips until golden brown on both sides. Add onion and cook for a few minutes, until onion is at your desired consistency.", 
        "Pour in barbeque sauce (use more or less, according to your taste). Cook the mixture for ten minutes on low and serve on buns."
    ], 
    "prep_time": "15 mins", 
    "recipe_name": "Barbecue Tofu Sandwiches"
}