{
    "ingredients": [
        {
            "amount": "8 ounces", 
            "ingredient": "fettuccini pasta"
        }, 
        {
            "amount": "2 tablespoons", 
            "ingredient": "butter"
        }, 
        {
            "amount": "3", 
            "ingredient": "skinless, boneless chicken breast halves - cut into chunks"
        }, 
        {
            "amount": "8 ounces", 
            "ingredient": "mushrooms, sliced"
        }, 
        {
            "amount": "1 teaspoon", 
            "ingredient": "garlic salt"
        }, 
        {
            "amount": "1/8 teaspoon", 
            "ingredient": "ground black pepper"
        }, 
        {
            "amount": "1 1/2 cups", 
            "ingredient": "heavy cream"
        }, 
        {
            "amount": "1/4 cup", 
            "ingredient": "grated Parmesan cheese"
        }
    ], 
    "prep_steps": [
        "Bring a large pot of lightly salted water to a boil. Add fettuccine and cook for 8 to 10 minutes or until al dente; drain.", 
        "In a large skillet, brown chicken and mushrooms in butter until chicken is cooked through. Season with garlic salt and pepper. Add whipping cream and cook until thick, stirring constantly. Add parmesan cheese when at desired consistency. Serve over noodles."
    ], 
    "prep_time": "25 mins", 
    "recipe_name": "Homemade Chicken Fettuccine"
}