{
    "ingredients": [
        {
            "amount": "1 1/2 cups", 
            "ingredient": "all-purpose flour"
        }, 
        {
            "amount": "1 teaspoon", 
            "ingredient": "salt"
        }, 
        {
            "amount": "1 teaspoon", 
            "ingredient": "baking soda"
        }, 
        {
            "amount": "2 teaspoons", 
            "ingredient": "baking powder"
        }, 
        {
            "amount": "1 teaspoon", 
            "ingredient": "dried thyme"
        }, 
        {
            "amount": "1 teaspoon", 
            "ingredient": "dried parsley"
        }, 
        {
            "amount": "1 teaspoon", 
            "ingredient": "dried oregano"
        }, 
        {
            "amount": "3 tablespoons", 
            "ingredient": "butter"
        }, 
        {
            "amount": "3/4 cup", 
            "ingredient": "milk"
        }
    ], 
    "prep_steps": [
        "In a bowl, mix the flour, salt, baking soda, baking powder, thyme, parsley, and oregano. Cut in butter until the mixture resembles coarse crumbs. Gradually add milk, using just enough to form a thick batter.", 
        "Drop by rounded tablespoons into your simmering soup or stew, cover, and allow to cook 15 minutes."
    ], 
    "prep_time": "20 mins", 
    "recipe_name": "Herbed Dumplings"
}