{
    "ingredients": [
        {
            "amount": "1/4 cup", 
            "ingredient": "distilled white vinegar"
        }, 
        {
            "amount": "1/3 cup", 
            "ingredient": "vegetable oil"
        }, 
        {
            "amount": "1/3 cup", 
            "ingredient": "soy sauce"
        }, 
        {
            "amount": "1", 
            "ingredient": "lime, juiced"
        }, 
        {
            "amount": "1/2", 
            "ingredient": "lemon, juiced"
        }, 
        {
            "amount": "1/4 cup", 
            "ingredient": "sherry"
        }, 
        {
            "amount": "2 tablespoons", 
            "ingredient": "ground mustard"
        }, 
        {
            "amount": "2 teaspoons", 
            "ingredient": "honey"
        }, 
        {
            "amount": "4 cloves", 
            "ingredient": "garlic, crushed"
        }, 
        {
            "amount": "1/3 cup", 
            "ingredient": "brown sugar"
        }, 
        {
            "amount": "2 tablespoons", 
            "ingredient": "lemon pepper"
        }, 
        {
            "amount": "1 teaspoon", 
            "ingredient": "dried oregano"
        }, 
        {
            "amount": "1 teaspoon", 
            "ingredient": "rosemary"
        }, 
        {
            "amount": "1 teaspoon", 
            "ingredient": "salt"
        }, 
        {
            "amount": "6", 
            "ingredient": "skinless, boneless chicken breast halves"
        }
    ], 
    "prep_steps": [
        "In a large glass bowl, stir together the vinegar, oil, soy sauce, lime juice, lemon juice, sherry, mustard, and honey. Mix in the garlic, brown sugar, lemon pepper, oregano, rosemary, and salt. Place the chicken in the mixture. Cover, and marinate in the refrigerator 8 hours or overnight.", 
        "Preheat the grill for high heat.", 
        "Lightly oil the grill grate. Discard marinade, and place chicken on the grill. Cook 6 to 8 minutes per side, until juices run clear."
    ], 
    "prep_time": "8 hrs", 
    "recipe_name": "Ray's Chicken"
}