{
    "ingredients": [
        {
            "amount": "2 (3 ounce) packages", 
            "ingredient": "chicken flavored ramen noodles"
        }, 
        {
            "amount": "1/2 cup", 
            "ingredient": "vegetable oil"
        }, 
        {
            "amount": "1/2 cup", 
            "ingredient": "white sugar"
        }, 
        {
            "amount": "1/3 cup", 
            "ingredient": "white wine vinegar"
        }, 
        {
            "amount": "1 (16 ounce) package", 
            "ingredient": "shredded coleslaw mix"
        }, 
        {
            "amount": "1 (11 ounce) can", 
            "ingredient": "mandarin oranges, drained and sliced"
        }, 
        {
            "amount": "1 (8 ounce) can", 
            "ingredient": "water chestnuts"
        }, 
        {
            "amount": "1 bunch", 
            "ingredient": "green onions, chopped"
        }, 
        {
            "amount": "1/2 cup", 
            "ingredient": "sunflower seeds"
        }, 
        {
            "amount": "1/2 cup", 
            "ingredient": "cashews"
        }
    ], 
    "prep_steps": [
        "Place noodles in a bowl of warm water and soak for 15 minutes or until soft.", 
        "Whisk together the oil, sugar, vinegar and seasoning packs.", 
        "Drain the noodles and combine in a large bowl with the coleslaw, oranges, water chestnuts, green onions and sunflower seeds.", 
        "Pour dressing over salad and toss to coat evenly. Refrigerate for 2 to 4 hours. Add cashews before serving."
    ], 
    "prep_time": "2\u00bd hrs", 
    "recipe_name": "Sweet and Crunchy Salad"
}