{
    "ingredients": [
        {
            "amount": "1/3 cup", 
            "ingredient": "olive oil"
        }, 
        {
            "amount": "1/4 cup", 
            "ingredient": "sesame oil"
        }, 
        {
            "amount": "1/4 cup", 
            "ingredient": "chopped fresh parsley"
        }, 
        {
            "amount": "2 tablespoons", 
            "ingredient": "hot sauce"
        }, 
        {
            "amount": "2 tablespoons", 
            "ingredient": "minced garlic"
        }, 
        {
            "amount": "1 tablespoon", 
            "ingredient": "ketchup"
        }, 
        {
            "amount": "1 tablespoon", 
            "ingredient": "Asian chile paste"
        }, 
        {
            "amount": "1 teaspoon", 
            "ingredient": "salt"
        }, 
        {
            "amount": "1 teaspoon", 
            "ingredient": "black pepper"
        }, 
        {
            "amount": "3 tablespoons", 
            "ingredient": "lemon juice"
        }, 
        {
            "amount": "2 pounds", 
            "ingredient": "large shrimp, peeled and deveined"
        }, 
        {
            "amount": "12", 
            "ingredient": "wooden skewers, soaked in water"
        }
    ], 
    "prep_steps": [
        "Whisk together the olive oil, sesame oil, parsley, hot sauce, minced garlic, ketchup, chile sauce, salt, pepper, and lemon juice in a mixing bowl. Set aside about 1/3 of this marinade to use while grilling.", 
        "Place the shrimp in a large, resealable plastic bag. Pour in the remaining marinade and seal the bag. Refrigerate for 2 hours.", 
        "Preheat an outdoor grill for high heat. Thread shrimp onto skewers, piercing once near the tail and once near the head. Discard marinade.", 
        "Lightly oil grill grate. Cook shrimp for 2 minutes per side until opaque, basting frequently with reserved marinade."
    ], 
    "prep_time": "2\u00be hrs", 
    "recipe_name": "Amazing Spicy Grilled Shrimp"
}