{
    "ingredients": [
        {
            "amount": "1 tablespoon", 
            "ingredient": "vegetable oil"
        }, 
        {
            "amount": "1 large", 
            "ingredient": "onion, chopped"
        }, 
        {
            "amount": "2 cloves", 
            "ingredient": "garlic, minced"
        }, 
        {
            "amount": "2 teaspoons", 
            "ingredient": "minced fresh ginger root"
        }, 
        {
            "amount": "1 1/2 teaspoons", 
            "ingredient": "ground cumin"
        }, 
        {
            "amount": "1 1/2 teaspoons", 
            "ingredient": "ground coriander"
        }, 
        {
            "amount": "1/2 teaspoon", 
            "ingredient": "ground cinnamon"
        }, 
        {
            "amount": "1 pinch", 
            "ingredient": "ground cloves"
        }, 
        {
            "amount": "3 medium", 
            "ingredient": "tomatoes, chopped"
        }, 
        {
            "amount": "1 1/2 pounds", 
            "ingredient": "sweet potatoes, peeled and chopped"
        }, 
        {
            "amount": "1", 
            "ingredient": "carrot, peeled and chopped"
        }, 
        {
            "amount": "4 1/2 cups", 
            "ingredient": "water"
        }, 
        {
            "amount": "1 teaspoon", 
            "ingredient": "salt"
        }, 
        {
            "amount": "1/4 cup", 
            "ingredient": "chopped, unsalted dry-roasted peanuts"
        }, 
        {
            "amount": "1 pinch", 
            "ingredient": "cayenne pepper"
        }, 
        {
            "amount": "2 tablespoons", 
            "ingredient": "creamy peanut butter"
        }, 
        {
            "amount": "1 bunch", 
            "ingredient": "chopped fresh cilantro"
        }
    ], 
    "prep_steps": [
        "Heat the oil in a large saucepan over medium-high heat. Saute the onion 10 minutes, until lightly browned. Mix in the garlic, ginger, cumin, coriander, cinnamon, and cloves. Stir in the tomatoes, sweet potatoes, and carrot, and continue to cook and stir about 5 minutes.", 
        "Pour water into the saucepan, and season the mixture with salt. Bring to a boil, reduce heat, and simmer 30 minutes.", 
        "Remove the soup mixture from heat. In a food processor or blender, blend the soup and peanuts until almost smooth. Season with cayenne pepper. Return to the saucepan. Whisk in the peanut butter, and cook until heated through. Serve warm topped with fresh cilantro."
    ], 
    "prep_time": "1\u00bc hrs", 
    "recipe_name": "African Sweet Potato and Peanut Soup"
}