{
    "ingredients": [
        {
            "amount": "1 tablespoon", 
            "ingredient": "olive oil"
        }, 
        {
            "amount": "1/4 large", 
            "ingredient": "red onion, diced"
        }, 
        {
            "amount": "1/2 cup", 
            "ingredient": "red bell pepper, diced"
        }, 
        {
            "amount": "2 cloves", 
            "ingredient": "cloves garlic, minced"
        }, 
        {
            "amount": "1/4 cup", 
            "ingredient": "Gorgonzola cheese, crumbled"
        }, 
        {
            "amount": "4 ounces", 
            "ingredient": "cream cheese, softened"
        }, 
        {
            "amount": "1/4 cup", 
            "ingredient": "heavy cream"
        }, 
        {
            "amount": "1/4 cup", 
            "ingredient": "milk"
        }, 
        {
            "amount": "1 (14.5 ounce) can", 
            "ingredient": "diced tomatoes"
        }, 
        {
            "amount": "1 1/2 cups", 
            "ingredient": "tomato juice"
        }, 
        {
            "amount": "2 teaspoons", 
            "ingredient": "dried basil"
        }, 
        {
            "amount": "1 teaspoon", 
            "ingredient": "white sugar"
        }, 
        {
            "amount": "1/4 teaspoon", 
            "ingredient": "ground white pepper"
        }
    ], 
    "prep_steps": [
        "Heat oil in a medium saucepan over medium heat. Add the onion, pepper, and garlic; cook and stir 4 to 5 minutes or until vegetables are soft.", 
        "Add the cheeses, cream, and milk; heat mixture until cheeses melt and the mixture is simmering.", 
        "Stir in the tomatoes (including their liquid), tomato juice, basil, sugar, and pepper. Continue to simmer mixture for 15 to 20 minutes while stirring constantly. Do not boil."
    ], 
    "prep_time": "35 mins", 
    "recipe_name": "Tomato Gorgonzola Soup"
}