{
    "ingredients": [
        {
            "amount": "1/2 cup", 
            "ingredient": "red or green lentils"
        }, 
        {
            "amount": "1 cup", 
            "ingredient": "chopped onion"
        }, 
        {
            "amount": "1 stalk", 
            "ingredient": "celery, chopped"
        }, 
        {
            "amount": "2 cups", 
            "ingredient": "shredded cabbage"
        }, 
        {
            "amount": "1 (28 ounce) can", 
            "ingredient": "whole peeled tomatoes, chopped"
        }, 
        {
            "amount": "2 cups", 
            "ingredient": "chicken broth"
        }, 
        {
            "amount": "3", 
            "ingredient": "carrots, chopped"
        }, 
        {
            "amount": "1 clove", 
            "ingredient": "garlic, crushed"
        }, 
        {
            "amount": "1 teaspoon", 
            "ingredient": "salt"
        }, 
        {
            "amount": "1/2 teaspoon", 
            "ingredient": "ground black pepper"
        }, 
        {
            "amount": "1/4 teaspoon", 
            "ingredient": "white sugar"
        }, 
        {
            "amount": "1/2 teaspoon", 
            "ingredient": "dried basil"
        }, 
        {
            "amount": "1/2 teaspoon", 
            "ingredient": "dried thyme"
        }, 
        {
            "amount": "1/4 teaspoon", 
            "ingredient": "curry powder"
        }
    ], 
    "prep_steps": [
        "Place the lentils into a stockpot or a Dutch oven and add water to twice the depth of the lentils. Bring to a boil, then lower heat and let simmer for about 15 minutes. Drain and rinse lentils; return them to the pot.", 
        "Add onion, celery, cabbage, tomatoes, chicken broth, carrots and garlic to the pot and season with salt, pepper, sugar, basil, thyme and curry. Cook, simmering for 1 1/2 to 2 hours or until desired tenderness is achieved."
    ], 
    "prep_time": "3 hr", 
    "recipe_name": "Winter Lentil Vegetable Soup"
}