{
    "ingredients": [
        {
            "amount": "2 tablespoons", 
            "ingredient": "butter"
        }, 
        {
            "amount": "1 pound", 
            "ingredient": "asparagus, bottoms trimmed"
        }, 
        {
            "amount": "1/3 cup", 
            "ingredient": "sliced almonds"
        }, 
        {
            "amount": "1/3 cup", 
            "ingredient": "Parmesan cheese"
        }
    ], 
    "prep_steps": [
        "Melt butter in a large skillet over medium-high heat. Add the asparagus, and cook, stirring, about 3 minutes. Stir in almonds and parmesan, and cook until the cheese is slightly browned, about 3 to 5 minutes."
    ], 
    "prep_time": "12 mins", 
    "recipe_name": "Asparagus with Sliced Almonds and Parmesan Cheese"
}