{
    "ingredients": [
        {
            "amount": "2 tablespoons", 
            "ingredient": "butter or oil"
        }, 
        {
            "amount": "1 1/2 pounds", 
            "ingredient": "boneless pork, cut into 1/2-inch cubes"
        }, 
        {
            "amount": "2 cloves", 
            "ingredient": "garlic, minced"
        }, 
        {
            "amount": "1 medium", 
            "ingredient": "onion, chopped"
        }, 
        {
            "amount": "3 cups", 
            "ingredient": "chicken broth"
        }, 
        {
            "amount": "1/2 teaspoon", 
            "ingredient": "salt"
        }, 
        {
            "amount": "1/4 teaspoon", 
            "ingredient": "dried rosemary, crushed"
        }, 
        {
            "amount": "1/4 teaspoon", 
            "ingredient": "rubbed sage"
        }, 
        {
            "amount": "1", 
            "ingredient": "bay leaf"
        }, 
        {
            "amount": "3 cups", 
            "ingredient": "frozen, cubed butternut squash"
        }, 
        {
            "amount": "2", 
            "ingredient": "MacIntosh apples, cored and cubed"
        }, 
        {
            "amount": "2 large", 
            "ingredient": "potatoes, peeled and cubed"
        }, 
        {
            "amount": "2 cups", 
            "ingredient": "carrots, peeled and diced"
        }
    ], 
    "prep_steps": [
        "Melt the butter in a large skillet over medium-high heat. Add the pork and cook until lightly browned on all sides. Stir in the garlic and onion, and continue to cook until the onion has softened, and the pork is firm, and no longer pink, about 5 minutes.", 
        "Place the pork and onions into a large saucepan. Pour in the chicken broth, and season with salt, rosemary, sage, and the bay leaf. Bring to a boil, then reduce heat to medium-low, cover, and simmer for 20 minutes.", 
        "Stir in the butternut squash, apples, potatoes, and carrots. Return to a simmer, then cook, uncovered until the squash and apples are tender, about 20 minutes. Remove the bay leaf and serve."
    ], 
    "prep_time": "1\u00be hrs", 
    "recipe_name": "Harvest Pork Stew"
}