{
    "ingredients": [
        {
            "amount": "2 tablespoons", 
            "ingredient": "butter"
        }, 
        {
            "amount": "2", 
            "ingredient": "onions, chopped"
        }, 
        {
            "amount": "4 cups", 
            "ingredient": "peeled, cubed potatoes"
        }, 
        {
            "amount": "1 1/2 cups", 
            "ingredient": "chopped celery"
        }, 
        {
            "amount": "1 1/2 cups", 
            "ingredient": "chopped carrots"
        }, 
        {
            "amount": "2 cloves", 
            "ingredient": "garlic, minced"
        }, 
        {
            "amount": "1 tablespoon", 
            "ingredient": "Italian seasoning"
        }, 
        {
            "amount": "2 cups", 
            "ingredient": "milk"
        }, 
        {
            "amount": "1 tablespoon", 
            "ingredient": "cornstarch"
        }, 
        {
            "amount": "1 (14.5 ounce) can", 
            "ingredient": "tomatoes"
        }, 
        {
            "amount": "1 1/4 cups", 
            "ingredient": "chicken broth"
        }, 
        {
            "amount": "2 tablespoons", 
            "ingredient": "tomato paste"
        }
    ], 
    "prep_steps": [
        "Melt the butter in a large saucepan over medium heat, and cook the onions until tender. Mix in the potatoes, celery, carrots, and garlic. Season with Italian seasoning. Pour in milk, gradually stir in cornstarch, and bring to a boil. Mix in tomatoes, broth, and tomato paste. Return to boil, reduce heat to low, and simmer 20 minutes. Season with salt and pepper."
    ], 
    "prep_time": "55 mins", 
    "recipe_name": "Chunky Tomato Potato Soup"
}