{
    "ingredients": [
        {
            "amount": "2/3 cup", 
            "ingredient": "white sugar"
        }, 
        {
            "amount": "1/3 cup", 
            "ingredient": "all-purpose flour"
        }, 
        {
            "amount": "1/4 teaspoon", 
            "ingredient": "salt"
        }, 
        {
            "amount": "3", 
            "ingredient": "eggs, beaten"
        }, 
        {
            "amount": "2 cups", 
            "ingredient": "milk"
        }, 
        {
            "amount": "1/2 teaspoon", 
            "ingredient": "vanilla extract"
        }, 
        {
            "amount": "2 tablespoons", 
            "ingredient": "butter, softened"
        }, 
        {
            "amount": "2", 
            "ingredient": "bananas, peeled and sliced"
        }, 
        {
            "amount": "1/2 (12 ounce) package", 
            "ingredient": "vanilla wafer cookies"
        }
    ], 
    "prep_steps": [
        "In medium saucepan combine sugar, flour, and salt. Add eggs and stir well. Stir in milk, and cook over low heat, stirring constantly. When mixture begins to thicken, remove from heat and continue to stir, cooling slightly. Stir in vanilla and butter until smooth.", 
        "Layer pudding with bananas and vanilla wafers in a serving dish. Chill at least one hour in refrigerator before serving."
    ], 
    "prep_time": "1\u00bd hrs", 
    "recipe_name": "Banana Pudding I"
}