{
    "ingredients": [
        {
            "amount": "1 recipe", 
            "ingredient": "pastry for a (10 inch) double crust pie"
        }, 
        {
            "amount": "4", 
            "ingredient": "boneless chicken breast halves, cooked and diced"
        }, 
        {
            "amount": "2 (10.75 ounce) cans", 
            "ingredient": "condensed cream of chicken soup"
        }, 
        {
            "amount": "3 (15 ounce) cans", 
            "ingredient": "mixed vegetables, drained"
        }
    ], 
    "prep_steps": [
        "Preheat oven to 365 degrees F (185 degrees C). Fit bottom pastry into a 10 inch pie plate.", 
        "In a large bowl, combine chicken, soup, and vegetables. Mix well and pour into crust. Cover with top pastry. Seal edges and cut steam vents in top.", 
        "Bake in preheated oven for 45 minutes, until crust is golden brown."
    ], 
    "prep_time": "55 mins", 
    "recipe_name": "Luscious Chicken Pot Pie"
}