{
    "ingredients": [
        {
            "amount": "1 1/4 cups", 
            "ingredient": "graham cracker crumbs"
        }, 
        {
            "amount": "1/3 cup", 
            "ingredient": "butter, melted"
        }, 
        {
            "amount": "1/4 cup", 
            "ingredient": "white sugar"
        }, 
        {
            "amount": "1 cup", 
            "ingredient": "all-purpose flour"
        }, 
        {
            "amount": "3/4 cup", 
            "ingredient": "quick cooking oats"
        }, 
        {
            "amount": "1/4 cup", 
            "ingredient": "brown sugar"
        }, 
        {
            "amount": "1/2 cup", 
            "ingredient": "butter, melted"
        }, 
        {
            "amount": "3/4 cup", 
            "ingredient": "chopped pecans"
        }, 
        {
            "amount": "1 (8 ounce) package", 
            "ingredient": "cream cheese"
        }, 
        {
            "amount": "1 (14 ounce) can", 
            "ingredient": "sweetened condensed milk"
        }, 
        {
            "amount": "1 (12 ounce) container", 
            "ingredient": "frozen whipped topping, thawed"
        }, 
        {
            "amount": "1 (12 ounce) jar", 
            "ingredient": "caramel topping"
        }
    ], 
    "prep_steps": [
        "Preheat oven to 350 degrees F (175 degrees C).", 
        "In medium bowl, combine graham cracker crumbs, 1/3 cup melted butter and white sugar until well mixed. Press into bottom of a 9 inch springform pan.", 
        "Bake 6 minutes, until set. Cool completely.", 
        "Preheat oven to 400 degrees F (200 degrees C).", 
        "In a large bowl, combine flour, oats, brown sugar, 1/2 cup melted butter and pecans until well mixed. Lightly pat onto a baking sheet.", 
        "Bake 10 to 15 minutes, until light brown. Crumble while still hot. Cool completely.", 
        "In large mixing bowl, beat cream cheese until smooth. Beat in condensed milk until well blended. Fold in whipped topping.", 
        "Spread half of the cheese mixture over the crust in the springform pan. Sprinkle half of the oat crumbles over the cheese mixture, and spread half of the caramel sauce over that. Repeat layers. Freeze until firm, remove pan sides and serve cold."
    ], 
    "prep_time": "1\u00bc hrs", 
    "recipe_name": "Butter Brickle Frozen Delight"
}