{
    "ingredients": [
        {
            "amount": "6 slices", 
            "ingredient": "bacon"
        }, 
        {
            "amount": "1", 
            "ingredient": "onion, chopped"
        }, 
        {
            "amount": "2", 
            "ingredient": "potatoes, peeled and cubed"
        }, 
        {
            "amount": "1/2 cup", 
            "ingredient": "water"
        }, 
        {
            "amount": "2 cups", 
            "ingredient": "milk"
        }, 
        {
            "amount": "2 (14.75 ounce) cans", 
            "ingredient": "cream-style corn"
        }, 
        {
            "amount": "1 (15.25 ounce) can", 
            "ingredient": "whole kernel corn"
        }, 
        {
            "amount": "1/2 teaspoon", 
            "ingredient": "salt"
        }
    ], 
    "prep_steps": [
        "Fry bacon in a Dutch oven until crisp; remove bacon, reserving 2 tablespoons drippings. Crumble bacon and set aside.", 
        "Saute onion in reserved drippings until tender; add potatoes and water. Cover and simmer 15 to 20 minutes or until potatoes are tender.", 
        "Stir in milk, corn, salt, and pepper to taste; continue to cook, stirring frequently, until heated through. Sprinkle with crumbled bacon to serve."
    ], 
    "prep_time": "45 mins", 
    "recipe_name": "A-Maize-ing Corn Chowder"
}