{
    "ingredients": [
        {
            "amount": "1 (6 ounce) can", 
            "ingredient": "tuna, drained"
        }, 
        {
            "amount": "1/3 cup", 
            "ingredient": "chopped celery"
        }, 
        {
            "amount": "2 tablespoons", 
            "ingredient": "mayonnaise"
        }, 
        {
            "amount": "1 pinch", 
            "ingredient": "salt"
        }, 
        {
            "amount": "4", 
            "ingredient": "English muffins, split and toasted"
        }, 
        {
            "amount": "8 slices", 
            "ingredient": "ripe tomato"
        }, 
        {
            "amount": "8 slices", 
            "ingredient": "Cheddar cheese"
        }
    ], 
    "prep_steps": [
        "Preheat oven to broil.", 
        "In a bowl, mix together tuna, celery, mayonnaise and salt. Spread tuna mixture onto the toasted muffin halves and place them on a baking sheet. Top each half with a slice of tomato and a slice of cheese.", 
        "Broil until cheese is melted, about 3 to 5 minutes."
    ], 
    "prep_time": "10 mins", 
    "recipe_name": "Cheesy Tuna Melts"
}