{
    "ingredients": [
        {
            "amount": "7/8 cup", 
            "ingredient": "warm water"
        }, 
        {
            "amount": "3/4 teaspoon", 
            "ingredient": "salt"
        }, 
        {
            "amount": "2 tablespoons", 
            "ingredient": "olive oil"
        }, 
        {
            "amount": "2 1/2 cups", 
            "ingredient": "all-purpose flour"
        }, 
        {
            "amount": "2 teaspoons", 
            "ingredient": "white sugar"
        }, 
        {
            "amount": "2 teaspoons", 
            "ingredient": "active dry yeast"
        }
    ], 
    "prep_steps": [
        "Add ingredients in the order suggested by your manufacturer. Set bread-maker for dough setting and start machine. When the unit signals, remove dough.", 
        "Pat dough into 12x15-inch jelly roll pan or greased 12-inch round pizza pan. Let stand 10 minutes. Preheat oven to 400 degrees F (205 degrees C). Spread pizza sauce over dough. Sprinkle toppings over sauce. Bake 15-20 minutes, or until crust is golden brown."
    ], 
    "prep_time": "2\u00be hrs", 
    "recipe_name": "Pizza Crust I"
}