{
    "ingredients": [
        {
            "amount": "1 (9 inch)", 
            "ingredient": "pie shell"
        }, 
        {
            "amount": "7", 
            "ingredient": "ripe tomatoes, sliced"
        }, 
        {
            "amount": "1", 
            "ingredient": "yellow onion"
        }, 
        {
            "amount": "3/4 cup", 
            "ingredient": "mayonnaise"
        }, 
        {
            "amount": "1/3 cup", 
            "ingredient": "shredded mozzarella cheese"
        }, 
        {
            "amount": "1/3 cup", 
            "ingredient": "grated Parmesan cheese"
        }, 
        {
            "amount": "2 teaspoons", 
            "ingredient": "fresh basil"
        }, 
        {
            "amount": "2 teaspoons", 
            "ingredient": "fresh oregano"
        }
    ], 
    "prep_steps": [
        "Preheat oven to 350 degrees F (175 degrees C).", 
        "Bake the pastry shell for 8 to 10 minutes or until browned.", 
        "Slice onion and place in the bottom of pastry shell. Slice tomatoes and arrange over onions. Add black pepper to taste.", 
        "In a medium bowl, combine mozzarella, parmesan and mayonnaise. Spread this mixture evenly over tomatoes.", 
        "Bake at 350 degrees F (175 degrees C) for 20-25 minutes or until golden brown. Once cooked, garnish with fresh herbs."
    ], 
    "recipe_name": "Fresh Tomato Pie"
}