{
    "ingredients": [
        {
            "amount": "4", 
            "ingredient": "potatoes, peeled and quartered"
        }, 
        {
            "amount": "1 small", 
            "ingredient": "carrot, finely chopped"
        }, 
        {
            "amount": "1/2 stalk", 
            "ingredient": "celery, finely chopped"
        }, 
        {
            "amount": "1 small", 
            "ingredient": "onion, minced"
        }, 
        {
            "amount": "1 1/2 cups", 
            "ingredient": "vegetable broth"
        }, 
        {
            "amount": "1 teaspoon", 
            "ingredient": "salt"
        }, 
        {
            "amount": "2 1/2 cups", 
            "ingredient": "milk"
        }, 
        {
            "amount": "3 tablespoons", 
            "ingredient": "butter, melted"
        }, 
        {
            "amount": "3 tablespoons", 
            "ingredient": "all-purpose flour"
        }, 
        {
            "amount": "1 tablespoon", 
            "ingredient": "dried parsley"
        }, 
        {
            "amount": "1 teaspoon", 
            "ingredient": "ground black pepper"
        }, 
        {
            "amount": "1 cup", 
            "ingredient": "shredded Swiss cheese"
        }
    ], 
    "prep_steps": [
        "In a large saucepan, bring potatoes, carrots, celery, onion, vegetable broth and salt to a boil. Reduce heat; cover and simmer until potatoes are just tender. Do not rinse: mash mixture slightly. Stir in milk.", 
        "In a small mixing bowl, blend butter, flour, parsley, and pepper; stir into potato mixture. Cook and stir over medium heat until thickened and bubbly.", 
        "Remove from heat: add cheese and stir until cheese is almost melted. Let soup stand for 5 minutes."
    ], 
    "recipe_name": "Potato Cheese Soup"
}