{
    "ingredients": [
        {
            "amount": "4 medium", 
            "ingredient": "yellow squash"
        }, 
        {
            "amount": "1/2 cup", 
            "ingredient": "extra virgin olive oil"
        }, 
        {
            "amount": "2 cloves", 
            "ingredient": "garlic, crushed"
        }
    ], 
    "prep_steps": [
        "Preheat the grill for medium heat.", 
        "Cut the squash horizontally into 1/4 inch to 1/2 inch thick slices so that you have nice long strips that won't fall through the grill.", 
        "Heat olive oil in a small pan, and add garlic cloves. Cook over medium heat until the garlic starts to sizzle and become fragrant. Brush the slices of squash with the garlic oil, and season with salt and pepper.", 
        "Grill squash slices for 5 to 10 minutes per side, until they reach the desired tenderness. Brush with additional garlic oil, and turn occasionally to prevent sticking or burning."
    ], 
    "prep_time": "30 mins", 
    "recipe_name": "Grilled Yellow Squash"
}