{
    "ingredients": [
        {
            "amount": "8", 
            "ingredient": "bone-in chicken breast halves, skinless"
        }, 
        {
            "amount": "1 tablespoon", 
            "ingredient": "olive oil"
        }, 
        {
            "amount": "2", 
            "ingredient": "onions, peeled and quartered"
        }, 
        {
            "amount": "1 teaspoon", 
            "ingredient": "finely chopped fresh ginger root"
        }, 
        {
            "amount": "1 teaspoon", 
            "ingredient": "crushed garlic"
        }, 
        {
            "amount": "1 tablespoon", 
            "ingredient": "hot (Madras) curry powder"
        }, 
        {
            "amount": "1 (15 ounce) can", 
            "ingredient": "tomato sauce"
        }, 
        {
            "amount": "1 (10 ounce) can", 
            "ingredient": "coconut milk"
        }, 
        {
            "amount": "4", 
            "ingredient": "whole cloves"
        }, 
        {
            "amount": "4 pods", 
            "ingredient": "cardamom"
        }, 
        {
            "amount": "1", 
            "ingredient": "cinnamon stick"
        }
    ], 
    "prep_steps": [
        "Rinse chicken and pat dry; season with salt and pepper to taste. Heat oil in a large skillet over medium high heat, then saute chicken until browned. Remove chicken from skillet and set aside.", 
        "Saute onions in skillet until translucent; add ginger and garlic and saute until fragrant, then stir in curry powder.", 
        "Return chicken to skillet and add tomato sauce, coconut milk, cloves, cardamom and cinnamon stick. Season with salt to taste and stir all together.", 
        "Reduce heat to low and simmer until chicken is tender and cooked through (no longer pink inside), about 20 to 25 minutes."
    ], 
    "prep_time": "45 mins", 
    "recipe_name": "Indian Chicken Curry I"
}