{
    "ingredients": [
        {
            "amount": "2 tablespoons", 
            "ingredient": "extra virgin olive oil"
        }, 
        {
            "amount": "2 tablespoons", 
            "ingredient": "butter"
        }, 
        {
            "amount": "1 tablespoon", 
            "ingredient": "minced garlic"
        }, 
        {
            "amount": "1 pound", 
            "ingredient": "tilapia fillets"
        }, 
        {
            "amount": "1/2 cup", 
            "ingredient": "sliced fresh button mushrooms"
        }, 
        {
            "amount": "2 tablespoons", 
            "ingredient": "drained capers"
        }, 
        {
            "amount": "1/2 cup", 
            "ingredient": "white wine"
        }, 
        {
            "amount": "1", 
            "ingredient": "lemon, juiced"
        }
    ], 
    "prep_steps": [
        "Heat olive oil with butter in a skillet over medium heat. Stir in the garlic. Place fish fillets in the skillet; sprinkle the fish with salt and pepper, and cook for 90 seconds. Turn the fish; season with salt and pepper, and cook an additional 90 seconds.", 
        "Add the mushrooms, capers, and wine. Cover, reduce heat, and simmer until the fish flakes easily with a fork and the wine is reduced by half, 6 to 7 minutes. Remove the cover, pour in lemon juice, and cook for one minute."
    ], 
    "prep_time": "25 mins", 
    "recipe_name": "Tilapia Scaloppine"
}