{
    "ingredients": [
        {
            "amount": "1 (18.25 ounce) package", 
            "ingredient": "yellow cake mix"
        }, 
        {
            "amount": "1/3 cup", 
            "ingredient": "vegetable oil"
        }, 
        {
            "amount": "2", 
            "ingredient": "eggs"
        }, 
        {
            "amount": "2 cups", 
            "ingredient": "semisweet chocolate chips"
        }
    ], 
    "prep_steps": [
        "Preheat oven to 350 degrees F (175 degrees C). Grease cookie sheets.", 
        "Pour cake mix into a large bowl. Stir in the oil and eggs until well blended. Mix in chocolate chips. Drop dough by teaspoonfuls onto the prepared cookie sheets.", 
        "Bake for 8 to 10 minutes in the preheated oven. Remove from pan to cool on wire racks."
    ], 
    "recipe_name": "Cake Mix Cookies I"
}