{
    "ingredients": [
        {
            "amount": "2 (15.8 ounce) cans", 
            "ingredient": "black-eyed peas, drained"
        }, 
        {
            "amount": "1 (14.5 ounce) can", 
            "ingredient": "petite diced tomatoes, drained"
        }, 
        {
            "amount": "2", 
            "ingredient": "fresh medium jalapenos, stemmed, seeded and minced"
        }, 
        {
            "amount": "1 small", 
            "ingredient": "onion, cut into small dice"
        }, 
        {
            "amount": "1/2", 
            "ingredient": "yellow bell pepper, stemmed, seeded and cut into small dice"
        }, 
        {
            "amount": "1/4 cup", 
            "ingredient": "chopped fresh cilantro"
        }, 
        {
            "amount": "6 tablespoons", 
            "ingredient": "red wine vinegar"
        }, 
        {
            "amount": "6 tablespoons", 
            "ingredient": "olive oil (not extra virgin)"
        }, 
        {
            "amount": "1/2 teaspoon", 
            "ingredient": "salt"
        }, 
        {
            "amount": "1/2 teaspoon", 
            "ingredient": "ground black pepper"
        }, 
        {
            "amount": "1/2 teaspoon", 
            "ingredient": "garlic powder"
        }, 
        {
            "amount": "1 teaspoon", 
            "ingredient": "dried oregano"
        }, 
        {
            "amount": "1 1/2 teaspoons", 
            "ingredient": "ground cumin"
        }
    ], 
    "prep_steps": [
        "Mix all ingredients in a medium bowl; cover and refrigerate 2 hours or up to 2 days. Before serving, adjust seasonings to taste, adding extra vinegar, salt and pepper. Transfer to a serving bowl."
    ], 
    "recipe_name": "Classic Texas Caviar"
}