{
    "ingredients": [
        {
            "amount": "3/4 cup", 
            "ingredient": "graham cracker crumbs"
        }, 
        {
            "amount": "1/2 cup", 
            "ingredient": "ground pecans"
        }, 
        {
            "amount": "2 tablespoons", 
            "ingredient": "white sugar"
        }, 
        {
            "amount": "2 tablespoons", 
            "ingredient": "brown sugar"
        }, 
        {
            "amount": "1/4 cup", 
            "ingredient": "butter"
        }, 
        {
            "amount": "3/4 cup", 
            "ingredient": "white sugar"
        }, 
        {
            "amount": "3/4 cup", 
            "ingredient": "canned pumpkin"
        }, 
        {
            "amount": "3", 
            "ingredient": "egg yolks"
        }, 
        {
            "amount": "1 1/2 teaspoons", 
            "ingredient": "ground cinnamon"
        }, 
        {
            "amount": "1/2 teaspoon", 
            "ingredient": "ground mace"
        }, 
        {
            "amount": "1/2 teaspoon", 
            "ingredient": "ground ginger"
        }, 
        {
            "amount": "1/4 teaspoon", 
            "ingredient": "salt"
        }, 
        {
            "amount": "3 (8 ounce) packages", 
            "ingredient": "cream cheese"
        }, 
        {
            "amount": "3/8 cup", 
            "ingredient": "white sugar"
        }, 
        {
            "amount": "1", 
            "ingredient": "egg"
        }, 
        {
            "amount": "1", 
            "ingredient": "egg yolk"
        }, 
        {
            "amount": "2 tablespoons", 
            "ingredient": "heavy whipping cream"
        }, 
        {
            "amount": "1 tablespoon", 
            "ingredient": "cornstarch"
        }, 
        {
            "amount": "1/2 teaspoon", 
            "ingredient": "vanilla extract"
        }, 
        {
            "amount": "1/2 teaspoon", 
            "ingredient": "lemon extract"
        }
    ], 
    "prep_steps": [
        "Preheat oven to 350 degrees F (175 degrees C).", 
        "Combine the graham cracker crumbs, ground pecans, 2 tablespoons white sugar, 2 tablespoons brown sugar, and the melted butter or margarine and mix well. Firmly press mixture into one 9 inch springform pan.", 
        "Combine 3/4 cup of the white sugar, the pumpkin, 3 egg yolks, ground cinnamon, ground mace, ground ginger and salt in a medium bowl. Mix well, and set aside.", 
        "Beat cream cheese with an electric mixer until light and fluffy; gradually add 1/4 cup plus 2 tablespoons white sugar and mix well. Add the whole egg, remaining egg yolk and the whipping cream, beating well. Add cornstarch and vanilla and lemon flavorings, beat batter until smooth. Add pumpkin mixture and mix well. Pour batter into the prepared pan.", 
        "Bake at 350 degrees F (175 degrees C) for 50 to 55 minutes. Do not overbake. Center may be soft but it will firm up when chilled. Let cheesecake cool on a wire rack, then refrigerate."
    ], 
    "recipe_name": "Pumpkin Cheesecake II"
}