{
    "ingredients": [
        {
            "amount": "1 1/2 cups", 
            "ingredient": "all-purpose flour"
        }, 
        {
            "amount": "1 1/2 teaspoons", 
            "ingredient": "baking powder"
        }, 
        {
            "amount": "1/4 teaspoon", 
            "ingredient": "baking soda"
        }, 
        {
            "amount": "1/8 teaspoon", 
            "ingredient": "salt"
        }, 
        {
            "amount": "2", 
            "ingredient": "egg whites"
        }, 
        {
            "amount": "1 cup", 
            "ingredient": "mashed bananas"
        }, 
        {
            "amount": "3/4 cup", 
            "ingredient": "white sugar"
        }, 
        {
            "amount": "3 tablespoons", 
            "ingredient": "vegetable oil"
        }, 
        {
            "amount": "1 teaspoon", 
            "ingredient": "lemon zest"
        }, 
        {
            "amount": "1/4 cup", 
            "ingredient": "chopped walnuts"
        }
    ], 
    "prep_steps": [
        "Preheat oven to 350 degrees F (175 degrees C). Spray muffin tins with non-stick cooking spray.", 
        "In large bowl, stir together flour, baking powder, soda, and salt.", 
        "In a medium bowl, beat egg whites slightly. Stir in bananas, sugar, oil, and lemon peel. Add to flour mixture, stirring just until combined. Stir in walnuts. Fill muffin pan cups 2/3 full.", 
        "Bake for about 20 to 25 minutes, or until tops are lightly browned. Remove muffins from pan."
    ], 
    "prep_time": "35 mins", 
    "recipe_name": "Banana Nut Muffins"
}