{
    "ingredients": [
        {
            "amount": "1 tablespoon", 
            "ingredient": "olive oil"
        }, 
        {
            "amount": "1 (10 ounce) package", 
            "ingredient": "fresh mushrooms, sliced"
        }, 
        {
            "amount": "1 large", 
            "ingredient": "onion, chopped"
        }, 
        {
            "amount": "4 slices", 
            "ingredient": "bacon, chopped"
        }, 
        {
            "amount": "3/4 cup", 
            "ingredient": "heavy cream"
        }, 
        {
            "amount": "1 cup", 
            "ingredient": "shredded Swiss cheese"
        }, 
        {
            "amount": "1 teaspoon", 
            "ingredient": "chopped fresh dill"
        }, 
        {
            "amount": "1 (17.25 ounce) package", 
            "ingredient": "frozen puff pastry, thawed"
        }, 
        {
            "amount": "1", 
            "ingredient": "egg, beaten"
        }
    ], 
    "prep_steps": [
        "Preheat the oven to 350 degrees F (175 degrees C).", 
        "Heat the oil in a large skillet over medium-high heat. Add the mushrooms, onion and bacon; cook and stir for about 5 minutes, or until vegetables are tender. Reduce the heat to medium, and add the cream and dill; cook and stir for about 10 more minutes. Remove from the heat, and stir in the cheese.", 
        "Place one sheet of puff pastry on a well oiled baking sheet, and pour the mushroom filling over the top. Cover with the other sheet, and press the edges together to seal. Make some holes in the top with a fork. Brush the top with beaten egg.", 
        "Bake for about 40 minutes in the preheated oven, or until golden brown. Cool, then cut into squares to serve."
    ], 
    "prep_time": "1 hr", 
    "recipe_name": "Mushroom Pie"
}