{
    "ingredients": [
        {
            "amount": "12", 
            "ingredient": "eggs"
        }, 
        {
            "amount": "1/2 cup", 
            "ingredient": "mayonnaise"
        }, 
        {
            "amount": "4 slices", 
            "ingredient": "bacon"
        }, 
        {
            "amount": "2 tablespoons", 
            "ingredient": "finely shredded Cheddar cheese"
        }, 
        {
            "amount": "1 tablespoon", 
            "ingredient": "mustard"
        }
    ], 
    "prep_steps": [
        "Place eggs in a saucepan, and cover with cold water. Bring water to a boil and immediately remove from heat. Cover, and let eggs stand in hot water for 10 to 12 minutes. Remove from hot water, and cool. To cool more quickly, rinse eggs under cold running water.", 
        "Meanwhile, place bacon in a large, deep skillet. Cook over medium-high heat until evenly brown. Alternatively, wrap bacon in paper towels and cook in the microwave for about 1 minute per slice. Crumble and set aside.", 
        "Peel the hard-cooked eggs, and cut in half lengthwise. Remove yolks to a small bowl. Mash egg yolks with mayonnaise, crumbled bacon and cheese. Stir in mustard. Fill egg white halves with the yolk mixture and refrigerate until serving."
    ], 
    "prep_time": "40 mins", 
    "recipe_name": "Bacon Cheddar Deviled Eggs"
}