{
    "ingredients": [
        {
            "amount": "3 cups", 
            "ingredient": "all-purpose flour"
        }, 
        {
            "amount": "1 teaspoon", 
            "ingredient": "baking soda"
        }, 
        {
            "amount": "1/2 teaspoon", 
            "ingredient": "salt"
        }, 
        {
            "amount": "1 cup", 
            "ingredient": "butter, softened"
        }, 
        {
            "amount": "1 1/2 cups", 
            "ingredient": "white sugar"
        }, 
        {
            "amount": "2", 
            "ingredient": "eggs"
        }, 
        {
            "amount": "1/4 cup", 
            "ingredient": "lemon juice"
        }, 
        {
            "amount": "1", 
            "ingredient": "lemon, zested"
        }, 
        {
            "amount": "1/2 teaspoon", 
            "ingredient": "vanilla extract"
        }
    ], 
    "prep_steps": [
        "Preheat oven to 350 degrees F (175 degrees C).", 
        "Whisk together the flour, baking soda, and salt in a bowl until thoroughly combined. In a mixing bowl, beat the butter and sugar with an electric mixer until creamy, about 5 minutes, then beat in eggs, one at a time, incorporating each before adding the next. Beat in the lemon juice, lemon zest, and vanilla extract. Gently mix in the flour mixture until just incorporated. Chill the dough about 30 minutes.", 
        "Scoop up about 1 1/2 teaspoon of dough per cookie, gently form into a ball, and place the balls onto baking sheets about 2 inches apart.", 
        "Bake in the preheated oven until the cookies are set and just beginning to brown at the edges, about 8 minutes; cool on baking sheets for 1 minute before removing to finish cooling on racks."
    ], 
    "prep_time": "1\u00bc hrs", 
    "recipe_name": "Princess Cookies"
}