{
    "ingredients": [
        {
            "amount": "3 cups", 
            "ingredient": "chicken broth"
        }, 
        {
            "amount": "1/2 cup", 
            "ingredient": "water"
        }, 
        {
            "amount": "2 cups", 
            "ingredient": "sliced fresh mushrooms"
        }, 
        {
            "amount": "1/2 cup", 
            "ingredient": "sliced bamboo shoots, drained"
        }, 
        {
            "amount": "3 slices", 
            "ingredient": "fresh ginger root"
        }, 
        {
            "amount": "2 cloves", 
            "ingredient": "garlic, crushed"
        }, 
        {
            "amount": "2 teaspoons", 
            "ingredient": "soy sauce"
        }, 
        {
            "amount": "1/4 teaspoon", 
            "ingredient": "red pepper flakes"
        }, 
        {
            "amount": "1 pound", 
            "ingredient": "skinless, boneless chicken breast halves - cut into thin strips"
        }, 
        {
            "amount": "1 tablespoon", 
            "ingredient": "sesame oil"
        }, 
        {
            "amount": "2", 
            "ingredient": "green onions, chopped"
        }, 
        {
            "amount": "1/4 cup", 
            "ingredient": "chopped fresh cilantro"
        }, 
        {
            "amount": "3 tablespoons", 
            "ingredient": "red wine vinegar"
        }, 
        {
            "amount": "2 tablespoons", 
            "ingredient": "cornstarch"
        }, 
        {
            "amount": "1", 
            "ingredient": "egg, beaten"
        }
    ], 
    "prep_steps": [
        "In a saucepan, combine the chicken broth, water, mushrooms, bamboo shoots, ginger, garlic, soy sauce, and hot pepper flakes. Bring to a boil, then reduce the heat to low, cover and simmer while you assemble the rest of the ingredients.", 
        "Place the chicken slices into a bowl and toss with the sesame oil to coat. In a separate bowl, stir together the cornstarch and vinegar, and set aside.", 
        "Increase the heat under the broth to medium-high, and return to a rolling boil. Add the chicken slices. Return to a boil, and then drizzle in the egg while stirring slowly to create long strands of egg. Stir in the vinegar and cornstarch. Simmer over medium heat, stirring occasionally, until chicken is cooked through and the broth has thickened slightly, about 3 minutes. Serve garnished with green onions and cilantro."
    ], 
    "prep_time": "30 mins", 
    "recipe_name": "Hot and Sour Chicken Soup"
}