{
    "ingredients": [
        {
            "amount": "4 (4 ounce) fillets", 
            "ingredient": "salmon"
        }, 
        {
            "amount": "2 tablespoons", 
            "ingredient": "lemon juice"
        }, 
        {
            "amount": "1/2 cup", 
            "ingredient": "roasted red bell peppers"
        }, 
        {
            "amount": "1/3 cup", 
            "ingredient": "grated Parmesan cheese"
        }, 
        {
            "amount": "1 tablespoon", 
            "ingredient": "cornstarch"
        }, 
        {
            "amount": "2 teaspoons", 
            "ingredient": "minced jalapeno peppers"
        }, 
        {
            "amount": "1 clove", 
            "ingredient": "garlic, minced"
        }, 
        {
            "amount": "1/4 cup", 
            "ingredient": "chopped fresh cilantro"
        }, 
        {
            "amount": "1 cup", 
            "ingredient": "chicken broth"
        }, 
        {
            "amount": "1 (8 ounce) package", 
            "ingredient": "angel hair pasta"
        }
    ], 
    "prep_steps": [
        "In an 8 inch baking dish, arrange filets in a single layer. Sprinkle with lemon juice. Tightly cover dish with foil. Bake at 450 degrees F (230 degrees C). Cook until fish is opaque, but still moist looking in thickest part, 12 to 14 minutes.", 
        "Meanwhile, in a blender, smoothly puree red peppers, parmesan, cornstarch, chili, and garlic. Add cilantro and chicken broth; whirl to blend.", 
        "Pour pepper mixture into a 10 inch frying pan. Stir over high heat until boiling. Reduce heat to keep warm.", 
        "Cook pasta in 3 quarts boiling water until tender to bite, about 7 minutes. Drain, and return to pan.", 
        "Stir juices from the baked salmon into red pepper sauce. Mix 1 1/2 cups sauce with pasta. Spoon pasta onto plates. Top with fish, and drizzle with remaining sauce. Serve."
    ], 
    "prep_time": "40 mins", 
    "recipe_name": "Red Pepper-Salmon Pasta"
}