{
    "ingredients": [
        {
            "amount": "1", 
            "ingredient": "carrot, coarsely chopped"
        }, 
        {
            "amount": "1 rib", 
            "ingredient": "celery, coarsely chopped"
        }, 
        {
            "amount": "1/2", 
            "ingredient": "onion, coarsely chopped"
        }, 
        {
            "amount": "1/2", 
            "ingredient": "red bell pepper, coarsely chopped"
        }, 
        {
            "amount": "4", 
            "ingredient": "white mushrooms, coarsely chopped"
        }, 
        {
            "amount": "3 cloves", 
            "ingredient": "garlic, coarsely chopped"
        }, 
        {
            "amount": "2 1/2 pounds", 
            "ingredient": "ground chuck"
        }, 
        {
            "amount": "1 tablespoon", 
            "ingredient": "Worcestershire sauce"
        }, 
        {
            "amount": "1", 
            "ingredient": "egg, beaten"
        }, 
        {
            "amount": "1 teaspoon", 
            "ingredient": "dried Italian herbs"
        }, 
        {
            "amount": "2 teaspoons", 
            "ingredient": "salt"
        }, 
        {
            "amount": "1 teaspoon", 
            "ingredient": "ground black pepper"
        }, 
        {
            "amount": "1/2 teaspoon", 
            "ingredient": "cayenne pepper"
        }, 
        {
            "amount": "1 cup", 
            "ingredient": "plain bread crumbs"
        }, 
        {
            "amount": "1 teaspoon", 
            "ingredient": "olive oil"
        }, 
        {
            "amount": "2 tablespoons", 
            "ingredient": "brown sugar"
        }, 
        {
            "amount": "2 tablespoons", 
            "ingredient": "ketchup"
        }, 
        {
            "amount": "2 tablespoons", 
            "ingredient": "Dijon mustard"
        }
    ], 
    "prep_steps": [
        "Preheat the oven to 325 degrees F.", 
        "Place the carrot, celery, onion, red bell pepper, mushrooms, and garlic in a food processor, and pulse until very finely chopped, almost to a puree. Place the minced vegetables into a large mixing bowl, and mix in ground chuck, Worcestershire sauce, and egg. Add Italian herbs, salt, black pepper, and cayenne pepper. Mix gently with a wooden spoon to incorporate vegetables and egg into the meat. Pour in bread crumbs. With your hand, gently mix in the crumbs with your fingertips just until combined, about 1 minute.", 
        "Form the meatloaf into a ball. Pour olive oil into a baking dish and place the ball of meat into the dish. Shape the ball into a loaf, about 4 inches high by 6 inches long.", 
        "Bake in the preheated oven just until the meatloaf is hot, about 15 minutes.", 
        "Meanwhile, in a small bowl, mix together brown sugar, ketchup, Dijon mustard, and hot sauce. Stir until the brown sugar has dissolved.", 
        "Remove the meatloaf from the oven. With the back of a spoon, smooth the glaze onto the top of the meatloaf, then pull a little bit of glaze down the sides of the meatloaf with the back of the spoon.", 
        "Return meatloaf to oven, and bake until the loaf is no longer pink inside and the glaze has baked onto the loaf, 30 to 35 more minutes. An instant-read thermometer inserted into the thickest part of the loaf should read at least 160 degrees F (70 degrees C)."
    ], 
    "prep_time": "1\u00bc hrs", 
    "recipe_name": "Classic Meatloaf"
}