{
    "ingredients": [
        {
            "amount": "1/2 (1 pound) loaf", 
            "ingredient": "white bread, cut into cubes"
        }, 
        {
            "amount": "1 1/2 pounds", 
            "ingredient": "Cheddar cheese, shredded"
        }, 
        {
            "amount": "1 cup", 
            "ingredient": "cubed cooked ham"
        }, 
        {
            "amount": "8", 
            "ingredient": "eggs"
        }, 
        {
            "amount": "2 cups", 
            "ingredient": "milk"
        }, 
        {
            "amount": "1 pinch", 
            "ingredient": "salt"
        }, 
        {
            "amount": "1 dash", 
            "ingredient": "hot pepper sauce, or to taste"
        }, 
        {
            "amount": "1/4 cup", 
            "ingredient": "chopped green onion"
        }
    ], 
    "prep_steps": [
        "Preheat oven to 350 degrees F (175 degrees C). Lightly grease a 9x13 inch baking pan.", 
        "Place half of the bread cubes on bottom of baking pan. Sprinkle with half of the ham and then half of the cheese; repeat.", 
        "In a large bowl, beat together eggs, milk, salt, hot sauce and green onions. Pour egg mixture into pan.", 
        "Place pan on top of a baking sheet with a rim and place in oven. Pour water into baking sheet and bake for 60 minutes, or until eggs have set."
    ], 
    "prep_time": "1\u00bc hrs", 
    "recipe_name": "Baked Brunch Omelet"
}