{
    "ingredients": [
        {
            "amount": "6", 
            "ingredient": "frozen skinless, boneless chicken breast halves"
        }, 
        {
            "amount": "1 (12 ounce) bottle", 
            "ingredient": "barbeque sauce"
        }, 
        {
            "amount": "1/2 cup", 
            "ingredient": "Italian salad dressing"
        }, 
        {
            "amount": "1/4 cup", 
            "ingredient": "brown sugar"
        }, 
        {
            "amount": "2 tablespoons", 
            "ingredient": "Worcestershire sauce"
        }
    ], 
    "prep_steps": [
        "Place chicken in a slow cooker. In a bowl, mix the barbecue sauce, Italian salad dressing, brown sugar, and Worcestershire sauce. Pour over the chicken.", 
        "Cover, and cook 3 to 4 hours on High or 6 to 8 hours on Low."
    ], 
    "prep_time": "4 hrs", 
    "recipe_name": "Zesty Slow Cooker Chicken Barbecue"
}