{
    "ingredients": [
        {
            "amount": "1 (2 pound) package", 
            "ingredient": "frozen hash brown potatoes, thawed"
        }, 
        {
            "amount": "1/2 cup", 
            "ingredient": "melted butter"
        }, 
        {
            "amount": "1 (10.75 ounce) can", 
            "ingredient": "condensed cream of chicken soup"
        }, 
        {
            "amount": "1 (8 ounce) container", 
            "ingredient": "sour cream"
        }, 
        {
            "amount": "1/2 cup", 
            "ingredient": "chopped onions"
        }, 
        {
            "amount": "2 cups", 
            "ingredient": "shredded Cheddar cheese"
        }, 
        {
            "amount": "1 teaspoon", 
            "ingredient": "salt"
        }, 
        {
            "amount": "1/4 teaspoon", 
            "ingredient": "ground black pepper"
        }, 
        {
            "amount": "2 cups", 
            "ingredient": "crushed cornflakes cereal"
        }, 
        {
            "amount": "1/4 cup", 
            "ingredient": "melted butter"
        }
    ], 
    "prep_steps": [
        "Preheat oven to 350 degrees F (175 degrees C).", 
        "In a large bowl, combine hash browns, 1/2 cup melted butter, cream of chicken soup, sour cream, chopped onion, Cheddar cheese, salt and pepper. Place mixture in a 3 quart casserole dish.", 
        "In a medium saucepan over medium heat, saute cornflakes in 1/4 cup melted butter, and sprinkle the mixture over the top of the casserole.", 
        "Bake covered in preheated oven for 40 minutes."
    ], 
    "prep_time": "1 hr", 
    "recipe_name": "Hash Brown Casserole II"
}