{
    "ingredients": [
        {
            "amount": "1 (16 ounce) package", 
            "ingredient": "spaghetti"
        }, 
        {
            "amount": "1/4 cup", 
            "ingredient": "olive oil"
        }, 
        {
            "amount": "3 cloves", 
            "ingredient": "garlic, chopped"
        }, 
        {
            "amount": "1/2 teaspoon", 
            "ingredient": "crushed red pepper"
        }, 
        {
            "amount": "1/4 cup", 
            "ingredient": "grated Parmesan cheese"
        }
    ], 
    "prep_steps": [
        "Bring a large pot of lightly salted water to a boil. Add pasta and cook for 8 to 10 minutes or until al dente; drain.", 
        "In a small saucepan over low heat place olive oil, garlic and peppers and simmer. Pour olive oil mixture over cooked pasta and serve with Parmesan cheese."
    ], 
    "prep_time": "30 mins", 
    "recipe_name": "Pasta Hot! Hot! Hot!"
}