{
    "ingredients": [
        {
            "amount": "1", 
            "ingredient": "medium zucchini, halved lengthwise and sliced"
        }, 
        {
            "amount": "1/3 cup", 
            "ingredient": "chopped red onion"
        }, 
        {
            "amount": "1 cup", 
            "ingredient": "shredded mozzarella cheese, divided"
        }, 
        {
            "amount": "1/2 cup", 
            "ingredient": "crumbled feta cheese"
        }, 
        {
            "amount": "2", 
            "ingredient": "portobello mushrooms, sliced"
        }, 
        {
            "amount": "4 cups", 
            "ingredient": "fresh baby spinach"
        }, 
        {
            "amount": "1/4 cup", 
            "ingredient": "chopped fresh basil"
        }, 
        {
            "amount": "1 tablespoon", 
            "ingredient": "chopped fresh oregano"
        }, 
        {
            "amount": "3 cloves", 
            "ingredient": "garlic, minced"
        }, 
        {
            "amount": "3 tablespoons", 
            "ingredient": "olive oil"
        }, 
        {
            "amount": "1/4 cup", 
            "ingredient": "balsamic vinegar"
        }, 
        {
            "amount": "1 teaspoon", 
            "ingredient": "sugar"
        }, 
        {
            "amount": "1/2 teaspoon", 
            "ingredient": "salt"
        }, 
        {
            "amount": "1/4 teaspoon", 
            "ingredient": "freshly ground black pepper"
        }, 
        {
            "amount": "1 (8 ounce) package", 
            "ingredient": "no-boil lasagna noodles"
        }, 
        {
            "amount": "9", 
            "ingredient": "roma (plum) tomatoes, thinly sliced"
        }
    ], 
    "prep_steps": [
        "Preheat the oven to 350 degrees F (175 degrees C). Lightly coat a 9x9 inch baking dish with cooking spray.", 
        "In a large bowl, toss together the zucchini, mushrooms, spinach, garlic, red onion, 1/2 cup mozzarella cheese, and feta cheese. Drizzle with olive oil and balsamic vinegar, and stir in basil, oregano, sugar, salt and pepper. Stir the mixture until evenly blended.", 
        "Place a layer of lasagna noodles into the bottom of the prepared pan. Make a layer of tomato slices over the noodles. Spread a generous amount of the spinach mixture over the tomatoes. Don't worry, it shrinks a lot while cooking. Lay slices of tomatoes over the spinach mixture, then another layer of noodles. Start with another layer of tomatoes on top of the noodles, and repeat layering until the dish is heaped with lasagna, ending with the vegetable mixture. Sprinkle remaining cheese on the top.", 
        "Bake for 35 to 45 minutes in the preheated oven, until noodles, and vegetables are tender. Let stand for a few minutes to set, then slice and serve."
    ], 
    "prep_time": "1\u00bc hrs", 
    "recipe_name": "Sauceless Garden Lasagna"
}