{
    "ingredients": [
        {
            "amount": "1 cup", 
            "ingredient": "water"
        }, 
        {
            "amount": "3/4 cup", 
            "ingredient": "white sugar"
        }, 
        {
            "amount": "1 (12 ounce) package", 
            "ingredient": "fresh cranberries"
        }, 
        {
            "amount": "1 cup", 
            "ingredient": "apples - peeled, cored and diced"
        }, 
        {
            "amount": "1/2 cup", 
            "ingredient": "cider vinegar"
        }, 
        {
            "amount": "1/2 cup", 
            "ingredient": "raisins"
        }, 
        {
            "amount": "1/2 teaspoon", 
            "ingredient": "ground cinnamon"
        }, 
        {
            "amount": "1/4 teaspoon", 
            "ingredient": "ground ginger"
        }, 
        {
            "amount": "1/4 teaspoon", 
            "ingredient": "ground allspice"
        }, 
        {
            "amount": "1/8 teaspoon", 
            "ingredient": "ground cloves"
        }
    ], 
    "prep_steps": [
        "In a medium saucepan combine the water and sugar. Bring mixture to a boil over medium heat. Add the cranberries, apples, cider vinegar, raisins and spices. Bring to a boil, then simmer gently for 10 minutes stirring often.", 
        "Pour mixture into a mixing bowl. Place plastic wrap directly on the surface of the sauce. Cool to room temperature and serve or cover and refrigerate. Bring chutney to room temperature before serving."
    ], 
    "recipe_name": "Cranberry Chutney I"
}