{
    "ingredients": [
        {
            "amount": "1/2 cup", 
            "ingredient": "margarine"
        }, 
        {
            "amount": "4 tablespoons", 
            "ingredient": "cocoa powder"
        }, 
        {
            "amount": "4 cups", 
            "ingredient": "confectioners' sugar"
        }, 
        {
            "amount": "3 tablespoons", 
            "ingredient": "milk"
        }, 
        {
            "amount": "1 teaspoon", 
            "ingredient": "vanilla extract"
        }
    ], 
    "prep_steps": [
        "Melt margarine over a low heat. Gradually beat in cocoa, sugar, milk and vanilla, mix well."
    ], 
    "recipe_name": "Texas Chocolate Frosting"
}