{
    "ingredients": [
        {
            "amount": "2 1/2 pounds", 
            "ingredient": "king salmon fillet, skinned and de-boned"
        }, 
        {
            "amount": "1 cup", 
            "ingredient": "dry bread crumbs"
        }, 
        {
            "amount": "1/2 cup", 
            "ingredient": "minced red onion"
        }, 
        {
            "amount": "1 tablespoon", 
            "ingredient": "Dijon mustard"
        }, 
        {
            "amount": "2 teaspoons", 
            "ingredient": "prepared horseradish"
        }, 
        {
            "amount": "2", 
            "ingredient": "eggs, lightly beaten"
        }, 
        {
            "amount": "1 tablespoon", 
            "ingredient": "minced fresh rosemary"
        }, 
        {
            "amount": "1/2 teaspoon", 
            "ingredient": "salt"
        }, 
        {
            "amount": "1/2 teaspoon", 
            "ingredient": "freshly ground black pepper"
        }, 
        {
            "amount": "2 tablespoons", 
            "ingredient": "olive oil"
        }
    ], 
    "prep_steps": [
        "Prepare the salmon by cutting into strips, cutting the strips crosswise, and chopping the fish until well minced. Be sure to remove any remaining bones.", 
        "In a large bowl, mix the minced salmon with bread crumbs, red onion, Dijon mustard, horseradish, and eggs. Season with rosemary, salt, and pepper. Chill at least 30 minutes in the refrigerator.", 
        "Preheat an outdoor grill for medium-high heat.", 
        "Form the salmon mixture into 8 burger patties. Lightly coat each patty with olive oil.", 
        "Place salmon patties on the grill, and cook 4 or 5 minutes on each side."
    ], 
    "prep_time": "55 mins", 
    "recipe_name": "Salmon Rosemary Burgers"
}