{
    "ingredients": [
        {
            "amount": "2 tablespoons", 
            "ingredient": "olive oil"
        }, 
        {
            "amount": "1", 
            "ingredient": "onion, chopped"
        }, 
        {
            "amount": "4 cloves", 
            "ingredient": "garlic, minced"
        }, 
        {
            "amount": "1", 
            "ingredient": "red bell pepper, chopped"
        }, 
        {
            "amount": "1 1/2 pounds", 
            "ingredient": "sirloin tips, cubed"
        }, 
        {
            "amount": "2", 
            "ingredient": "bay leaves"
        }, 
        {
            "amount": "1/2 teaspoon", 
            "ingredient": "ground cumin"
        }, 
        {
            "amount": "1 teaspoon", 
            "ingredient": "dried oregano"
        }, 
        {
            "amount": "1/2 cup", 
            "ingredient": "dry sherry"
        }, 
        {
            "amount": "1 (8 ounce) can", 
            "ingredient": "tomato sauce"
        }, 
        {
            "amount": "2 tablespoons", 
            "ingredient": "red wine vinegar"
        }, 
        {
            "amount": "1/4 cup", 
            "ingredient": "pimento-stuffed green olives"
        }, 
        {
            "amount": "1/4 cup", 
            "ingredient": "raisins"
        }, 
        {
            "amount": "2 tablespoons", 
            "ingredient": "capers"
        }, 
        {
            "amount": "4", 
            "ingredient": "potatoes, peeled and quartered"
        }
    ], 
    "prep_steps": [
        "In a large saute pan, heat oil over medium heat. Cook onion and garlic in oil, stirring frequently, until transparent. Stir in cubed meat, and cook until browned. Stir in red bell pepper, bay leaf, cumin, and oregano; cook for 2 to 3 minutes.", 
        "Stir in sherry, tomato sauce, vinegar, olives, raisins, and capers. Pour in enough water to just cover meat. Bring to boil, reduce heat to low, and cover. Simmer until fork tender, about 1 1/2 hours. Add more water if the stew becomes too thick.", 
        "Stir potatoes into the stew. Season with salt and pepper to taste. Cook, covered, until potatoes are almost tender. Uncover, and cook until done."
    ], 
    "prep_time": "2\u00bc hrs", 
    "recipe_name": "Cuban Beef Stew"
}