{
    "ingredients": [
        {
            "amount": "1/4 (16 ounce) package", 
            "ingredient": "saltine crackers"
        }, 
        {
            "amount": "1/2 pound", 
            "ingredient": "butter"
        }, 
        {
            "amount": "3/4 cup", 
            "ingredient": "white sugar"
        }, 
        {
            "amount": "2 cups", 
            "ingredient": "semisweet chocolate chips"
        }, 
        {
            "amount": "3/4 cup", 
            "ingredient": "chopped walnuts"
        }
    ], 
    "prep_steps": [
        "Preheat oven to 425 degrees F (220 degrees C).", 
        "Melt butter in a saucepan over medium heat. Stir in sugar, and bring to a low boil. Continue boiling, stirring constantly to prevent burning, approximately 3 minutes.", 
        "Arrange crackers on a cookie sheet in a single layer, and drizzle with sugar mixture. Bake at 425 degrees F (220 degrees C) for 5 minutes, or until edges begin to brown.", 
        "Remove from oven and spread chocolate chips evenly over the top as they melt. Sprinkle with nuts, gently pressing into the melted chocolate. Cool until chocolate has hardened, and break into pieces. Store in refrigerator until ready to serve. Allow to cool, and break into pieces. Refrigerate until ready to serve."
    ], 
    "prep_time": "30 mins", 
    "recipe_name": "Cracker Candy"
}