{
    "ingredients": [
        {
            "amount": "1 pound", 
            "ingredient": "ground turkey"
        }, 
        {
            "amount": "1 packet", 
            "ingredient": "dry onion soup mix"
        }, 
        {
            "amount": "1/2 cup", 
            "ingredient": "water"
        }, 
        {
            "amount": "1/2 teaspoon", 
            "ingredient": "salt"
        }, 
        {
            "amount": "1/2 teaspoon", 
            "ingredient": "ground black pepper"
        }
    ], 
    "prep_steps": [
        "Preheat a grill for high heat.", 
        "In a large bowl, combine the ground turkey, soup mix, and water. Season with salt and pepper. Mix lightly using your hands, and form into 4 patties.", 
        "Lightly oil the grill grate. Grill patties 5 to 10 minutes per side, until well done."
    ], 
    "prep_time": "30 mins", 
    "recipe_name": "Turkey Burgers"
}