{
    "ingredients": [
        {
            "amount": "1 pound", 
            "ingredient": "ground beef"
        }, 
        {
            "amount": "1 1/2 cups", 
            "ingredient": "ketchup"
        }, 
        {
            "amount": "1 cup", 
            "ingredient": "chunky salsa"
        }, 
        {
            "amount": "2 tablespoons", 
            "ingredient": "brown sugar"
        }, 
        {
            "amount": "1 tablespoon", 
            "ingredient": "Worcestershire sauce"
        }, 
        {
            "amount": "2 tablespoons", 
            "ingredient": "white vinegar"
        }, 
        {
            "amount": "2 tablespoons", 
            "ingredient": "Dijon mustard"
        }, 
        {
            "amount": "1 teaspoon", 
            "ingredient": "hot sauce"
        }, 
        {
            "amount": "6", 
            "ingredient": "potato rolls"
        }
    ], 
    "prep_steps": [
        "Heat a large skillet over medium-high heat and stir in the ground beef. Cook and stir until the beef is crumbly, evenly browned, and no longer pink. Drain and discard any excess grease.", 
        "Stir in ketchup, salsa, brown sugar, Worcestershire sauce, white vinegar, Dijon mustard, and hot sauce. Bring to a simmer and cook, stirring occasionally, over low heat 20 to 30 minutes. Serve on potato rolls."
    ], 
    "prep_time": "35 mins", 
    "recipe_name": "Ruby Drive Sloppy Joes"
}