{
    "ingredients": [
        {
            "amount": "1 tablespoon", 
            "ingredient": "butter"
        }, 
        {
            "amount": "8", 
            "ingredient": "skinless chicken thighs"
        }, 
        {
            "amount": "1 (10.75 ounce) can", 
            "ingredient": "condensed cream of celery soup"
        }, 
        {
            "amount": "1 (10.75 ounce) can", 
            "ingredient": "condensed cream of mushroom soup"
        }, 
        {
            "amount": "1 (5 ounce) jar", 
            "ingredient": "pimento-stuffed green olives"
        }, 
        {
            "amount": "1 (8 ounce) package", 
            "ingredient": "sliced fresh mushrooms"
        }, 
        {
            "amount": "1 1/4 cups", 
            "ingredient": "Chablis wine"
        }, 
        {
            "amount": "1 tablespoon", 
            "ingredient": "all-purpose flour"
        }
    ], 
    "prep_steps": [
        "Melt the butter in a large skillet over medium-high heat. Season the chicken with salt and pepper and cook until golden brown, about 3 minutes. Place in a slow cooker.", 
        "Reduce the heat to medium. Add the cream of mushroom soup and cream of celery soup to the skillet and heat until creamy. Pour over the chicken in the slow cooker, then stir in the olives, mushrooms, wine, and flour.", 
        "Cover, and cook on Low for 8 hours."
    ], 
    "prep_time": "8 hrs", 
    "recipe_name": "Slow Cooker Tipsy Chicken"
}