{
    "ingredients": [
        {
            "amount": "20", 
            "ingredient": "chocolate sandwich cookies, crushed"
        }, 
        {
            "amount": "1 (8 ounce) package", 
            "ingredient": "cream cheese, softened"
        }, 
        {
            "amount": "2 cups", 
            "ingredient": "confectioners' sugar"
        }, 
        {
            "amount": "3/4 cup", 
            "ingredient": "peanut butter"
        }, 
        {
            "amount": "1 (12 ounce) container", 
            "ingredient": "frozen whipped topping, thawed"
        }
    ], 
    "prep_steps": [
        "Press crushed cookies into the bottom of a 9x13 inch pan, reserving a few for decoration. In a medium bowl, beat together the cream cheese and confectioners' sugar. Stir in the peanut butter until well blended, then fold in the whipped topping. Spread over the crushed cookie base, sprinkle the remaining cookie chunks on top, and freeze for 1 to 2 hours. Thaw 10 to 15 minutes before cutting and serving."
    ], 
    "recipe_name": "No Bake Double Good Dessert"
}