{
    "ingredients": [
        {
            "amount": "2 quarts", 
            "ingredient": "vegetable oil for frying"
        }, 
        {
            "amount": "1", 
            "ingredient": "large egg"
        }, 
        {
            "amount": "1 cup", 
            "ingredient": "milk"
        }, 
        {
            "amount": "2 teaspoons", 
            "ingredient": "vegetable oil"
        }, 
        {
            "amount": "1 cup", 
            "ingredient": "pancake mix"
        }, 
        {
            "amount": "1 (18 ounce) package", 
            "ingredient": "cream-filled chocolate sandwich cookies (such as Oreo\u00ae)"
        }
    ], 
    "prep_steps": [
        "Heat oil in deep-fryer to 375 degrees F (190 degrees C).", 
        "Whisk together the egg, milk, and 2 teaspoons of vegetable oil in a bowl until smooth. Stir in the pancake mix until no dry lumps remain. Dip the cookies into the batter one at a time, and carefully place into the hot frying oil. Fry only 4 or 5 at a time to avoid overcrowding the deep fryer. Cook until the cookies are golden-brown, about 2 minutes. Drain on a paper towel-lined plate before serving."
    ], 
    "prep_time": "30 mins", 
    "recipe_name": "Deep Fried Oreos\u00ae"
}