{
    "ingredients": [
        {
            "amount": "2 pounds", 
            "ingredient": "lean ground beef"
        }, 
        {
            "amount": "1 teaspoon", 
            "ingredient": "salt"
        }, 
        {
            "amount": "1/2 teaspoon", 
            "ingredient": "ground black pepper"
        }, 
        {
            "amount": "1 1/2 cups", 
            "ingredient": "water"
        }, 
        {
            "amount": "1", 
            "ingredient": "onion, chopped"
        }, 
        {
            "amount": "24 slices", 
            "ingredient": "dill pickle slices"
        }, 
        {
            "amount": "4 ounces", 
            "ingredient": "prepared mustard"
        }, 
        {
            "amount": "8", 
            "ingredient": "hamburger buns"
        }
    ], 
    "prep_steps": [
        "In a large skillet over medium heat, cook the ground beef until brown. Drain. Return to pan with salt, pepper, and water to cover. Reduce heat to low and simmer, uncovered, until water is gone, 15 to 30 minutes.", 
        "Serve meat on buns topped with chopped onion, dill pickle slices and mustard."
    ], 
    "prep_time": "40 mins", 
    "recipe_name": "Loosemeat Sandwiches III"
}