{
    "ingredients": [
        {
            "amount": "2 cups", 
            "ingredient": "all-purpose flour"
        }, 
        {
            "amount": "1 1/2 cups", 
            "ingredient": "white sugar"
        }, 
        {
            "amount": "2/3 cup", 
            "ingredient": "butter"
        }, 
        {
            "amount": "2 teaspoons", 
            "ingredient": "baking powder"
        }, 
        {
            "amount": "1 teaspoon", 
            "ingredient": "salt"
        }, 
        {
            "amount": "2", 
            "ingredient": "egg yolks"
        }, 
        {
            "amount": "1 cup", 
            "ingredient": "milk"
        }, 
        {
            "amount": "2", 
            "ingredient": "egg whites"
        }, 
        {
            "amount": "1 cup", 
            "ingredient": "blueberries"
        }
    ], 
    "prep_steps": [
        "Preheat the oven to 350 degrees F (175 degrees C). Grease and flour a 9x13 inch baking dish.", 
        "In a large bowl, stir together the flour and sugar. Cut in butter using a pastry blender or a fork until pea-sized. Measure out 3/4 cup of the mixture, and set aside. Stir baking powder and salt into the remaining mixture, then mix in the egg yolks and milk using an electric mixer on low speed for 3 minutes.", 
        "In a large glass or metal bowl, whip egg whites just until stiff peaks begin to form. Fold egg whites into the batter. Spread batter evenly into the prepared pan. Sprinkle blueberries over the batter, and sprinkle the reserved crumb mixture over the top.", 
        "Bake for 40 to 50 minutes in the preheated oven, or until the cake springs back when lightly touched in the center."
    ], 
    "prep_time": "1\u00bc hrs", 
    "recipe_name": "Blueberry Boy Bait"
}