{
    "ingredients": [
        {
            "amount": "2 teaspoons", 
            "ingredient": "ground paprika"
        }, 
        {
            "amount": "2 tablespoons", 
            "ingredient": "fresh minced garlic"
        }, 
        {
            "amount": "2 teaspoons", 
            "ingredient": "Italian seasoning blend"
        }, 
        {
            "amount": "2 tablespoons", 
            "ingredient": "fresh lemon juice"
        }, 
        {
            "amount": "1/4 cup", 
            "ingredient": "olive oil"
        }, 
        {
            "amount": "1/2 teaspoon", 
            "ingredient": "ground black pepper"
        }, 
        {
            "amount": "2 teaspoons", 
            "ingredient": "dried basil leaves"
        }, 
        {
            "amount": "2 tablespoons", 
            "ingredient": "brown sugar, packed"
        }, 
        {
            "amount": "2 pounds", 
            "ingredient": "large shrimp (21-25 per pound), peeled and deveined"
        }
    ], 
    "prep_steps": [
        "Whisk the paprika, garlic, Italian seasoning, lemon juice, olive oil, pepper, basil, and brown sugar together in a bowl until thoroughly blended. Stir in the shrimp, and toss to evenly coat with the marinade. Cover and refrigerate at least 2 hours, turning once.", 
        "Preheat an outdoor grill for medium-high heat. Lightly oil grill grate, and place about 4 inches from heat source.", 
        "Remove shrimp from marinade, drain excess, and discard marinade.", 
        "Place shrimp on preheated grill and cook, turning once, until opaque in the center, 5 to 6 minutes. Serve immediately."
    ], 
    "prep_time": "2\u00bc hrs", 
    "recipe_name": "Grilled Garlic and Herb Shrimp"
}