{
    "ingredients": [
        {
            "amount": "1 (11 ounce) can", 
            "ingredient": "Mexican-style corn"
        }, 
        {
            "amount": "1 (16 ounce) can", 
            "ingredient": "chili beans, undrained"
        }, 
        {
            "amount": "2 (14.5 ounce) cans", 
            "ingredient": "chicken broth"
        }, 
        {
            "amount": "1 (16 ounce) jar", 
            "ingredient": "chunky salsa"
        }, 
        {
            "amount": "2 1/2 cups", 
            "ingredient": "cooked, chopped turkey meat"
        }, 
        {
            "amount": "1/4 cup", 
            "ingredient": "chopped fresh cilantro"
        }, 
        {
            "amount": "1/2 cup", 
            "ingredient": "low-fat sour cream"
        }, 
        {
            "amount": "2 tablespoons", 
            "ingredient": "guacamole"
        }
    ], 
    "prep_steps": [
        "In a large pot over medium heat, combine corn, chili beans, broth and salsa. Bring to a boil, then reduce heat and stir in cooked turkey. Season with salt and pepper. Cover, and cook 5 to 10 minutes more, until heated through. Stir in cilantro.", 
        "In a bowl, stir together sour cream and guacamole until smooth.", 
        "Ladle soup into bowls and top with guacamole mixture."
    ], 
    "prep_time": "30 mins", 
    "recipe_name": "Busy Night Turkey Taco Soup with Avocado Cream"
}