{
    "ingredients": [
        {
            "amount": "1/2 cup", 
            "ingredient": "butter, melted"
        }, 
        {
            "amount": "1 pound", 
            "ingredient": "confectioners' sugar"
        }, 
        {
            "amount": "1 1/2 cups", 
            "ingredient": "peanut butter"
        }, 
        {
            "amount": "1 teaspoon", 
            "ingredient": "vanilla extract"
        }, 
        {
            "amount": "2 cups", 
            "ingredient": "semisweet chocolate chips"
        }, 
        {
            "amount": "1 tablespoon", 
            "ingredient": "shortening"
        }
    ], 
    "prep_steps": [
        "Combine the melted butter or margarine, confectioners' sugar, peanut butter and the vanilla together and mix well. Refrigerate for 1 hour or until firm. Roll into 1 inch balls and place on waxed paper.", 
        "In the top half of a double boiler melt the chocolate chips and shortening, stirring constantly. Use a toothpick to dip balls into the melted chocolate, leaving a small uncovered area so balls resemble buckeyes. Place balls on waxed paper. Use fingers to blend in toothpick holes. Refrigerate until chocolate is firm. Enjoy!"
    ], 
    "recipe_name": "Buckeye Balls"
}