{
    "ingredients": [
        {
            "amount": "1 cup", 
            "ingredient": "mayonnaise"
        }, 
        {
            "amount": "1 (16 ounce) container", 
            "ingredient": "sour cream"
        }, 
        {
            "amount": "1 (1.8 ounce) package", 
            "ingredient": "dry leek soup mix"
        }, 
        {
            "amount": "1 (4 ounce) can", 
            "ingredient": "water chestnuts, drained and chopped"
        }, 
        {
            "amount": "1/2 (10 ounce) package", 
            "ingredient": "frozen chopped spinach, thawed and drained"
        }, 
        {
            "amount": "1 (1 pound) loaf", 
            "ingredient": "round sourdough bread"
        }
    ], 
    "prep_steps": [
        "In a medium bowl, mix together mayonnaise, sour cream, dry leek soup mix, water chestnuts and chopped spinach. Chill in the refrigerator 6 hours, or overnight.", 
        "Remove top and interior of sourdough bread. Fill with mayonnaise mixture. Tear removed bread chunks into pieces for dipping."
    ], 
    "prep_time": "6 hrs", 
    "recipe_name": "Best Spinach Dip Ever"
}