{
    "ingredients": [
        {
            "amount": "1/2 cup", 
            "ingredient": "butter"
        }, 
        {
            "amount": "1 (18.25 ounce) package", 
            "ingredient": "yellow cake mix"
        }, 
        {
            "amount": "3", 
            "ingredient": "eggs"
        }, 
        {
            "amount": "1 (8 ounce) package", 
            "ingredient": "cream cheese"
        }, 
        {
            "amount": "1/2 teaspoon", 
            "ingredient": "almond extract"
        }, 
        {
            "amount": "4 cups", 
            "ingredient": "confectioners' sugar"
        }
    ], 
    "prep_steps": [
        "Preheat oven to 350 degrees F (175 degrees C). Lightly grease one 9x13 inch cake pan.", 
        "Melt the butter or margarine. Stir melted butter or margarine along with 1 egg into the cake mix. Press into prepared pan.", 
        "In a large bowl mix cream cheese, almond extract, confectioner's sugar, and the remaining 2 eggs beat for 3 minutes with an electric mixer set on medium high speed. Spread over top of cake mixture.", 
        "Bake at 350 degrees F (175 degrees C) for 45 to 50 minutes and until browned on top. Allow cake to cool before cutting."
    ], 
    "recipe_name": "Gooey Butter Cake II"
}