{
    "ingredients": [
        {
            "amount": "1/4 cup", 
            "ingredient": "butter, melted"
        }, 
        {
            "amount": "1/2 cup", 
            "ingredient": "all-purpose flour"
        }, 
        {
            "amount": "1 teaspoon", 
            "ingredient": "salt"
        }, 
        {
            "amount": "1 teaspoon", 
            "ingredient": "ground black pepper"
        }, 
        {
            "amount": "1 teaspoon", 
            "ingredient": "garlic powder"
        }, 
        {
            "amount": "1", 
            "ingredient": "egg"
        }, 
        {
            "amount": "1 tablespoon", 
            "ingredient": "milk"
        }, 
        {
            "amount": "1 cup", 
            "ingredient": "shredded Cheddar cheese"
        }, 
        {
            "amount": "1/2 cup", 
            "ingredient": "Italian seasoned bread crumbs"
        }, 
        {
            "amount": "1 cup", 
            "ingredient": "crispy rice cereal"
        }, 
        {
            "amount": "3", 
            "ingredient": "skinless, boneless chicken breast halves - cut in half"
        }, 
        {
            "amount": "2 tablespoons", 
            "ingredient": "butter, melted"
        }
    ], 
    "prep_steps": [
        "Preheat oven to 350 degrees F (175 degrees C). Coat a medium baking dish with 1/4 cup melted butter.", 
        "In a bowl, mix the flour, salt, pepper, and garlic powder. In a separate bowl, beat together the egg and milk. In a third bowl, mix the cheese, bread crumbs, cereal. Dredge chicken pieces in the flour mixture, dip in the egg mixture, then press in the breadcrumb mixture to coat. Arrange in the prepared baking dish. Drizzle 2 tablespoons butter evenly over chicken.", 
        "Bake 35 minutes in the preheated oven, or until coating is golden brown and chicken juices run clear."
    ], 
    "prep_time": "50 mins", 
    "recipe_name": "Cheddar Baked Chicken"
}