{
    "ingredients": [
        {
            "amount": "1 (32 ounce) container", 
            "ingredient": "plain low-fat yogurt"
        }, 
        {
            "amount": "1/2", 
            "ingredient": "English cucumber with peel, grated"
        }, 
        {
            "amount": "1 clove", 
            "ingredient": "garlic, pressed"
        }, 
        {
            "amount": "2 tablespoons", 
            "ingredient": "fresh lemon juice"
        }, 
        {
            "amount": "2 tablespoons", 
            "ingredient": "extra-virgin olive oil"
        }, 
        {
            "amount": "2 teaspoons", 
            "ingredient": "grated lemon zest"
        }, 
        {
            "amount": "3 tablespoons", 
            "ingredient": "chopped fresh dill"
        }, 
        {
            "amount": "1 tablespoon", 
            "ingredient": "salt"
        }, 
        {
            "amount": "1 tablespoon", 
            "ingredient": "fresh ground black pepper"
        }
    ], 
    "prep_steps": [
        "Stir together yogurt, grated cucumber, garlic, lemon juice, and olive oil in a bowl. Add lemon zest, dill, salt, and pepper; whisk until smooth. Pour into a serving dish, cover tightly, and refrigerate 8 hours before serving."
    ], 
    "prep_time": "8 hrs", 
    "recipe_name": "Greek Tzatziki"
}