{
    "ingredients": [
        {
            "amount": "3 tablespoons", 
            "ingredient": "soy sauce"
        }, 
        {
            "amount": "2 tablespoons", 
            "ingredient": "rice wine"
        }, 
        {
            "amount": "1 tablespoon", 
            "ingredient": "brown sugar"
        }, 
        {
            "amount": "1/2 teaspoon", 
            "ingredient": "cornstarch"
        }, 
        {
            "amount": "1 tablespoon", 
            "ingredient": "vegetable oil"
        }, 
        {
            "amount": "1 tablespoon", 
            "ingredient": "minced fresh ginger root"
        }, 
        {
            "amount": "1 tablespoon", 
            "ingredient": "minced garlic"
        }, 
        {
            "amount": "1 pound", 
            "ingredient": "beef round steak, cut into thin strips"
        }, 
        {
            "amount": "8 ounces", 
            "ingredient": "snow peas"
        }
    ], 
    "prep_steps": [
        "In a small bowl, combine the soy sauce, rice wine, brown sugar and cornstarch. Set aside.", 
        "Heat oil in a wok or skillet over medium high heat. Stir-fry ginger and garlic for 30 seconds. Add the steak and stir-fry for 2 minutes or until evenly browned. Add the snow peas and stir-fry for an additional 3 minutes. Add the soy sauce mixture, bring to a boil, stirring constantly. Lower heat and simmer until the sauce is thick and smooth. Serve immediately."
    ], 
    "prep_time": "15 mins", 
    "recipe_name": "Asian Beef with Snow Peas"
}