{
    "ingredients": [
        {
            "amount": "1 (14 ounce) package", 
            "ingredient": "firm tofu, cut into 3/4 inch cubes"
        }, 
        {
            "amount": "1/3 cup", 
            "ingredient": "chopped green onion"
        }, 
        {
            "amount": "1 1/2 teaspoons", 
            "ingredient": "olive oil"
        }, 
        {
            "amount": "1/2 teaspoon", 
            "ingredient": "sesame oil"
        }, 
        {
            "amount": "1 teaspoon", 
            "ingredient": "soy sauce"
        }, 
        {
            "amount": "2 teaspoons", 
            "ingredient": "grated fresh ginger root"
        }, 
        {
            "amount": "1/4 cup", 
            "ingredient": "chunky peanut butter"
        }, 
        {
            "amount": "3 tablespoons", 
            "ingredient": "flaked coconut"
        }
    ], 
    "prep_steps": [
        "Heat olive oil and sesame oil in a skillet over medium-high heat. Reduce heat to medium, and cook green onions for one minute. Add tofu, and continue cooking 4 minutes more, sprinkling with soy sauce halfway through. Gently stir in the peanut butter and ginger, being careful not to break the tofu, until well incorporated.", 
        "Remove from heat, and toss in coconut. Transfer to a serving dish, and sprinkle with sesame seeds."
    ], 
    "recipe_name": "Amazing Simple Thai Tofu"
}