{
    "ingredients": [
        {
            "amount": "4 large", 
            "ingredient": "tomatoes, diced"
        }, 
        {
            "amount": "1/2 large", 
            "ingredient": "onion, minced"
        }, 
        {
            "amount": "3 cloves", 
            "ingredient": "garlic, chopped"
        }, 
        {
            "amount": "2/3 cup", 
            "ingredient": "chopped fresh cilantro"
        }, 
        {
            "amount": "1", 
            "ingredient": "jalapeno pepper, seeded and minced"
        }, 
        {
            "amount": "2 tablespoons", 
            "ingredient": "fresh lime juice"
        }
    ], 
    "prep_steps": [
        "In a small mixing bowl, combine tomatoes, onion, garlic, cilantro and lime juice. Add jalapenos 2 teaspoons at a time, tasting after each addition to see how hot the salsa has become. Jalapeno peppers vary in heat, so it is important to taste the salsa to ensure you do not make it too hot to handle. Salt to taste. Enjoy!"
    ], 
    "recipe_name": "Fresh California Salsa"
}