{
    "ingredients": [
        {
            "amount": "3", 
            "ingredient": "eggs"
        }, 
        {
            "amount": "1 cup", 
            "ingredient": "white sugar"
        }, 
        {
            "amount": "1 cup", 
            "ingredient": "corn syrup"
        }, 
        {
            "amount": "2 tablespoons", 
            "ingredient": "butter, melted"
        }, 
        {
            "amount": "1 teaspoon", 
            "ingredient": "vanilla extract"
        }, 
        {
            "amount": "1/4 teaspoon", 
            "ingredient": "salt"
        }, 
        {
            "amount": "1 1/2 cups", 
            "ingredient": "pecan halves"
        }, 
        {
            "amount": "1 recipe", 
            "ingredient": "pastry for a 9 inch single crust pie"
        }
    ], 
    "prep_steps": [
        "Preheat oven to 400 degrees F (205 degrees C).", 
        "Beat eggs slightly in medium bowl. Beat in sugar, and then blend in syrup, butter or margarine, vanilla, salt, and pecans. Pour filling into unbaked pie shell.", 
        "Bake in preheated oven for 15 minutes. Reduce heat to 350 degrees F (175 degrees C), and continue baking 35 to 40 minutes; the pie will be brown and slightly puffed."
    ], 
    "recipe_name": "Southern Pecan Pie I"
}