{
    "ingredients": [
        {
            "amount": "1 (12 ounce) package", 
            "ingredient": "macaroni"
        }, 
        {
            "amount": "1/4 cup", 
            "ingredient": "butter"
        }, 
        {
            "amount": "1/2 cup", 
            "ingredient": "minced onion"
        }, 
        {
            "amount": "1 1/2 tablespoons", 
            "ingredient": "minced garlic"
        }, 
        {
            "amount": "1/4 cup", 
            "ingredient": "all-purpose flour"
        }, 
        {
            "amount": "1/2 cup", 
            "ingredient": "half-and-half cream"
        }, 
        {
            "amount": "1 1/2 cups", 
            "ingredient": "milk"
        }, 
        {
            "amount": "1/2 teaspoon", 
            "ingredient": "dry mustard powder"
        }, 
        {
            "amount": "1/2 teaspoon", 
            "ingredient": "liquid smoke flavoring"
        }, 
        {
            "amount": "1 cup", 
            "ingredient": "grated Parmesan cheese"
        }, 
        {
            "amount": "1 (8 ounce) package", 
            "ingredient": "cream cheese, cubed"
        }, 
        {
            "amount": "1 cup", 
            "ingredient": "shredded Swiss cheese"
        }, 
        {
            "amount": "2 cups", 
            "ingredient": "shredded Monterey Jack cheese"
        }, 
        {
            "amount": "1/3 cup", 
            "ingredient": "shredded sharp Cheddar cheese"
        }, 
        {
            "amount": "1/2 cup", 
            "ingredient": "bread crumbs"
        }, 
        {
            "amount": "1/2 cup", 
            "ingredient": "grated Parmesan cheese"
        }
    ], 
    "prep_steps": [
        "Preheat oven to 375 degrees F (190 degrees C). Lightly grease a 9x13 inch baking dish.", 
        "Bring a large pot of lightly salted water to a boil. Add pasta and cook for 8 to 10 minutes or until al dente; drain.", 
        "Meanwhile, melt the butter in a large saucepan over medium heat. Stir in the onion, and cook for 3 minutes until it begins to soften. Add the garlic, and continue cooking until the onion has softened and turned translucent, about 2 minutes more. Slowly stir in the flour, and cook, stirring constantly for 5 minutes.", 
        "Stir in the half-and-half and milk, and bring to a simmer. Reduce heat to medium-low and stir in mustard powder and liquid smoke; simmer for 10 minutes, stirring occasionally. Add 1 cup of Parmesan cheese, along with the cream cheese, Swiss, Monterey Jack, and Cheddar cheeses; stir until melted. Season to taste with salt and pepper, then stir in the drained macaroni noodles. Pour into the prepared baking dish. Sprinkle the remaining 1/2 cup of Parmesan cheese and breadcrumbs over the macaroni", 
        "Bake in preheated oven until bubbly and brown, about 30 minutes. Remove from the oven and allow to stand 5 to 10 minutes before serving."
    ], 
    "prep_time": "1\u00be hrs", 
    "recipe_name": "Smoky Four Cheese Macaroni Bake"
}