{
    "ingredients": [
        {
            "amount": "2/3 cup", 
            "ingredient": "butter"
        }, 
        {
            "amount": "2 tablespoons", 
            "ingredient": "minced onion"
        }, 
        {
            "amount": "1 cup", 
            "ingredient": "minced crabmeat"
        }, 
        {
            "amount": "2 tablespoons", 
            "ingredient": "minced fresh parsley"
        }, 
        {
            "amount": "1/4 teaspoon", 
            "ingredient": "garlic powder, or to taste"
        }, 
        {
            "amount": "24", 
            "ingredient": "buttery round crackers, crushed"
        }, 
        {
            "amount": "12 (6 ounce) fillets", 
            "ingredient": "sole"
        }, 
        {
            "amount": "2 tablespoons", 
            "ingredient": "lemon juice"
        }, 
        {
            "amount": "1/4 cup", 
            "ingredient": "grated Parmesan cheese"
        }, 
        {
            "amount": "3 tablespoons", 
            "ingredient": "butter"
        }
    ], 
    "prep_steps": [
        "Preheat oven to 375 degrees F (190 degrees C). Lightly coat a 9x13 inch baking pan with cooking spray.", 
        "Melt butter in frying pan over medium heat. Add onion and saute for 1 minute. Stir in crabmeat, parsley, garlic powder salt and pepper and cook 1 minute more. Remove from heat and stir in crushed crackers.", 
        "Spread mixture over filets; sprinkle with lemon juice and Parmesan cheese. Roll up filets, seal with toothpicks and place in prepared baking dish. Dot each roll with butter and cover pan tightly with foil.", 
        "Bake in preheated oven for 15 to 17 minutes until fish flakes."
    ], 
    "prep_time": "40 mins", 
    "recipe_name": "Fish Roll-Ups"
}