{
    "ingredients": [
        {
            "amount": "1 cup", 
            "ingredient": "white sugar"
        }, 
        {
            "amount": "1 1/8 cups", 
            "ingredient": "all-purpose flour"
        }, 
        {
            "amount": "1/2 cup", 
            "ingredient": "unsweetened cocoa powder"
        }, 
        {
            "amount": "1 teaspoon", 
            "ingredient": "baking soda"
        }, 
        {
            "amount": "1 teaspoon", 
            "ingredient": "salt"
        }, 
        {
            "amount": "1/2 cup", 
            "ingredient": "butter"
        }, 
        {
            "amount": "1", 
            "ingredient": "egg"
        }, 
        {
            "amount": "1 teaspoon", 
            "ingredient": "vanilla extract"
        }, 
        {
            "amount": "1 cup", 
            "ingredient": "cold, strong, brewed coffee"
        }
    ], 
    "prep_steps": [
        "Preheat oven to 350 degrees F (175 degrees C). Grease and flour an 8 inch pan. Sift together flour, cocoa, baking soda and salt. Set aside.", 
        "In a medium bowl, cream butter and sugar until light and fluffy. Add egg and vanilla and beat well. Add flour mixture, alternating with coffee. Beat until just incorporated.", 
        "Bake at 350 degrees F (175 degrees C) for 35 to 45 minutes, or until a toothpick inserted into the cake comes out clean."
    ], 
    "recipe_name": "Simple 'N' Delicious Chocolate Cake"
}