{
    "ingredients": [
        {
            "amount": "3/4 cup", 
            "ingredient": "water"
        }, 
        {
            "amount": "2 teaspoons", 
            "ingredient": "honey"
        }, 
        {
            "amount": "2 teaspoons", 
            "ingredient": "olive oil"
        }, 
        {
            "amount": "2/3 teaspoon", 
            "ingredient": "salt"
        }, 
        {
            "amount": "2/3 teaspoon", 
            "ingredient": "white sugar"
        }, 
        {
            "amount": "2 cups", 
            "ingredient": "bread flour"
        }, 
        {
            "amount": "1 1/2 teaspoons", 
            "ingredient": "active dry yeast"
        }, 
        {
            "amount": "1 tablespoon", 
            "ingredient": "honey"
        }
    ], 
    "prep_steps": [
        "Add to your bread machine per manufacturer instructions. While bread is baking, drizzle with honey if desired."
    ], 
    "prep_time": "3 hrs", 
    "recipe_name": "Sweet Honey French Bread"
}