{
    "ingredients": [
        {
            "amount": "1 cup", 
            "ingredient": "milk"
        }, 
        {
            "amount": "1/4 cup", 
            "ingredient": "all-purpose flour"
        }, 
        {
            "amount": "1/2 cup", 
            "ingredient": "shortening"
        }, 
        {
            "amount": "1/2 cup", 
            "ingredient": "butter"
        }, 
        {
            "amount": "1 cup", 
            "ingredient": "white sugar"
        }, 
        {
            "amount": "1 teaspoon", 
            "ingredient": "vanilla extract"
        }
    ], 
    "prep_steps": [
        "In a small saucepan, combine the milk and flour. Cook over medium high heat until boiling. Remove from heat and set aside to cool.", 
        "When the milk mixture is cool, add the butter, shortening, sugar and vanilla. Beat with an electric mixer for 10 to 12 minutes, scraping the bottom of the bowl occasionally. Keep frosted cakes refrigerated until 1/2 hour before serving."
    ], 
    "prep_time": "30 mins", 
    "recipe_name": "White Frosting"
}