{
    "ingredients": [
        {
            "amount": "1 (8 ounce) package", 
            "ingredient": "cream cheese, softened"
        }, 
        {
            "amount": "1/2 cup", 
            "ingredient": "sour cream"
        }, 
        {
            "amount": "1/2 cup", 
            "ingredient": "mayonnaise"
        }, 
        {
            "amount": "1/4 cup", 
            "ingredient": "cocktail sauce"
        }, 
        {
            "amount": "1 cup", 
            "ingredient": "mild salsa"
        }, 
        {
            "amount": "3/4 cup", 
            "ingredient": "diced green onion"
        }, 
        {
            "amount": "3/4 cup", 
            "ingredient": "diced red bell pepper"
        }, 
        {
            "amount": "3/4 cup", 
            "ingredient": "diced green bell pepper"
        }, 
        {
            "amount": "2 cups", 
            "ingredient": "shredded Cheddar cheese"
        }, 
        {
            "amount": "2 cups", 
            "ingredient": "shredded lettuce"
        }, 
        {
            "amount": "1", 
            "ingredient": "cucumber, thinly sliced"
        }
    ], 
    "prep_steps": [
        "In a blender or food processor, thoroughly mix cream cheese, sour cream and mayonnaise. Spread the mixture evenly in the bottom of a medium serving dish.", 
        "In individual layers, top the mixture with cocktail sauce, mild salsa, diced green onion, red bell pepper, green bell pepper, shredded Cheddar cheese and shredded lettuce.", 
        "Arrange cucumber slices around the edge of the serving dish. Chill in the refrigerator at least 2 hours before serving."
    ], 
    "prep_time": "2\u00bd hrs", 
    "recipe_name": "Absolutely the Best Nacho Dip Ever"
}