{
    "ingredients": [
        {
            "amount": "2 (8 ounce) packages", 
            "ingredient": "cream cheese, softened"
        }, 
        {
            "amount": "2 teaspoons", 
            "ingredient": "chopped garlic"
        }, 
        {
            "amount": "1 teaspoon", 
            "ingredient": "salt"
        }, 
        {
            "amount": "1 (14 ounce) can", 
            "ingredient": "artichoke hearts, drained and chopped"
        }, 
        {
            "amount": "1/3 cup", 
            "ingredient": "chopped black olives"
        }, 
        {
            "amount": "8", 
            "ingredient": "green onions, chopped"
        }, 
        {
            "amount": "3 ounces", 
            "ingredient": "sun-dried tomatoes, softened and chopped"
        }, 
        {
            "amount": "1/4 cup", 
            "ingredient": "chopped parsley"
        }, 
        {
            "amount": "1 tablespoon", 
            "ingredient": "chopped fresh chives"
        }
    ], 
    "prep_steps": [
        "In a medium bowl, mix cream cheese, garlic and salt; stir and blend in artichoke hearts and olives.", 
        "Add green onions, tomatoes, parsley and chives; gently mix together.", 
        "Refrigerate for several hours or overnight to blend flavors; serve."
    ], 
    "recipe_name": "Tuscan Cream Cheese Spread"
}