{
    "ingredients": [
        {
            "amount": "2 tablespoons", 
            "ingredient": "butter"
        }, 
        {
            "amount": "1/3 cup", 
            "ingredient": "chopped celery"
        }, 
        {
            "amount": "1/4 cup", 
            "ingredient": "chopped onion"
        }, 
        {
            "amount": "1/4 cup", 
            "ingredient": "chopped green bell pepper"
        }, 
        {
            "amount": "1 (14.5 ounce) can", 
            "ingredient": "diced tomatoes"
        }, 
        {
            "amount": "1 1/2 cups", 
            "ingredient": "chicken broth"
        }, 
        {
            "amount": "2/3 cup", 
            "ingredient": "white rice"
        }, 
        {
            "amount": "1 teaspoon", 
            "ingredient": "dried thyme"
        }, 
        {
            "amount": "1/2 teaspoon", 
            "ingredient": "garlic salt"
        }, 
        {
            "amount": "1/4 teaspoon", 
            "ingredient": "ground black pepper"
        }, 
        {
            "amount": "1/2 teaspoon", 
            "ingredient": "hot pepper sauce"
        }, 
        {
            "amount": "1", 
            "ingredient": "bay leaf"
        }, 
        {
            "amount": "2 cups", 
            "ingredient": "cooked, cubed chicken meat"
        }
    ], 
    "prep_steps": [
        "Melt butter or margarine in a large skillet over medium low heat. Add celery, onion and green bell pepper and saute until tender. Stir in tomatoes, broth, rice, thyme or basil, garlic salt, ground black pepper, hot pepper sauce and bay leaf.", 
        "Bring all to a boil; reduce heat, cover skillet and simmer for about 20 minutes or until rice is tender. Stir in chicken or turkey and cook until heated through. Discard bay leaf and serve hot."
    ], 
    "recipe_name": "Chicken Jambalaya I"
}