{
    "ingredients": [
        {
            "amount": "1 cup", 
            "ingredient": "uncooked couscous"
        }, 
        {
            "amount": "1 1/4 cups", 
            "ingredient": "chicken broth"
        }, 
        {
            "amount": "3 tablespoons", 
            "ingredient": "extra virgin olive oil"
        }, 
        {
            "amount": "2 tablespoons", 
            "ingredient": "fresh lime juice"
        }, 
        {
            "amount": "1 teaspoon", 
            "ingredient": "red wine vinegar"
        }, 
        {
            "amount": "1/2 teaspoon", 
            "ingredient": "ground cumin"
        }, 
        {
            "amount": "8", 
            "ingredient": "green onions, chopped"
        }, 
        {
            "amount": "1", 
            "ingredient": "red bell pepper, seeded and chopped"
        }, 
        {
            "amount": "1/4 cup", 
            "ingredient": "chopped fresh cilantro"
        }, 
        {
            "amount": "1 cup", 
            "ingredient": "frozen corn kernels, thawed"
        }, 
        {
            "amount": "2 (15 ounce) cans", 
            "ingredient": "black beans, drained"
        }
    ], 
    "prep_steps": [
        "Bring chicken broth to a boil in a 2 quart or larger sauce pan and stir in the couscous. Cover the pot and remove from heat. Let stand for 5 minutes.", 
        "In a large bowl, whisk together the olive oil, lime juice, vinegar and cumin. Add green onions, red pepper, cilantro, corn and beans and toss to coat.", 
        "Fluff the couscous well, breaking up any chunks. Add to the bowl with the vegetables and mix well. Season with salt and pepper to taste and serve at once or refrigerate until ready to serve."
    ], 
    "prep_time": "35 mins", 
    "recipe_name": "Black Bean and Couscous Salad"
}