{
    "ingredients": [
        {
            "amount": "1 (9 inch)", 
            "ingredient": "unbaked pie crust"
        }, 
        {
            "amount": "2 cups", 
            "ingredient": "cooked and mashed sweet potatoes"
        }, 
        {
            "amount": "2 tablespoons", 
            "ingredient": "butter, softened"
        }, 
        {
            "amount": "2", 
            "ingredient": "eggs, beaten"
        }, 
        {
            "amount": "1 cup", 
            "ingredient": "white sugar"
        }, 
        {
            "amount": "1 tablespoon", 
            "ingredient": "all-purpose flour"
        }, 
        {
            "amount": "1/2 teaspoon", 
            "ingredient": "salt"
        }, 
        {
            "amount": "1/2 cup", 
            "ingredient": "buttermilk"
        }, 
        {
            "amount": "1/4 teaspoon", 
            "ingredient": "baking soda"
        }, 
        {
            "amount": "1 teaspoon", 
            "ingredient": "vanilla extract"
        }
    ], 
    "prep_steps": [
        "Preheat oven to 350 degrees F (175 degrees C).", 
        "Mix together mashed sweet potatoes, butter or margarine, and eggs. In a separate bowl, mix together sugar, flour, and salt. Mix in spices if desired. Add to sweet potato mixture and stir well.", 
        "Mix together buttermilk and baking soda. Add to sweet potato mixture and stir well. Mix in vanilla extract. Pour filling into pastry shell.", 
        "Bake in preheated oven for 70 minutes, until set in center."
    ], 
    "prep_time": "1\u00bd hrs", 
    "recipe_name": "Sweet Potato Pie VII"
}