{
    "ingredients": [
        {
            "amount": "1/4 cup", 
            "ingredient": "all-purpose flour for coating"
        }, 
        {
            "amount": "1/2 teaspoon", 
            "ingredient": "salt"
        }, 
        {
            "amount": "1/4 teaspoon", 
            "ingredient": "ground black pepper"
        }, 
        {
            "amount": "1/2 teaspoon", 
            "ingredient": "dried oregano"
        }, 
        {
            "amount": "4", 
            "ingredient": "skinless, boneless chicken breast halves - pounded 1/4 inch thick"
        }, 
        {
            "amount": "4 tablespoons", 
            "ingredient": "butter"
        }, 
        {
            "amount": "4 tablespoons", 
            "ingredient": "olive oil"
        }, 
        {
            "amount": "1 cup", 
            "ingredient": "sliced mushrooms"
        }, 
        {
            "amount": "1/2 cup", 
            "ingredient": "Marsala wine"
        }, 
        {
            "amount": "1/4 cup", 
            "ingredient": "cooking sherry"
        }
    ], 
    "prep_steps": [
        "In a shallow dish or bowl, mix together the flour, salt, pepper and oregano. Coat chicken pieces in flour mixture.", 
        "In a large skillet, melt butter in oil over medium heat. Place chicken in the pan, and lightly brown. Turn over chicken pieces, and add mushrooms. Pour in wine and sherry. Cover skillet; simmer chicken 10 minutes, turning once, until no longer pink and juices run clear."
    ], 
    "prep_time": "30 mins", 
    "recipe_name": "Chicken Marsala"
}