{
    "ingredients": [
        {
            "amount": "1/2 pound", 
            "ingredient": "Irish bacon, diced"
        }, 
        {
            "amount": "2 large", 
            "ingredient": "potatoes, peeled and cubed"
        }, 
        {
            "amount": "1 (15 ounce) can", 
            "ingredient": "diced tomatoes with juice"
        }, 
        {
            "amount": "1 cup", 
            "ingredient": "chicken stock, or as needed"
        }, 
        {
            "amount": "2 cups", 
            "ingredient": "thinly sliced dark green Savoy cabbage leaves"
        }
    ], 
    "prep_steps": [
        "Place bacon in a large, deep stockpot or saucepan. Cook over medium high heat until evenly brown. Drain off any excess fat.", 
        "Stir in potatoes, tomatoes, and enough chicken stock to cover. Season with salt and pepper. Bring to a boil, reduce heat and let simmer for 20 minutes, or until potatoes are tender.", 
        "Stir in cabbage and allow the soup to simmer for a few minutes longer before serving."
    ], 
    "prep_time": "45 mins", 
    "recipe_name": "Irish Bacon And Cabbage Soup"
}