{
    "ingredients": [
        {
            "amount": "4", 
            "ingredient": "skinless, boneless chicken breasts"
        }, 
        {
            "amount": "1 (14.5 ounce) can", 
            "ingredient": "diced tomatoes with green chile peppers"
        }, 
        {
            "amount": "1 (10.75 ounce) can", 
            "ingredient": "condensed cream of chicken soup"
        }, 
        {
            "amount": "1 cup", 
            "ingredient": "uncooked white rice"
        }
    ], 
    "prep_steps": [
        "Preheat oven to 350 degrees F (175 degrees C).", 
        "In a medium bowl combine the tomatoes/chiles, soup, rice, salt and pepper. Mix well. If necessary, add a little water.", 
        "Place chicken breasts in a 9x13 inch baking dish. Pour sauce mixture over chicken. Cover and bake for about 45 minutes, until rice is tender."
    ], 
    "recipe_name": "Easy Spicy Chicken and Rice"
}