{
    "ingredients": [
        {
            "amount": "1 (10 pound)", 
            "ingredient": "whole turkey, neck and giblets removed"
        }, 
        {
            "amount": "4 cloves", 
            "ingredient": "garlic, crushed"
        }, 
        {
            "amount": "2 tablespoons", 
            "ingredient": "seasoned salt"
        }, 
        {
            "amount": "1/2 cup", 
            "ingredient": "butter"
        }, 
        {
            "amount": "2 (12 fluid ounce) cans", 
            "ingredient": "cola-flavored carbonated beverage"
        }, 
        {
            "amount": "1", 
            "ingredient": "apple, quartered"
        }, 
        {
            "amount": "1", 
            "ingredient": "onion, quartered"
        }, 
        {
            "amount": "1 tablespoon", 
            "ingredient": "garlic powder"
        }, 
        {
            "amount": "1 tablespoon", 
            "ingredient": "salt"
        }, 
        {
            "amount": "1 tablespoon", 
            "ingredient": "ground black pepper"
        }
    ], 
    "prep_steps": [
        "Preheat smoker to 225 to 250 degrees F (110 to 120 degrees C).", 
        "Rinse turkey under cold water, and pat dry. Rub the crushed garlic over the outside of the bird, and sprinkle with seasoned salt. Place in a disposable roasting pan. Fill turkey cavity with butter, cola, apple, onion, garlic powder, salt, and ground black pepper. Cover loosely with foil.", 
        "Smoke at 225 to 250 degrees F (110 to 120 degrees C) for 10 hours, or until internal temperature reaches 180 degrees F (80 degrees C) when measured in the thickest part of the thigh. Baste the bird every 1 to 2 hours with the juices from the bottom of the roasting pan."
    ], 
    "prep_time": "10 hrs", 
    "recipe_name": "Turkey in a Smoker"
}