{
    "ingredients": [
        {
            "amount": "3 tablespoons", 
            "ingredient": "brown sugar"
        }, 
        {
            "amount": "2 tablespoons", 
            "ingredient": "distilled white vinegar"
        }, 
        {
            "amount": "1 tablespoon", 
            "ingredient": "vegetable oil"
        }, 
        {
            "amount": "1 teaspoon", 
            "ingredient": "prepared mustard"
        }, 
        {
            "amount": "3/4 pound", 
            "ingredient": "cooked ham, cut into 1 inch cubes"
        }, 
        {
            "amount": "1 (15 ounce) can", 
            "ingredient": "pineapple chunks, drained"
        }
    ], 
    "prep_steps": [
        "Preheat grill for high heat.", 
        "In a medium bowl, mix together brown sugar, vinegar, vegetable oil, and mustard. Thread ham and pineapple chunks alternately onto skewers.", 
        "Lightly oil grill grate. Place skewers on the prepared grill, and brush liberally with the brown sugar mixture. Cook for 6 to 8 minutes, turning frequently and basting often. Serve when heated through and richly glazed."
    ], 
    "prep_time": "23 mins", 
    "recipe_name": "Ham and Pineapple Kabobs"
}