{
    "ingredients": [
        {
            "amount": "1 cup", 
            "ingredient": "pimento-stuffed green olives, crushed"
        }, 
        {
            "amount": "1/2 cup", 
            "ingredient": "drained kalamata olives, crushed"
        }, 
        {
            "amount": "2 cloves", 
            "ingredient": "garlic, minced"
        }, 
        {
            "amount": "1/4 cup", 
            "ingredient": "roughly chopped pickled cauliflower florets"
        }, 
        {
            "amount": "2 tablespoons", 
            "ingredient": "drained capers"
        }, 
        {
            "amount": "1 tablespoon", 
            "ingredient": "chopped celery"
        }, 
        {
            "amount": "1 tablespoon", 
            "ingredient": "chopped carrot"
        }, 
        {
            "amount": "1/2 cup", 
            "ingredient": "pepperoncini, drained"
        }, 
        {
            "amount": "1/4 cup", 
            "ingredient": "marinated cocktail onions"
        }, 
        {
            "amount": "1/2 teaspoon", 
            "ingredient": "celery seed"
        }, 
        {
            "amount": "1 teaspoon", 
            "ingredient": "dried oregano"
        }, 
        {
            "amount": "1 teaspoon", 
            "ingredient": "dried basil"
        }, 
        {
            "amount": "3/4 teaspoon", 
            "ingredient": "ground black pepper"
        }, 
        {
            "amount": "1/4 cup", 
            "ingredient": "red wine vinegar"
        }, 
        {
            "amount": "1/2 cup", 
            "ingredient": "olive oil"
        }, 
        {
            "amount": "1/4 cup", 
            "ingredient": "canola oil"
        }, 
        {
            "amount": "2 (1 pound) loaves", 
            "ingredient": "Italian bread"
        }, 
        {
            "amount": "8 ounces", 
            "ingredient": "thinly sliced Genoa salami"
        }, 
        {
            "amount": "8 ounces", 
            "ingredient": "thinly sliced cooked ham"
        }, 
        {
            "amount": "8 ounces", 
            "ingredient": "sliced mortadella"
        }, 
        {
            "amount": "8 ounces", 
            "ingredient": "sliced mozzarella cheese"
        }, 
        {
            "amount": "8 ounces", 
            "ingredient": "sliced provolone cheese"
        }
    ], 
    "prep_steps": [
        "To Make Olive Salad: In a medium bowl, combine the green olives, kalamata olives, garlic, cauliflower, capers, celery, carrot, pepperoncini, cocktail onions, celery seed, oregano, basil, black pepper, vinegar, olive oil and canola oil. Mix together and transfer mixture into a glass jar (or other nonreactive container). If needed, pour in more oil to cover. Cover jar or container and refrigerate at least overnight.", 
        "To Make Sandwiches: Cut loaves of bread in half horizontally; hollow out some of the excess bread to make room for filling. Spread each piece of bread with equal amounts olive salad, including oil. Layer 'bottom half' of each loaf with 1/2 of the salami, ham, mortadella, mozzarella and Provolone. Replace 'top half' on each loaf and cut sandwich into quarters.", 
        "Serve immediately, or wrap tightly and refrigerate for a few hours; this will allow for the flavors to mingle and the olive salad to soak into the bread."
    ], 
    "prep_time": "1 days", 
    "recipe_name": "Real N'awlins Muffuletta"
}