{
    "ingredients": [
        {
            "amount": "1 (8 ounce) package", 
            "ingredient": "spaghetti, broken into 2-inch pieces"
        }, 
        {
            "amount": "1", 
            "ingredient": "egg, beaten"
        }, 
        {
            "amount": "1/4 cup", 
            "ingredient": "milk"
        }, 
        {
            "amount": "2 cups", 
            "ingredient": "shredded mozzarella cheese, divided"
        }, 
        {
            "amount": "1/4 teaspoon", 
            "ingredient": "salt"
        }, 
        {
            "amount": "1/4 teaspoon", 
            "ingredient": "garlic salt"
        }, 
        {
            "amount": "1 (16 ounce) jar", 
            "ingredient": "spaghetti sauce"
        }, 
        {
            "amount": "1 teaspoon", 
            "ingredient": "dried oregano"
        }, 
        {
            "amount": "1/4 teaspoon", 
            "ingredient": "dried basil"
        }, 
        {
            "amount": "4 ounces", 
            "ingredient": "pepperoni sausage, sliced"
        }
    ], 
    "prep_steps": [
        "Preheat oven to 425 degrees F (220 degrees C). Grease a 9x13-inch baking dish.", 
        "Bring a large pot of lightly salted water to a boil. Add spaghetti and cook for 8 to 10 minutes or until al dente; drain and rinse with cold water.", 
        "Combine egg, milk, 1/2 cup of the mozzarella cheese, salt, and garlic salt in a large bowl. Stir in cooked spaghetti; mix well.", 
        "Spread mixture into prepared baking dish. Bake in preheated oven for 15 minutes. Remove from oven and reduce temperature to 350 degrees F (175 degrees C).", 
        "Spread sauce over spaghetti. Sprinkle with oregano, basil, and the remaining 1 1/2 cups mozzarella. Top with pepperoni, return to oven, and bake until cheese is bubbly and beginning to brown, about 30 minutes more. Let stand 5 minutes before cutting."
    ], 
    "prep_time": "1\u00bc hrs", 
    "recipe_name": "Spaghetti Pizza I"
}