{
    "ingredients": [
        {
            "amount": "1 (750 milliliter) bottle", 
            "ingredient": "Southern Comfort liqueur"
        }, 
        {
            "amount": "6 fluid ounces", 
            "ingredient": "lemon juice"
        }, 
        {
            "amount": "1 (6 ounce) can", 
            "ingredient": "frozen lemonade concentrate, thawed"
        }, 
        {
            "amount": "1 (6 ounce) can", 
            "ingredient": "frozen orange juice concentrate"
        }, 
        {
            "amount": "3 liters", 
            "ingredient": "lemon-lime flavored carbonated beverage"
        }, 
        {
            "amount": "2 drops", 
            "ingredient": "red food coloring"
        }, 
        {
            "amount": "1", 
            "ingredient": "orange, sliced into rounds"
        }, 
        {
            "amount": "1", 
            "ingredient": "lemon, sliced into rounds"
        }
    ], 
    "prep_steps": [
        "In a large punch bowl, combine Southern Comfort, lemon juice, lemonade concentrate and orange juice concentrate. Stir in lemon-lime soda, and add a few drops red food coloring. Float orange and lemon slices for garnish."
    ], 
    "prep_time": "5 mins", 
    "recipe_name": "Kerri's Holiday Punch"
}