{
    "ingredients": [
        {
            "amount": "1/2 cup", 
            "ingredient": "cold milk"
        }, 
        {
            "amount": "1 tablespoon", 
            "ingredient": "vanilla extract"
        }, 
        {
            "amount": "1 (14 ounce) can", 
            "ingredient": "sweetened condensed milk"
        }, 
        {
            "amount": "1/8 teaspoon", 
            "ingredient": "salt"
        }, 
        {
            "amount": "1 pint", 
            "ingredient": "heavy cream"
        }
    ], 
    "prep_steps": [
        "In a medium bowl, stir together cold milk, vanilla, condensed milk and salt. Set aside.", 
        "In a large bowl, beat heavy cream with an electric mixer until stiff peaks form. Fold milk mixture into whipped cream.", 
        "Pour into shallow 2 quart dish, cover and freeze for 4 hours, stirring once after 2 hours or when edges start to harden. Serve or store in an airtight container up to 10 days."
    ], 
    "prep_time": "4 hr", 
    "recipe_name": "Five Ingredient Ice Cream"
}