{
    "ingredients": [
        {
            "amount": "1 small", 
            "ingredient": "onion, chopped"
        }, 
        {
            "amount": "7 cloves", 
            "ingredient": "garlic"
        }, 
        {
            "amount": "1/2 cup", 
            "ingredient": "olive oil"
        }, 
        {
            "amount": "1/2 cup", 
            "ingredient": "vinegar"
        }, 
        {
            "amount": "1/2 cup", 
            "ingredient": "soy sauce"
        }, 
        {
            "amount": "2 tablespoons", 
            "ingredient": "chopped fresh rosemary"
        }, 
        {
            "amount": "2 tablespoons", 
            "ingredient": "Dijon-style prepared mustard"
        }, 
        {
            "amount": "2 teaspoons", 
            "ingredient": "salt"
        }, 
        {
            "amount": "1 teaspoon", 
            "ingredient": "black pepper"
        }, 
        {
            "amount": "1 (2 pound)", 
            "ingredient": "tri-tip steak"
        }
    ], 
    "prep_steps": [
        "Place onion, garlic, olive oil, vinegar, soy sauce, rosemary, mustard, salt, and pepper into the bowl of a food processor. Process until smooth. Place steak in a large resealable plastic bag. Pour marinade over steaks, seal, and refrigerate for about 3 hours.", 
        "Preheat the grill for high heat.", 
        "Brush grill grate with oil. Discard marinade, and place steak on the prepared grill. Cook for 7 minutes per side, or to desired doneness."
    ], 
    "prep_time": "3 hrs", 
    "recipe_name": "BBQ Steak"
}