{
    "ingredients": [
        {
            "amount": "1/4 cup", 
            "ingredient": "white sugar"
        }, 
        {
            "amount": "1 teaspoon", 
            "ingredient": "ground cinnamon"
        }, 
        {
            "amount": "3/4 cup", 
            "ingredient": "butter"
        }, 
        {
            "amount": "3 cups", 
            "ingredient": "white sugar"
        }, 
        {
            "amount": "3", 
            "ingredient": "eggs"
        }, 
        {
            "amount": "6", 
            "ingredient": "very ripe bananas, mashed"
        }, 
        {
            "amount": "1 (16 ounce) container", 
            "ingredient": "sour cream"
        }, 
        {
            "amount": "2 teaspoons", 
            "ingredient": "vanilla extract"
        }, 
        {
            "amount": "2 teaspoons", 
            "ingredient": "ground cinnamon"
        }, 
        {
            "amount": "1/2 teaspoon", 
            "ingredient": "salt"
        }, 
        {
            "amount": "3 teaspoons", 
            "ingredient": "baking soda"
        }, 
        {
            "amount": "4 1/2 cups", 
            "ingredient": "all-purpose flour"
        }, 
        {
            "amount": "1 cup", 
            "ingredient": "chopped walnuts"
        }
    ], 
    "prep_steps": [
        "Preheat oven to 300 degrees F (150 degrees C). Grease four 7x3 inch loaf pans. In a small bowl, stir together 1/4 cup white sugar and 1 teaspoon cinnamon. Dust pans lightly with cinnamon and sugar mixture.", 
        "In a large bowl, cream butter and 3 cups sugar. Mix in eggs, mashed bananas, sour cream, vanilla and cinnamon. Mix in salt, baking soda and flour. Stir in nuts. Divide into prepared pans.", 
        "Bake for 1 hour, until a toothpick inserted in center comes out clean."
    ], 
    "prep_time": "1\u00bc hrs", 
    "recipe_name": "Banana Sour Cream Bread"
}