{
    "ingredients": [
        {
            "amount": "2 tablespoons", 
            "ingredient": "butter"
        }, 
        {
            "amount": "2 cups", 
            "ingredient": "thinly sliced celery"
        }, 
        {
            "amount": "1 1/2 cups", 
            "ingredient": "sliced green onion"
        }, 
        {
            "amount": "1 1/2 pounds", 
            "ingredient": "vegetarian hot dogs"
        }, 
        {
            "amount": "2", 
            "ingredient": "eggs, beaten"
        }, 
        {
            "amount": "1 1/2 cups", 
            "ingredient": "milk"
        }, 
        {
            "amount": "2 teaspoons", 
            "ingredient": "rubbed sage"
        }, 
        {
            "amount": "1/4 teaspoon", 
            "ingredient": "ground black pepper"
        }, 
        {
            "amount": "2 (8.5 ounce) packages", 
            "ingredient": "dry corn bread mix"
        }, 
        {
            "amount": "2 cups", 
            "ingredient": "shredded Cheddar cheese, divided"
        }
    ], 
    "prep_steps": [
        "Preheat oven to 400 degrees F (200 degrees C). Grease a shallow 3 quart baking dish.", 
        "In a large skillet over medium heat, melt butter, then saute celery for 5 minutes. Stir in green onions, and saute an additional 5 minutes. Place in a large bowl and set aside.", 
        "Cut hot dogs lengthwise into quarters, then cut into thirds. In the same skillet, saute hot dogs for 5 minutes, until lightly browned. Mix hot dogs into celery and onions. Set aside 1 cup of this mixture.", 
        "In a medium bowl, combine eggs, milk, sage, pepper, and corn bread mix. Stir well to combine, then stir into remaining hot dog mixture. Mix in 1 1/2 cups cheese. Spread mixture into prepared baking dish. Top with reserved hot dog mixture and remaining 1/2 cup cheese.", 
        "Bake uncovered in preheated oven for 30 minutes, until golden brown."
    ], 
    "prep_time": "45 mins", 
    "recipe_name": "Corn Dog Casserole"
}