{
    "ingredients": [
        {
            "amount": "3/4 cup", 
            "ingredient": "mayonnaise"
        }, 
        {
            "amount": "1 tablespoon", 
            "ingredient": "red wine vinegar"
        }, 
        {
            "amount": "1 tablespoon", 
            "ingredient": "lemon juice"
        }, 
        {
            "amount": "1 tablespoon", 
            "ingredient": "vegetable oil"
        }, 
        {
            "amount": "1 tablespoon", 
            "ingredient": "water"
        }, 
        {
            "amount": "1 teaspoon", 
            "ingredient": "Worcestershire sauce"
        }, 
        {
            "amount": "1/2 teaspoon", 
            "ingredient": "dried oregano"
        }, 
        {
            "amount": "1 teaspoon", 
            "ingredient": "white sugar"
        }, 
        {
            "amount": "1 clove", 
            "ingredient": "garlic, chopped"
        }
    ], 
    "prep_steps": [
        "In a small bowl, whisk together the mayonnaise, vinegar, lemon juice, oil, water, Worcestershire sauce, oregano, sugar and garlic until evenly combined. Chill before serving."
    ], 
    "prep_time": "5 mins", 
    "recipe_name": "Creamy Italian Dressing II"
}