{
    "ingredients": [
        {
            "amount": "2 cups", 
            "ingredient": "fresh basil leaves"
        }, 
        {
            "amount": "4 cloves", 
            "ingredient": "garlic, minced"
        }, 
        {
            "amount": "1/4 cup", 
            "ingredient": "olive oil"
        }, 
        {
            "amount": "2 ounces", 
            "ingredient": "pine nuts"
        }, 
        {
            "amount": "1/2 cup", 
            "ingredient": "grated Parmesan cheese"
        }, 
        {
            "amount": "1 pint", 
            "ingredient": "light cream"
        }
    ], 
    "prep_steps": [
        "In a food processor, combine basil and garlic. Begin processing, and pour in olive oil in a thin stream. Process for about 40 seconds, or until mixture begins to emulsify. Add pine nuts and Parmesan, then blend for 1 minute.", 
        "Heat cream in a saucepan over low heat until simmering. Pour 1/2 of the hot cream into the processor with basil pesto, and pulse for 20 seconds to incorporate. Pour mixture back into cream, and simmer for 5 minutes, or until thickened."
    ], 
    "prep_time": "25 mins", 
    "recipe_name": "Basil Cream Sauce"
}