{
    "ingredients": [
        {
            "amount": "1 1/2 cups", 
            "ingredient": "graham cracker crumbs"
        }, 
        {
            "amount": "1 cup", 
            "ingredient": "butter"
        }, 
        {
            "amount": "1/2 cup", 
            "ingredient": "white sugar"
        }, 
        {
            "amount": "3 teaspoons", 
            "ingredient": "ground ginger"
        }, 
        {
            "amount": "1 (14 ounce) can", 
            "ingredient": "sweetened condensed milk"
        }, 
        {
            "amount": "2", 
            "ingredient": "bananas, sliced"
        }, 
        {
            "amount": "2 cups", 
            "ingredient": "heavy whipping cream"
        }
    ], 
    "prep_steps": [
        "Mix graham cracker crumbs, sugar, melted butter or margarine, and ginger until well blended . Press mixture into a 9 inch pie plate. Cool in refrigerator.", 
        "In a sauce pan, boil an unopened can of sweetened condensed milk for 3 hours. Monitor the water closely, to make sure there is always water in the pan. Remove can from heat and let cool for 10 to 15 minutes.", 
        "Open can and pour toffee into pie crust. Allow to cool.", 
        "Slice bananas over toffee.", 
        "Whip 2 cups of cream and spoon it on top of bananas. Refrigerate before serving."
    ], 
    "recipe_name": "Banoffee"
}