{
    "ingredients": [
        {
            "amount": "3", 
            "ingredient": "eggs"
        }, 
        {
            "amount": "3/4 cup", 
            "ingredient": "beer"
        }, 
        {
            "amount": "1 1/2 cups", 
            "ingredient": "milk"
        }, 
        {
            "amount": "4 cups", 
            "ingredient": "pastry flour"
        }, 
        {
            "amount": "1 tablespoon", 
            "ingredient": "baking powder"
        }, 
        {
            "amount": "1/2 teaspoon", 
            "ingredient": "baking soda"
        }, 
        {
            "amount": "2 tablespoons", 
            "ingredient": "cornstarch"
        }, 
        {
            "amount": "1/8 teaspoon", 
            "ingredient": "garlic powder"
        }, 
        {
            "amount": "1 1/2 pounds", 
            "ingredient": "cod fillets"
        }, 
        {
            "amount": "2 quarts", 
            "ingredient": "vegetable oil for frying"
        }
    ], 
    "prep_steps": [
        "In a medium bowl, stir together flour, baking powder, baking soda, and cornstarch.", 
        "In a large bowl, beat together eggs and milk. Mix in beer. Stir in flour mixture. Season with salt, black pepper, and garlic powder.", 
        "In an electric deep fryer or a heavy saucepan, heat oil to 375 degrees F (190 degrees C).", 
        "Coat fish in batter, and submerge in hot oil. Fry until golden brown, about 4 to 5 minutes. Serve."
    ], 
    "prep_time": "15 mins", 
    "recipe_name": "Beer Batter for Fish"
}