{
    "ingredients": [
        {
            "amount": "1/2 cup", 
            "ingredient": "butter"
        }, 
        {
            "amount": "1 1/2 cups", 
            "ingredient": "white sugar"
        }, 
        {
            "amount": "4", 
            "ingredient": "eggs"
        }, 
        {
            "amount": "3", 
            "ingredient": "bananas, sliced"
        }, 
        {
            "amount": "1 cup", 
            "ingredient": "sour cream"
        }, 
        {
            "amount": "1 teaspoon", 
            "ingredient": "baking soda"
        }, 
        {
            "amount": "2 cups", 
            "ingredient": "all-purpose flour"
        }
    ], 
    "prep_steps": [
        "Preheat oven to 350 degrees F (175 degrees C). Spray a 10 inch Bundt pan with non-stick cooking spray.", 
        "In a large bowl, cream together the butter and sugar until light and fluffy. Beat in the eggs one at a time. Beat in the sliced bananas, sour cream and baking soda. Beat in the flour. Pour batter into prepared pan.", 
        "Bake in the preheated oven for 60 minutes, or until a toothpick inserted into the center of the cake comes out clean. Let cool in pan for 10 minutes, then turn out onto a wire rack and cool completely."
    ], 
    "prep_time": "1\u00bd hrs", 
    "recipe_name": "Gramma Bertha's Banana Cake"
}