{
    "ingredients": [
        {
            "amount": "1/2 cup", 
            "ingredient": "all-purpose flour"
        }, 
        {
            "amount": "1 teaspoon", 
            "ingredient": "baking powder"
        }, 
        {
            "amount": "1 teaspoon", 
            "ingredient": "salt"
        }, 
        {
            "amount": "12", 
            "ingredient": "eggs"
        }, 
        {
            "amount": "1 (8 ounce) package", 
            "ingredient": "shredded Colby-Monterey Jack cheese"
        }, 
        {
            "amount": "2 cups", 
            "ingredient": "small curd cottage cheese"
        }, 
        {
            "amount": "1 (10 ounce) package", 
            "ingredient": "frozen chopped spinach, thawed and drained"
        }, 
        {
            "amount": "2 (4 ounce) cans", 
            "ingredient": "chopped green chilies"
        }, 
        {
            "amount": "1/2 cup", 
            "ingredient": "melted butter"
        }, 
        {
            "amount": "2 (9 inch)", 
            "ingredient": "unbaked pie crusts"
        }
    ], 
    "prep_steps": [
        "Preheat an oven to 400 degrees F (200 degrees C). Whisk the flour, baking powder, and salt together in a small bowl; set aside.", 
        "Beat the eggs in a mixing bowl until smooth. Whisk in the flour mixture until no lumps remain. Stir in the Colby-Monterey Jack cheese, cottage cheese, spinach, green chiles, and melted butter until evenly blended. Divide the mixture between the pie crusts.", 
        "Bake the quiches in the preheated oven for 15 minutes at 400 degrees F (200 degrees C), then reduce the temperature to 350 degrees F (175 degrees C). Continue baking until the quiches are lightly browned and a knife inserted into the center comes out clean, 35 to 40 minutes."
    ], 
    "prep_time": "1 hr", 
    "recipe_name": "Green Chile Spinach Quiche"
}