{
    "ingredients": [
        {
            "amount": "2 tablespoons", 
            "ingredient": "olive oil"
        }, 
        {
            "amount": "1 cup", 
            "ingredient": "finely chopped baby carrots"
        }, 
        {
            "amount": "1", 
            "ingredient": "onion, finely chopped"
        }, 
        {
            "amount": "2 cloves", 
            "ingredient": "garlic, minced"
        }, 
        {
            "amount": "1 pound", 
            "ingredient": "lean ground beef"
        }, 
        {
            "amount": "1 cup", 
            "ingredient": "whole milk"
        }, 
        {
            "amount": "1 (28 ounce) can", 
            "ingredient": "crushed tomatoes"
        }, 
        {
            "amount": "1 (6 ounce) can", 
            "ingredient": "tomato paste"
        }, 
        {
            "amount": "1/2 teaspoon", 
            "ingredient": "salt"
        }, 
        {
            "amount": "1/2 teaspoon", 
            "ingredient": "ground black pepper"
        }, 
        {
            "amount": "1 teaspoon", 
            "ingredient": "dried basil"
        }, 
        {
            "amount": "1 teaspoon", 
            "ingredient": "dried oregano"
        }, 
        {
            "amount": "1/4 teaspoon", 
            "ingredient": "crushed red pepper flakes"
        }, 
        {
            "amount": "1/2 cup", 
            "ingredient": "whole milk"
        }, 
        {
            "amount": "1/4 cup", 
            "ingredient": "grated Parmesan cheese"
        }
    ], 
    "prep_steps": [
        "Heat the olive oil in a large skillet over medium heat, and cook and stir the carrots, onion, and garlic until tender, about 10 minutes. Place the ground beef into the skillet and cook and stir, breaking up the meat as it cooks, until browned. Drain off excess fat from the skillet, and pour in 1 cup milk. Bring to a simmer, reduce heat to medium-low, and simmer until the milk is absorbed, about 15 minutes.", 
        "Place the beef mixture into a slow cooker, and set the cooker to High. Stir in crushed tomatoes, tomato paste, salt, pepper, basil, oregano, and red pepper flakes, and cook for 2 hours. Mix in 1/2 cup milk and Parmesan cheese, stir well, and cook for 2 more hours."
    ], 
    "prep_time": "5 hrs", 
    "recipe_name": "Slow Cooker Bolognese"
}