{
    "ingredients": [
        {
            "amount": "2 cups", 
            "ingredient": "coconut milk"
        }, 
        {
            "amount": "2 cups", 
            "ingredient": "milk"
        }, 
        {
            "amount": "3 tablespoons", 
            "ingredient": "white sugar"
        }, 
        {
            "amount": "1/2 cup", 
            "ingredient": "Basmati rice"
        }, 
        {
            "amount": "1/4 cup", 
            "ingredient": "raisins"
        }, 
        {
            "amount": "1/2 teaspoon", 
            "ingredient": "ground cardamom"
        }, 
        {
            "amount": "1/2 teaspoon", 
            "ingredient": "rose water"
        }, 
        {
            "amount": "1/4 cup", 
            "ingredient": "sliced almonds, toasted"
        }, 
        {
            "amount": "1/4 cup", 
            "ingredient": "chopped pistachio nuts"
        }
    ], 
    "prep_steps": [
        "Bring the coconut milk, milk and sugar to a boil in a large saucepan. Add basmati rice, and simmer over low heat until the mixture thickens and the rice is tender, about 20 minutes.", 
        "Stir in the raisins, cardamom and rose water, and cook for a few more minutes. Ladle into serving bowls, and garnish with almonds and pistachios."
    ], 
    "prep_time": "35 mins", 
    "recipe_name": "Kheer (Rice Pudding)"
}