{
    "ingredients": [
        {
            "amount": "1 cup", 
            "ingredient": "soy sauce"
        }, 
        {
            "amount": "8 cloves", 
            "ingredient": "garlic, minced"
        }, 
        {
            "amount": "1 tablespoon", 
            "ingredient": "minced fresh ginger root"
        }, 
        {
            "amount": "2 tablespoons", 
            "ingredient": "hot pepper sauce"
        }, 
        {
            "amount": "2 pounds", 
            "ingredient": "skinless chicken thighs"
        }, 
        {
            "amount": "1 tablespoon", 
            "ingredient": "sesame oil"
        }, 
        {
            "amount": "1 tablespoon", 
            "ingredient": "brown sugar"
        }, 
        {
            "amount": "1", 
            "ingredient": "onion, sliced"
        }, 
        {
            "amount": "1/2 cup", 
            "ingredient": "water"
        }, 
        {
            "amount": "4 tablespoons", 
            "ingredient": "crunchy peanut butter"
        }, 
        {
            "amount": "2 tablespoons", 
            "ingredient": "green onions, chopped"
        }
    ], 
    "prep_steps": [
        "In a large bowl, combine the soy sauce, garlic, ginger and hot pepper sauce. Mix well and place chicken in the bowl, turning to coat evenly. Cover and marinate in the refrigerator for at least one hour.", 
        "Heat the sesame oil in a Dutch oven over medium high heat. Add the brown sugar, stirring until dissolved. Add the onion and saute for 5 minutes. Add the chicken parts and saute for 5 minutes, turning to brown evenly. Pour in marinade, add the water and bring to a boil.", 
        "Reduce heat to low and simmer for 15 to 20 minutes. Add the peanut butter, stirring well, and simmer for 10 more minutes. Transfer chicken to a serving platter, pour sauce over, and garnish with the chives."
    ], 
    "prep_time": "50 mins", 
    "recipe_name": "Thai Chicken"
}