{
    "ingredients": [
        {
            "amount": "1", 
            "ingredient": "eggplant, sliced into strips"
        }, 
        {
            "amount": "2", 
            "ingredient": "red bell peppers"
        }, 
        {
            "amount": "2 tablespoons", 
            "ingredient": "olive oil, divided"
        }, 
        {
            "amount": "2", 
            "ingredient": "portobello mushrooms, sliced"
        }, 
        {
            "amount": "3 cloves", 
            "ingredient": "garlic, crushed"
        }, 
        {
            "amount": "4 tablespoons", 
            "ingredient": "mayonnaise"
        }, 
        {
            "amount": "1 (1 pound) loaf", 
            "ingredient": "focaccia bread"
        }
    ], 
    "prep_steps": [
        "Preheat oven to 400 degrees F (200 degrees C).", 
        "Brush eggplant and red bell peppers with 1 tablespoon olive oil; use more if necessary, depending on sizes of vegetables. Place on a baking sheet and roast in preheated oven. Roast eggplant until tender, about 25 minutes; roast peppers until blackened. Remove from oven and set aside to cool.", 
        "Meanwhile, heat 1 tablespoon olive oil and cook and stir mushrooms until tender. Stir crushed garlic into mayonnaise. Slice focaccia in half lengthwise. Spread mayonnaise mixture on one or both halves.", 
        "Peel cooled peppers, core and slice. Arrange eggplant, peppers and mushrooms on focaccia. Wrap sandwich in plastic wrap; place a cutting board on top of it and weight it down with some canned foods. Allow sandwich to sit for 2 hours before slicing and serving."
    ], 
    "prep_time": "3 hr", 
    "recipe_name": "Grilled Mediterranean Vegetable Sandwich"
}