{
    "ingredients": [
        {
            "amount": "1 (16 ounce) package", 
            "ingredient": "whole wheat penne pasta"
        }, 
        {
            "amount": "2 tablespoons", 
            "ingredient": "olive oil"
        }, 
        {
            "amount": "2", 
            "ingredient": "zucchinis, diced"
        }, 
        {
            "amount": "1", 
            "ingredient": "green bell pepper, diced"
        }, 
        {
            "amount": "2", 
            "ingredient": "carrots, diced"
        }, 
        {
            "amount": "1 (8 ounce) package", 
            "ingredient": "mushrooms, sliced"
        }, 
        {
            "amount": "3", 
            "ingredient": "onions, diced"
        }, 
        {
            "amount": "3 cloves", 
            "ingredient": "garlic, minced"
        }, 
        {
            "amount": "1 (14.5 ounce) can", 
            "ingredient": "stewed tomatoes, coarsely chopped"
        }, 
        {
            "amount": "1 cup", 
            "ingredient": "low-sodium chicken broth"
        }, 
        {
            "amount": "2 tablespoons", 
            "ingredient": "chopped fresh parsley"
        }, 
        {
            "amount": "1/2 teaspoon", 
            "ingredient": "dried basil"
        }, 
        {
            "amount": "1/2 teaspoon", 
            "ingredient": "dried oregano"
        }, 
        {
            "amount": "1/2 teaspoon", 
            "ingredient": "red pepper flakes"
        }, 
        {
            "amount": "2 tablespoons", 
            "ingredient": "grated Parmesan cheese"
        }, 
        {
            "amount": "2/3 cup", 
            "ingredient": "shredded smoked Gouda cheese"
        }
    ], 
    "prep_steps": [
        "Fill a large pot with lightly salted water and bring to a rolling boil over high heat. Once the water is boiling, stir in the penne, and return to a boil. Cook the pasta uncovered, stirring occasionally, until the pasta has cooked through, but is still firm to the bite, about 11 minutes. Drain well in a colander set in the sink.", 
        "Heat the olive oil in a skillet over medium heat. Stir in the zucchini, bell pepper, carrots, mushrooms, and onion; cook and stir until the onion has softened and turned translucent, about 5 minutes. Add the garlic and cook for one minute more. Stir in the tomatoes, chicken broth, parsley, basil, oregano, and red pepper flakes. Bring to a boil, then reduce heat to low and simmer until sauce thickens. Stir in the pasta and cook until heated through, about 2 minutes. Top with Parmesan and Gouda cheeses before serving."
    ], 
    "prep_time": "50 mins", 
    "recipe_name": "Pasta Primavera with Smoked Gouda"
}