{
    "ingredients": [
        {
            "amount": "4 large", 
            "ingredient": "unpeeled russet potatoes, cut into 1/4-inch strips"
        }, 
        {
            "amount": "1/4 cup", 
            "ingredient": "olive oil"
        }, 
        {
            "amount": "3 cloves", 
            "ingredient": "garlic, minced"
        }, 
        {
            "amount": "1/2 teaspoon", 
            "ingredient": "ground dried thyme"
        }, 
        {
            "amount": "1/4 teaspoon", 
            "ingredient": "seasoned salt"
        }, 
        {
            "amount": "1/2 cup", 
            "ingredient": "grated Parmesan cheese, divided"
        }, 
        {
            "amount": "1/4 cup", 
            "ingredient": "chopped fresh parsley"
        }, 
        {
            "amount": "1/4 cup", 
            "ingredient": "grated Parmesan cheese"
        }, 
        {
            "amount": "1/4 teaspoon", 
            "ingredient": "seasoned salt"
        }
    ], 
    "prep_steps": [
        "Preheat an oven to 425 degrees F (220 degrees C).", 
        "Place the potatoes in a mixing bowl and drizzle with olive oil. Season with garlic, thyme, and 1/4 teaspoon seasoned salt. Toss until evenly coated. Lift the fries out of the bowl and spread onto a nonstick baking sheet in a single layer. Save the remaining oil in the bowl.", 
        "Bake in the preheated oven 30 minutes, flipping the fries halfway through baking. Return the fries to the bowl with the olive oil, sprinkle with 1/2 cup Parmesan cheese and parsley. Toss to coat, then spread again onto the baking sheet. Return to the oven, and bake until the Parmesan cheese melts, about 10 minutes. Sprinkle the fries with the remaining 1/4 cup Parmesan cheese and 1/4 teaspoon seasoned salt to serve."
    ], 
    "prep_time": "1 hr", 
    "recipe_name": "Oven Baked Garlic and Parmesan Fries"
}