{
    "ingredients": [
        {
            "amount": "1 tablespoon", 
            "ingredient": "Worcestershire sauce"
        }, 
        {
            "amount": "1 tablespoon", 
            "ingredient": "cider vinegar"
        }, 
        {
            "amount": "1 tablespoon", 
            "ingredient": "soy sauce"
        }, 
        {
            "amount": "1 teaspoon", 
            "ingredient": "chili powder"
        }, 
        {
            "amount": "1 clove", 
            "ingredient": "garlic, minced"
        }, 
        {
            "amount": "1 dash", 
            "ingredient": "hot pepper sauce"
        }, 
        {
            "amount": "1 1/2 pounds", 
            "ingredient": "boneless, skinless chicken thighs, cut into strips"
        }, 
        {
            "amount": "1 tablespoon", 
            "ingredient": "vegetable oil"
        }, 
        {
            "amount": "1", 
            "ingredient": "onion, thinly sliced"
        }, 
        {
            "amount": "1", 
            "ingredient": "green bell pepper, sliced"
        }, 
        {
            "amount": "1/2", 
            "ingredient": "lemon, juiced"
        }
    ], 
    "prep_steps": [
        "In a medium bowl, combine Worcestershire sauce, vinegar, soy sauce, chili powder, garlic and hot pepper sauce. Place chicken in sauce, and turn once to coat. Marinate for 30 minutes at room temperature, or cover and refrigerate for several hours.", 
        "Heat oil in a large skillet over high heat. Add chicken strips to the pan, and saute for 5 minutes. Add the onion and green pepper, and saute another 3 minutes. Remove from heat, and sprinkle with lemon juice."
    ], 
    "prep_time": "55 mins", 
    "recipe_name": "Pollo Fajitas"
}