{
    "ingredients": [
        {
            "amount": "1 1/2 cups", 
            "ingredient": "thinly sliced potatoes"
        }, 
        {
            "amount": "1 cup", 
            "ingredient": "thinly sliced beets"
        }, 
        {
            "amount": "4 cups", 
            "ingredient": "vegetable stock or water"
        }, 
        {
            "amount": "2 tablespoons", 
            "ingredient": "butter"
        }, 
        {
            "amount": "1 1/2 cups", 
            "ingredient": "chopped onions"
        }, 
        {
            "amount": "1 teaspoon", 
            "ingredient": "caraway seed"
        }, 
        {
            "amount": "2 teaspoons", 
            "ingredient": "salt"
        }, 
        {
            "amount": "1", 
            "ingredient": "celery stalk, chopped"
        }, 
        {
            "amount": "1 large", 
            "ingredient": "carrot, sliced"
        }, 
        {
            "amount": "3 cups", 
            "ingredient": "coarsely chopped red cabbage"
        }, 
        {
            "amount": "1/4 teaspoon", 
            "ingredient": "fresh dill weed"
        }, 
        {
            "amount": "1 tablespoon", 
            "ingredient": "cider vinegar"
        }, 
        {
            "amount": "1 tablespoon", 
            "ingredient": "honey"
        }, 
        {
            "amount": "1 cup", 
            "ingredient": "tomato puree"
        }
    ], 
    "prep_steps": [
        "Place sliced potatoes and beets in a medium saucepan over high heat; cover with stock, and boil until vegetables are tender. Remove potatoes and beets with a slotted spoon, and reserve stock.", 
        "Melt butter in a large skillet over medium heat. Stir in onions, caraway seeds, and salt; cook until onions become soft and translucent. Then stir in celery, carrots, and cabbage. Mix in reserved stock; cook, covered, until all vegetables are tender, about 10 minutes.", 
        "Add potatoes and beets to the skillet. Season with black pepper and dill weed. Stir in cider vinegar, honey, and tomato puree. Cover, reduce heat to medium low, and simmer at least 30 minutes. Serve topped with sour cream, extra dill weed, and chopped fresh tomatoes."
    ], 
    "prep_time": "1\u00bc hrs", 
    "recipe_name": "Russian Cabbage Borscht"
}