{
    "ingredients": [
        {
            "amount": "3 tablespoons", 
            "ingredient": "butter"
        }, 
        {
            "amount": "1 medium", 
            "ingredient": "onion, chopped"
        }, 
        {
            "amount": "1 pound", 
            "ingredient": "sliced fresh okra"
        }, 
        {
            "amount": "1/2 teaspoon", 
            "ingredient": "ground cumin"
        }, 
        {
            "amount": "1/2 teaspoon", 
            "ingredient": "ground ginger"
        }, 
        {
            "amount": "1/2 teaspoon", 
            "ingredient": "ground coriander"
        }, 
        {
            "amount": "1/4 teaspoon", 
            "ingredient": "ground black pepper"
        }
    ], 
    "prep_steps": [
        "Melt butter in a large skillet over medium heat. Add the onion, and cook until tender. Stir in the okra, and season with cumin, ginger, coriander, pepper and salt. Cook and stir for a few minutes, then reduce the heat to medium-low, and cover the pan. Cook for 20 minutes, stirring occasionally until okra is tender."
    ], 
    "prep_time": "35 mins", 
    "recipe_name": "Easy Indian Style Okra"
}