{
    "ingredients": [
        {
            "amount": "2 pounds", 
            "ingredient": "boneless beef sirloin or beef top round steaks (3/4\" thick)"
        }, 
        {
            "amount": "3 tablespoons", 
            "ingredient": "cornstarch"
        }, 
        {
            "amount": "1 (10.5 ounce) can", 
            "ingredient": "Campbell's\u00ae Condensed Beef Broth"
        }, 
        {
            "amount": "1/2 cup", 
            "ingredient": "soy sauce"
        }, 
        {
            "amount": "2 tablespoons", 
            "ingredient": "sugar"
        }, 
        {
            "amount": "2 tablespoons", 
            "ingredient": "vegetable oil"
        }, 
        {
            "amount": "4 cups", 
            "ingredient": "sliced shiitake mushrooms"
        }, 
        {
            "amount": "1 head", 
            "ingredient": "Chinese cabbage (bok choy), thinly sliced"
        }, 
        {
            "amount": "2 medium", 
            "ingredient": "red peppers, cut into 2\"-long strips"
        }, 
        {
            "amount": "3 stalks", 
            "ingredient": "celery, sliced"
        }, 
        {
            "amount": "2 medium", 
            "ingredient": "green onions, cut into 2\" pieces"
        }
    ], 
    "prep_steps": [
        "Slice beef into very thin strips.", 
        "Mix cornstarch, broth, soy and sugar until smooth. Set aside.", 
        "Heat 1 tablespoon oil in saucepot or wok over high heat. Add beef in 2 batches and stir-fry until browned. Set beef aside.", 
        "Add 1 tablespoon oil. Add the mushrooms, cabbage, peppers, celery and green onions in 2 batches and stir-fry over medium heat until tender-crisp. Set vegetables aside.", 
        "Stir cornstarch mixture and add. Cook until mixture boils and thickens, stirring constantly. Return beef and vegetables to saucepot and heat through. Serve over rice."
    ], 
    "prep_time": "45 mins", 
    "recipe_name": "Japanese Beef Stir-Fry"
}