{
    "ingredients": [
        {
            "amount": "3", 
            "ingredient": "eggs"
        }, 
        {
            "amount": "1 cup", 
            "ingredient": "vegetable oil"
        }, 
        {
            "amount": "2 cups", 
            "ingredient": "white sugar"
        }, 
        {
            "amount": "2 cups", 
            "ingredient": "grated zucchini"
        }, 
        {
            "amount": "2 teaspoons", 
            "ingredient": "vanilla extract"
        }, 
        {
            "amount": "3 cups", 
            "ingredient": "all-purpose flour"
        }, 
        {
            "amount": "3 teaspoons", 
            "ingredient": "ground cinnamon"
        }, 
        {
            "amount": "1 teaspoon", 
            "ingredient": "baking soda"
        }, 
        {
            "amount": "1/4 teaspoon", 
            "ingredient": "baking powder"
        }, 
        {
            "amount": "1 teaspoon", 
            "ingredient": "salt"
        }, 
        {
            "amount": "1/2 cup", 
            "ingredient": "chopped walnuts"
        }
    ], 
    "prep_steps": [
        "Preheat oven to 325 degrees F ( 165 degrees C). Grease and flour two 8x4 inch loaf pans.", 
        "In a large bowl, beat eggs until light and frothy. Mix in oil and sugar. Stir in zucchini and vanilla. Combine flour, cinnamon, soda, baking powder, salt and nuts; stir into the egg mixture. Divide batter into prepared pans.", 
        "Bake for 60 to 70 minutes, or until done."
    ], 
    "prep_time": "1\u00bd hrs", 
    "recipe_name": "Zucchini Bread IV"
}