{
    "ingredients": [
        {
            "amount": "1 (12 ounce) package", 
            "ingredient": "angel hair pasta"
        }, 
        {
            "amount": "1 (10 ounce) can", 
            "ingredient": "diced tomatoes with green chile peppers"
        }, 
        {
            "amount": "1 (10.75 ounce) can", 
            "ingredient": "condensed cream of chicken soup"
        }, 
        {
            "amount": "3/4 (8 ounce) package", 
            "ingredient": "processed cheese, cubed"
        }, 
        {
            "amount": "2 cups", 
            "ingredient": "chopped cooked chicken breast"
        }, 
        {
            "amount": "1/2 (4 ounce) jar", 
            "ingredient": "sliced mushrooms, drained"
        }
    ], 
    "prep_steps": [
        "Bring a large pot of lightly salted water to a boil. Add pasta and cook for 8 to 10 minutes or until al dente; drain and return to pot.", 
        "To the pasta add the diced tomatoes with green chile peppers, cream of chicken soup, processed cheese, chopped chicken, mushrooms, salt and pepper. Cook and stir over low heat until cheese is melted and mixture is heated through."
    ], 
    "prep_time": "25 mins", 
    "recipe_name": "Quick and Easy Chicken Spaghetti"
}