{
    "ingredients": [
        {
            "amount": "8", 
            "ingredient": "skinless, boneless chicken breasts"
        }, 
        {
            "amount": "8 slices", 
            "ingredient": "Swiss cheese"
        }, 
        {
            "amount": "1 (10.75 ounce) can", 
            "ingredient": "condensed cream of chicken soup"
        }, 
        {
            "amount": "1/4 cup", 
            "ingredient": "white wine"
        }, 
        {
            "amount": "1 cup", 
            "ingredient": "herb-seasoned stuffing mix"
        }, 
        {
            "amount": "1/4 cup", 
            "ingredient": "butter"
        }
    ], 
    "prep_steps": [
        "Preheat oven to 350 degrees F (175 degrees C).", 
        "Arrange the chicken in a lightly greased 9x13 inch baking dish. Top with Swiss cheese slices. Combine the soup and wine and stir well. Pour over the chicken. Drizzle butter or margarine over all and top with stuffing mix crumbs. Bake in the preheated oven for 45 to 50 minutes."
    ], 
    "recipe_name": "Cathy's Creamy Chicken Bake"
}