{
    "ingredients": [
        {
            "amount": "2 (4 pound)", 
            "ingredient": "whole chickens, cut up"
        }, 
        {
            "amount": "1 1/2 cups", 
            "ingredient": "ketchup"
        }, 
        {
            "amount": "3/4 cup", 
            "ingredient": "prepared mustard"
        }, 
        {
            "amount": "5 tablespoons", 
            "ingredient": "brown sugar"
        }, 
        {
            "amount": "5 tablespoons", 
            "ingredient": "minced garlic"
        }, 
        {
            "amount": "5 tablespoons", 
            "ingredient": "honey"
        }, 
        {
            "amount": "1/4 cup", 
            "ingredient": "steak sauce"
        }, 
        {
            "amount": "4 tablespoons", 
            "ingredient": "lemon juice"
        }, 
        {
            "amount": "3 tablespoons", 
            "ingredient": "liquid smoke flavoring"
        }, 
        {
            "amount": "12", 
            "ingredient": "hamburger buns"
        }, 
        {
            "amount": "3 cups", 
            "ingredient": "prepared coleslaw"
        }
    ], 
    "prep_steps": [
        "Place chicken in a large pot with enough water to cover. Bring to a boil, and cook until chicken comes off the bone easily, about 3 hours. Make sauce while the chicken cooks.", 
        "In a saucepan over medium heat, mix together the ketchup, mustard, brown sugar, garlic, honey, steak sauce, lemon juice, and liquid smoke. Season with salt and pepper. Bring to a gentle boil, and simmer for about 10 minutes. Set aside to allow flavors to mingle.", 
        "When the chicken is done, remove all meat from the bones, and chop or shred into small pieces. Place in a pan with the sauce, and cook for about 15 minutes to let the flavor of the sauce soak into the chicken. Spoon barbequed chicken onto buns, and top with coleslaw if you like."
    ], 
    "prep_time": "4 hrs", 
    "recipe_name": "BBQ Chicken Sandwiches"
}