{
    "ingredients": [
        {
            "amount": "2 pounds", 
            "ingredient": "veal shanks, cut into short lengths"
        }, 
        {
            "amount": "1/4 cup", 
            "ingredient": "all-purpose flour"
        }, 
        {
            "amount": "1/4 cup", 
            "ingredient": "Butter"
        }, 
        {
            "amount": "2 cloves", 
            "ingredient": "garlic, crushed"
        }, 
        {
            "amount": "1 large", 
            "ingredient": "onion, chopped"
        }, 
        {
            "amount": "1 large", 
            "ingredient": "carrot, chopped"
        }, 
        {
            "amount": "2/3 cup", 
            "ingredient": "dry white wine"
        }, 
        {
            "amount": "2/3 cup", 
            "ingredient": "beef stock"
        }, 
        {
            "amount": "1 (14.5 ounce) can", 
            "ingredient": "diced tomatoes"
        }, 
        {
            "amount": "1/2 cup", 
            "ingredient": "chopped fresh flat leaf parsley"
        }, 
        {
            "amount": "1 clove", 
            "ingredient": "garlic, minced"
        }, 
        {
            "amount": "2 teaspoons", 
            "ingredient": "grated lemon zest"
        }
    ], 
    "prep_steps": [
        "Dust the veal shanks lightly with flour. Melt the butter in a large skillet over medium to medium-high heat. Add the veal, and cook until browned on the outside. Remove to a bowl, and keep warm. Add two cloves of crushed garlic and onion to the skillet; cook and stir until onion is tender. Return the veal to the pan and mix in the carrot and wine. Simmer for 10 minutes.", 
        "Pour in the tomatoes and beef stock, and season with salt and pepper. Cover, and simmer over low heat for 1 1/2 hours, basting the veal every 15 minutes or so. The meat should be tender, but not falling off the bone.", 
        "In a small bowl, mix together the parsley, 1 clove of garlic and lemon zest. Sprinkle the gremolata over the veal just before serving."
    ], 
    "prep_time": "2 hrs", 
    "recipe_name": "Traditional Osso Buco"
}