{
    "ingredients": [
        {
            "amount": "1/2 cup", 
            "ingredient": "mayonnaise"
        }, 
        {
            "amount": "5 ears", 
            "ingredient": "corn, husk and silk removed"
        }, 
        {
            "amount": "1 cup", 
            "ingredient": "shredded Parmesan cheese"
        }, 
        {
            "amount": "1 tablespoon", 
            "ingredient": "chili powder"
        }, 
        {
            "amount": "1 teaspoon", 
            "ingredient": "salt"
        }, 
        {
            "amount": "1 teaspoon", 
            "ingredient": "ground black pepper"
        }
    ], 
    "prep_steps": [
        "Preheat an outdoor grill for medium-high heat and lightly oil grate.", 
        "Brush a thin layer of mayonnaise on each ear of corn. Sprinkle the corn with the Parmesan cheese, chili powder, salt, and pepper. Wrap each ear with aluminum foil and place on the grill.", 
        "Grill, turning occasionally, until the kernels begin to brown, about 10 minutes."
    ], 
    "prep_time": "20 mins", 
    "recipe_name": "Parmesan Roasted Corn on the Cob"
}