{
    "ingredients": [
        {
            "amount": "1 1/2", 
            "ingredient": "lemons, juiced"
        }, 
        {
            "amount": "1 cup", 
            "ingredient": "freshly grated Parmesan cheese"
        }, 
        {
            "amount": "2 teaspoons", 
            "ingredient": "garlic salt"
        }, 
        {
            "amount": "3/4 cup", 
            "ingredient": "mayonnaise"
        }, 
        {
            "amount": "1 cup", 
            "ingredient": "milk"
        }
    ], 
    "prep_steps": [
        "Mix together lemon juice, parmesan cheese, garlic salt, and mayonnaise until smooth. Stir in milk, adjusting the amount or adding a little water, to make the dressing as thin or thick as you like. Cover and refrigerate 8 hours, or overnight."
    ], 
    "prep_time": "8 hrs", 
    "recipe_name": "'Out of Salad Dressing' Salad Dressing"
}