{
    "ingredients": [
        {
            "amount": "2 tablespoons", 
            "ingredient": "butter"
        }, 
        {
            "amount": "2", 
            "ingredient": "onions, chopped"
        }, 
        {
            "amount": "1 stalk", 
            "ingredient": "celery, cut into 1 inch pieces"
        }, 
        {
            "amount": "2", 
            "ingredient": "carrots, peeled and sliced into 1 inch pieces"
        }, 
        {
            "amount": "2", 
            "ingredient": "potatoes, peeled and cubed"
        }, 
        {
            "amount": "3 tablespoons", 
            "ingredient": "all-purpose flour"
        }, 
        {
            "amount": "3 cups", 
            "ingredient": "chicken stock"
        }, 
        {
            "amount": "1/4 teaspoon", 
            "ingredient": "dried marjoram"
        }, 
        {
            "amount": "2", 
            "ingredient": "skinless, boneless turkey breast halves, cubed"
        }, 
        {
            "amount": "1", 
            "ingredient": "green bell pepper, diced"
        }
    ], 
    "prep_steps": [
        "Melt the butter in a pot over medium heat. Place onions in the pot and cook until tender. Stir in celery and carrots, and cook until tender. Stir in the potatoes and flour. Pour in the chicken stock, and season soup with marjoram. Place turkey in the pot, and bring to a boil. Reduce heat to low, cover, and simmer 30 minutes.", 
        "Mix the green bell pepper into the soup, and continue cooking 10 minutes, until pepper is tender."
    ], 
    "prep_time": "1\u00bc hrs", 
    "recipe_name": "Hearty Turkey Stew with Vegetables"
}