{
    "ingredients": [
        {
            "amount": "2 (15 ounce) cans", 
            "ingredient": "sweet potatoes"
        }, 
        {
            "amount": "1/4 cup", 
            "ingredient": "orange juice"
        }, 
        {
            "amount": "3/4 cup", 
            "ingredient": "all-purpose flour"
        }, 
        {
            "amount": "1/2 cup", 
            "ingredient": "white sugar"
        }, 
        {
            "amount": "1 teaspoon", 
            "ingredient": "ground cinnamon"
        }, 
        {
            "amount": "1 pinch", 
            "ingredient": "salt"
        }, 
        {
            "amount": "1/2 cup", 
            "ingredient": "margarine"
        }, 
        {
            "amount": "1 1/2 cups", 
            "ingredient": "miniature marshmallows"
        }
    ], 
    "prep_steps": [
        "Preheat oven to 350 degrees F (175 degrees C).", 
        "Place sweet potatoes in a 10x6 inch shallow baking dish and pour orange juice over.", 
        "In a small bowl, combine flour, sugar, cinnamon and salt; mix together and cut in margarine. Sprinkle over sweet potatoes.", 
        "Bake for 30 minutes. Remove from oven, sprinkle with marshmallows and broil until browned."
    ], 
    "recipe_name": "Thanksgiving Sweet Potatoes"
}