{
    "ingredients": [
        {
            "amount": "1/3 cup", 
            "ingredient": "shortening"
        }, 
        {
            "amount": "1 cup", 
            "ingredient": "white sugar"
        }, 
        {
            "amount": "1", 
            "ingredient": "egg"
        }, 
        {
            "amount": "1 1/2 cups", 
            "ingredient": "all-purpose flour"
        }, 
        {
            "amount": "1 1/2 teaspoons", 
            "ingredient": "baking powder"
        }, 
        {
            "amount": "1/2 teaspoon", 
            "ingredient": "salt"
        }, 
        {
            "amount": "1/4 teaspoon", 
            "ingredient": "ground cinnamon"
        }, 
        {
            "amount": "1/2 cup", 
            "ingredient": "milk"
        }, 
        {
            "amount": "1/2 cup", 
            "ingredient": "white sugar"
        }, 
        {
            "amount": "1 teaspoon", 
            "ingredient": "ground cinnamon"
        }
    ], 
    "prep_steps": [
        "Preheat oven to 375 degrees F (190 degrees C). Grease muffin cups or line with paper muffin liners.", 
        "In a large bowl, cream together shortening and 1 cup sugar; beat in egg. Stir together flour, baking powder, salt and 1/4 teaspoon cinnamon. Stir flour into egg mixture alternately with milk. Spoon batter into prepared muffin cups.", 
        "Bake in preheated oven for 20 minutes, or until a toothpick inserted into center of a muffin comes out clean. While muffins bake, combine 1/2 cup sugar and 1 teaspoon cinnamon. Remove muffins from pan and let cool for 5 minutes. While muffins are still warm, roll tops of muffins in cinnamon sugar mixture."
    ], 
    "prep_time": "30 mins", 
    "recipe_name": "Doughnut Muffins"
}