{
    "ingredients": [
        {
            "amount": "2 medium", 
            "ingredient": "cucumbers - peeled, seeded, and chopped"
        }, 
        {
            "amount": "2 medium", 
            "ingredient": "tomatoes, chopped"
        }, 
        {
            "amount": "1/2 cup", 
            "ingredient": "chopped green bell pepper"
        }, 
        {
            "amount": "1", 
            "ingredient": "jalapeno pepper, seeded and minced"
        }, 
        {
            "amount": "1 small", 
            "ingredient": "onion, chopped"
        }, 
        {
            "amount": "1 clove", 
            "ingredient": "garlic, minced"
        }, 
        {
            "amount": "2 tablespoons", 
            "ingredient": "lime juice"
        }, 
        {
            "amount": "1 teaspoon", 
            "ingredient": "minced fresh parsley"
        }, 
        {
            "amount": "2 teaspoons", 
            "ingredient": "minced fresh cilantro"
        }, 
        {
            "amount": "1/2 teaspoon", 
            "ingredient": "dried dill weed"
        }, 
        {
            "amount": "1/2 teaspoon", 
            "ingredient": "salt"
        }, 
        {
            "amount": "1 (12 ounce) package", 
            "ingredient": "tortilla chips"
        }
    ], 
    "prep_steps": [
        "In a medium bowl, stir together the cucumbers, tomatoes, green pepper, jalapeno pepper, onion, garlic, lime juice, parsley, cilantro, dill, and salt. Cover and refrigerate for 1 hour. Serve with tortilla chips."
    ], 
    "prep_time": "1\u00bc hrs", 
    "recipe_name": "Cool Cucumber Salsa"
}