{
    "ingredients": [
        {
            "amount": "1 cup", 
            "ingredient": "all-purpose flour"
        }, 
        {
            "amount": "1/4 cup", 
            "ingredient": "white sugar"
        }, 
        {
            "amount": "1 tablespoon", 
            "ingredient": "baking powder"
        }, 
        {
            "amount": "1/4 teaspoon", 
            "ingredient": "salt"
        }, 
        {
            "amount": "1 cup", 
            "ingredient": "milk, at room temperature"
        }, 
        {
            "amount": "1", 
            "ingredient": "egg, at room temperature"
        }, 
        {
            "amount": "1 tablespoon", 
            "ingredient": "oil"
        }, 
        {
            "amount": "2 teaspoons", 
            "ingredient": "oil, or as needed"
        }
    ], 
    "prep_steps": [
        "Combine flour, sugar, baking powder, and salt in a bowl; make a 'well' in the center of the flour mixture. Pour milk, eggs, and 1 tablespoon oil into the well. Mix until well moistened.", 
        "Place a griddle over medium-high heat; sprinkle a few drops of water onto the griddle. If the droplets bounce, the griddle is ready; add 2 teaspoons oil.", 
        "Spoon batter onto the griddle; cook until bubbles form and the edges are dry, 3 to 5 minutes. Flip and cook until browned on the other side, 3 to 5 more minutes. Repeat with remaining batter."
    ], 
    "prep_time": "20 mins", 
    "recipe_name": "Grandad's Pancakes"
}