{
    "ingredients": [
        {
            "amount": "3/4 cup", 
            "ingredient": "butter"
        }, 
        {
            "amount": "1/2 cup", 
            "ingredient": "white sugar"
        }, 
        {
            "amount": "1/2 cup", 
            "ingredient": "packed brown sugar"
        }, 
        {
            "amount": "1", 
            "ingredient": "egg"
        }, 
        {
            "amount": "1 teaspoon", 
            "ingredient": "vanilla extract"
        }, 
        {
            "amount": "1 teaspoon", 
            "ingredient": "peppermint extract"
        }, 
        {
            "amount": "1 1/2 cups", 
            "ingredient": "all-purpose flour"
        }, 
        {
            "amount": "1/4 cup", 
            "ingredient": "unsweetened cocoa powder"
        }, 
        {
            "amount": "1 teaspoon", 
            "ingredient": "baking soda"
        }, 
        {
            "amount": "1/4 teaspoon", 
            "ingredient": "salt"
        }, 
        {
            "amount": "1 cup", 
            "ingredient": "semisweet chocolate chips"
        }
    ], 
    "prep_steps": [
        "Preheat oven to 350 degrees F (175 degrees C). Grease cookie sheets.", 
        "In a large bowl, cream together butter, white sugar, and brown sugar until light and fluffy. Beat in egg, then stir in vanilla and peppermint extracts. Combine flour, cocoa powder, baking soda, and salt; gradually stir into the creamed mixture. Mix in the chocolate chips. Drop by rounded spoonfuls onto the prepared cookie sheets.", 
        "Bake for 12 to 15 minutes in the preheated oven. Allow cookies to cool on cookie sheets for 5 minutes before transferring to a wire rack to cool completely."
    ], 
    "prep_time": "50 mins", 
    "recipe_name": "Chocolate Chip Peppermint Cookies"
}