{
    "ingredients": [
        {
            "amount": "1 cup", 
            "ingredient": "packed brown sugar"
        }, 
        {
            "amount": "2 tablespoons", 
            "ingredient": "Worcestershire sauce"
        }, 
        {
            "amount": "2 cups", 
            "ingredient": "ketchup"
        }, 
        {
            "amount": "1 pound", 
            "ingredient": "bacon"
        }, 
        {
            "amount": "2 (8 ounce) cans", 
            "ingredient": "water chestnuts"
        }
    ], 
    "prep_steps": [
        "Preheat oven to 375 degrees F (190 degrees C).", 
        "In a medium-size mixing bowl, combine brown sugar, Worcestershire sauce, and ketchup.", 
        "Cut bacon in half. Wrap one slice of bacon around each chestnut. Secure the bacon with a toothpick. Arrange the water chestnut wraps in a 9x13 inch baking dish.", 
        "Bake the water chestnut wraps for 10 to 15 minutes.", 
        "Remove from water chestnut wraps from the oven and drain some of the grease out of the pan. Pour the sauce over the wraps.", 
        "Bake for 30 to 35 more minutes."
    ], 
    "prep_time": "1\u00bc hrs", 
    "recipe_name": "Bacon Wrapped Water Chestnuts III"
}