{
    "ingredients": [
        {
            "amount": "1 pound", 
            "ingredient": "dry ziti pasta"
        }, 
        {
            "amount": "1 1/2 tablespoons", 
            "ingredient": "olive oil"
        }, 
        {
            "amount": "1", 
            "ingredient": "onion, sliced"
        }, 
        {
            "amount": "1 teaspoon", 
            "ingredient": "minced fresh rosemary"
        }, 
        {
            "amount": "4 cloves", 
            "ingredient": "garlic, chopped"
        }, 
        {
            "amount": "1/2 pound", 
            "ingredient": "ground beef"
        }, 
        {
            "amount": "1/2 pound", 
            "ingredient": "ground pork sausage"
        }, 
        {
            "amount": "1 1/2 (26 ounce) jars", 
            "ingredient": "spaghetti sauce"
        }, 
        {
            "amount": "1 (6 ounce) package", 
            "ingredient": "provolone cheese, sliced"
        }, 
        {
            "amount": "3/4 cup", 
            "ingredient": "sour cream"
        }, 
        {
            "amount": "3/4 cup", 
            "ingredient": "cottage cheese"
        }, 
        {
            "amount": "1 (6 ounce) package", 
            "ingredient": "mozzarella cheese, shredded"
        }, 
        {
            "amount": "2 tablespoons", 
            "ingredient": "freshly grated Parmesan cheese"
        }
    ], 
    "prep_steps": [
        "Bring a large pot of lightly salted water to a boil. Cook pasta in boiling water for 8 to 10 minutes, or until al dente; drain.", 
        "Meanwhile, heat olive oil in large, heavy skillet over medium heat. Cook onion in oil until tender. Stir in rosemary and garlic. Transfer to a small bowl.", 
        "Place ground beef and sausage in the skillet. Cook over medium-high heat until evenly brown. Stir in the onion mixture and the spaghetti sauce. Season with salt. Reduce heat to low, and simmer for 10 minutes.", 
        "Preheat oven to 350 degrees F (175 degrees C). Grease a 9x13 inch baking dish. In the prepared dish, layer 1/2 of the cooked pasta, provolone cheese, sour cream, cottage cheese, and a little less than 1/2 of the meat mixture. Then layer the rest of the pasta, mozzarella cheese, remaining meat mixture, and Parmesan cheese.", 
        "Bake in the preheated oven for 20 to 30 minutes, or until heated through and cheeses are melted."
    ], 
    "prep_time": "1\u00bd hrs", 
    "recipe_name": "Baked Ziti IV"
}