{
    "ingredients": [
        {
            "amount": "2 cups", 
            "ingredient": "water"
        }, 
        {
            "amount": "2 cups", 
            "ingredient": "peeled and cubed red potatoes"
        }, 
        {
            "amount": "3 tablespoons", 
            "ingredient": "melted butter"
        }, 
        {
            "amount": "1 small", 
            "ingredient": "onion, chopped"
        }, 
        {
            "amount": "3 tablespoons", 
            "ingredient": "all-purpose flour"
        }, 
        {
            "amount": "3 cups", 
            "ingredient": "milk"
        }, 
        {
            "amount": "1/2 teaspoon", 
            "ingredient": "white sugar"
        }, 
        {
            "amount": "1 cup", 
            "ingredient": "shredded Cheddar cheese"
        }, 
        {
            "amount": "1 cup", 
            "ingredient": "diced ham"
        }
    ], 
    "prep_steps": [
        "Using a medium sized stock pot bring water to a boil, add potatoes and cook until tender. Drain reserving 1 cup liquid.", 
        "Stir in butter, onion and flour. Season with salt and pepper. Gradually stir in potatoes, reserved liquid, milk, sugar, cheese, and ham. Simmer for 30 minutes, stirring frequently."
    ], 
    "recipe_name": "Potato and Cheddar Soup"
}