{
    "ingredients": [
        {
            "amount": "1/2 cup", 
            "ingredient": "butter"
        }, 
        {
            "amount": "1/4 cup", 
            "ingredient": "olive oil"
        }, 
        {
            "amount": "1 teaspoon", 
            "ingredient": "dried parsley"
        }, 
        {
            "amount": "1 teaspoon", 
            "ingredient": "dried basil"
        }, 
        {
            "amount": "1/4 teaspoon", 
            "ingredient": "dried oregano"
        }, 
        {
            "amount": "3 cloves", 
            "ingredient": "garlic, minced"
        }, 
        {
            "amount": "3/4 teaspoon", 
            "ingredient": "salt"
        }, 
        {
            "amount": "1 tablespoon", 
            "ingredient": "lemon juice"
        }, 
        {
            "amount": "4", 
            "ingredient": "boneless chicken breast halves, sliced lengthwise into thirds"
        }
    ], 
    "prep_steps": [
        "In a skillet heat the butter or margarine and oil over medium high until the butter/margarine melts. Add the parsley, basil, oregano and garlic and salt and mix together in the skillet. Stir in lemon juice.", 
        "Then add the chicken and saute for about 3 minutes or until white. Lower the heat and cook for about 10 to 15 minutes or until chicken is cooked through and the juices run clear. More butter/margarine can be added if needed."
    ], 
    "prep_time": "25 mins", 
    "recipe_name": "Chicken Scampi II"
}