{
    "ingredients": [
        {
            "amount": "1/2 cup", 
            "ingredient": "vegetable oil"
        }, 
        {
            "amount": "1/4 cup", 
            "ingredient": "cider vinegar"
        }, 
        {
            "amount": "1/4 cup", 
            "ingredient": "white sugar"
        }, 
        {
            "amount": "2 teaspoons", 
            "ingredient": "dried parsley"
        }, 
        {
            "amount": "1 teaspoon", 
            "ingredient": "salt"
        }, 
        {
            "amount": "1 pinch", 
            "ingredient": "ground black pepper"
        }, 
        {
            "amount": "1/2 cup", 
            "ingredient": "sliced almonds"
        }, 
        {
            "amount": "1/4 cup", 
            "ingredient": "white sugar"
        }, 
        {
            "amount": "1 head", 
            "ingredient": "red leaf lettuce - rinsed, dried and torn"
        }, 
        {
            "amount": "1", 
            "ingredient": "red onion, chopped"
        }, 
        {
            "amount": "1 cup", 
            "ingredient": "chopped celery"
        }, 
        {
            "amount": "2 (11 ounce) cans", 
            "ingredient": "mandarin orange segments, drained"
        }
    ], 
    "prep_steps": [
        "In a jar with a tight fitting lid, combine the oil, vinegar, sugar, parsley, salt and pepper. Cover and shake well. Refrigerate until use.", 
        "In a medium saucepan over medium low heat, cook and stir the almonds and sugar until the sugar is melted and the almonds are coated. Remove from heat, cool, and break apart. Store at room temperature until ready to serve salad.", 
        "In a large bowl, toss together the lettuce, celery, oranges, almonds and dressing until evenly coated."
    ], 
    "prep_time": "25 mins", 
    "recipe_name": "Betsy's Mandarin Orange Salad"
}