{
    "ingredients": [
        {
            "amount": "3 large", 
            "ingredient": "baking potatoes, peeled and thinly sliced"
        }, 
        {
            "amount": "1 cup", 
            "ingredient": "shredded Cheddar cheese"
        }, 
        {
            "amount": "1 pound", 
            "ingredient": "Polish kielbasa"
        }, 
        {
            "amount": "1/2 teaspoon", 
            "ingredient": "dried dill weed"
        }, 
        {
            "amount": "1/4 teaspoon", 
            "ingredient": "caraway seed"
        }, 
        {
            "amount": "2/3 cup", 
            "ingredient": "milk"
        }
    ], 
    "prep_steps": [
        "Preheat oven to 375 degrees F (190 degrees C). Using two long sheets of aluminum foil on top of each other, fold one long edge together and open out to make a large sheet of foil. Line a 13x9 pan with the foil, allowing edges to hang outside pan", 
        "Arrange the sliced potatoes, overlapping slightly, in bottom of pan. Pepper to taste. Top with half of the cheese. Cut sausage in half crosswise and lengthwise and place, cut side down on top. Top with remaining cheese, the dill weed, caraway seed and milk. Seal edges of foil tightly.", 
        "Bake at 375 degrees F (190 degrees) for 1 hour."
    ], 
    "recipe_name": "Sausage-Potato Casserole"
}