{
    "ingredients": [
        {
            "amount": "2 cups", 
            "ingredient": "all-purpose flour"
        }, 
        {
            "amount": "2 teaspoons", 
            "ingredient": "baking powder"
        }, 
        {
            "amount": "1 cup", 
            "ingredient": "white sugar"
        }, 
        {
            "amount": "1 teaspoon", 
            "ingredient": "salt"
        }, 
        {
            "amount": "1/2 cup", 
            "ingredient": "butter"
        }, 
        {
            "amount": "1", 
            "ingredient": "egg"
        }, 
        {
            "amount": "1 cup", 
            "ingredient": "milk"
        }, 
        {
            "amount": "1 teaspoon", 
            "ingredient": "vanilla extract"
        }, 
        {
            "amount": "1 teaspoon", 
            "ingredient": "lemon extract"
        }
    ], 
    "prep_steps": [
        "Preheat oven to 350 degrees F (175 degrees C) grease and flour an 8x4 inch loaf pan.", 
        "In a large bowl, mix flour, baking powder, sugar and salt. Cut in butter. Break 1 egg into a measuring cup and then fill to the 1 cup line with milk. Add to dry ingredients and beat well. Add vanilla and lemon flavoring.", 
        "Pour batter into an 8x4 inch loaf pan. Bake at 350 degrees F (175 degrees C) for 30 minutes or until a toothpick inserted into the center of cake comes out clean."
    ], 
    "recipe_name": "One Egg Lemon Pound Cake"
}