{
    "ingredients": [
        {
            "amount": "4 large", 
            "ingredient": "tomatoes, chopped"
        }, 
        {
            "amount": "1", 
            "ingredient": "onion, chopped"
        }, 
        {
            "amount": "1/2 cup", 
            "ingredient": "chopped fresh cilantro"
        }, 
        {
            "amount": "3 cloves", 
            "ingredient": "garlic, minced"
        }, 
        {
            "amount": "1 tablespoon", 
            "ingredient": "lime juice"
        }, 
        {
            "amount": "1", 
            "ingredient": "tomatillo, diced"
        }, 
        {
            "amount": "1", 
            "ingredient": "jalapeno pepper, minced"
        }
    ], 
    "prep_steps": [
        "In a medium-size mixing bowl, combine tomatoes, onion, cilantro, garlic, lime juice, tomatillo, and salt to taste. Mix well. Add 1/2 of the jalapeno pepper, and taste. If you desire your salsa with more of a kick, add the remaining 1/2 jalapeno. If you are satisfied with the salsa's heat, do not add the remaining jalapeno pepper. Cover the salsa, and chill until ready to serve."
    ], 
    "prep_time": "10 mins", 
    "recipe_name": "Salsa"
}