{
    "ingredients": [
        {
            "amount": "1/2 cup", 
            "ingredient": "coconut milk"
        }, 
        {
            "amount": "6", 
            "ingredient": "whole almonds"
        }, 
        {
            "amount": "2 tablespoons", 
            "ingredient": "chopped white onion"
        }, 
        {
            "amount": "1 teaspoon", 
            "ingredient": "ground ginger"
        }, 
        {
            "amount": "1/2 teaspoon", 
            "ingredient": "ground turmeric"
        }, 
        {
            "amount": "1 teaspoon", 
            "ingredient": "chopped fresh lemon grass"
        }, 
        {
            "amount": "1/4 teaspoon", 
            "ingredient": "salt"
        }, 
        {
            "amount": "4 (4 ounce) fillets", 
            "ingredient": "tilapia"
        }, 
        {
            "amount": "1/2 teaspoon", 
            "ingredient": "red pepper flakes, or to taste"
        }
    ], 
    "prep_steps": [
        "In a food processor or blender, combine the coconut milk, almonds, onion, ginger, turmeric, lemon grass, and 1/4 teaspoon of salt. Process until smooth.", 
        "Heat a large non-stick skillet over medium-high heat. Season the fish fillets with salt and pepper on both sides, then place them skin-side up in the skillet. Pour the pureed sauce over the fish. Use a spatula to coat the fish evenly with the sauce. Sprinkle with red pepper flakes.", 
        "Reduce heat to medium, cover, and simmer for about 15 minutes, until the puree is thickened and fish flakes easily with a fork."
    ], 
    "prep_time": "35 mins", 
    "recipe_name": "Thai-Style Tilapia"
}