{
    "ingredients": [
        {
            "amount": "1 tablespoon", 
            "ingredient": "vegetable oil"
        }, 
        {
            "amount": "1 cup", 
            "ingredient": "chopped onion"
        }, 
        {
            "amount": "2 cloves", 
            "ingredient": "garlic, minced"
        }, 
        {
            "amount": "1/2 cup", 
            "ingredient": "chopped carrot"
        }, 
        {
            "amount": "1/4 cup", 
            "ingredient": "chopped celery"
        }, 
        {
            "amount": "2 (28 ounce) cans", 
            "ingredient": "crushed tomatoes"
        }, 
        {
            "amount": "3 1/2 cups", 
            "ingredient": "vegetable broth"
        }, 
        {
            "amount": "1 tablespoon", 
            "ingredient": "vegetarian Worcestershire sauce"
        }, 
        {
            "amount": "1 teaspoon", 
            "ingredient": "salt"
        }, 
        {
            "amount": "1/2 teaspoon", 
            "ingredient": "dried thyme"
        }, 
        {
            "amount": "1/2 teaspoon", 
            "ingredient": "ground black pepper"
        }, 
        {
            "amount": "4 drops", 
            "ingredient": "hot pepper sauce"
        }
    ], 
    "prep_steps": [
        "Heat oil in a large Dutch oven over medium-high heat. Saute onion and garlic until onion is tender.", 
        "Add carrot and celery; cook 7 to 9 minutes until tender, stirring frequently. Stir in tomatoes, broth, Worcestershire sauce, salt, thyme, pepper and hot pepper sauce. Reduce heat to low. Cover and simmer 20 minutes, stirring frequently."
    ], 
    "prep_time": "1 hr", 
    "recipe_name": "Tomato Soup"
}