{
    "ingredients": [
        {
            "amount": "1/3 cup", 
            "ingredient": "vegetable oil"
        }, 
        {
            "amount": "1 1/2 cups", 
            "ingredient": "mashed bananas"
        }, 
        {
            "amount": "1/2 teaspoon", 
            "ingredient": "vanilla extract"
        }, 
        {
            "amount": "3", 
            "ingredient": "eggs"
        }, 
        {
            "amount": "2 1/3 cups", 
            "ingredient": "baking mix"
        }, 
        {
            "amount": "1 cup", 
            "ingredient": "white sugar"
        }, 
        {
            "amount": "1/2 cup", 
            "ingredient": "chopped walnuts"
        }
    ], 
    "prep_steps": [
        "Preheat oven to 350 degrees F (175 degrees C). Generously grease the bottom of a 9 x 5 inch loaf pan.", 
        "Measure oil, bananas, vanilla, eggs, baking mix, sugar, and nuts into a large bowl. Beat vigorously with a spoon for about 30 seconds. Pour the batter into the prepared pan.", 
        "Bake until a wooden pick inserted in center comes out clean, about 55 to 65 minutes. Cool for 5 minutes in the pan. Loosen sides of loaf from the pan. Remove to a wire rack to cool completely."
    ], 
    "prep_time": "1\u00bd hrs", 
    "recipe_name": "Quick Banana Bread"
}