{
    "ingredients": [
        {
            "amount": "1 3/8 cups", 
            "ingredient": "water"
        }, 
        {
            "amount": "3 tablespoons", 
            "ingredient": "olive oil"
        }, 
        {
            "amount": "1 teaspoon", 
            "ingredient": "minced garlic"
        }, 
        {
            "amount": "4 cups", 
            "ingredient": "bread flour"
        }, 
        {
            "amount": "3 tablespoons", 
            "ingredient": "white sugar"
        }, 
        {
            "amount": "2 teaspoons", 
            "ingredient": "salt"
        }, 
        {
            "amount": "1/4 cup", 
            "ingredient": "grated Parmesan cheese"
        }, 
        {
            "amount": "1 teaspoon", 
            "ingredient": "dried basil"
        }, 
        {
            "amount": "1 teaspoon", 
            "ingredient": "garlic powder"
        }, 
        {
            "amount": "3 tablespoons", 
            "ingredient": "chopped fresh chives"
        }, 
        {
            "amount": "1 teaspoon", 
            "ingredient": "coarsely ground black pepper"
        }, 
        {
            "amount": "2 1/2 teaspoons", 
            "ingredient": "bread machine yeast"
        }
    ], 
    "prep_steps": [
        "Place ingredients in the bread machine pan in the order suggested by the manufacturer.", 
        "Select Basic or White Bread cycle, and press Start."
    ], 
    "prep_time": "3 hrs", 
    "recipe_name": "Garlic Bread"
}