{
    "ingredients": [
        {
            "amount": "3 cups", 
            "ingredient": "all-purpose flour"
        }, 
        {
            "amount": "1 1/2 teaspoons", 
            "ingredient": "baking soda"
        }, 
        {
            "amount": "3/4 teaspoon", 
            "ingredient": "salt"
        }, 
        {
            "amount": "3/4 cup", 
            "ingredient": "butter, softened"
        }, 
        {
            "amount": "2 cups", 
            "ingredient": "white sugar"
        }, 
        {
            "amount": "3", 
            "ingredient": "eggs"
        }, 
        {
            "amount": "1/2 cup", 
            "ingredient": "lemon juice"
        }, 
        {
            "amount": "3/4 cup", 
            "ingredient": "plain yogurt"
        }, 
        {
            "amount": "3 tablespoons", 
            "ingredient": "lemon zest"
        }, 
        {
            "amount": "1/2 cup", 
            "ingredient": "poppy seeds"
        }
    ], 
    "prep_steps": [
        "Preheat oven to 350 degrees F (175 degrees C). Heavily grease and flour two 9x5 inch loaf pans.", 
        "Sift together flour, baking soda, and salt. Set aside.", 
        "In a large bowl, cream butter or margarine, and sugar until light and fluffy. Beat in eggs, one at a time.", 
        "Mix lemon juice and yogurt together and add alternately with the sifted flour mixture to the butter mixture. Mix until just blended. Stir in lemon rind and poppy seeds. Pour mixture into prepared pans and smooth tops.", 
        "Bake at 350 degrees F (175 degrees C) for 50 minutes or until browned and a knife inserted in the center comes out clean. Cool on rack for 15 minutes before turning out of pans."
    ], 
    "recipe_name": "Lemon Poppy Seed Loaf"
}