{
    "ingredients": [
        {
            "amount": "2 quarts", 
            "ingredient": "water"
        }, 
        {
            "amount": "20", 
            "ingredient": "small meatballs"
        }, 
        {
            "amount": "2 (8 ounce) cans", 
            "ingredient": "tomato sauce"
        }, 
        {
            "amount": "2 cubes", 
            "ingredient": "beef bouillon cube"
        }, 
        {
            "amount": "1/2 teaspoon", 
            "ingredient": "dried oregano"
        }, 
        {
            "amount": "1/2 teaspoon", 
            "ingredient": "dried basil"
        }, 
        {
            "amount": "1/4 teaspoon", 
            "ingredient": "dried thyme"
        }, 
        {
            "amount": "2 stalks", 
            "ingredient": "celery, sliced"
        }, 
        {
            "amount": "2", 
            "ingredient": "carrots, sliced"
        }, 
        {
            "amount": "1 clove", 
            "ingredient": "garlic, minced"
        }, 
        {
            "amount": "1 cup", 
            "ingredient": "elbow macaroni"
        }
    ], 
    "prep_steps": [
        "Bring water to a boil in a large saucepan. Add meatballs, tomato sauce, bouillon, oregano, basil, thyme, salt and pepper to taste, celery, carrots, and garlic, and simmer for 30 minutes.", 
        "Add macaroni and cook until pasta is done. Top with parmesan cheese to serve."
    ], 
    "prep_time": "1 hr", 
    "recipe_name": "Meatball Soup"
}