{
    "ingredients": [
        {
            "amount": "10", 
            "ingredient": "chicken breast tenderloins or strips"
        }, 
        {
            "amount": "1/4 cup", 
            "ingredient": "margarine, melted"
        }, 
        {
            "amount": "1 (1 ounce) envelope", 
            "ingredient": "dry onion soup mix"
        }
    ], 
    "prep_steps": [
        "Preheat oven to 350 degrees F (175 degrees C).", 
        "Place chicken in a 9x13 inch baking dish. Pour melted margarine over the chicken strips. Season with salt and pepper, and sprinkle with dry onion soup mix.", 
        "Bake 40 minutes in the preheated oven, or until chicken is no longer pink and juices run clear."
    ], 
    "prep_time": "45 mins", 
    "recipe_name": "Tender Onion Baked Chicken"
}