{
    "ingredients": [
        {
            "amount": "3 1/2 cups", 
            "ingredient": "wine"
        }, 
        {
            "amount": "1/2 cup", 
            "ingredient": "fresh lemon juice"
        }, 
        {
            "amount": "1 (2 ounce) package", 
            "ingredient": "dry pectin"
        }, 
        {
            "amount": "4 1/2 cups", 
            "ingredient": "white sugar"
        }
    ], 
    "prep_steps": [
        "Combine wine, lemon juice, and pectin in a large saucepot. Bring to a boil, stirring frequently. Add sugar, stirring until dissolved. Return to a rolling boil. Boil hard 1 minute, stirring constantly. Remove from heat. Skim foam off top, if necessary.", 
        "Ladle hot jelly into hot, sterilized jars, leaving 1/2 inch headspace. Tighten 2 piece lids. Process for 5 minutes in boiling water bath."
    ], 
    "recipe_name": "Wine Jelly"
}