{
    "ingredients": [
        {
            "amount": "2", 
            "ingredient": "eggs"
        }, 
        {
            "amount": "2 tablespoons", 
            "ingredient": "white sugar"
        }, 
        {
            "amount": "3 tablespoons", 
            "ingredient": "melted shortening"
        }, 
        {
            "amount": "1 3/4 cups", 
            "ingredient": "milk"
        }, 
        {
            "amount": "1 teaspoon", 
            "ingredient": "salt"
        }, 
        {
            "amount": "1 teaspoon", 
            "ingredient": "vanilla extract"
        }, 
        {
            "amount": "1 1/2 cups", 
            "ingredient": "all-purpose flour"
        }, 
        {
            "amount": "3 1/2 teaspoons", 
            "ingredient": "baking powder"
        }
    ], 
    "prep_steps": [
        "Preheat a waffle iron.", 
        "Beat together eggs and sugar with an electric mixer until fluffy. Pour in shortening, milk, salt, and vanilla; mix until well blended. Sift together the flour and baking powder. Mix the flour into the liquid.", 
        "Spoon 2/3 cup of batter onto the preheated waffle iron at a time. Close the iron and cook until steam no is no longer coming out and waffle is browned."
    ], 
    "prep_time": "30 mins", 
    "recipe_name": "Norwegian Waffles"
}