{
    "ingredients": [
        {
            "amount": "1/2 pound", 
            "ingredient": "bacon, cut into small pieces"
        }, 
        {
            "amount": "4", 
            "ingredient": "eggs, room temperature"
        }, 
        {
            "amount": "1/4 cup", 
            "ingredient": "heavy cream at room temperature"
        }, 
        {
            "amount": "1 cup", 
            "ingredient": "grated Parmesan cheese"
        }, 
        {
            "amount": "16 ounces", 
            "ingredient": "dry fettuccine pasta"
        }, 
        {
            "amount": "1/4 cup", 
            "ingredient": "butter, softened"
        }, 
        {
            "amount": "1/4 cup", 
            "ingredient": "chopped parsley"
        }
    ], 
    "prep_steps": [
        "Cook bacon until crisp. Drain on paper towels.", 
        "In medium bowl beat together eggs and cream just until blended. Stir in cheese and set aside.", 
        "Cook pasta according to package directions. Drain and return to pan. Toss with butter until it is melted. Add bacon and cheese mixture and toss gently until mixed."
    ], 
    "prep_time": "30 mins", 
    "recipe_name": "Pasta Carbonara I"
}