{
    "ingredients": [
        {
            "amount": "3 ears", 
            "ingredient": "fresh corn in husks"
        }, 
        {
            "amount": "1/4 cup", 
            "ingredient": "butter, melted"
        }, 
        {
            "amount": "2", 
            "ingredient": "roma (plum) tomatoes, chopped"
        }, 
        {
            "amount": "1", 
            "ingredient": "jalapeno pepper, seeded and finely chopped"
        }, 
        {
            "amount": "1/2 small", 
            "ingredient": "red onion, finely chopped"
        }, 
        {
            "amount": "2 cloves", 
            "ingredient": "garlic, minced"
        }, 
        {
            "amount": "1/2 bunch", 
            "ingredient": "fresh cilantro, chopped"
        }, 
        {
            "amount": "1 pinch", 
            "ingredient": "salt-free lemon-herb seasoning (such as Mrs. Dash)"
        }
    ], 
    "prep_steps": [
        "Peel back corn husks, but leave them attached at the bottom. Remove the silks, and fold husks back up over the corn. Place on a dinner plate, and cook in the microwave for 5 minutes on High power, turning corn once half way through. Cool until cool enough to touch, then slice corn kernels from the cob and place them in a serving bowl.", 
        "Stir butter into the corn along with the tomatoes, jalapeno, red onion, garlic and cilantro. Season with salt, pepper, and seasoning blend. Mix well, taste, and adjust seasoning if necessary. Some people like the salad warm, but I prefer to chill it a little before serving."
    ], 
    "prep_time": "20 mins", 
    "recipe_name": "Cilantro Tomato Corn Salad"
}