{
    "ingredients": [
        {
            "amount": "2 cups", 
            "ingredient": "all-purpose flour"
        }, 
        {
            "amount": "1 tablespoon", 
            "ingredient": "baking powder"
        }, 
        {
            "amount": "1/2 teaspoon", 
            "ingredient": "cumin"
        }, 
        {
            "amount": "1/2 cup", 
            "ingredient": "sugar"
        }, 
        {
            "amount": "1/2 teaspoon", 
            "ingredient": "salt"
        }, 
        {
            "amount": "2", 
            "ingredient": "eggs, beaten"
        }, 
        {
            "amount": "1 cup", 
            "ingredient": "milk"
        }, 
        {
            "amount": "1/4 cup", 
            "ingredient": "butter, melted"
        }, 
        {
            "amount": "2 cups", 
            "ingredient": "grated zucchini"
        }, 
        {
            "amount": "1 1/2 cups", 
            "ingredient": "fresh corn, kernels cut from cob"
        }, 
        {
            "amount": "1 cup", 
            "ingredient": "finely shredded Cheddar cheese"
        }
    ], 
    "prep_steps": [
        "In a large bowl, stir together flour, baking powder, cumin, sugar, salt, and pepper.", 
        "In a small bowl, whisk together eggs, milk, and butter. Whisk wet ingredients into dry ingredients. Stir in zucchini, corn, and cheese; mix well.", 
        "Warm oil in a cast iron skillet over medium-high heat. Drop batter by the tablespoonful into hot oil. Fry until crisp and brown, turning once with tongs. Remove to paper towels."
    ], 
    "prep_time": "19 mins", 
    "recipe_name": "Zucchini Corn Fritters"
}