{
    "ingredients": [
        {
            "amount": "4", 
            "ingredient": "eggs"
        }, 
        {
            "amount": "3 tablespoons", 
            "ingredient": "sour cream"
        }, 
        {
            "amount": "1/2 cup", 
            "ingredient": "shredded mozzarella cheese"
        }, 
        {
            "amount": "2 teaspoons", 
            "ingredient": "butter"
        }, 
        {
            "amount": "1 tablespoon", 
            "ingredient": "minced fresh basil"
        }
    ], 
    "prep_steps": [
        "Whisk eggs and sour cream in a bowl until creamy and smooth. Mix in cheese. Season with salt and pepper.", 
        "Melt butter in a skillet over medium heat. Pour in egg mixture; cook, stirring constantly, until eggs reach the desired consistency. Mix in basil during final minutes of cooking."
    ], 
    "prep_time": "15 mins", 
    "recipe_name": "Creamy Cheesy Scrambled Eggs with Basil"
}