{
    "ingredients": [
        {
            "amount": "1/3 cup", 
            "ingredient": "ground Italian sausage"
        }, 
        {
            "amount": "1 (8 ounce) package", 
            "ingredient": "cream cheese, softened"
        }, 
        {
            "amount": "3/4 tablespoon", 
            "ingredient": "garlic salt"
        }, 
        {
            "amount": "3 tablespoons", 
            "ingredient": "grated Romano cheese"
        }, 
        {
            "amount": "1 teaspoon", 
            "ingredient": "dried oregano"
        }, 
        {
            "amount": "1 teaspoon", 
            "ingredient": "dried basil"
        }, 
        {
            "amount": "1/3 cup", 
            "ingredient": "Italian-style dry bread crumbs"
        }, 
        {
            "amount": "1 tablespoon", 
            "ingredient": "olive oil"
        }, 
        {
            "amount": "6", 
            "ingredient": "Hungarian hot peppers, cored and seeded"
        }
    ], 
    "prep_steps": [
        "Place sausage in a large, deep skillet. Cook over medium high heat until evenly brown. Drain, crumble and set aside.", 
        "Preheat oven to 350 degrees F (175 degrees C).", 
        "In a medium bowl, mix together the sausage, cream cheese, garlic salt, Romano cheese, oregano, basil, bread crumbs and olive oil.", 
        "Stuff the peppers with the sausage mixture. Place on a baking sheet, and bake in the preheated oven 20 to 25 minutes, until the stuffing is lightly brown and bubbly."
    ], 
    "prep_time": "35 mins", 
    "recipe_name": "Stuffed Hot Peppers"
}