{
    "ingredients": [
        {
            "amount": "2 tablespoons", 
            "ingredient": "vegetable oil"
        }, 
        {
            "amount": "1", 
            "ingredient": "onion, chopped"
        }, 
        {
            "amount": "1 teaspoon", 
            "ingredient": "minced garlic"
        }, 
        {
            "amount": "1 teaspoon", 
            "ingredient": "chili powder"
        }, 
        {
            "amount": "1 tablespoon", 
            "ingredient": "ground cumin"
        }, 
        {
            "amount": "1 cup", 
            "ingredient": "uncooked short-grain white rice"
        }, 
        {
            "amount": "1 3/4 cups", 
            "ingredient": "chicken broth"
        }, 
        {
            "amount": "1/4 cup", 
            "ingredient": "tomato paste"
        }
    ], 
    "prep_steps": [
        "Preheat the oven to 350 degrees F (175 degrees C).", 
        "Heat the oil in a large skillet over medium heat. Add the onion and garlic; cook and stir until onion is translucent. Stir in the chili powder and cumin, and cook for about 30 seconds. Add the rice, chicken broth and tomato paste, and bring to a boil. Transfer to a 1 quart casserole dish, and cover with aluminum foil or a lid.", 
        "Bake for 35 to 40 minutes, or until liquid has been absorbed and rice is tender. Let rest for 3 to 5 minutes before serving."
    ], 
    "prep_time": "50 mins", 
    "recipe_name": "Simple Mexican Rice"
}