{
    "ingredients": [
        {
            "amount": "2 cups", 
            "ingredient": "all-purpose flour"
        }, 
        {
            "amount": "1/2 cup", 
            "ingredient": "white sugar"
        }, 
        {
            "amount": "3 teaspoons", 
            "ingredient": "baking powder"
        }, 
        {
            "amount": "1 tablespoon", 
            "ingredient": "grated lemon zest"
        }, 
        {
            "amount": "1/2 teaspoon", 
            "ingredient": "salt"
        }, 
        {
            "amount": "3/4 cup", 
            "ingredient": "milk"
        }, 
        {
            "amount": "1/3 cup", 
            "ingredient": "vegetable oil"
        }, 
        {
            "amount": "1", 
            "ingredient": "egg"
        }
    ], 
    "prep_steps": [
        "Heat oven to 400 degrees F (205 degrees C). Grease bottoms only of 12 muffin cups or line with baking cups.", 
        "In a medium bowl, combine flour, sugar, baking powder, lemon zest and salt; mix well. In a small bowl, combine milk, oil and egg; blend well. Add dry ingredients all at once; stir just until dry ingredients are moistened (batter will be lumpy.)", 
        "Fill cups 2/3 full. Bake for 20 to 25 minutes or until toothpick inserted in center comes out clean. Cool 1 minute before removing from pan. Serve warm."
    ], 
    "recipe_name": "Lemon Muffins"
}