{
    "ingredients": [
        {
            "amount": "1 (8 ounce) can", 
            "ingredient": "Pillsbury\u00ae refrigerated crescent dinner rolls"
        }, 
        {
            "amount": "1/2 cup", 
            "ingredient": "mini chocolate chips"
        }
    ], 
    "prep_steps": [
        "Heat oven to 350 degrees F. Separate dough into 8 triangles.", 
        "Place tablespoon of chocolate chips on wide end of each triangle. Roll up, starting at shortest side of triangle, rolling to opposite point. Place on ungreased cookie sheet.", 
        "Bake at 350 degrees F. for 15 to 20 minutes or until golden brown. Sprinkle with powdered sugar."
    ], 
    "prep_time": "25 mins", 
    "recipe_name": "Chocolate-Filled Crescents"
}