{
    "ingredients": [
        {
            "amount": "8", 
            "ingredient": "eggs"
        }, 
        {
            "amount": "8 ounces", 
            "ingredient": "cooked ham, crumbled"
        }, 
        {
            "amount": "1 cup", 
            "ingredient": "diced red bell pepper"
        }, 
        {
            "amount": "1 cup", 
            "ingredient": "diced onion"
        }, 
        {
            "amount": "1/4 teaspoon", 
            "ingredient": "salt"
        }, 
        {
            "amount": "1/8 teaspoon", 
            "ingredient": "ground black pepper"
        }, 
        {
            "amount": "2 tablespoons", 
            "ingredient": "water"
        }
    ], 
    "prep_steps": [
        "Preheat oven to 350 degrees F (175 degrees C). Grease 8 muffin cups or line with paper liners.", 
        "Beat eggs together in a large bowl. Mix ham, bell pepper, onion, salt, black pepper, and water into the beaten eggs. Pour egg mixture evenly into prepared muffin cups.", 
        "Bake in the preheated oven until muffins are set in the middle, 18 to 20 minutes."
    ], 
    "prep_time": "35 mins", 
    "recipe_name": "Paleo Omelet Muffins"
}