{
    "ingredients": [
        {
            "amount": "1 cup", 
            "ingredient": "mashed bananas"
        }, 
        {
            "amount": "1 cup", 
            "ingredient": "sour cream"
        }, 
        {
            "amount": "1/4 cup", 
            "ingredient": "margarine"
        }, 
        {
            "amount": "1 1/3 cups", 
            "ingredient": "white sugar"
        }, 
        {
            "amount": "2", 
            "ingredient": "eggs"
        }, 
        {
            "amount": "1 teaspoon", 
            "ingredient": "vanilla extract"
        }, 
        {
            "amount": "2 cups", 
            "ingredient": "all-purpose flour"
        }, 
        {
            "amount": "1 teaspoon", 
            "ingredient": "baking soda"
        }, 
        {
            "amount": "1 teaspoon", 
            "ingredient": "baking powder"
        }, 
        {
            "amount": "1/4 teaspoon", 
            "ingredient": "salt"
        }
    ], 
    "prep_steps": [
        "Preheat oven to 350 degrees F (175 degrees C). Grease and flour one 9x13 inch pan, or two 7x3 inch loaf pans.", 
        "Combine banana and sour cream. Set aside. In a large bowl, cream together the margarine and sugar until smooth. Beat in the eggs one at a time, then stir in the vanilla and banana mixture. Combine the flour, baking soda, baking powder and salt; stir into the banana mixture. Spread the batter evenly into the prepared pan or pans.", 
        "Bake for 50 minutes in the preheated oven, or until a toothpick inserted into the center of the bread comes out clean."
    ], 
    "prep_time": "1 hr", 
    "recipe_name": "Cathy's Banana Bread"
}