{
    "ingredients": [
        {
            "amount": "1", 
            "ingredient": "picked over turkey carcass"
        }, 
        {
            "amount": "1 1/2 cups", 
            "ingredient": "leftover stuffing"
        }, 
        {
            "amount": "2", 
            "ingredient": "celery stalks, chopped"
        }, 
        {
            "amount": "2", 
            "ingredient": "carrots, peeled and sliced"
        }, 
        {
            "amount": "1", 
            "ingredient": "onion, peeled and diced"
        }, 
        {
            "amount": "2", 
            "ingredient": "bay leaves"
        }, 
        {
            "amount": "1 tablespoon", 
            "ingredient": "poultry seasoning"
        }, 
        {
            "amount": "1 teaspoon", 
            "ingredient": "ground sage"
        }, 
        {
            "amount": "2 1/2 quarts", 
            "ingredient": "chicken broth"
        }, 
        {
            "amount": "2 cups", 
            "ingredient": "(uncooked) regular long-grain white rice"
        }, 
        {
            "amount": "1 (16 ounce) package", 
            "ingredient": "frozen green peas"
        }
    ], 
    "prep_steps": [
        "Place the turkey carcass in a large, deep pot, and add the stuffing, celery, carrots, onion, bay leaves, poultry seasoning, sage, and chicken broth. Pour in additional water if needed to cover. Bring to a boil over medium-high heat; reduce heat to medium, and simmer for about 1 hour, skimming off any foam. Remove the carcass and any bones. Pick any meat off and return to the pot, discarding bones and skin.", 
        "Season to taste with garlic salt and pepper. Stir in the rice and return to a boil over medium-high heat. Lower heat to medium, and simmer 15 minutes. Stir in the peas, and continue to simmer until rice is tender, about 10 minutes more. Adjust seasonings to taste."
    ], 
    "prep_time": "1\u00be hrs", 
    "recipe_name": "Day-After-Thanksgiving Turkey Carcass Soup"
}