{
    "ingredients": [
        {
            "amount": "1 1/2 cups", 
            "ingredient": "all-purpose flour"
        }, 
        {
            "amount": "2 cups", 
            "ingredient": "white sugar"
        }, 
        {
            "amount": "2 teaspoons", 
            "ingredient": "baking powder"
        }, 
        {
            "amount": "4", 
            "ingredient": "eggs"
        }, 
        {
            "amount": "1 cup", 
            "ingredient": "vegetable oil"
        }, 
        {
            "amount": "3/4 cup", 
            "ingredient": "orange juice"
        }, 
        {
            "amount": "2 teaspoons", 
            "ingredient": "vanilla extract"
        }
    ], 
    "prep_steps": [
        "Preheat oven to 350 degrees F (175 degrees C). Grease and flour a 9x13 inch pan.", 
        "In a large bowl, mix together the flour, sugar and baking powder. Make a well in the center and pour in the eggs, oil, orange juice and vanilla. Mix well and pour into prepared pans.", 
        "Bake in the preheated oven for 45 minutes, or until a toothpick inserted into the center of the cake comes out clean. Allow to cool."
    ], 
    "prep_time": "1\u00bc hrs", 
    "recipe_name": "Yellow Cake"
}