{
    "ingredients": [
        {
            "amount": "1 (19.8 ounce) package", 
            "ingredient": "brownie mix"
        }, 
        {
            "amount": "1/4 cup", 
            "ingredient": "vegetable oil"
        }, 
        {
            "amount": "3 tablespoons", 
            "ingredient": "water"
        }, 
        {
            "amount": "1", 
            "ingredient": "egg"
        }, 
        {
            "amount": "20", 
            "ingredient": "miniature chocolate covered peanut butter cups, unwrapped"
        }
    ], 
    "prep_steps": [
        "Preheat oven to 325 degrees F (165 degrees C).", 
        "Combine brownie mix, oil, egg and water in a large bowl. Stir 50 strokes with a spoon.", 
        "Place batter in a cupcake pan (cupcake wrappers recommended). Once cups are 3/4 of the way full, place an unwrapped miniature peanut butter cup in the middle, then bake for 30-35 minutes keeping an eye on them while they're baking. Let them cool and then they're ready to eat!!"
    ], 
    "recipe_name": "Peanut Butter Cup Brownies"
}