{
    "ingredients": [
        {
            "amount": "4", 
            "ingredient": "fresh poblano chile peppers"
        }, 
        {
            "amount": "1/2 pound", 
            "ingredient": "lean ground beef"
        }, 
        {
            "amount": "1", 
            "ingredient": "onion, chopped"
        }, 
        {
            "amount": "1 clove", 
            "ingredient": "garlic, chopped"
        }, 
        {
            "amount": "3", 
            "ingredient": "eggs, separated"
        }, 
        {
            "amount": "1 cup", 
            "ingredient": "shredded mozzarella cheese"
        }, 
        {
            "amount": "2", 
            "ingredient": "roma (plum) tomatoes, chopped"
        }, 
        {
            "amount": "1/2 cup", 
            "ingredient": "all-purpose flour"
        }, 
        {
            "amount": "1 cup", 
            "ingredient": "corn oil"
        }
    ], 
    "prep_steps": [
        "Place whole peppers over an open flame (gas burner) or under the broiler. Roast, turning frequently until evenly black and blistered. Remove from heat, place in a plastic bag, and let them sweat for a while. This will allow the skins to peel of easily.", 
        "While the peppers are sweating, place the ground beef in a skillet over medium-high heat. Cook, stirring to crumble, until evenly browned. When beef is fully cooked, add the onion, garlic and tomato, and cook for a few more minutes. Season to taste with salt and pepper.", 
        "Remove the peppers from the bag, and peel off the burnt skin. You may wish to wear protective gloves. Run peppers under cool running water to rinse away any burnt pieces. Make a small vertical slit in the side of the peppers, and remove the seeds and veins. Stuff each pepper halfway with the ground beef mixture, then fill the rest of the way with shredded cheese. Close the slits, and secure with toothpicks.", 
        "Whip egg whites in a large glass or metal bowl until thick and fluffy. Add the egg yolks, and whip for a minute to blend in.", 
        "Meanwhile, heat 1/4 inch of oil in a large heavy skillet over medium-high heat. Coat the stuffed peppers with a light dusting of flour, then dip them in the egg so they are fully covered. Carefully place in the hot oil, and fry on both sides until golden. Drain on paper towels, then serve on a large platter."
    ], 
    "recipe_name": "Chiles Rellenos (Stuffed Peppers)"
}