{
    "ingredients": [
        {
            "amount": "4", 
            "ingredient": "jalapeno peppers, stemmed"
        }, 
        {
            "amount": "4 cloves", 
            "ingredient": "garlic, peeled"
        }, 
        {
            "amount": "1 1/2 teaspoons", 
            "ingredient": "cracked black pepper"
        }, 
        {
            "amount": "1 tablespoon", 
            "ingredient": "coarse salt"
        }, 
        {
            "amount": "1/4 cup", 
            "ingredient": "lime juice"
        }, 
        {
            "amount": "1 tablespoon", 
            "ingredient": "dried oregano"
        }, 
        {
            "amount": "1 1/2 pounds", 
            "ingredient": "top sirloin steak"
        }
    ], 
    "prep_steps": [
        "Combine jalapenos, garlic, pepper, salt, lime juice and oregano in a blender. Blend until smooth.", 
        "Place steak in a shallow pan or large resealable plastic bag. Pour jalapeno marinade over the steak, and turn to coat. Cover pan or seal bag; marinate in the refrigerator 8 hours or overnight.", 
        "Preheat an outdoor grill for high heat, and lightly oil the grill grate.", 
        "Drain and discard marinade. Grill steak 5 minutes per side, or to desired doneness."
    ], 
    "prep_time": "8 hrs", 
    "recipe_name": "Jalapeno Steak"
}