{
    "ingredients": [
        {
            "amount": "1 (10 ounce) package", 
            "ingredient": "frozen raspberries, thawed"
        }, 
        {
            "amount": "2 tablespoons", 
            "ingredient": "white sugar"
        }, 
        {
            "amount": "2 tablespoons", 
            "ingredient": "orange liqueur"
        }, 
        {
            "amount": "1 3/4 cups", 
            "ingredient": "heavy whipping cream"
        }, 
        {
            "amount": "6 ounces", 
            "ingredient": "white chocolate, chopped"
        }, 
        {
            "amount": "1 drop", 
            "ingredient": "red food coloring"
        }
    ], 
    "prep_steps": [
        "Process berries in a blender or food processor until smooth. Strain mixture into a small bowl, and discard seeds. Add the sugar and liqueur, and stir until sugar dissolves. Makes 1 cup of sauce.", 
        "In a heavy saucepan on low heat, warm 1/4 cup of the cream and the white chocolate, stirring constantly until chocolate melts. Let mixture cool until it is lukewarm. Stir in 1 tablespoon of raspberry sauce, and the food coloring. Transfer to a large bowl.", 
        "In a medium bowl, whip remaining 1 1/2 cup cream to soft peaks. Fold into melted chocolate mixture, one-third at a time, until no streaks remain.", 
        "Layer into parfait dishes, and serve with the sauce. May also be used to fill or ice a cake."
    ], 
    "prep_time": "40 mins", 
    "recipe_name": "Raspberry White Chocolate Mousse"
}