{
    "ingredients": [
        {
            "amount": "6", 
            "ingredient": "boneless pork chops"
        }, 
        {
            "amount": "1/4 cup", 
            "ingredient": "brown sugar"
        }, 
        {
            "amount": "1 teaspoon", 
            "ingredient": "ground ginger"
        }, 
        {
            "amount": "1/2 cup", 
            "ingredient": "soy sauce"
        }, 
        {
            "amount": "1/4 cup", 
            "ingredient": "ketchup"
        }, 
        {
            "amount": "2 cloves", 
            "ingredient": "garlic, crushed"
        }
    ], 
    "prep_steps": [
        "Place pork chops in slow cooker. Combine remaining ingredients and pour over pork chops.", 
        "Cook on Low setting for 6 hours, until internal temperature of pork has reached 145 degrees F (63 degrees C)."
    ], 
    "prep_time": "6 hrs", 
    "recipe_name": "Pork Chops for the Slow Cooker"
}