{
    "ingredients": [
        {
            "amount": "5 pounds", 
            "ingredient": "chuck roast"
        }, 
        {
            "amount": "3 cloves", 
            "ingredient": "garlic, crushed"
        }, 
        {
            "amount": "1 tablespoon", 
            "ingredient": "paprika"
        }, 
        {
            "amount": "1 tablespoon", 
            "ingredient": "celery salt"
        }, 
        {
            "amount": "1 tablespoon", 
            "ingredient": "garlic powder"
        }, 
        {
            "amount": "1 tablespoon", 
            "ingredient": "dried parsley"
        }, 
        {
            "amount": "1/2 tablespoon", 
            "ingredient": "ground black pepper"
        }, 
        {
            "amount": "1/2 tablespoon", 
            "ingredient": "chili powder"
        }, 
        {
            "amount": "1/2 tablespoon", 
            "ingredient": "cayenne pepper"
        }, 
        {
            "amount": "1/2 teaspoon", 
            "ingredient": "seasoned salt"
        }, 
        {
            "amount": "1/2 teaspoon", 
            "ingredient": "mustard powder"
        }, 
        {
            "amount": "1/2 teaspoon", 
            "ingredient": "dried tarragon"
        }, 
        {
            "amount": "4 fluid ounces", 
            "ingredient": "beer"
        }, 
        {
            "amount": "1 1/2 tablespoons", 
            "ingredient": "Worcestershire sauce"
        }, 
        {
            "amount": "4 tablespoons", 
            "ingredient": "hot pepper sauce"
        }, 
        {
            "amount": "2 teaspoons", 
            "ingredient": "liquid smoke flavoring"
        }, 
        {
            "amount": "1 large", 
            "ingredient": "onion, chopped"
        }, 
        {
            "amount": "1", 
            "ingredient": "green bell pepper, chopped"
        }, 
        {
            "amount": "2", 
            "ingredient": "jalapeno chile peppers, chopped"
        }
    ], 
    "prep_steps": [
        "Using a sharp knife, poke several 1 inch deep holes in the roast. Insert the garlic slivers into the holes.", 
        "In a small bowl, combine the paprika, celery salt, garlic powder, parsley, ground black pepper, chili powder, cayenne pepper, seasoned salt, mustard powder, and dried tarragon; mix together well and rub over the meat.", 
        "In a separate small bowl, combine the beer OR cola, Worcestershire sauce, hot pepper sauce and liquid smoke and mix well. Place the roast in a slow cooker and pour this mixture over the meat.", 
        "Add the onion, green bell pepper and jalapeno chile peppers to the slow cooker.", 
        "Cook on low setting for 10 hours, or more, if desired."
    ], 
    "prep_time": "10 hrs", 
    "recipe_name": "Mijo's Slow Cooker Shredded Beef"
}