{
    "ingredients": [
        {
            "amount": "1 cup", 
            "ingredient": "margarine, softened"
        }, 
        {
            "amount": "2 cups", 
            "ingredient": "white sugar"
        }, 
        {
            "amount": "4", 
            "ingredient": "eggs"
        }, 
        {
            "amount": "6", 
            "ingredient": "bananas, mashed"
        }, 
        {
            "amount": "2 teaspoons", 
            "ingredient": "vanilla extract"
        }, 
        {
            "amount": "3 cups", 
            "ingredient": "all-purpose flour"
        }, 
        {
            "amount": "2 teaspoons", 
            "ingredient": "baking soda"
        }, 
        {
            "amount": "1/4 cup", 
            "ingredient": "unsweetened cocoa powder"
        }, 
        {
            "amount": "1 cup", 
            "ingredient": "lite sour cream"
        }, 
        {
            "amount": "1 cup", 
            "ingredient": "semisweet chocolate chips"
        }
    ], 
    "prep_steps": [
        "Preheat oven to 350 degrees F (175 degrees C). Lightly grease two 9x5 inch loaf pans.", 
        "In a large bowl, cream together margarine, sugar and eggs. Stir in bananas and vanilla. Sift in flour, baking soda and cocoa; mix well. Blend in sour cream and chocolate chips. Pour batter into prepared pans.", 
        "Bake in preheated oven for 60 minutes, or until a toothpick inserted into center of a loaf comes out clean."
    ], 
    "prep_time": "1\u00bc hrs", 
    "recipe_name": "Chocolate Banana Bread"
}