{
    "ingredients": [
        {
            "amount": "4 large", 
            "ingredient": "Granny Smith apples - peeled, cored and sliced"
        }, 
        {
            "amount": "1/2 cup", 
            "ingredient": "butter, melted"
        }, 
        {
            "amount": "3/4 cup", 
            "ingredient": "packed brown sugar"
        }, 
        {
            "amount": "3/4 cup", 
            "ingredient": "quick cooking oats"
        }, 
        {
            "amount": "1/2 cup", 
            "ingredient": "all-purpose flour"
        }, 
        {
            "amount": "1 teaspoon", 
            "ingredient": "ground cinnamon"
        }, 
        {
            "amount": "1/2 teaspoon", 
            "ingredient": "allspice"
        }
    ], 
    "prep_steps": [
        "Spread the apples evenly in an 8 inch square glass baking dish. A deep dish glass pie plate will also work. In a medium bowl, mix together the melted butter, brown sugar, oats, flour, cinnamon and allspice. Sprinkle this topping evenly over the apples.", 
        "Cook on full power in the microwave for 10 to 12 minutes, until apples can easily be pierced with a knife. Enjoy!"
    ], 
    "prep_time": "27 mins", 
    "recipe_name": "Microwave Apple Crisp"
}