{
    "ingredients": [
        {
            "amount": "1 (1 pound) loaf", 
            "ingredient": "Italian bread"
        }, 
        {
            "amount": "6", 
            "ingredient": "fresh basil leaves, chopped"
        }, 
        {
            "amount": "2", 
            "ingredient": "tomatoes, sliced"
        }, 
        {
            "amount": "4 ounces", 
            "ingredient": "fresh mozzarella cheese, sliced"
        }, 
        {
            "amount": "1/8 teaspoon", 
            "ingredient": "red pepper flakes"
        }, 
        {
            "amount": "1/2 cup", 
            "ingredient": "balsamic vinegar"
        }
    ], 
    "prep_steps": [
        "Slice the loaf of bread in half lengthwise. Layer the basil, tomato slices, and mozzarella cheese between the two halves of bread. Cut into four sandwiches.", 
        "In a small dish, stir together the balsamic vinegar and red pepper flakes. Use as a dipping sauce."
    ], 
    "prep_time": "15 mins", 
    "recipe_name": "Basil, Tomato and Mozzarella Sandwich"
}