{
    "ingredients": [
        {
            "amount": "1/4 cup", 
            "ingredient": "butter"
        }, 
        {
            "amount": "1/2 cup", 
            "ingredient": "croutons"
        }, 
        {
            "amount": "1/2 cup", 
            "ingredient": "shredded Cheddar cheese"
        }, 
        {
            "amount": "4", 
            "ingredient": "eggs"
        }, 
        {
            "amount": "3/4 cup", 
            "ingredient": "milk"
        }, 
        {
            "amount": "1 teaspoon", 
            "ingredient": "dry mustard"
        }, 
        {
            "amount": "1 cup", 
            "ingredient": "cooked ham, cubed"
        }
    ], 
    "prep_steps": [
        "Melt butter in an 8x8 inch glass baking dish or small casserole dish. Add croutons and toss to coat. Sprinkle cheese on top of croutons. In a large bowl, beat together eggs, milk and dry mustard. Pour egg mixture over croutons and cheese. Sprinkle on cubed ham. Cover with plastic wrap, and refrigerate overnight.", 
        "Preheat oven to 375 degrees F (190 degrees C). Let casserole stand at room temperature while oven heats.", 
        "Bake in preheated oven for 40 minutes, until eggs are set. Let sit for 5 minutes before cutting. Can also be frozen and microwaved later."
    ], 
    "prep_time": "50 mins", 
    "recipe_name": "Country House Bed and Breakfast Casserole"
}