{
    "ingredients": [
        {
            "amount": "1 cup", 
            "ingredient": "macaroni"
        }, 
        {
            "amount": "3/4 cup", 
            "ingredient": "cubed Cheddar cheese"
        }, 
        {
            "amount": "1 stalk", 
            "ingredient": "celery, chopped"
        }, 
        {
            "amount": "1", 
            "ingredient": "green bell pepper, chopped"
        }, 
        {
            "amount": "1/2 cup", 
            "ingredient": "frozen green peas, thawed"
        }, 
        {
            "amount": "1/3 cup", 
            "ingredient": "chopped onion"
        }, 
        {
            "amount": "1/4 cup", 
            "ingredient": "mayonnaise"
        }, 
        {
            "amount": "1/4 cup", 
            "ingredient": "sour cream"
        }, 
        {
            "amount": "2 tablespoons", 
            "ingredient": "milk"
        }, 
        {
            "amount": "1 1/2 tablespoons", 
            "ingredient": "sweet pickle relish"
        }
    ], 
    "prep_steps": [
        "Cook pasta in boiling salted water until done. Drain. Rinse macaroni under cold water, and drain again.", 
        "Combine pasta with cheese, vegetables, mayonnaise, sour cream, milk, and pickle relish. Chill for at least 24 hours."
    ], 
    "recipe_name": "Cheddar and Macaroni Salad"
}