{
    "ingredients": [
        {
            "amount": "1 (10.75 ounce) can", 
            "ingredient": "condensed cream of chicken soup"
        }, 
        {
            "amount": "1 (10.75 ounce) can", 
            "ingredient": "condensed cream of mushroom soup"
        }, 
        {
            "amount": "2 cups", 
            "ingredient": "shredded, cooked chicken meat"
        }, 
        {
            "amount": "1 (4 ounce) can", 
            "ingredient": "diced green chiles"
        }, 
        {
            "amount": "1", 
            "ingredient": "onion, finely diced"
        }, 
        {
            "amount": "1 (8 ounce) container", 
            "ingredient": "sour cream"
        }, 
        {
            "amount": "2 cups", 
            "ingredient": "shredded Cheddar cheese"
        }, 
        {
            "amount": "8 (10 inch)", 
            "ingredient": "flour tortillas"
        }
    ], 
    "prep_steps": [
        "Preheat oven to 350 degrees F (175 degrees C).", 
        "Combine the soups, chicken, green chiles, onion and sour cream in a medium size bowl. Set aside.", 
        "Rip tortillas into bite size pieces and layer 1/3 onto the bottom of a 9x13 inch baking dish. Layer chicken mixture on top, then a layer of cheddar cheese. Repeat two additional times, making sure to end with cheese on the top layer. Bake in preheated oven for about an hour and serve."
    ], 
    "recipe_name": "Chicken Chipulos"
}