{
    "ingredients": [
        {
            "amount": "8 cups", 
            "ingredient": "rolled oats"
        }, 
        {
            "amount": "1 1/2 cups", 
            "ingredient": "wheat germ"
        }, 
        {
            "amount": "1 1/2 cups", 
            "ingredient": "oat bran"
        }, 
        {
            "amount": "1 cup", 
            "ingredient": "sunflower seeds"
        }, 
        {
            "amount": "1 cup", 
            "ingredient": "finely chopped almonds"
        }, 
        {
            "amount": "1 cup", 
            "ingredient": "finely chopped pecans"
        }, 
        {
            "amount": "1 cup", 
            "ingredient": "finely chopped walnuts"
        }, 
        {
            "amount": "1 1/2 teaspoons", 
            "ingredient": "salt"
        }, 
        {
            "amount": "1/2 cup", 
            "ingredient": "brown sugar"
        }, 
        {
            "amount": "1/4 cup", 
            "ingredient": "maple syrup"
        }, 
        {
            "amount": "3/4 cup", 
            "ingredient": "honey"
        }, 
        {
            "amount": "1 cup", 
            "ingredient": "vegetable oil"
        }, 
        {
            "amount": "1 tablespoon", 
            "ingredient": "ground cinnamon"
        }, 
        {
            "amount": "1 tablespoon", 
            "ingredient": "vanilla extract"
        }, 
        {
            "amount": "2 cups", 
            "ingredient": "raisins or sweetened dried cranberries"
        }
    ], 
    "prep_steps": [
        "Preheat the oven to 325 degrees F (165 degrees C). Line two large baking sheets with parchment or aluminum foil.", 
        "Combine the oats, wheat germ, oat bran, sunflower seeds, almonds, pecans, and walnuts in a large bowl. Stir together the salt, brown sugar, maple syrup, honey, oil, cinnamon, and vanilla in a saucepan. Bring to a boil over medium heat, then pour over the dry ingredients, and stir to coat. Spread the mixture out evenly on the baking sheets.", 
        "Bake in the preheated oven until crispy and toasted, about 20 minutes. Stir once halfway through. Cool, then stir in the raisins or cranberries before storing in an airtight container."
    ], 
    "prep_time": "40 mins", 
    "recipe_name": "Megan's Granola"
}