{
    "ingredients": [
        {
            "amount": "1 (18.25 ounce) package", 
            "ingredient": "white cake mix"
        }, 
        {
            "amount": "3", 
            "ingredient": "eggs"
        }, 
        {
            "amount": "1/4 cup", 
            "ingredient": "vegetable oil"
        }, 
        {
            "amount": "1 cup", 
            "ingredient": "cream of coconut"
        }, 
        {
            "amount": "1 (8 ounce) container", 
            "ingredient": "sour cream"
        }, 
        {
            "amount": "8 ounces", 
            "ingredient": "cream cheese"
        }, 
        {
            "amount": "1 teaspoon", 
            "ingredient": "vanilla extract"
        }, 
        {
            "amount": "2 tablespoons", 
            "ingredient": "milk"
        }, 
        {
            "amount": "4 cups", 
            "ingredient": "confectioners' sugar"
        }, 
        {
            "amount": "2 tablespoons", 
            "ingredient": "flaked coconut"
        }
    ], 
    "prep_steps": [
        "Preheat oven to 350 degrees F (175 degrees C). Grease and flour one 9x13 inch pan.", 
        "Combine the cake mix, eggs, vegetable oil, cream of coconut and the sour cream and mix well for 4 minutes. Pour batter into the prepared pan.", 
        "Bake at 350 degrees F (175 degrees C) for 35 to 40 minutes. Let cake cool then frost with cream cheese frosting and top with flaked coconut.", 
        "To Make Frosting: Combine the softened cream cheese, vanilla, milk and confectioners' sugar. Mix until smooth and spread over cooled cake. Top with flaked coconut."
    ], 
    "recipe_name": "Cream of Coconut Cake"
}