{
    "ingredients": [
        {
            "amount": "1 (12 ounce) jar", 
            "ingredient": "apricot preserves"
        }, 
        {
            "amount": "2 teaspoons", 
            "ingredient": "prepared horseradish"
        }, 
        {
            "amount": "2 tablespoons", 
            "ingredient": "Dijon-style prepared mustard"
        }, 
        {
            "amount": "1 (8 ounce) package", 
            "ingredient": "cream cheese, softened"
        }
    ], 
    "prep_steps": [
        "In a medium-size bowl, combine apricot preserves, horseradish, mustard and black pepper. Taste the mixture and add more horseradish, mustard, and pepper to taste. Cover and chill this mixture overnight.", 
        "When ready to serve, place the cream cheese on a serving plate and pour the apricot mixture over the cream cheese. Serve with a basket of your favorite crackers."
    ], 
    "prep_time": "8 hrs", 
    "recipe_name": "Hot Jezebel"
}