{
    "ingredients": [
        {
            "amount": "2 teaspoons", 
            "ingredient": "vegetable oil"
        }, 
        {
            "amount": "4", 
            "ingredient": "skinless, boneless chicken breast halves - cut into 1 inch pieces"
        }, 
        {
            "amount": "1 1/2 cups", 
            "ingredient": "distilled white vinegar"
        }, 
        {
            "amount": "1 cup", 
            "ingredient": "white sugar"
        }, 
        {
            "amount": "1/2 cup", 
            "ingredient": "soy sauce"
        }, 
        {
            "amount": "1 tablespoon", 
            "ingredient": "red pepper flakes, or to taste"
        }, 
        {
            "amount": "2 tablespoons", 
            "ingredient": "garlic powder, or to taste"
        }, 
        {
            "amount": "1 tablespoon", 
            "ingredient": "onion powder, or to taste"
        }, 
        {
            "amount": "1/2 teaspoon", 
            "ingredient": "ground ginger"
        }, 
        {
            "amount": "1 (8 ounce) package", 
            "ingredient": "button mushrooms, sliced"
        }, 
        {
            "amount": "1 cup", 
            "ingredient": "frozen green peas"
        }, 
        {
            "amount": "3", 
            "ingredient": "green onions, chopped"
        }, 
        {
            "amount": "3 teaspoons", 
            "ingredient": "cornstarch"
        }, 
        {
            "amount": "2 tablespoons", 
            "ingredient": "cold water"
        }
    ], 
    "prep_steps": [
        "Heat oil in a large heavy skillet over high heat. Add chicken pieces, and fry, stirring, until browned. Pour in the vinegar, soy sauce, and sugar; stirring to dissolve sugar. Season with red pepper flakes, garlic powder, onion powder, and ginger. Reduce heat to low, cover, and simmer for 15 minutes. Taste the sauce at this point and adjust seasoning to taste. The sauce should be very sweet. If it is too tart, add more sugar; if it is too sweet, add more vinegar.", 
        "Once the sauce is to your liking, add the mushrooms, peas, and green onions. Simmer gently over low heat for another 5 minutes, until the mushrooms shrink a bit. Stir together the cornstarch and water, and stir it into the sauce. Continue to simmer until it reaches the desired thickness."
    ], 
    "prep_time": "45 mins", 
    "recipe_name": "Chicken Vicious"
}