{
    "ingredients": [
        {
            "amount": "2 cups", 
            "ingredient": "powdered non-dairy coffee creamer"
        }, 
        {
            "amount": "1 1/2 cups", 
            "ingredient": "instant hot chocolate mix"
        }, 
        {
            "amount": "1 1/2 cups", 
            "ingredient": "instant coffee granules"
        }, 
        {
            "amount": "1 1/2 cups", 
            "ingredient": "white sugar"
        }, 
        {
            "amount": "1 teaspoon", 
            "ingredient": "ground cinnamon"
        }, 
        {
            "amount": "1/2 teaspoon", 
            "ingredient": "ground nutmeg"
        }
    ], 
    "prep_steps": [
        "In a large bowl, stir together the coffee creamer, hot chocolate mix, instant coffee, sugar, nutmeg and cinnamon. Store in an airtight container at room temperature.", 
        "To make 1 cup, spoon 2 heaping tablespoons of the mix into a coffee mug, and add 1 cup of boiling water. Stir until dissolved."
    ], 
    "prep_time": "5 mins", 
    "recipe_name": "Gunline Coffee"
}