{
    "ingredients": [
        {
            "amount": "4 cups", 
            "ingredient": "chopped apples"
        }, 
        {
            "amount": "2 cups", 
            "ingredient": "white sugar"
        }, 
        {
            "amount": "2 cups", 
            "ingredient": "all-purpose flour"
        }, 
        {
            "amount": "2 teaspoons", 
            "ingredient": "baking soda"
        }, 
        {
            "amount": "2 teaspoons", 
            "ingredient": "ground cinnamon"
        }, 
        {
            "amount": "1 teaspoon", 
            "ingredient": "salt"
        }, 
        {
            "amount": "1/2 cup", 
            "ingredient": "vegetable oil"
        }, 
        {
            "amount": "2", 
            "ingredient": "eggs, beaten"
        }, 
        {
            "amount": "2 teaspoons", 
            "ingredient": "vanilla extract"
        }, 
        {
            "amount": "1 cup", 
            "ingredient": "chopped walnuts"
        }
    ], 
    "prep_steps": [
        "Preheat oven to 350 degrees F (175 degrees C). Grease and flour a 9x13 inch pan. In a medium bowl, stir together the sugar and apples, set aside. Sift together the flour, baking soda, cinnamon and salt.", 
        "In a large bowl, stir together the oil, eggs and vanilla. Add the apples and sugar, mix well. Stir in the dry ingredients, then the nuts. Pour into the prepared pan and spread evenly.", 
        "Bake in the preheated oven for 45 minutes, or until cake springs back to the touch."
    ], 
    "prep_time": "1\u00bc hrs", 
    "recipe_name": "Fresh Apple Cake II"
}