{
    "ingredients": [
        {
            "amount": "1 (8 ounce) package", 
            "ingredient": "cream cheese, softened"
        }, 
        {
            "amount": "1/2 cup", 
            "ingredient": "mild pepper jelly"
        }
    ], 
    "prep_steps": [
        "Spread jelly over the block of cream cheese."
    ], 
    "prep_time": "2 mins", 
    "recipe_name": "Pepper Jelly Appetizer "
}