{
    "ingredients": [
        {
            "amount": "24", 
            "ingredient": "OREO Cookies, divided"
        }, 
        {
            "amount": "3 tablespoons", 
            "ingredient": "butter, melted"
        }, 
        {
            "amount": "3 (250 g) packages", 
            "ingredient": "PHILADELPHIA Brick Cream Cheese, softened"
        }, 
        {
            "amount": "3/4 cup", 
            "ingredient": "sugar"
        }, 
        {
            "amount": "1 teaspoon", 
            "ingredient": "vanilla"
        }, 
        {
            "amount": "3", 
            "ingredient": "eggs"
        }
    ], 
    "prep_steps": [
        "Heat oven to 350 degrees F. Place 16 of the cookies in resealable plastic bag. Flatten bag to remove excess air, then seal bag. Finely crush cookies by rolling a rolling pin across the bag. Place in bowl. Add butter; mix well. Press firmly onto bottom of 9-inch springform pan.", 
        "Beat cream cheese, sugar and vanilla in large bowl with electric mixer on medium speed until well blended. Add eggs, 1 at a time, beating just until blended after each addition. Chop or crush remaining 8 cookies. Gently stir half of the chopped cookies into cream cheese batter. Pour over prepared crust; sprinkle with the remaining chopped cookies.", 
        "Bake 45 min. or until centre is almost set. Cool. Refrigerate 3 hours or overnight. Cut into 12 pieces. Store leftover cheesecake in refrigerator."
    ], 
    "prep_time": "4 hrs", 
    "recipe_name": "Easy PHILLY OREO Cheesecake"
}