{
    "ingredients": [
        {
            "amount": "4", 
            "ingredient": "skinless, boneless chicken breast halves"
        }, 
        {
            "amount": "1/4 cup", 
            "ingredient": "Italian-style seasoning"
        }, 
        {
            "amount": "1 cup", 
            "ingredient": "barbeque sauce"
        }
    ], 
    "prep_steps": [
        "Preheat oven to 350 degrees F (175 degrees C).", 
        "Place chicken and seasoning in a resealable plastic bag; seal and toss to coat; place coated chicken in a lightly greased 9x13 inch baking dish.", 
        "Bake at 350 degrees F (175 degrees C) for 20 minutes.", 
        "Place sauce in a shallow dish or bowl and dip chicken in sauce to coat lightly.", 
        "Bake for another 20 minutes; serve with additional barbeque sauce."
    ], 
    "prep_time": "45 mins", 
    "recipe_name": "Chicken a la Camille"
}