{
    "ingredients": [
        {
            "amount": "1/2 cup", 
            "ingredient": "shortening"
        }, 
        {
            "amount": "1 cup", 
            "ingredient": "packed brown sugar"
        }, 
        {
            "amount": "2", 
            "ingredient": "eggs"
        }, 
        {
            "amount": "1 cup", 
            "ingredient": "mashed bananas"
        }, 
        {
            "amount": "2 cups", 
            "ingredient": "all-purpose flour"
        }, 
        {
            "amount": "2 teaspoons", 
            "ingredient": "baking powder"
        }, 
        {
            "amount": "1/2 teaspoon", 
            "ingredient": "baking soda"
        }, 
        {
            "amount": "1/2 teaspoon", 
            "ingredient": "salt"
        }, 
        {
            "amount": "1/2 teaspoon", 
            "ingredient": "ground cloves"
        }, 
        {
            "amount": "1/2 cup", 
            "ingredient": "chopped pecans"
        }, 
        {
            "amount": "3 cups", 
            "ingredient": "sifted confectioners' sugar"
        }, 
        {
            "amount": "1 tablespoon", 
            "ingredient": "butter, melted"
        }, 
        {
            "amount": "3/4 teaspoon", 
            "ingredient": "vanilla extract"
        }, 
        {
            "amount": "3 tablespoons", 
            "ingredient": "milk"
        }
    ], 
    "prep_steps": [
        "Preheat oven to 350 degrees F (180 degrees C).", 
        "Cream shortening; add brown sugar, beating well. Add eggs and banana; beat well.", 
        "Sift together flour, baking powder, baking soda, salt, and spices. Add to creamed mixture; mix well. Stir in pecans.", 
        "Drop dough by rounded tablespoonfuls, 2 inches apart onto greased cookies sheets. Bake for 12 minutes. Remove to wire racks to cool. Dip half of cooled cookies into Powdered Sugar Icing.", 
        "To Make Icing: Combine 3 cups confectioner's sugar, 1 tablespoon melted butter or margarine, and 3/4 teaspoon vanilla extract. Add milk to yield desired consistency (you may need to add a little extra), beating until smooth."
    ], 
    "prep_time": "15 mins", 
    "recipe_name": "Banana Cake Cookies"
}