{
    "ingredients": [
        {
            "amount": "1 (15 ounce) can", 
            "ingredient": "whole kernel corn, drained and 1/2 liquid reserved"
        }, 
        {
            "amount": "1 (14.75 ounce) can", 
            "ingredient": "cream-style corn"
        }, 
        {
            "amount": "2", 
            "ingredient": "eggs"
        }, 
        {
            "amount": "1 (8 ounce) package", 
            "ingredient": "dry corn bread mix"
        }, 
        {
            "amount": "1 cup", 
            "ingredient": "sour cream"
        }, 
        {
            "amount": "8 ounces", 
            "ingredient": "Cheddar cheese, shredded"
        }
    ], 
    "prep_steps": [
        "Preheat oven to 400 degrees F (200 degrees C). Lightly grease a 9x13 inch baking pan.", 
        "In a large mixing bowl, combine corn, reserved liquid, eggs, corn bread mix and sour cream; stir until blended. Pour batter into prepared pan; sprinkle with cheese.", 
        "Bake in preheated oven for 30 minutes, until golden brown."
    ], 
    "prep_time": "40 mins", 
    "recipe_name": "Cornbread Casserole"
}