{
    "ingredients": [
        {
            "amount": "3 tablespoons", 
            "ingredient": "olive oil"
        }, 
        {
            "amount": "1", 
            "ingredient": "onion, chopped"
        }, 
        {
            "amount": "3 cloves", 
            "ingredient": "garlic, minced"
        }, 
        {
            "amount": "1 cup", 
            "ingredient": "bread crumbs"
        }, 
        {
            "amount": "3 bunches", 
            "ingredient": "kale - washed, dried, and shredded"
        }
    ], 
    "prep_steps": [
        "Heat oil over medium-high heat in a large frying pan. Add onions and garlic; cook and stir until soft.", 
        "Mix in breadcrumbs, and cook and stir until brown.", 
        "Stir in kale, and cook until wilted. Serve hot or warm."
    ], 
    "recipe_name": "Stir Fried Kale"
}