{
    "ingredients": [
        {
            "amount": "1/2 (14 ounce) package", 
            "ingredient": "vegetarian ground beef (e.g., Gimme Lean TM)"
        }, 
        {
            "amount": "1 (12 ounce) package", 
            "ingredient": "vegetarian burger crumbles"
        }, 
        {
            "amount": "1", 
            "ingredient": "onion, chopped"
        }, 
        {
            "amount": "2", 
            "ingredient": "eggs, beaten"
        }, 
        {
            "amount": "2 tablespoons", 
            "ingredient": "vegetarian Worcestershire sauce"
        }, 
        {
            "amount": "1 teaspoon", 
            "ingredient": "salt"
        }, 
        {
            "amount": "1/3 teaspoon", 
            "ingredient": "pepper"
        }, 
        {
            "amount": "1 teaspoon", 
            "ingredient": "ground sage"
        }, 
        {
            "amount": "1/2 teaspoon", 
            "ingredient": "garlic powder"
        }, 
        {
            "amount": "2 teaspoons", 
            "ingredient": "prepared mustard"
        }, 
        {
            "amount": "1 tablespoon", 
            "ingredient": "vegetable oil"
        }, 
        {
            "amount": "3 1/2 slices", 
            "ingredient": "bread, cubed"
        }, 
        {
            "amount": "1/3 cup", 
            "ingredient": "milk"
        }, 
        {
            "amount": "1 (8 ounce) can", 
            "ingredient": "tomato sauce"
        }, 
        {
            "amount": "4", 
            "ingredient": "carrots, cut into 1 inch pieces"
        }, 
        {
            "amount": "4", 
            "ingredient": "potatoes, cubed"
        }, 
        {
            "amount": "1", 
            "ingredient": "cooking spray"
        }
    ], 
    "prep_steps": [
        "Preheat oven to 350 degrees F (175 degrees C).", 
        "In a large bowl combine vegetarian ground beef, vegetarian ground beef crumbles, onion, eggs, Worcestershire sauce, salt, pepper, sage, garlic powder, mustard, oil, bread cubes and milk. Transfer to a 9 x 13 inch baking dish and form into a loaf. Pour tomato sauce on top.", 
        "Place carrots and potatoes around loaf and spray vegetables with cooking spray.", 
        "Bake 30 to 45 minutes; turn vegetables. Bake another 30 to 45 minutes. Let stand 15 minutes before slicing."
    ], 
    "prep_time": "2 hrs", 
    "recipe_name": "Vegetarian Meatloaf with Vegetables"
}