{
    "ingredients": [
        {
            "amount": "2 cups", 
            "ingredient": "all-purpose flour"
        }, 
        {
            "amount": "3 teaspoons", 
            "ingredient": "baking powder"
        }, 
        {
            "amount": "1/2 teaspoon", 
            "ingredient": "salt"
        }, 
        {
            "amount": "1/2 cup", 
            "ingredient": "white sugar"
        }, 
        {
            "amount": "1", 
            "ingredient": "egg, beaten"
        }, 
        {
            "amount": "3/4 cup", 
            "ingredient": "milk"
        }, 
        {
            "amount": "1/4 cup", 
            "ingredient": "vegetable oil"
        }, 
        {
            "amount": "1 cup", 
            "ingredient": "any flavor fruit jam"
        }
    ], 
    "prep_steps": [
        "Preheat oven to 400 degrees F (205 degrees C).", 
        "In a large bowl, stir together the flour, baking powder, salt and sugar. Make a well in the center. In a small bowl beat egg, milk and oil together. Pour all at once into the well in the flour mixture. Mix quickly and lightly until moistened, do not beat. The batter will be lumpy. Gently stir in jam.", 
        "Pour the batter into the prepared pan and bake at 400 degrees F (205 degrees C) for 25 minutes or until golden."
    ], 
    "recipe_name": "Jam Muffins"
}