{
    "ingredients": [
        {
            "amount": "1 (8 ounce) package", 
            "ingredient": "cream cheese"
        }, 
        {
            "amount": "1/3 cup", 
            "ingredient": "white sugar"
        }, 
        {
            "amount": "1 (8 ounce) container", 
            "ingredient": "frozen whipped topping, thawed"
        }, 
        {
            "amount": "1 (9 inch)", 
            "ingredient": "prepared graham cracker crust"
        }
    ], 
    "prep_steps": [
        "In a large bowl beat together the cream cheese and sugar until smooth. Gently fold in the whipped topping. Spoon into the prepared crust. Refrigerate 3 hours, or until set."
    ], 
    "prep_time": "3 hrs", 
    "recipe_name": "Fluffy Two Step Cheesecake I"
}