{
    "ingredients": [
        {
            "amount": "2 pounds", 
            "ingredient": "chuck roast"
        }, 
        {
            "amount": "1 (1 ounce) package", 
            "ingredient": "dry onion soup mix"
        }, 
        {
            "amount": "1 (.75 ounce) packet", 
            "ingredient": "dry brown gravy mix"
        }, 
        {
            "amount": "1 1/2 cups", 
            "ingredient": "apple juice"
        }
    ], 
    "prep_steps": [
        "Slow Cooker instructions: Place stew beef, onion soup mix, brown gravy mix, and apple juice into a slow cooker, and cook on Low for 5 to 8 hours.", 
        "Oven instructions: Mix together the apple juice, onion soup mix, and brown gravy mix in a casserole dish. Add stew beef, and cook covered for 2 1/2 to 3 hours in a 325 degree oven.( 165 degrees C)"
    ], 
    "prep_time": "9 hrs", 
    "recipe_name": "Thunderbird Stew"
}