{
    "ingredients": [
        {
            "amount": "36", 
            "ingredient": "jumbo pasta shells"
        }, 
        {
            "amount": "2 (8 ounce) packages", 
            "ingredient": "Neufchatel cheese"
        }, 
        {
            "amount": "1 pound", 
            "ingredient": "imitation crabmeat"
        }, 
        {
            "amount": "6 ounces", 
            "ingredient": "cooked tiny shrimp"
        }, 
        {
            "amount": "1", 
            "ingredient": "onion, minced"
        }, 
        {
            "amount": "2 stalks", 
            "ingredient": "celery, chopped"
        }, 
        {
            "amount": "1/3 cup", 
            "ingredient": "mayonnaise"
        }, 
        {
            "amount": "2 tablespoons", 
            "ingredient": "white sugar"
        }, 
        {
            "amount": "1 1/2 teaspoons", 
            "ingredient": "salt"
        }, 
        {
            "amount": "1/2 teaspoon", 
            "ingredient": "ground black pepper"
        }, 
        {
            "amount": "1 teaspoon", 
            "ingredient": "lemon juice"
        }
    ], 
    "prep_steps": [
        "Bring a large pot of salted water to boil, and add pasta shells; boil until al dente. Drain well.", 
        "In a large mixing bowl, combine cream cheese, crab, shrimp, onion, celery, mayonnaise, sugar, salt, pepper and lemon juice; mix well.", 
        "Stuff cream cheese mixture into the jumbo pasta shells. Chill for at least 2 hours before serving."
    ], 
    "prep_time": "2\u00be hrs", 
    "recipe_name": "Amazing Crab Shells"
}