{
    "ingredients": [
        {
            "amount": "6", 
            "ingredient": "skinless, boneless chicken breast halves"
        }, 
        {
            "amount": "6 tablespoons", 
            "ingredient": "butter, melted"
        }, 
        {
            "amount": "1 cup", 
            "ingredient": "all-purpose flour for coating"
        }, 
        {
            "amount": "1 cup", 
            "ingredient": "heavy whipping cream"
        }, 
        {
            "amount": "1/2 pound", 
            "ingredient": "fresh mushrooms, sliced"
        }, 
        {
            "amount": "1/2 cup", 
            "ingredient": "grated Parmesan cheese for topping"
        }
    ], 
    "prep_steps": [
        "Preheat oven to 350 degrees F (175 degrees C).", 
        "Rinse and dry the chicken breast halves. Dip each in melted butter, then coat/dredge in flour.", 
        "Place coated chicken in a 9x13 inch baking dish. Add cream to just cover. Top with sliced mushrooms and grated Parmesan cheese and bake in the preheated oven for 30 to 45 minutes. Let cool 10 minutes and serve."
    ], 
    "recipe_name": "Mushroom Chicken Parmesan"
}