{
    "ingredients": [
        {
            "amount": "1 (18.25 ounce) package", 
            "ingredient": "yellow cake mix"
        }, 
        {
            "amount": "3/4 cup", 
            "ingredient": "vegetable oil"
        }, 
        {
            "amount": "4", 
            "ingredient": "eggs"
        }, 
        {
            "amount": "1 (8 ounce) container", 
            "ingredient": "sour cream"
        }, 
        {
            "amount": "1 cup", 
            "ingredient": "brown sugar"
        }, 
        {
            "amount": "1 tablespoon", 
            "ingredient": "ground cinnamon"
        }, 
        {
            "amount": "2 cups", 
            "ingredient": "confectioners' sugar"
        }, 
        {
            "amount": "4 tablespoons", 
            "ingredient": "milk"
        }, 
        {
            "amount": "1 tablespoon", 
            "ingredient": "vanilla extract"
        }
    ], 
    "prep_steps": [
        "Preheat oven to 325 degrees F (165 degrees C).", 
        "In a large mixing bowl, combine cake mix, oil, eggs and sour cream. Stir by hand approximately 50 strokes, or until most large lumps are gone. Pour half of the batter into an ungreased 9x13 inch glass baking dish. Combine the brown sugar and cinnamon, and sprinkle over the batter in the cake pan. Spoon the other half of the batter into the cake pan, covering the brown sugar and cinnamon. Twirl the cake with a butter knife or icing knife until it looks like a honey bun (or whatever design you want to make).", 
        "Bake in preheated oven for 40 minutes, or until a toothpick inserted into the center of the cake comes out clean. Frost cake while it is still fairly hot. Serve warm.", 
        "To Make the frosting: In a small bowl, whisk together the confectioner's sugar, milk and vanilla until smooth."
    ], 
    "prep_time": "1\u00be hrs", 
    "recipe_name": "Honey Bun Cake I"
}