{
    "ingredients": [
        {
            "amount": "6", 
            "ingredient": "skinless, boneless chicken breasts"
        }, 
        {
            "amount": "1 (10.75 ounce) can", 
            "ingredient": "low-sodium chicken broth"
        }, 
        {
            "amount": "3/4 cup", 
            "ingredient": "apricot preserves"
        }, 
        {
            "amount": "1 tablespoon", 
            "ingredient": "light soy sauce"
        }, 
        {
            "amount": "1 tablespoon", 
            "ingredient": "cornstarch"
        }, 
        {
            "amount": "1 tablespoon", 
            "ingredient": "water"
        }
    ], 
    "prep_steps": [
        "Spray a large skillet with nonstick cooking spray. Brown chicken in heated skillet.", 
        "Add chicken broth, jam and soy sauce. Simmer for 20 minutes or until chicken is done (no longer pink in the center).", 
        "Remove chicken from skillet. Add 1 tablespoon cornstarch and 1 tablespoon water to sauce to thicken (equal amounts more of each if you like it thicker). Return chicken to skillet and turn to coat thoroughly with sauce."
    ], 
    "recipe_name": "Apricot Glazed Chicken"
}