{
    "ingredients": [
        {
            "amount": "2 cups", 
            "ingredient": "white sugar"
        }, 
        {
            "amount": "2 cups", 
            "ingredient": "sifted all-purpose flour"
        }, 
        {
            "amount": "3", 
            "ingredient": "egg yolks"
        }, 
        {
            "amount": "1", 
            "ingredient": "egg"
        }, 
        {
            "amount": "1/2 cup", 
            "ingredient": "buttermilk"
        }, 
        {
            "amount": "1 teaspoon", 
            "ingredient": "vanilla extract"
        }, 
        {
            "amount": "1/2 teaspoon", 
            "ingredient": "salt"
        }, 
        {
            "amount": "1 teaspoon", 
            "ingredient": "baking powder"
        }, 
        {
            "amount": "1 teaspoon", 
            "ingredient": "baking soda"
        }, 
        {
            "amount": "1/2 cup", 
            "ingredient": "shortening"
        }, 
        {
            "amount": "1 cup", 
            "ingredient": "boiling water"
        }
    ], 
    "prep_steps": [
        "Mix together the buttermilk with the baking soda. Set aside. Cream shortening, sugar, eggs and vanilla. Beat well.", 
        "Add buttermilk and baking soda mixture.", 
        "Sift dry ingredients, and add to creamed mixture.", 
        "Add boiling water, and mix well.", 
        "Pour into a greased and floured 9 x 13 inch pan. Bake at 350 degrees F (175 degrees C) for approximately 35 minutes, or until toothpick comes out clean.", 
        "Let cool. I frost with cream cheese frosting."
    ], 
    "recipe_name": "Aunt Bert's White Cake"
}