{
    "ingredients": [
        {
            "amount": "3/4 cup", 
            "ingredient": "water"
        }, 
        {
            "amount": "1 tablespoon", 
            "ingredient": "butter, softened"
        }, 
        {
            "amount": "1 teaspoon", 
            "ingredient": "salt"
        }, 
        {
            "amount": "2 tablespoons", 
            "ingredient": "sunflower seeds"
        }, 
        {
            "amount": "1 tablespoon", 
            "ingredient": "sesame seeds"
        }, 
        {
            "amount": "1 tablespoon", 
            "ingredient": "flax seeds"
        }, 
        {
            "amount": "1 tablespoon", 
            "ingredient": "millet"
        }, 
        {
            "amount": "1 tablespoon", 
            "ingredient": "quinoa"
        }, 
        {
            "amount": "1 cup", 
            "ingredient": "bread flour"
        }, 
        {
            "amount": "1 cup", 
            "ingredient": "whole wheat flour"
        }, 
        {
            "amount": "1 tablespoon", 
            "ingredient": "dry milk powder"
        }, 
        {
            "amount": "1/4 cup", 
            "ingredient": "packed brown sugar"
        }, 
        {
            "amount": "1 1/2 tablespoons", 
            "ingredient": "bread machine yeast"
        }
    ], 
    "prep_steps": [
        "Place ingredients in the pan of the bread machine in the order recommended by the manufacturer. Select cycle; press Start."
    ], 
    "prep_time": "3 hr", 
    "recipe_name": "Hearty Multigrain Bread"
}