{
    "ingredients": [
        {
            "amount": "1 (28 ounce) can", 
            "ingredient": "diced tomatoes with juice"
        }, 
        {
            "amount": "1 small", 
            "ingredient": "onion, diced"
        }, 
        {
            "amount": "1 (15 ounce) can", 
            "ingredient": "white beans, drained"
        }, 
        {
            "amount": "1 (15 ounce) can", 
            "ingredient": "chili beans, with liquid"
        }, 
        {
            "amount": "1 (1.25 ounce) package", 
            "ingredient": "reduced sodium taco seasoning mix"
        }, 
        {
            "amount": "1 (1 ounce) package", 
            "ingredient": "ranch dressing mix"
        }, 
        {
            "amount": "1 (12 ounce) package", 
            "ingredient": "vegetarian burger crumbles"
        }, 
        {
            "amount": "1 (8 ounce) package", 
            "ingredient": "shredded Cheddar cheese"
        }
    ], 
    "prep_steps": [
        "Mix the tomatoes, onion, white beans, chili beans, taco seasoning mix, and ranch dressing mix in a large pot over medium heat. Bring to a boil. Reduce heat to low, mix in the burger crumbles, and continue cooking until heated through. Top with cheese to serve."
    ], 
    "prep_time": "15 mins", 
    "recipe_name": "Unbelievably Easy and Delicious Vegetarian Chili"
}