{
    "ingredients": [
        {
            "amount": "1 tablespoon", 
            "ingredient": "olive oil"
        }, 
        {
            "amount": "3 pounds", 
            "ingredient": "boneless venison roast"
        }, 
        {
            "amount": "1 large", 
            "ingredient": "apple, cored and quartered"
        }, 
        {
            "amount": "2 small", 
            "ingredient": "onions, sliced"
        }, 
        {
            "amount": "4 cloves", 
            "ingredient": "crushed garlic"
        }, 
        {
            "amount": "1 cup", 
            "ingredient": "boiling water"
        }, 
        {
            "amount": "1 cube", 
            "ingredient": "beef bouillon"
        }
    ], 
    "prep_steps": [
        "Spread the olive oil on the inside of a slow cooker. Place the venison roast inside, and cover with apple, onions, and garlic. Turn to Low, and cook until the roast is tender, about 6 to 8 hours.", 
        "When the roast has cooked, remove it from the slow cooker, and place onto a serving platter. Discard the apple. Stir the water and bouillon into the slow cooker until the bouillon has dissolved. Serve this as a sauce with the roast."
    ], 
    "prep_time": "6 hrs", 
    "recipe_name": "Slow Cooker Apple-Scented Venison Roast"
}