{
    "ingredients": [
        {
            "amount": "1 large", 
            "ingredient": "zucchini, finely chopped"
        }, 
        {
            "amount": "1 small", 
            "ingredient": "onion, chopped"
        }, 
        {
            "amount": "3", 
            "ingredient": "eggs, beaten"
        }, 
        {
            "amount": "1/2 cup", 
            "ingredient": "freshly grated Romano cheese"
        }, 
        {
            "amount": "1 cup", 
            "ingredient": "2% milk"
        }, 
        {
            "amount": "2 cups", 
            "ingredient": "all-purpose flour"
        }, 
        {
            "amount": "1/4 cup", 
            "ingredient": "vegetable shortening"
        }
    ], 
    "prep_steps": [
        "In a large bowl, mix together the zucchini, onion, eggs, Romano cheese, milk, and flour. Season with salt, pepper, garlic powder, onion powder, and parsley.", 
        "Heat about 1 tablespoon of shortening in a large skillet over medium heat. Drop 1/4 cupfuls of the batter into the skillet, and flatten slightly with the back of a spatula. Turn fritters over when the center appears dry. Cook on the other side until golden brown. Set aside and keep warm. Add more shortening to skillet as needed, and continue with remaining batter."
    ], 
    "prep_time": "25 mins", 
    "recipe_name": "The Best Zucchini Fritters Ever"
}