{
    "ingredients": [
        {
            "amount": "1 medium head", 
            "ingredient": "cabbage, cut into small wedges"
        }, 
        {
            "amount": "2 tablespoons", 
            "ingredient": "butter"
        }, 
        {
            "amount": "2 tablespoons", 
            "ingredient": "all-purpose flour"
        }, 
        {
            "amount": "1/2 teaspoon", 
            "ingredient": "salt"
        }, 
        {
            "amount": "1 cup", 
            "ingredient": "milk"
        }, 
        {
            "amount": "2/3 cup", 
            "ingredient": "shredded American cheese"
        }, 
        {
            "amount": "1/2 cup", 
            "ingredient": "crushed buttery round crackers"
        }
    ], 
    "prep_steps": [
        "Preheat oven to 350 degrees F (175 degrees C). Grease a 2 quart casserole dish.", 
        "Bring a large pot of salted water to a boil. Cook cabbage in boiling water until barely tender, about 10 minutes; drain.", 
        "Meanwhile, melt butter in a small saucepan over low heat. Blend in flour, milk, and salt. Cook and stir until slightly thickened, and then fold in cheese.", 
        "Transfer cabbage to prepared casserole dish, and stir in cheese sauce. Sprinkle cracker crumbs on top.", 
        "Bake for 25 to 30 minutes in the preheated oven, or until top is browned."
    ], 
    "prep_time": "50 mins", 
    "recipe_name": "Beth's Scalloped Cabbage"
}