{
    "ingredients": [
        {
            "amount": "4", 
            "ingredient": "skinless, boneless chicken breast halves"
        }, 
        {
            "amount": "1 (32 ounce) bottle", 
            "ingredient": "bottled Bloody Mary mix"
        }
    ], 
    "prep_steps": [
        "Wash, skin and remove fat from chicken breasts and place in a slow cooker.", 
        "Pour Bloody Mary mix over the chicken breasts, turn slow cooker to low and cook on low for 8 hours."
    ], 
    "recipe_name": "Bloody Mary Chicken"
}