{
    "ingredients": [
        {
            "amount": "1 1/2 cups", 
            "ingredient": "white sugar"
        }, 
        {
            "amount": "1 1/2 cups", 
            "ingredient": "water"
        }, 
        {
            "amount": "1/4 teaspoon", 
            "ingredient": "ground cinnamon"
        }, 
        {
            "amount": "1/8 teaspoon", 
            "ingredient": "ground nutmeg"
        }, 
        {
            "amount": "6 drops", 
            "ingredient": "red food coloring"
        }, 
        {
            "amount": "3 tablespoons", 
            "ingredient": "butter"
        }, 
        {
            "amount": "2 cups", 
            "ingredient": "sifted all-purpose flour"
        }, 
        {
            "amount": "2 teaspoons", 
            "ingredient": "baking powder"
        }, 
        {
            "amount": "1 teaspoon", 
            "ingredient": "salt"
        }, 
        {
            "amount": "2/3 cup", 
            "ingredient": "shortening"
        }, 
        {
            "amount": "1/2 cup", 
            "ingredient": "milk"
        }, 
        {
            "amount": "6", 
            "ingredient": "apples, peeled and cored"
        }, 
        {
            "amount": "6 teaspoons", 
            "ingredient": "white sugar"
        }, 
        {
            "amount": "1 tablespoon", 
            "ingredient": "ground cinnamon"
        }, 
        {
            "amount": "2 teaspoons", 
            "ingredient": "ground nutmeg"
        }, 
        {
            "amount": "6 tablespoons", 
            "ingredient": "butter"
        }
    ], 
    "prep_steps": [
        "Preheat oven to 375 degrees F (190 degrees C).", 
        "In a medium saucepan over medium heat, combine 1 1/2 cups sugar, water, 1/4 teaspoon cinnamon, 1/8 teaspoon nutmeg and food coloring. Bring to a boil, remove from heat and stir in 3 tablespoons butter. Set aside.", 
        "In a large bowl, combine flour, baking powder and salt. Cut in shortening, using knives or pastry blender, until mixture resembles coarse crumbs. Pour in milk, all at once, and stir to form a dough. On a floured surface, roll dough into a 1/4 inch thick, 12x18 rectangle. Cut into 6 - 6 inch squares.", 
        "Place a whole, peeled and cored apple in the center of each pastry square. Dust each apple with a mixture of the of sugar, cinnamon and nutmeg. Dot with a tablespoon of butter. Moisten the edges of the pastry square, bring the corners together at the top of the apple, and press edges together to seal. Place dumplings 1 inch apart on a baking sheet.", 
        "Pour the syrup over the dumplings and sprinkle with additional sugar, if desired.", 
        "Bake in preheated oven for 35 minutes, until apples are tender."
    ], 
    "prep_time": "55 mins", 
    "recipe_name": "Apple Dumplings II"
}