{
    "ingredients": [
        {
            "amount": "5 ounces", 
            "ingredient": "cream cheese, softened"
        }, 
        {
            "amount": "1 1/2 cups", 
            "ingredient": "shredded Cheddar cheese"
        }, 
        {
            "amount": "1 (4 ounce) can", 
            "ingredient": "chopped green chilies"
        }, 
        {
            "amount": "1 tablespoon", 
            "ingredient": "chili powder"
        }, 
        {
            "amount": "3/4 cup", 
            "ingredient": "enchilada sauce"
        }, 
        {
            "amount": "6", 
            "ingredient": "button mushrooms, sliced"
        }, 
        {
            "amount": "3/4 cup", 
            "ingredient": "heavy cream"
        }, 
        {
            "amount": "6", 
            "ingredient": "skinless, boneless chicken breast halves"
        }
    ], 
    "prep_steps": [
        "Preheat oven to 350 degrees F (175 degrees C). Spray a 9x13 inch baking dish with nonstick cooking spray.", 
        "Mix the cream cheese, Cheddar cheese, green chilies, chili powder, enchilada sauce, button mushrooms, and heavy cream in a large bowl. Arrange chicken breasts in the prepared baking dish; pour sauce over.", 
        "Bake in preheated oven until the juices run clear, about 40 minutes."
    ], 
    "prep_time": "50 mins", 
    "recipe_name": "Fierro Chicken"
}