{
    "ingredients": [
        {
            "amount": "1/4 cup", 
            "ingredient": "steak sauce (such as A1\u00ae)"
        }, 
        {
            "amount": "1/4 cup", 
            "ingredient": "ketchup"
        }, 
        {
            "amount": "1 tablespoon", 
            "ingredient": "Worcestershire sauce"
        }, 
        {
            "amount": "1 tablespoon", 
            "ingredient": "soy sauce"
        }, 
        {
            "amount": "1 tablespoon", 
            "ingredient": "minced garlic"
        }, 
        {
            "amount": "1/4 cup", 
            "ingredient": "water"
        }, 
        {
            "amount": "4 (6 ounce)", 
            "ingredient": "country style pork ribs"
        }, 
        {
            "amount": "1", 
            "ingredient": "onion, cut into rings"
        }
    ], 
    "prep_steps": [
        "Whisk together steak sauce, ketchup, Worcestershire sauce, soy sauce, garlic, and water in a bowl until smooth.", 
        "Place the pork ribs in a saucepan with a lid, and pour the sauce over the ribs. Spread raw onion rings over the ribs, and cover the pan. Bring to a boil over medium heat, and simmer the ribs in the sauce for 45 minutes, or until tender."
    ], 
    "prep_time": "1 hr", 
    "recipe_name": "Best Stovetop BBQ Ribs"
}