{
    "ingredients": [
        {
            "amount": "1/2 cup", 
            "ingredient": "butter"
        }, 
        {
            "amount": "1 cup", 
            "ingredient": "all-purpose flour"
        }, 
        {
            "amount": "1 cup", 
            "ingredient": "white sugar"
        }, 
        {
            "amount": "1 teaspoon", 
            "ingredient": "baking powder"
        }, 
        {
            "amount": "1 cup", 
            "ingredient": "milk"
        }, 
        {
            "amount": "1 (21 ounce) can", 
            "ingredient": "cherry pie filling"
        }
    ], 
    "prep_steps": [
        "Preheat oven to 275 degrees F (135 degrees C). Place butter or margarine in a 9x13 inch baking dish and set on oven rack to melt.", 
        "In a medium bowl, mix together flour, sugar, and baking powder. Stir in milk.", 
        "Remove baking dish from oven as soon as butter or margarine is melted. Pour flour mixture into dish, but DO NOT STIR. Pour fruit evenly into pan, and DO NOT STIR.", 
        "Raise oven temperature to 350 degrees F (175 degrees C). Bake cobbler for 50 to 60 minutes, until golden brown."
    ], 
    "recipe_name": "Cherry Cobbler II"
}