{
    "ingredients": [
        {
            "amount": "1 tablespoon", 
            "ingredient": "olive oil"
        }, 
        {
            "amount": "2", 
            "ingredient": "yellow squash, sliced"
        }, 
        {
            "amount": "2", 
            "ingredient": "zucchini, sliced"
        }, 
        {
            "amount": "1", 
            "ingredient": "onion, chopped"
        }, 
        {
            "amount": "1", 
            "ingredient": "green bell pepper, chopped"
        }, 
        {
            "amount": "2 cloves", 
            "ingredient": "crushed garlic"
        }, 
        {
            "amount": "1 (16 ounce) can", 
            "ingredient": "diced tomatoes"
        }, 
        {
            "amount": "1/2 teaspoon", 
            "ingredient": "dried basil"
        }, 
        {
            "amount": "2 teaspoons", 
            "ingredient": "dried oregano"
        }, 
        {
            "amount": "1/4 cup", 
            "ingredient": "grated Parmesan cheese"
        }
    ], 
    "prep_steps": [
        "Preheat oven to 325 degrees F (165 degrees C).", 
        "In a large saute pan heat olive oil over medium heat. Add squash, zucchini, onion, green bell pepper, and garlic. Saute until all vegetables are soft. Add tomatoes with juice. Season with basil, oregano, salt, and pepper.", 
        "Transfer ingredients to a glass baking dish. Bake for 20 minutes in the preheated oven. Sprinkle with Parmesan cheese and bake another 10 minutes."
    ], 
    "prep_time": "1 hr", 
    "recipe_name": "Vegetable Medley I"
}