{
    "ingredients": [
        {
            "amount": "35", 
            "ingredient": "graham crackers"
        }, 
        {
            "amount": "1 cup", 
            "ingredient": "packed brown sugar"
        }, 
        {
            "amount": "1 cup", 
            "ingredient": "butter"
        }, 
        {
            "amount": "1/4 teaspoon", 
            "ingredient": "cream of tartar"
        }, 
        {
            "amount": "1 cup", 
            "ingredient": "chopped pecans"
        }
    ], 
    "prep_steps": [
        "Preheat oven to 325 degrees F (170 degrees C).", 
        "Place crackers on 10x15-inch sheet cake pan, covering bottom.", 
        "Bring sugar, butter, and cream of tartar to a boil in a saucepan. Add nuts; pour mixture oven the top of the crackers.", 
        "Bake in preheated oven for 10 minutes. Cool for a few minutes in the pan; remove from pan while still warm."
    ], 
    "prep_time": "20 mins", 
    "recipe_name": "Pecan Praline Cookies"
}