{
    "ingredients": [
        {
            "amount": "1 (12 fluid ounce) can", 
            "ingredient": "frozen lemonade concentrate, thawed"
        }, 
        {
            "amount": "4 1/2 cups", 
            "ingredient": "water"
        }, 
        {
            "amount": "1 (10 ounce) package", 
            "ingredient": "frozen strawberries, partially thawed"
        }
    ], 
    "prep_steps": [
        "In a large pitcher, mix together lemonade concentrate and water. Stir in strawberries."
    ], 
    "prep_time": "5 mins", 
    "recipe_name": "Easy Strawberry Lemonade"
}