{
    "ingredients": [
        {
            "amount": "1 cup", 
            "ingredient": "butter"
        }, 
        {
            "amount": "3 cups", 
            "ingredient": "shredded Monterey Jack cheese"
        }, 
        {
            "amount": "1 cup", 
            "ingredient": "sour cream"
        }, 
        {
            "amount": "2 (4 ounce) cans", 
            "ingredient": "diced green chilies, drained"
        }
    ], 
    "prep_steps": [
        "Melt butter in a saucepan over medium heat. Reduce heat to medium-low, and stir in shredded cheese until melted. Mix in sour cream and green chilies, and cook, stirring occasionally just until heated through. Do not allow to boil."
    ], 
    "prep_time": "30 mins", 
    "recipe_name": "White Cheese Sauce"
}