{
    "ingredients": [
        {
            "amount": "2 cups", 
            "ingredient": "all-purpose flour"
        }, 
        {
            "amount": "1 teaspoon", 
            "ingredient": "salt"
        }, 
        {
            "amount": "1 1/2 teaspoons", 
            "ingredient": "baking soda"
        }, 
        {
            "amount": "1/3 cup", 
            "ingredient": "unsweetened cocoa powder"
        }, 
        {
            "amount": "1 cup", 
            "ingredient": "white sugar"
        }, 
        {
            "amount": "2", 
            "ingredient": "eggs"
        }, 
        {
            "amount": "2 cups", 
            "ingredient": "grated zucchini"
        }, 
        {
            "amount": "1/2 cup", 
            "ingredient": "vegetable oil"
        }, 
        {
            "amount": "1 teaspoon", 
            "ingredient": "vanilla extract"
        }, 
        {
            "amount": "1/2 cup", 
            "ingredient": "chopped walnuts"
        }
    ], 
    "prep_steps": [
        "Preheat oven to 350 degrees F (175 degrees C). Grease a 10x15 inch jellyroll pan.", 
        "In a large mixing bowl, sift together flour, salt, soda, cocoa, and sugar. Combine eggs, zucchini, oil, and vanilla; blend into dry ingredients. Stir in walnuts.", 
        "Bake for 20 minutes in preheated oven. Cool in the pan, and then cut into bars."
    ], 
    "prep_time": "45 mins", 
    "recipe_name": "Cassie's Zucchini Brownies"
}