{
    "ingredients": [
        {
            "amount": "10", 
            "ingredient": "chicken legs"
        }, 
        {
            "amount": "1 cup", 
            "ingredient": "melted butter"
        }, 
        {
            "amount": "2 cups", 
            "ingredient": "dry potato flakes"
        }
    ], 
    "prep_steps": [
        "Preheat oven to 400 degrees F (200 degrees C).", 
        "Place melted butter or margarine in a shallow dish or bowl, then place potato flakes in a separate shallow dish or bowl. Roll chicken pieces in butter or margarine, then in potato flakes. Place coated chicken pieces in a 9x13 inch baking dish, skin side up.", 
        "Bake at 400 degrees F (200 degrees C) for 1 hour."
    ], 
    "prep_time": "1\u00bd hrs", 
    "recipe_name": "Tater Crisp Chicken"
}