{
    "ingredients": [
        {
            "amount": "1 (16 ounce) package", 
            "ingredient": "dried navy beans"
        }, 
        {
            "amount": "9 cups", 
            "ingredient": "water"
        }, 
        {
            "amount": "1 pound", 
            "ingredient": "bacon"
        }, 
        {
            "amount": "2", 
            "ingredient": "onions, chopped"
        }, 
        {
            "amount": "2 stalks", 
            "ingredient": "celery, chopped"
        }, 
        {
            "amount": "4 teaspoons", 
            "ingredient": "chicken bouillon"
        }, 
        {
            "amount": "1", 
            "ingredient": "bay leaf"
        }, 
        {
            "amount": "1/3 teaspoon", 
            "ingredient": "salt"
        }, 
        {
            "amount": "1/4 teaspoon", 
            "ingredient": "ground black pepper"
        }, 
        {
            "amount": "1/8 teaspoon", 
            "ingredient": "ground cloves"
        }, 
        {
            "amount": "1 (16 ounce) can", 
            "ingredient": "diced tomatoes"
        }, 
        {
            "amount": "4 cups", 
            "ingredient": "water"
        }
    ], 
    "prep_steps": [
        "Boil the beans in 9 cups of the water and then let sit for one hour. Drain and set aside.", 
        "Cook the bacon to your desired texture (it can be soft or crisp, whatever you prefer) and drain except for 1/4 cup grease. Coarsely chop the bacon.", 
        "Add the onions and celery to the reserved grease and bacon and saute until soft, do not drain. Add the chicken base or cubes, 4 cups water, beans, bay leaf, salt, pepper, and cloves, and simmer for 2 hours.", 
        "Stir in the tomatoes with their juice. Serve."
    ], 
    "prep_time": "2\u00be hrs", 
    "recipe_name": "Bean with Bacon"
}