{
    "ingredients": [
        {
            "amount": "2 1/2 cups", 
            "ingredient": "peeled, cored and sliced apples"
        }, 
        {
            "amount": "1 teaspoon", 
            "ingredient": "ground cinnamon"
        }, 
        {
            "amount": "1 teaspoon", 
            "ingredient": "white sugar"
        }, 
        {
            "amount": "1 cup", 
            "ingredient": "white sugar"
        }, 
        {
            "amount": "3/4 cup", 
            "ingredient": "margarine, melted"
        }, 
        {
            "amount": "1/2 cup", 
            "ingredient": "chopped pecans"
        }, 
        {
            "amount": "1 cup", 
            "ingredient": "all-purpose flour"
        }, 
        {
            "amount": "1", 
            "ingredient": "egg, lightly beaten"
        }, 
        {
            "amount": "1 pinch", 
            "ingredient": "salt"
        }
    ], 
    "prep_steps": [
        "Preheat oven to 350 degrees F (175 degrees C). Lightly grease a 9 inch pie pan with margarine.", 
        "Fill 2/3 of the pan with sliced apples. Sprinkle with cinnamon and 1 teaspoon sugar.", 
        "In a medium bowl, mix 1 cup sugar with the melted margarine. Stir in pecans, flour, egg and salt. Mix well. Spread mixture over the apples.", 
        "Bake in preheated oven for 65 minutes, or until golden brown."
    ], 
    "prep_time": "1\u00bd hrs", 
    "recipe_name": "Swedish Apple Pie"
}