{
    "ingredients": [
        {
            "amount": "1/2 cup", 
            "ingredient": "butter"
        }, 
        {
            "amount": "1 large", 
            "ingredient": "onion, chopped"
        }, 
        {
            "amount": "1 (16 ounce) package", 
            "ingredient": "frozen chopped broccoli"
        }, 
        {
            "amount": "1/3 cup", 
            "ingredient": "milk"
        }, 
        {
            "amount": "1 (10.75 ounce) can", 
            "ingredient": "Campbell's\u00ae Condensed Cream of Chicken Soup (Regular or 98% Fat Free)"
        }, 
        {
            "amount": "1 (8 fl oz) jar", 
            "ingredient": "pasteurized process cheese sauce (like Cheez Whiz\u00ae)"
        }, 
        {
            "amount": "1 1/2 cups", 
            "ingredient": "cooked regular long-grain white rice"
        }
    ], 
    "prep_steps": [
        "Heat the butter in a 10-inch skillet over medium heat. Add the onion and cook until tender-crisp, stirring occasionally.", 
        "Stir the broccoli in the skillet and cook until it's tender-crisp, stirring occasionally. Stir in the milk, soup, cheese sauce and rice. Cook and stir until the cheese is melted. Pour the broccoli mixture into a 2-quart shallow baking dish.", 
        "Bake at 350 degrees F. for 30 minutes or until the mixture is hot and bubbling."
    ], 
    "prep_time": "50 mins", 
    "recipe_name": "Broccoli Rice Casserole"
}