{
    "ingredients": [
        {
            "amount": "2 1/2 cups", 
            "ingredient": "graham cracker crumbs"
        }, 
        {
            "amount": "1/2 cup", 
            "ingredient": "white sugar"
        }, 
        {
            "amount": "1/2 cup", 
            "ingredient": "melted butter"
        }, 
        {
            "amount": "3 (8 ounce) packages", 
            "ingredient": "cream cheese, softened"
        }, 
        {
            "amount": "2 (14 ounce) cans", 
            "ingredient": "sweetened condensed milk"
        }, 
        {
            "amount": "1/2 cup", 
            "ingredient": "lemon juice"
        }, 
        {
            "amount": "1 teaspoon", 
            "ingredient": "vanilla extract"
        }, 
        {
            "amount": "1 (12 ounce) container", 
            "ingredient": "frozen whipped topping, thawed"
        }, 
        {
            "amount": "2 (21 ounce) cans", 
            "ingredient": "cherry pie filling"
        }
    ], 
    "prep_steps": [
        "Stir together graham cracker crumbs, sugar, and melted butter. Press into a 9x13 inch baking dish.", 
        "Use an electric mixer to beat the cream cheese until smooth. Beat in the sweetened condensed milk, lemon juice, and vanilla extract until well blended and smooth. Fold in whipped topping. Pour filling into crust and smooth the top.", 
        "Top with cherry pie filling. Refrigerate until firm, 2 to 3 hours."
    ], 
    "prep_time": "2\u00bd hrs", 
    "recipe_name": "10 Pound Cheesecake"
}