{
    "ingredients": [
        {
            "amount": "2 tablespoons", 
            "ingredient": "olive oil"
        }, 
        {
            "amount": "3 tablespoons", 
            "ingredient": "all-purpose flour"
        }, 
        {
            "amount": "2 pounds", 
            "ingredient": "beef chuck, cut into 1 1/2-inch cubes"
        }, 
        {
            "amount": "1 pound", 
            "ingredient": "carrots, peeled and cut into 1-inch chunks"
        }, 
        {
            "amount": "6 large", 
            "ingredient": "potatoes, peeled and cut into large chunks"
        }, 
        {
            "amount": "1", 
            "ingredient": "white onion, cut into large chunks"
        }, 
        {
            "amount": "2 cloves", 
            "ingredient": "garlic, minced"
        }, 
        {
            "amount": "2 cups", 
            "ingredient": "beef broth"
        }, 
        {
            "amount": "1 (6 ounce) can", 
            "ingredient": "tomato paste"
        }, 
        {
            "amount": "1 (12 fluid ounce) can or bottle", 
            "ingredient": "Irish stout beer (e.g. Guinness\u00ae)"
        }, 
        {
            "amount": "1 tablespoon", 
            "ingredient": "cold water"
        }, 
        {
            "amount": "1 tablespoon", 
            "ingredient": "cornstarch"
        }
    ], 
    "prep_steps": [
        "Heat the oil in a large skillet over medium heat. Toss beef cubes with flour to coat, then fry in the hot oil until browned. Place the carrots, potatoes, onion and garlic in a large slow cooker. Place the meat on top of the vegetables. Mix together the beef broth and tomato paste and pour into the slow cooker along with the beer.", 
        "Cover and cook on High for 6 hours or Low for 8 hours. During the last hour before serving, dissolve the cornstarch in cold water and then stir into the broth. Simmer on the High setting for a few minutes to thicken."
    ], 
    "prep_time": "6 hrs", 
    "recipe_name": "Irish Beef Stew"
}