{
    "ingredients": [
        {
            "amount": "2 tablespoons", 
            "ingredient": "extra-virgin olive oil"
        }, 
        {
            "amount": "4 cloves", 
            "ingredient": "garlic, minced"
        }, 
        {
            "amount": "1 bunch", 
            "ingredient": "Swiss chard, stalks discarded, leaves cut into wide ribbons"
        }, 
        {
            "amount": "1/4 cup", 
            "ingredient": "balsamic vinegar"
        }
    ], 
    "prep_steps": [
        "Heat the olive oil on a large skillet over medium heat. Stir in the garlic and cook until tender and aromatic, about 2 minutes. Add the Swiss chard and balsamic vinegar; cook and stir until the chard is wilted and tender, about 5 minutes. Season with salt and pepper and serve."
    ], 
    "prep_time": "20 mins", 
    "recipe_name": "Simple Swiss Chard"
}