{
    "ingredients": [
        {
            "amount": "3/4 cup", 
            "ingredient": "SPLENDA\u00ae Sugar Blend"
        }, 
        {
            "amount": "3/4 cup", 
            "ingredient": "flax seed meal"
        }, 
        {
            "amount": "5", 
            "ingredient": "ripe bananas, mashed"
        }, 
        {
            "amount": "1/4 cup", 
            "ingredient": "skim milk"
        }, 
        {
            "amount": "1/4 cup", 
            "ingredient": "low-fat sour cream"
        }, 
        {
            "amount": "2 teaspoons", 
            "ingredient": "egg whites"
        }, 
        {
            "amount": "2 cups", 
            "ingredient": "whole wheat flour"
        }, 
        {
            "amount": "1 teaspoon", 
            "ingredient": "baking soda"
        }, 
        {
            "amount": "1/2 teaspoon", 
            "ingredient": "salt"
        }
    ], 
    "prep_steps": [
        "Preheat the oven to 350 degrees F (175 degrees C). Grease and a 9x5 inch loaf pan.", 
        "In a medium bowl, mix together the sugar blend, flax meal, bananas, milk, sour cream and egg whites until well blended. Combine the flour, baking soda and salt; stir into the banana mixture until moistened. Spoon into prepared loaf pan.", 
        "Bake for 1 hour and 10 minutes in the preheated oven, or until a toothpick inserted into the crown of the loaf comes out clean."
    ], 
    "prep_time": "1\u00bc hrs", 
    "recipe_name": "Whole Grain Healthy Banana Bread"
}