{
    "ingredients": [
        {
            "amount": "1 (1.4 ounce) package", 
            "ingredient": "sugar-free instant pudding mix"
        }, 
        {
            "amount": "1 3/4 cups", 
            "ingredient": "milk"
        }, 
        {
            "amount": "1 (8 ounce) package", 
            "ingredient": "cream cheese"
        }, 
        {
            "amount": "1 (8 ounce) container", 
            "ingredient": "lite frozen whipped topping, thawed"
        }
    ], 
    "prep_steps": [
        "In a medium bowl, combine pudding mix and milk. Mix well and let stand until thickened.", 
        "In a large bowl, beat cream cheese until smooth. Add pudding and mix well. Finally, fold in whipped topping."
    ], 
    "prep_time": "30 mins", 
    "recipe_name": "Sugar-Free Frosting"
}