{
    "ingredients": [
        {
            "amount": "80", 
            "ingredient": "buttery round crackers"
        }, 
        {
            "amount": "1 1/2 cups", 
            "ingredient": "graham cracker crumbs"
        }, 
        {
            "amount": "3/4 cup", 
            "ingredient": "packed brown sugar"
        }, 
        {
            "amount": "1 cup", 
            "ingredient": "white sugar"
        }, 
        {
            "amount": "3/4 cup", 
            "ingredient": "butter"
        }, 
        {
            "amount": "1/3 cup", 
            "ingredient": "milk"
        }, 
        {
            "amount": "1 cup", 
            "ingredient": "butterscotch chips"
        }, 
        {
            "amount": "1 cup", 
            "ingredient": "semisweet chocolate chips"
        }, 
        {
            "amount": "3/4 cup", 
            "ingredient": "peanut butter"
        }
    ], 
    "prep_steps": [
        "Put graham cracker crumbs, brown sugar, white sugar, butter and milk into a saucepan and bring it to a boil. Boil for 5 minutes.", 
        "Put a layer of buttery round crackers in a 9x13 inch pan and pour 1/2 of the graham cracker crumb mixture over it. Put another layer of crackers and pour the remaining mixture. Add last row of crackers.", 
        "To Make Topping: Melt over low heat the butterscotch chips, chocolate chips, and peanut butter. Melt at low heat and spread over the top."
    ], 
    "recipe_name": "Kitty Kat Bars"
}