{
    "ingredients": [
        {
            "amount": "1 teaspoon", 
            "ingredient": "butter"
        }, 
        {
            "amount": "1 teaspoon", 
            "ingredient": "olive oil"
        }, 
        {
            "amount": "12", 
            "ingredient": "Brussels sprouts, trimmed and thinly sliced"
        }, 
        {
            "amount": "1 tablespoon", 
            "ingredient": "lemon juice"
        }
    ], 
    "prep_steps": [
        "Heat butter and olive oil in a skillet over high heat until butter is melted and begins to brown, 1 to 2 minutes.", 
        "Stir Brussels sprouts and lemon juice into butter and oil; cook, stirring constantly, until sprouts are just heated through and starting to soften, about 45 seconds. Remove from heat.", 
        "Season with salt and pepper and serve."
    ], 
    "prep_time": "10 mins", 
    "recipe_name": "Truly Delicious Brussels Sprouts"
}