{
    "ingredients": [
        {
            "amount": "4", 
            "ingredient": "skinless, boneless chicken breast halves - cooked and cubed"
        }, 
        {
            "amount": "1 (10.75 ounce) can", 
            "ingredient": "condensed cream of mushroom soup"
        }, 
        {
            "amount": "1 (10.75 ounce) can", 
            "ingredient": "condensed cream of chicken soup"
        }, 
        {
            "amount": "1/2 (8 ounce) package", 
            "ingredient": "cream cheese"
        }, 
        {
            "amount": "1/2 cup", 
            "ingredient": "sour cream"
        }, 
        {
            "amount": "1 cup", 
            "ingredient": "crushed buttery round crackers"
        }
    ], 
    "prep_steps": [
        "In a large saucepan over medium low heat combine the chicken, cream of mushroom soup, cream of chicken soup, cream cheese, sour cream and 2/3 of the cracker crumbs. Mix well and cook until all blended together and cream cheese has melted.", 
        "Preheat oven to 350 degrees F (175 degrees C).", 
        "Transfer casserole mixture into a lightly greased 9x13 inch baking dish and top with remaining cracker crumbs.", 
        "Bake at 350 degrees F (175 degrees C) for about 15 minutes or until crackers turn golden brown. Spoon into bowls and enjoy!"
    ], 
    "prep_time": "25 mins", 
    "recipe_name": "Sour Cream Cheese Casserole"
}