{
    "ingredients": [
        {
            "amount": "2 tablespoons", 
            "ingredient": "olive oil"
        }, 
        {
            "amount": "1 tablespoon", 
            "ingredient": "minced garlic"
        }, 
        {
            "amount": "1 tablespoon", 
            "ingredient": "ground cumin, or to taste"
        }, 
        {
            "amount": "1 tablespoon", 
            "ingredient": "ground curry powder, or to taste"
        }, 
        {
            "amount": "1 tablespoon", 
            "ingredient": "chili powder, or to taste"
        }, 
        {
            "amount": "1 cube", 
            "ingredient": "vegetable bouillon"
        }, 
        {
            "amount": "1 cup", 
            "ingredient": "water"
        }, 
        {
            "amount": "1 tablespoon", 
            "ingredient": "soy sauce"
        }, 
        {
            "amount": "1 cup", 
            "ingredient": "uncooked white rice"
        }
    ], 
    "prep_steps": [
        "Heat olive oil in a medium saucepan over low heat. Sweat the garlic; when the garlic becomes aromatic, slowly stir in pepper, cumin, curry powder and chili powder. When spices begin to fry and become fragrant, stir in the bouillon cube and a little water.", 
        "Increase heat to high and add the rest of the water and the soy sauce. Just before the mixture comes to a boil, stir in rice. Bring to a rolling boil; reduce heat to low, cover, and simmer 15 to 20 minutes, or until all liquid is absorbed.", 
        "Remove from heat and let stand 5 minutes."
    ], 
    "prep_time": "30 mins", 
    "recipe_name": "Vegan Curried Rice"
}