{
    "ingredients": [
        {
            "amount": "1 1/3 tablespoons", 
            "ingredient": "olive oil"
        }, 
        {
            "amount": "1", 
            "ingredient": "onion, chopped"
        }, 
        {
            "amount": "2 cloves", 
            "ingredient": "garlic, peeled and minced"
        }, 
        {
            "amount": "1 tablespoon", 
            "ingredient": "dried oregano"
        }, 
        {
            "amount": "1 (14.5 ounce) can", 
            "ingredient": "diced tomatoes, drained"
        }, 
        {
            "amount": "1/2 cup", 
            "ingredient": "dry white wine"
        }, 
        {
            "amount": "1 (15 ounce) can", 
            "ingredient": "chickpeas (garbanzo beans), drained"
        }, 
        {
            "amount": "3/4 cup", 
            "ingredient": "crumbled feta cheese"
        }
    ], 
    "prep_steps": [
        "Heat oil in a medium skillet over medium heat, and stir in the onion, garlic, and oregano. Cook and stir about 10 minutes, until onions are tender.", 
        "Mix tomatoes into the skillet, and cook until heated through. Mix in wine, and continue cooking about 15 minutes, until thickened.", 
        "Stir garbanzo beans and feta cheese into the skillet, and cook 5 minutes, until the cheese has melted. Season with salt and pepper. Remove from heat, and allow to cool about 5 minutes before serving."
    ], 
    "prep_time": "45 mins", 
    "recipe_name": "Chickpeas in Tomato Sauce With Feta and Wine"
}