{
    "ingredients": [
        {
            "amount": "1 tablespoon", 
            "ingredient": "vegetable oil"
        }, 
        {
            "amount": "2 cups", 
            "ingredient": "uncooked long-grain white rice"
        }, 
        {
            "amount": "1/4", 
            "ingredient": "onion, chopped"
        }, 
        {
            "amount": "1", 
            "ingredient": "green bell pepper, chopped"
        }, 
        {
            "amount": "1 (14.5 ounce) can", 
            "ingredient": "stewed tomatoes"
        }, 
        {
            "amount": "4 cups", 
            "ingredient": "water"
        }
    ], 
    "prep_steps": [
        "In a large skillet, combine oil, rice, onion, green pepper and salt and pepper until the rice is a light brown color. Remove skillet from stove.", 
        "Mix tomatoes into the mixture. Pour in water (it should cover the entire mixture; use more if necessary). Return the skillet to the stovetop and bring the mixture to a full boil; salt and pepper to taste. When the mixture begins to boil, cover the skillet, and reduce heat to a simmer. Cook 12 to 15 minutes and never, I mean NEVER, remove the cover. After 12 to 15 minutes, turn stove off and let stand for another 12 to 15 minutes. DO NOT remove cover until the final 15 minutes has elapsed!"
    ], 
    "prep_time": "1 hr", 
    "recipe_name": "Spanish Rice"
}