{
    "ingredients": [
        {
            "amount": "2 pounds", 
            "ingredient": "lean ground beef"
        }, 
        {
            "amount": "2 large", 
            "ingredient": "yellow onions, chopped"
        }, 
        {
            "amount": "3 cloves", 
            "ingredient": "garlic, chopped"
        }, 
        {
            "amount": "3 cups", 
            "ingredient": "water"
        }, 
        {
            "amount": "2 (15 ounce) cans", 
            "ingredient": "tomato sauce"
        }, 
        {
            "amount": "2 (14.5 ounce) cans", 
            "ingredient": "diced tomatoes"
        }, 
        {
            "amount": "3 tablespoons", 
            "ingredient": "soy sauce"
        }, 
        {
            "amount": "2 tablespoons", 
            "ingredient": "dried Italian herb seasoning"
        }, 
        {
            "amount": "3", 
            "ingredient": "bay leaves"
        }, 
        {
            "amount": "1 tablespoon", 
            "ingredient": "seasoned salt, or to taste"
        }, 
        {
            "amount": "2 cups", 
            "ingredient": "uncooked elbow macaroni"
        }
    ], 
    "prep_steps": [
        "In a large Dutch oven, cook and stir the ground beef over medium-high heat, breaking the meat up as it cooks, until the meat is no longer pink and has started to brown, about 10 minutes. Skim off excess fat, and stir in the onions and garlic. Cook and stir the meat mixture until the onions are translucent, about 10 more minutes.", 
        "Stir in water, tomato sauce, diced tomatoes, soy sauce, Italian seasoning, bay leaves, and seasoned salt, and bring the mixture to a boil over medium heat. Reduce the heat to low, cover, and simmer 20 minutes, stirring occasionally.", 
        "Stir in the macaroni, cover, and simmer over low heat until the pasta is tender, about 25 minutes, stirring occasionally. Remove from heat, discard bay leaves, and serve."
    ], 
    "prep_time": "1\u00bd hrs", 
    "recipe_name": "Classic Goulash"
}