{
    "ingredients": [
        {
            "amount": "2 tablespoons", 
            "ingredient": "olive oil"
        }, 
        {
            "amount": "2 cloves", 
            "ingredient": "garlic, minced"
        }, 
        {
            "amount": "2 cups", 
            "ingredient": "orzo pasta"
        }, 
        {
            "amount": "1", 
            "ingredient": "zucchini, peeled and shredded"
        }, 
        {
            "amount": "1", 
            "ingredient": "carrot, peeled and shredded"
        }, 
        {
            "amount": "1 (16 ounce) can", 
            "ingredient": "stewed tomatoes, undrained"
        }, 
        {
            "amount": "1 (14 ounce) can", 
            "ingredient": "vegetable broth"
        }, 
        {
            "amount": "1 teaspoon", 
            "ingredient": "Italian seasoning"
        }, 
        {
            "amount": "1 teaspoon", 
            "ingredient": "dried basil leaves"
        }, 
        {
            "amount": "1/4 cup", 
            "ingredient": "chopped green onions"
        }, 
        {
            "amount": "1/4 cup", 
            "ingredient": "chopped fresh parsley"
        }, 
        {
            "amount": "2 teaspoons", 
            "ingredient": "grated lime zest"
        }, 
        {
            "amount": "2 tablespoons", 
            "ingredient": "lime juice"
        }, 
        {
            "amount": "1/2 cup", 
            "ingredient": "grated Parmesan cheese for topping"
        }
    ], 
    "prep_steps": [
        "Heat the olive oil in a large skillet over medium-high heat. Stir in the garlic and orzo pasta; cook and stir until pasta turns a light, golden color, about 5 minutes. Stir in zucchini and carrots; cook until vegetables soften, about 2 minutes. Stir in the tomatoes, vegetable broth, Italian seasoning, and basil. Season with salt and pepper to taste. Reduce heat to medium. Cover, and simmer until almost all liquid is absorbed, about 10 minutes. Stir in the green onions, parsley, lime zest, and lime juice. Remove from heat, cool slightly, and serve sprinkled with Parmesan cheese."
    ], 
    "prep_time": "52 mins", 
    "recipe_name": "Vegetarian Lime Orzo"
}