{
    "ingredients": [
        {
            "amount": "1/4 pound", 
            "ingredient": "chicken gizzards, rinsed"
        }, 
        {
            "amount": "1/2 pound", 
            "ingredient": "chicken livers, rinsed and trimmed"
        }, 
        {
            "amount": "1 tablespoon", 
            "ingredient": "vegetable oil"
        }, 
        {
            "amount": "1", 
            "ingredient": "onion, finely chopped"
        }, 
        {
            "amount": "3 cloves", 
            "ingredient": "garlic, minced"
        }, 
        {
            "amount": "2 cups", 
            "ingredient": "uncooked white rice"
        }, 
        {
            "amount": "4 cups", 
            "ingredient": "chicken broth"
        }, 
        {
            "amount": "1/2 teaspoon", 
            "ingredient": "ground black pepper"
        }, 
        {
            "amount": "1/4 teaspoon", 
            "ingredient": "cayenne pepper"
        }, 
        {
            "amount": "1 cup", 
            "ingredient": "thinly sliced green onions"
        }
    ], 
    "prep_steps": [
        "Pulse gizzards in food processor, then pulse livers.", 
        "Heat oil in a large saucepan. Saute onion and gizzards over medium heat, stirring constantly, until meat begins to brown (about 5 minutes). Add livers and garlic and cook, stirring constantly, until brown (about 3 minutes).", 
        "Add rice and stir until coated with oil. Add broth, salt, pepper and cayenne pepper. Bring to a boil, then reduce heat to simmer. Cover and cook about 20 minutes, until rice has absorbed liquid. Sprinkle with green onion and serve."
    ], 
    "prep_time": "45 mins", 
    "recipe_name": "Southern Dirty Rice"
}