{
    "ingredients": [
        {
            "amount": "1 pound", 
            "ingredient": "dry pinto beans"
        }, 
        {
            "amount": "5 cloves", 
            "ingredient": "garlic, chopped"
        }, 
        {
            "amount": "1 teaspoon", 
            "ingredient": "salt"
        }, 
        {
            "amount": "1/2 pound", 
            "ingredient": "bacon, diced"
        }, 
        {
            "amount": "1", 
            "ingredient": "onion, chopped"
        }, 
        {
            "amount": "2", 
            "ingredient": "fresh tomatoes, diced"
        }, 
        {
            "amount": "1 (3.5 ounce) can", 
            "ingredient": "sliced jalapeno peppers"
        }, 
        {
            "amount": "1 (12 fluid ounce) can", 
            "ingredient": "beer"
        }, 
        {
            "amount": "1/3 cup", 
            "ingredient": "chopped fresh cilantro"
        }
    ], 
    "prep_steps": [
        "Place pinto beans in a slow cooker, and completely cover with water. Mix in garlic and salt. Cover, and cook 1 hour on High.", 
        "Cook the bacon in a skillet over medium high heat until evenly brown, but still tender. Drain about half the fat. Place onion in the skillet, and cook until tender. Mix in tomatoes and jalapenos, and cook until heated through. Transfer to the slow cooker, stirring into the beans.", 
        "Cover slow cooker, and continue cooking 4 hours on Low. Mix in the beer and cilantro about 30 minutes before the end of the cook time."
    ], 
    "prep_time": "5 hrs", 
    "recipe_name": "Frijoles a la Charra"
}