{
    "ingredients": [
        {
            "amount": "2", 
            "ingredient": "bananas"
        }, 
        {
            "amount": "1 cup", 
            "ingredient": "milk"
        }, 
        {
            "amount": "1/4 cup", 
            "ingredient": "water"
        }, 
        {
            "amount": "2 tablespoons", 
            "ingredient": "brown sugar"
        }, 
        {
            "amount": "8 cubes", 
            "ingredient": "ice"
        }
    ], 
    "prep_steps": [
        "In a blender, combine bananas and milk. Pulse until bananas are chopped. Pour in water and brown sugar. Blend until smooth. Toss in the ice cubes and blend until smooth. Pour into 4 glasses and serve immediately."
    ], 
    "prep_time": "5 mins", 
    "recipe_name": "Banana Blast II"
}