{
    "ingredients": [
        {
            "amount": "2 1/2 cups", 
            "ingredient": "all-purpose flour"
        }, 
        {
            "amount": "1 cup", 
            "ingredient": "unsalted butter - chilled, cut into tablespoon-size pieces"
        }, 
        {
            "amount": "1/2 teaspoon", 
            "ingredient": "salt"
        }, 
        {
            "amount": "7 tablespoons", 
            "ingredient": "ice water"
        }, 
        {
            "amount": "1 tablespoon", 
            "ingredient": "cider vinegar"
        }
    ], 
    "prep_steps": [
        "Combine flour, salt, and butter in a food processor. Pulse until mixture resembles coarse crumbs, about 10 1-second pulses.", 
        "Stir water and vinegar in a small bowl.", 
        "Pour half the ice water and vinegar mixture into the flour and butter mixture. Pulse to combine, about 3 (1-second) pulses. Pour in remaining ice water and vinegar mixture. Pulse until mixture just starts to come together, about 8 (1-second) pulses.", 
        "Turn dough out onto a wooden surface, pat into round shape and divide in half. Form each half into a disc about 5 inches wide.", 
        "Wrap each disc in plastic wrap and refrigerate for at least 30 minutes until ready to use."
    ], 
    "prep_time": "40 mins", 
    "recipe_name": "Easy Homemade Pie Crust"
}