{
    "ingredients": [
        {
            "amount": "5 pounds", 
            "ingredient": "chicken wings, separated at joints, tips discarded"
        }, 
        {
            "amount": "3 tablespoons", 
            "ingredient": "hot sauce (such as Frank's Red Hot \u00ae)"
        }, 
        {
            "amount": "2 tablespoons", 
            "ingredient": "vegetable oil"
        }, 
        {
            "amount": "1 cup", 
            "ingredient": "all-purpose flour"
        }, 
        {
            "amount": "3", 
            "ingredient": "crushed garlic cloves"
        }, 
        {
            "amount": "2 tablespoons", 
            "ingredient": "minced fresh ginger root"
        }, 
        {
            "amount": "1 tablespoon", 
            "ingredient": "Asian chile pepper sauce"
        }, 
        {
            "amount": "1/2 cup", 
            "ingredient": "rice vinegar"
        }, 
        {
            "amount": "1/2 cup", 
            "ingredient": "packed brown sugar"
        }, 
        {
            "amount": "1 tablespoon", 
            "ingredient": "soy sauce"
        }
    ], 
    "prep_steps": [
        "Preheat oven to 400 degrees F (200 degrees C). Line 2 baking sheets with aluminum foil; grease the foil with cooking spray.", 
        "Place the chicken in a large mixing bowl. Season with salt, pepper, and hot sauce. Add the vegetable oil; toss to coat.", 
        "Place the flour and wings in a large, food-safe plastic bag. Hold the bag closed tightly, and shake to coat the wings entirely with the flour; no wet spots should remain. Arrange the wings on the prepared baking sheets, making sure none of the pieces are touching one another. Spray wings with additional cooking spray", 
        "Bake in the preheated oven for 30 minutes, turn all the wings, and return to the oven to cook until crispy and no longer pink in the center, about 30 minutes more.", 
        "Whisk together the garlic, ginger, chili paste, rice vinegar, brown sugar, and soy sauce in a saucepan. Bring the mixture to a boil and immediately remove from heat.", 
        "Put about half the wings in a large mixing bowl. Pour about half the sauce over the wings. Toss the wings with tongs to coat evenly; transfer to a tray and allow to sit about 5 minutes to allow the sauce to soak into the wings before serving. Repeat with remaining wings and sauce."
    ], 
    "prep_time": "1\u00bc hrs", 
    "recipe_name": "Garlic-Ginger Chicken Wings"
}