{
    "ingredients": [
        {
            "amount": "2", 
            "ingredient": "eggs, beaten"
        }, 
        {
            "amount": "4 cups", 
            "ingredient": "milk"
        }, 
        {
            "amount": "1/2 cup", 
            "ingredient": "white sugar"
        }, 
        {
            "amount": "1/2 cup", 
            "ingredient": "uncooked white rice"
        }, 
        {
            "amount": "1 tablespoon", 
            "ingredient": "butter"
        }, 
        {
            "amount": "1 teaspoon", 
            "ingredient": "vanilla extract"
        }, 
        {
            "amount": "1/2 cup", 
            "ingredient": "raisins"
        }, 
        {
            "amount": "1/8 teaspoon", 
            "ingredient": "ground nutmeg"
        }
    ], 
    "prep_steps": [
        "Preheat oven to 300 degrees F (150 degrees C). Grease a 2 quart baking dish.", 
        "Beat together the eggs and milk. Stir in white sugar, uncooked rice, butter, vanilla extract, raisins, and nutmeg. Pour into prepared pan.", 
        "Bake for 2 to 2 1/2 hours in the preheated oven. Stir frequently during the first hour."
    ], 
    "prep_time": "2\u00be hrs", 
    "recipe_name": "Old-Fashioned Rice Pudding I"
}