{
    "ingredients": [
        {
            "amount": "1/4 cup", 
            "ingredient": "extra virgin olive oil"
        }, 
        {
            "amount": "2 tablespoons", 
            "ingredient": "balsamic vinegar"
        }, 
        {
            "amount": "1 teaspoon", 
            "ingredient": "lemon juice"
        }, 
        {
            "amount": "1 tablespoon", 
            "ingredient": "bottled minced garlic"
        }, 
        {
            "amount": "1 pinch", 
            "ingredient": "sea salt"
        }, 
        {
            "amount": "1 pinch", 
            "ingredient": "ground black pepper"
        }, 
        {
            "amount": "4 ounces", 
            "ingredient": "baby spinach"
        }, 
        {
            "amount": "1 1/2 tablespoons", 
            "ingredient": "pine nuts"
        }
    ], 
    "prep_steps": [
        "In a bowl, mix the olive oil, vinegar, lemon juice, garlic, salt, and pepper.", 
        "Place the spinach over boiling water in a pot fitted with a steamer basket, and steam 2 to 3 minutes, until wilted but not soggy.", 
        "Toss spinach in a bowl with the dressing, and sprinkle with pine nuts to serve."
    ], 
    "prep_time": "20 mins", 
    "recipe_name": "Wilted Spinach"
}