{
    "ingredients": [
        {
            "amount": "1 (14.5 ounce) can", 
            "ingredient": "green beans, drained"
        }, 
        {
            "amount": "1 (14.5 ounce) can", 
            "ingredient": "wax beans, drained"
        }, 
        {
            "amount": "1 (15.5 ounce) can", 
            "ingredient": "garbanzo beans, drained"
        }, 
        {
            "amount": "1 (14.5 ounce) can", 
            "ingredient": "kidney beans, drained"
        }, 
        {
            "amount": "1 (14.5 ounce) can", 
            "ingredient": "black beans, drained"
        }, 
        {
            "amount": "1/2 cup", 
            "ingredient": "chopped green pepper"
        }, 
        {
            "amount": "1/2 cup", 
            "ingredient": "chopped onion"
        }, 
        {
            "amount": "1/2 cup", 
            "ingredient": "chopped celery"
        }, 
        {
            "amount": "1/2 cup", 
            "ingredient": "salad oil"
        }, 
        {
            "amount": "1/2 cup", 
            "ingredient": "vinegar"
        }, 
        {
            "amount": "1/2 teaspoon", 
            "ingredient": "salt"
        }, 
        {
            "amount": "1/2 teaspoon", 
            "ingredient": "ground black pepper"
        }, 
        {
            "amount": "3/4 cup", 
            "ingredient": "white sugar"
        }
    ], 
    "prep_steps": [
        "Combine the green beans, wax beans, garbanzo beans, kidney beans, green pepper, onion, and celery in a large bowl; toss to mix.", 
        "Whisk together the oil, vinegar, salt, pepper, and sugar in a separate bowl until the sugar is dissolved; pour over the bean mixture. Refrigerate 8 hours or overnight before serving."
    ], 
    "prep_time": "8 hrs", 
    "recipe_name": "Best Bean Salad"
}