{
    "ingredients": [
        {
            "amount": "2 pounds", 
            "ingredient": "ground beef chuck"
        }, 
        {
            "amount": "2 large", 
            "ingredient": "white onions, chopped"
        }, 
        {
            "amount": "2 (14.5 ounce) cans", 
            "ingredient": "diced tomatoes with juice"
        }, 
        {
            "amount": "2 (15 ounce) cans", 
            "ingredient": "tomato sauce"
        }, 
        {
            "amount": "1 (12 fluid ounce) can", 
            "ingredient": "beer"
        }, 
        {
            "amount": "2 (15 ounce) cans", 
            "ingredient": "spicy chili beans"
        }, 
        {
            "amount": "1/4 cup", 
            "ingredient": "Worcestershire sauce"
        }, 
        {
            "amount": "3 tablespoons", 
            "ingredient": "hot pepper sauce (e.g. Tabasco\u2122), or to taste"
        }, 
        {
            "amount": "1/3 cup", 
            "ingredient": "chili powder"
        }, 
        {
            "amount": "4", 
            "ingredient": "fresh jalapeno peppers, seeded and chopped"
        }, 
        {
            "amount": "3 tablespoons", 
            "ingredient": "red pepper flakes, or to taste"
        }
    ], 
    "prep_steps": [
        "Crumble the ground chuck into a skillet over medium heat. Cook, stirring occasionally until evenly browned. Drain grease. Transfer the beef to a large soup pot. Add onions, diced tomatoes, tomato sauce, beer and chili beans. Season with Worcestershire sauce, hot pepper sauce, chili powder, jalapenos, and red pepper flakes, if using.", 
        "Cover the pot, and simmer over low heat for 2 hours. Turn off heat, and let cool, then refrigerate for two days. It gets much better with time. Heat and serve."
    ], 
    "prep_time": "2 days", 
    "recipe_name": "Frank's Spicy Alabama Onion Beer Chili"
}