{
    "ingredients": [
        {
            "amount": "1 (18.25 ounce) package", 
            "ingredient": "moist yellow cake mix"
        }, 
        {
            "amount": "4", 
            "ingredient": "eggs"
        }, 
        {
            "amount": "1/2 cup", 
            "ingredient": "vegetable oil"
        }, 
        {
            "amount": "1 (11 ounce) can", 
            "ingredient": "mandarin oranges, juice reserved"
        }, 
        {
            "amount": "1 (16 ounce) package", 
            "ingredient": "frozen whipped topping, thawed"
        }, 
        {
            "amount": "1 (5 ounce) package", 
            "ingredient": "instant vanilla pudding mix"
        }, 
        {
            "amount": "1 (20 ounce) can", 
            "ingredient": "crushed pineapple with juice"
        }
    ], 
    "prep_steps": [
        "Beat the eggs, and add them to the boxed cake mix. Add the oil and the mandarine oranges to the batter; remember to add the juice as well as the fruit. Pour the batter into a greased and floured 9 x 13 inch pan.", 
        "Bake the cake for 40 minutes in a preheated oven at 325 degrees F (165 degrees C). Cool on wire rack.", 
        "While cake is baking, prepare the frosting by mixing together the whipped dessert topping, the package of instant pudding, and the crushed pineapple with its juices. Set frosting in refrigerator to set. Frost when cake has thoroughly cooled."
    ], 
    "recipe_name": "Quick Sunshine Cake"
}