{
    "ingredients": [
        {
            "amount": "3/4 cup", 
            "ingredient": "warm water"
        }, 
        {
            "amount": "1", 
            "ingredient": "egg, lightly beaten"
        }, 
        {
            "amount": "1 tablespoon", 
            "ingredient": "margarine"
        }, 
        {
            "amount": "2 2/3 cups", 
            "ingredient": "all-purpose flour"
        }, 
        {
            "amount": "3 tablespoons", 
            "ingredient": "dry milk powder"
        }, 
        {
            "amount": "2 tablespoons", 
            "ingredient": "white sugar"
        }, 
        {
            "amount": "2 teaspoons", 
            "ingredient": "ground cinnamon"
        }, 
        {
            "amount": "1 teaspoon", 
            "ingredient": "vanilla extract"
        }, 
        {
            "amount": "1 teaspoon", 
            "ingredient": "salt"
        }, 
        {
            "amount": "1 1/2 teaspoons", 
            "ingredient": "active dry yeast"
        }, 
        {
            "amount": "1/2 cup", 
            "ingredient": "sweetened dried cranberries"
        }
    ], 
    "prep_steps": [
        "Place warm water, egg, butter or margarine, flour, powdered milk, sugar, cinnamon, vanilla, salt, and yeast into the bread machine in the order suggested by the manufacturer. Start the machine.", 
        "After the first rise, add the dried cranberries. Continue baking."
    ], 
    "recipe_name": "Cinnamon Cranraisin Bread"
}