{
    "ingredients": [
        {
            "amount": "2 cups", 
            "ingredient": "cornmeal"
        }, 
        {
            "amount": "2 cups", 
            "ingredient": "all-purpose flour"
        }, 
        {
            "amount": "1/2 teaspoon", 
            "ingredient": "salt"
        }, 
        {
            "amount": "2 tablespoons", 
            "ingredient": "baking powder"
        }, 
        {
            "amount": "2", 
            "ingredient": "eggs"
        }, 
        {
            "amount": "1 cup", 
            "ingredient": "margarine, melted"
        }, 
        {
            "amount": "4 cups", 
            "ingredient": "buttermilk"
        }, 
        {
            "amount": "1/4 cup", 
            "ingredient": "corn oil"
        }
    ], 
    "prep_steps": [
        "In a large bowl mix together the corn meal, flour, salt, and baking powder.", 
        "In a separate bowl mix together the eggs, butter, and buttermilk. Add to the dry ingredients and stir until well blended.", 
        "Heat a dry 12 inch cast iron skillet over high heat for 2 minutes. Add corn oil to skillet, swirl oil around to coat bottom and sides. Leave remaining oil in pan. Return to high heat for 1 minute.", 
        "Pour the cornbread batter into the skillet and cook on high heat until bubbles start to form in the center. Remove from stove.", 
        "Bake in a preheated 400 degree F (200 degree C) oven for 40 to 50 minutes, or until a knife inserted into the center comes out clean. Serve warm."
    ], 
    "prep_time": "1 hr", 
    "recipe_name": "Real Southern Cornbread"
}