{
    "ingredients": [
        {
            "amount": "2 teaspoons", 
            "ingredient": "vegetable oil"
        }, 
        {
            "amount": "1/4 cup", 
            "ingredient": "finely chopped onion"
        }, 
        {
            "amount": "1 tablespoon", 
            "ingredient": "unsweetened cocoa powder"
        }, 
        {
            "amount": "1 teaspoon", 
            "ingredient": "ground cumin"
        }, 
        {
            "amount": "1 teaspoon", 
            "ingredient": "dried cilantro"
        }, 
        {
            "amount": "1/8 tablespoon", 
            "ingredient": "dried minced garlic"
        }, 
        {
            "amount": "1 (10.75 ounce) can", 
            "ingredient": "condensed tomato soup"
        }, 
        {
            "amount": "1 (4 ounce) can", 
            "ingredient": "diced green chile peppers"
        }
    ], 
    "prep_steps": [
        "Heat the oil in a medium saucepan over medium heat, and cook the onion until tender. Mix in cocoa powder, cumin, cilantro, and garlic. Stir in the tomato soup and green chile peppers. Bring to a boil, reduce heat to low, cover, and simmer 10 minutes. Transfer to a gravy boat or pour directly over food to serve."
    ], 
    "prep_time": "25 mins", 
    "recipe_name": "Mexican Mole Sauce"
}