{
    "ingredients": [
        {
            "amount": "1 1/2 pounds", 
            "ingredient": "lean ground beef"
        }, 
        {
            "amount": "1 1/4 cups", 
            "ingredient": "dry bread crumbs"
        }, 
        {
            "amount": "1", 
            "ingredient": "egg"
        }, 
        {
            "amount": "3 tablespoons", 
            "ingredient": "grated onion"
        }, 
        {
            "amount": "1 (1 ounce) package", 
            "ingredient": "dry Ranch-style dressing mix"
        }, 
        {
            "amount": "1 cup", 
            "ingredient": "ketchup"
        }, 
        {
            "amount": "2 tablespoons", 
            "ingredient": "apple cider vinegar"
        }, 
        {
            "amount": "3/4 cup", 
            "ingredient": "cola-flavored carbonated beverage"
        }, 
        {
            "amount": "1/2 cup", 
            "ingredient": "chopped onion"
        }, 
        {
            "amount": "1/2 cup", 
            "ingredient": "chopped green bell pepper"
        }, 
        {
            "amount": "1 teaspoon", 
            "ingredient": "seasoning salt"
        }, 
        {
            "amount": "1/2 teaspoon", 
            "ingredient": "ground black pepper"
        }, 
        {
            "amount": "1 tablespoon", 
            "ingredient": "Worcestershire sauce"
        }
    ], 
    "prep_steps": [
        "Preheat the oven to 375 degrees F (190 degrees C).", 
        "In a large bowl, mix together the ground beef, bread crumbs, egg, grated onion and Ranch dressing mix until well blended. Shape into 1 inch meatballs, and place on a 10x15 inch jellyroll pan, or any baking sheet with sides to catch the grease.", 
        "Bake for 30 minutes in the preheated oven, turning them over half way through. While the meatballs are roasting, mix together the ketchup, cider vinegar, cola, chopped onion and green pepper in a slow cooker. Season with seasoning salt, pepper, and Worcestershire sauce.", 
        "Remove meatballs from the baking sheet, and place into the sauce in the slow cooker. Cover and cook on Low for 3 hours, then remove the lid and cook for an additional 15 minutes before serving."
    ], 
    "prep_time": "4 hr", 
    "recipe_name": "BBQ Cola Meatballs"
}