{
    "ingredients": [
        {
            "amount": "1 (12 ounce) package", 
            "ingredient": "penne pasta"
        }, 
        {
            "amount": "2 tablespoons", 
            "ingredient": "olive oil, divided"
        }, 
        {
            "amount": "6 slices", 
            "ingredient": "bacon, chopped"
        }, 
        {
            "amount": "2 tablespoons", 
            "ingredient": "minced garlic"
        }, 
        {
            "amount": "1 (14.5 ounce) can", 
            "ingredient": "diced tomatoes"
        }, 
        {
            "amount": "1 bunch", 
            "ingredient": "fresh spinach, rinsed and torn into bite-size pieces"
        }
    ], 
    "prep_steps": [
        "Bring a large pot of lightly salted water to a boil. Add the penne pasta, and cook until tender, 8 to 10 minutes.", 
        "Meanwhile, heat 1 tablespoon of olive oil in a skillet over medium heat. Place bacon in the skillet, and cook until browned and crisp. Add garlic, and cook for about 1 minute. Stir in the tomatoes, and cook until heated through.", 
        "Place the spinach into a colander, and drain the hot pasta over it so it is wilted. Transfer to a large serving bowl, and toss with the remaining olive oil, and the bacon and tomato mixture."
    ], 
    "prep_time": "25 mins", 
    "recipe_name": "Penne Pasta with Spinach and Bacon"
}