{
    "ingredients": [
        {
            "amount": "1 cup", 
            "ingredient": "margarine, softened"
        }, 
        {
            "amount": "2 cups", 
            "ingredient": "white sugar"
        }, 
        {
            "amount": "3", 
            "ingredient": "eggs"
        }, 
        {
            "amount": "1 teaspoon", 
            "ingredient": "lemon extract"
        }, 
        {
            "amount": "2 1/4 cups", 
            "ingredient": "all-purpose flour"
        }, 
        {
            "amount": "1/2 teaspoon", 
            "ingredient": "baking soda"
        }, 
        {
            "amount": "1/2 teaspoon", 
            "ingredient": "salt"
        }, 
        {
            "amount": "1 (8 ounce) container", 
            "ingredient": "lemon flavored yogurt"
        }
    ], 
    "prep_steps": [
        "Preheat oven to 325 degrees F (165 degrees C). Grease and flour a 10 inch bundt pan. Sift together the flour, baking soda and salt. Set aside.", 
        "In a large bowl, cream together the margarine and sugar until light and fluffy. Beat in the eggs one at a time, then stir in the lemon extract. Alternately beat in the flour mixture and the yogurt, mixing just until incorporated.", 
        "Pour batter into a 10 inch Bundt pan. Bake in the preheated oven for 60 minutes, or until a toothpick inserted into the center of the cake comes out clean. Allow to cool 10 minutes in the pan, then turn out onto a wire rack and cool completely."
    ], 
    "prep_time": "1\u00bd hrs", 
    "recipe_name": "Yogurt Cake"
}