{
    "ingredients": [
        {
            "amount": "1 (16 ounce) package", 
            "ingredient": "lasagna noodles"
        }, 
        {
            "amount": "4 cups", 
            "ingredient": "ricotta cheese"
        }, 
        {
            "amount": "1/4 cup", 
            "ingredient": "grated Parmesan cheese"
        }, 
        {
            "amount": "4", 
            "ingredient": "eggs"
        }, 
        {
            "amount": "1 teaspoon", 
            "ingredient": "olive oil"
        }, 
        {
            "amount": "3 cloves", 
            "ingredient": "garlic, minced"
        }, 
        {
            "amount": "1 (32 ounce) jar", 
            "ingredient": "spaghetti sauce"
        }, 
        {
            "amount": "1 teaspoon", 
            "ingredient": "Italian seasoning"
        }, 
        {
            "amount": "2 cups", 
            "ingredient": "shredded mozzarella cheese"
        }
    ], 
    "prep_steps": [
        "Preheat oven to 350 degrees F (175 degrees C). Bring a large pot of lightly salted water to a boil. Add pasta and cook for 8 to 10 minutes or until al dente; drain and lay lasagna flat on foil to cool.", 
        "In a medium bowl, combine ricotta, Parmesan, eggs, salt and pepper; mix well.", 
        "In a medium saucepan, heat oil over medium heat and saute garlic for 2 minutes; stir in spaghetti sauce and Italian seasoning. Heat sauce until warmed through, stirring occasionally, 2 to 5 minutes.", 
        "Spread 1/2 cup of sauce in the bottom of a 9x13 baking dish. Cover with a layer of noodles. Spread half the ricotta mixture over noodles; top with another noodle layer. Pour 1 1/2 cups of sauce over noodles, and spread the remaining ricotta over the sauce. Top with remaining noodles and sauce and sprinkle mozzarella over all. Cover with greased foil.", 
        "Bake 45 minutes, or until cheese is bubbly and top is golden."
    ], 
    "prep_time": "1\u00bc hrs", 
    "recipe_name": "Cheese Lasagna"
}