{
    "ingredients": [
        {
            "amount": "8 ears", 
            "ingredient": "fresh corn in husks"
        }, 
        {
            "amount": "1", 
            "ingredient": "red bell pepper, diced"
        }, 
        {
            "amount": "1", 
            "ingredient": "green bell pepper, diced"
        }, 
        {
            "amount": "1", 
            "ingredient": "red onion, chopped"
        }, 
        {
            "amount": "1 cup", 
            "ingredient": "chopped fresh cilantro"
        }, 
        {
            "amount": "1/2 cup", 
            "ingredient": "olive oil"
        }, 
        {
            "amount": "4 cloves", 
            "ingredient": "garlic, peeled and minced"
        }, 
        {
            "amount": "3", 
            "ingredient": "limes, juiced"
        }, 
        {
            "amount": "1 teaspoon", 
            "ingredient": "white sugar"
        }, 
        {
            "amount": "1 tablespoon", 
            "ingredient": "hot sauce"
        }
    ], 
    "prep_steps": [
        "Place the corn in a large pot with enough water to cover, and soak at least 15 minutes.", 
        "Preheat grill for high heat. Remove silks from corn, but leave the husks.", 
        "Place corn on the preheated grill. Cook, turning occasionally, 20 minutes, or until tender. Remove from heat, cool slightly, and discard husks.", 
        "Cut the corn kernels from the cob, and place in a medium bowl. Mix in the red bell pepper, green bell pepper, and red onion.", 
        "In a blender or food processor, mix the cilantro, olive oil, garlic, lime juice, sugar, salt, pepper, and hot sauce. Blend until smooth, and stir into the corn salad."
    ], 
    "prep_time": "55 mins", 
    "recipe_name": "Southwestern Roasted Corn Salad"
}