{
    "ingredients": [
        {
            "amount": "1/3 cup", 
            "ingredient": "balsamic vinegar"
        }, 
        {
            "amount": "1/2 cup", 
            "ingredient": "olive oil"
        }, 
        {
            "amount": "2 tablespoons", 
            "ingredient": "Dijon mustard"
        }, 
        {
            "amount": "1 tablespoon", 
            "ingredient": "honey"
        }
    ], 
    "prep_steps": [
        "Whisk balsamic vinegar, olive oil, mustard, honey, salt, and pepper in a bowl."
    ], 
    "prep_time": "5 mins", 
    "recipe_name": "Honey Dijon Balsamic Vinaigrette"
}