{
    "ingredients": [
        {
            "amount": "4 tablespoons", 
            "ingredient": "vegetable oil"
        }, 
        {
            "amount": "4 small", 
            "ingredient": "potatoes, peeled and halved"
        }, 
        {
            "amount": "2 large", 
            "ingredient": "onions, finely chopped"
        }, 
        {
            "amount": "2 cloves", 
            "ingredient": "garlic, minced"
        }, 
        {
            "amount": "1 tablespoon", 
            "ingredient": "minced fresh ginger root"
        }, 
        {
            "amount": "1/2 teaspoon", 
            "ingredient": "chili powder"
        }, 
        {
            "amount": "1/2 teaspoon", 
            "ingredient": "ground black pepper"
        }, 
        {
            "amount": "1/2 teaspoon", 
            "ingredient": "ground turmeric"
        }, 
        {
            "amount": "1 teaspoon", 
            "ingredient": "ground cumin"
        }, 
        {
            "amount": "1 teaspoon", 
            "ingredient": "salt"
        }, 
        {
            "amount": "2", 
            "ingredient": "medium tomatoes, peeled and chopped"
        }, 
        {
            "amount": "2 tablespoons", 
            "ingredient": "plain yogurt"
        }, 
        {
            "amount": "2 tablespoons", 
            "ingredient": "chopped fresh mint leaves"
        }, 
        {
            "amount": "1/2 teaspoon", 
            "ingredient": "ground cardamom"
        }, 
        {
            "amount": "1 (2 inch) piece", 
            "ingredient": "cinnamon stick"
        }, 
        {
            "amount": "3 pounds", 
            "ingredient": "boneless, skinless chicken pieces cut into chunks"
        }, 
        {
            "amount": "2 1/2 tablespoons", 
            "ingredient": "vegetable oil"
        }, 
        {
            "amount": "1 large", 
            "ingredient": "onion, diced"
        }, 
        {
            "amount": "1 pinch", 
            "ingredient": "powdered saffron"
        }, 
        {
            "amount": "5 pods", 
            "ingredient": "cardamom"
        }, 
        {
            "amount": "3", 
            "ingredient": "whole cloves"
        }, 
        {
            "amount": "1 (1 inch) piece", 
            "ingredient": "cinnamon stick"
        }, 
        {
            "amount": "1/2 teaspoon", 
            "ingredient": "ground ginger"
        }, 
        {
            "amount": "1 pound", 
            "ingredient": "basmati rice"
        }, 
        {
            "amount": "4 cups", 
            "ingredient": "chicken stock"
        }, 
        {
            "amount": "1 1/2 teaspoons", 
            "ingredient": "salt"
        }
    ], 
    "prep_steps": [
        "In a large skillet, in 2 tablespoons vegetable oil (or ghee) fry potatoes until brown, drain and reserve the potatoes. Add remaining 2 tablespoons oil to the skillet and fry onion, garlic and ginger until onion is soft and golden. Add chili, pepper, turmeric, cumin, salt and the tomatoes. Fry, stirring constantly for 5 minutes. Add yogurt, mint, cardamom and cinnamon stick. Cover and cook over low heat, stirring occasionally until the tomatoes are cooked to a pulp. It may be necessary to add a little hot water if the mixture becomes too dry and starts to stick to the pan.", 
        "When the mixture is thick and smooth, add the chicken pieces and stir well to coat them with the spice mixture. Cover and cook over very low heat until the chicken is tender, approximately 35 to 45 minutes. There should only be a little very thick gravy left when chicken is finished cooking. If necessary cook uncovered for a few minutes to reduce the gravy.", 
        "Wash rice well and drain in colander for at least 30 minutes.", 
        "In a large skillet, heat vegetable oil (or ghee) and fry the onions until they are golden. Add saffron, cardamom, cloves, cinnamon stick, ginger and rice. Stir continuously until the rice is coated with the spices.", 
        "In a medium-size pot, heat the chicken stock and salt. When the mixture is hot pour it over the rice and stir well. Add the chicken mixture and the potatoes; gently mix them into the rice. Bring to boil. Cover the saucepan tightly, turn heat to very low and steam for 20 minutes. Do not lift lid or stir while cooking. Spoon biryani onto a warm serving dish."
    ], 
    "recipe_name": "Chicken Biryani"
}