{
    "ingredients": [
        {
            "amount": "1 pound", 
            "ingredient": "ground beef"
        }, 
        {
            "amount": "1 pound", 
            "ingredient": "green beans, trimmed and cut into 1 inch pieces"
        }, 
        {
            "amount": "1 cup", 
            "ingredient": "water"
        }, 
        {
            "amount": "1/4 cup", 
            "ingredient": "white sugar"
        }, 
        {
            "amount": "1/4 cup", 
            "ingredient": "soy sauce"
        }
    ], 
    "prep_steps": [
        "In a large skillet over medium heat, cook the ground beef until evenly brown; drain excess fat.", 
        "Stir in green beans and about 1 cup water. Cover, and cook until beans are tender, 15 to 20 minutes.", 
        "Season with sugar and soy sauce, and cook uncovered for 5 minutes."
    ], 
    "prep_time": "40 mins", 
    "recipe_name": "Green Bean Okazu"
}