{
    "ingredients": [
        {
            "amount": "2 cups", 
            "ingredient": "leftover turkey, chopped or shredded"
        }, 
        {
            "amount": "2 cups", 
            "ingredient": "turkey gravy"
        }, 
        {
            "amount": "2 cups", 
            "ingredient": "mixed vegetables"
        }, 
        {
            "amount": "2 (9 inch)", 
            "ingredient": "unbaked pie shells"
        }, 
        {
            "amount": "2 tablespoons", 
            "ingredient": "cornstarch"
        }, 
        {
            "amount": "1/4 cup", 
            "ingredient": "water"
        }
    ], 
    "prep_steps": [
        "Preheat oven to 350 degrees F (175 degrees C).", 
        "If you are using stock, bring the stock to a boil. Add cornstarch to cold water, and blend until smooth; whisk into stock to thicken.", 
        "Line a 9 inch pie plate with pastry. Mix turkey and vegetables together, and place in pie crust. Pour gravy or thickened stock over turkey and vegetables. Cover with remaining pie crust. Cut slits in the top to release steam.", 
        "Place pot pie on a cookie sheet to prevent stock from over flowing into your oven. Cook in center of oven until crust is golden brown, approximately 1 hour. Slice, and serve hot."
    ], 
    "recipe_name": "Leftover Pot Pie"
}