{
    "ingredients": [
        {
            "amount": "4 ounces", 
            "ingredient": "fresh mushrooms, sliced"
        }, 
        {
            "amount": "1 cup", 
            "ingredient": "sliced leeks"
        }, 
        {
            "amount": "2 tablespoons", 
            "ingredient": "margarine"
        }, 
        {
            "amount": "2 tablespoons", 
            "ingredient": "olive oil"
        }, 
        {
            "amount": "1/2 cup", 
            "ingredient": "dry sherry"
        }, 
        {
            "amount": "3 (10.5 ounce) cans", 
            "ingredient": "condensed beef broth"
        }, 
        {
            "amount": "3 3/4 cups", 
            "ingredient": "water"
        }, 
        {
            "amount": "1/2 teaspoon", 
            "ingredient": "ground black pepper"
        }, 
        {
            "amount": "1/2 cup", 
            "ingredient": "uncooked orzo pasta"
        }
    ], 
    "prep_steps": [
        "In a large pot over medium high heat, saute the mushrooms and leeks in the butter or margarine and olive oil until tender. Add the sherry and reduce liquid by half.", 
        "Then add the beef broth, water and ground black pepper. Bring to a boil and add the pasta. Boil gently for 10 minutes, or until the pasta is tender. Garnish with sliced mushrooms if desired."
    ], 
    "prep_time": "50 mins", 
    "recipe_name": "Mushroom and Leek Soup"
}