{
    "ingredients": [
        {
            "amount": "2", 
            "ingredient": "leeks, finely chopped (white part only)"
        }, 
        {
            "amount": "1 clove", 
            "ingredient": "garlic, finely chopped"
        }, 
        {
            "amount": "4 medium", 
            "ingredient": "potatoes (red or Yukon Gold), chopped"
        }, 
        {
            "amount": "2 tablespoons", 
            "ingredient": "butter, divided"
        }, 
        {
            "amount": "1 tablespoon", 
            "ingredient": "olive oil"
        }, 
        {
            "amount": "1 1/2 teaspoons", 
            "ingredient": "ground mustard"
        }, 
        {
            "amount": "2 tablespoons", 
            "ingredient": "flour"
        }, 
        {
            "amount": "1/2 cup", 
            "ingredient": "water"
        }, 
        {
            "amount": "3 cups", 
            "ingredient": "chicken broth"
        }, 
        {
            "amount": "1/2 cup", 
            "ingredient": "shredded Cheddar cheese"
        }, 
        {
            "amount": "2 tablespoons", 
            "ingredient": "Parmesan cheese"
        }, 
        {
            "amount": "1 cup", 
            "ingredient": "milk"
        }, 
        {
            "amount": "3 ounces", 
            "ingredient": "chopped portobello mushrooms"
        }
    ], 
    "prep_steps": [
        "In a skillet, cook leek, garlic, and potato in 1 tablespoon of butter and the olive oil over medium low heat, stirring often. Do not allow potato to brown.", 
        "Place mustard, salt, pepper, celery salt, and flour together in a bowl. Gradually whisk in water and chicken broth until well blended. Stir into potato mixture, and bring to a boil. Reduce to a simmer, and cook for 1 hour.", 
        "Mash softened potatoes by hand so they remain lumpy. Stir in Cheddar and Parmesan cheeses until melted, then add milk but do not boil. Cook mushrooms over medium high heat in remaining 1 tablespoon of butter until soft. Add to the soup, and stir. Serve immediately with croutons, if desired."
    ], 
    "prep_time": "1\u00be hrs", 
    "recipe_name": "Leek Potato Mushroom Cheddar Soup"
}