{
    "ingredients": [
        {
            "amount": "4", 
            "ingredient": "zucchini, halved"
        }, 
        {
            "amount": "1 tablespoon", 
            "ingredient": "olive oil"
        }, 
        {
            "amount": "1", 
            "ingredient": "onion, chopped"
        }, 
        {
            "amount": "2 cloves", 
            "ingredient": "garlic, crushed"
        }, 
        {
            "amount": "1/2 (8 ounce) package", 
            "ingredient": "button mushrooms, sliced"
        }, 
        {
            "amount": "1 teaspoon", 
            "ingredient": "ground coriander"
        }, 
        {
            "amount": "1 1/2 teaspoons", 
            "ingredient": "ground cumin, or to taste"
        }, 
        {
            "amount": "1 (15.5 ounce) can", 
            "ingredient": "chickpeas, rinsed and drained"
        }, 
        {
            "amount": "1/2", 
            "ingredient": "lemon, juiced"
        }, 
        {
            "amount": "2 tablespoons", 
            "ingredient": "chopped fresh parsley"
        }
    ], 
    "prep_steps": [
        "Preheat oven to 350 degrees F (175 degrees C). Grease a shallow baking dish.", 
        "Scoop out the flesh of the zucchini; chop the flesh and set aside. Place the shells in the prepared dish.", 
        "Heat oil in a large skillet over medium heat. Saute onions for 5 minutes, then add garlic and saute 2 minutes more. Stir in chopped zucchini and mushrooms; saute 5 minutes. Stir in coriander, cumin, chickpeas, lemon juice, parsley, salt and pepper. Spoon mixture into zucchini shells.", 
        "Bake in preheated oven for 30 to 40 minutes, or until zucchini are tender."
    ], 
    "prep_time": "1 hr", 
    "recipe_name": "Zucchini with Chickpea and Mushroom Stuffing"
}