{
    "ingredients": [
        {
            "amount": "1/4 cup", 
            "ingredient": "olive oil"
        }, 
        {
            "amount": "1 cup", 
            "ingredient": "seasoned rice vinegar"
        }, 
        {
            "amount": "1 (10 ounce) jar", 
            "ingredient": "seedless raspberry jam"
        }
    ], 
    "prep_steps": [
        "Combine the olive oil, rice vinegar and raspberry jam in the container of a blender. Process until smooth. Store in a jar in the refrigerator."
    ], 
    "prep_time": "5 mins", 
    "recipe_name": "Red Raspberry Vinaigrette"
}