{
    "ingredients": [
        {
            "amount": "1 cup", 
            "ingredient": "all-purpose flour"
        }, 
        {
            "amount": "1 cup", 
            "ingredient": "rolled oats"
        }, 
        {
            "amount": "2 teaspoons", 
            "ingredient": "baking powder"
        }, 
        {
            "amount": "1/2 teaspoon", 
            "ingredient": "baking soda"
        }, 
        {
            "amount": "1/2 teaspoon", 
            "ingredient": "ground cinnamon"
        }, 
        {
            "amount": "1/2 teaspoon", 
            "ingredient": "salt"
        }, 
        {
            "amount": "1", 
            "ingredient": "egg, beaten"
        }, 
        {
            "amount": "1/2 cup", 
            "ingredient": "milk"
        }, 
        {
            "amount": "1/4 cup", 
            "ingredient": "light olive oil"
        }, 
        {
            "amount": "1/2 cup", 
            "ingredient": "sugar"
        }, 
        {
            "amount": "1/2 pint", 
            "ingredient": "chopped fresh strawberries"
        }
    ], 
    "prep_steps": [
        "Preheat oven to 425 degrees F (220 degrees C). Grease 12 muffin cups.", 
        "In a large bowl, mix flour, oats, baking powder, baking soda, cinnamon and salt. In a separate bowl, whisk together egg, milk, olive oil and sugar. Mix in strawberries. Stir strawberry mixture into oat mixture just until evenly moist. Spoon into prepared muffin cups.", 
        "Bake 18 to 20 minutes in the preheated oven, until a knife inserted in the center of a muffin comes out clean."
    ], 
    "prep_time": "45 mins", 
    "recipe_name": "Strawberry Cinnamon Oatmeal Muffins"
}