{
    "ingredients": [
        {
            "amount": "3", 
            "ingredient": "skinless, boneless chicken breast halves"
        }, 
        {
            "amount": "1/2 (8 ounce) jar", 
            "ingredient": "medium salsa"
        }, 
        {
            "amount": "1/4 cup", 
            "ingredient": "tomato sauce"
        }, 
        {
            "amount": "2 cloves", 
            "ingredient": "garlic, minced"
        }, 
        {
            "amount": "1 small", 
            "ingredient": "red onion, chopped"
        }, 
        {
            "amount": "1 teaspoon", 
            "ingredient": "ground cumin"
        }, 
        {
            "amount": "1 teaspoon", 
            "ingredient": "chili powder"
        }, 
        {
            "amount": "1 pinch", 
            "ingredient": "salt and fresh ground pepper to taste"
        }
    ], 
    "prep_steps": [
        "Arrange the chicken breasts in the bottom of a slow cooker, and pour in the salsa and tomato sauce. Add the garlic and onion, and sprinkle in the cumin, chili powder, salt, and pepper. Set the cooker on Low, and cook until the chicken is very tender, 4 to 5 hours. Shred the chicken with two forks for serving."
    ], 
    "prep_time": "4 hrs", 
    "recipe_name": "Slow Cooker Spicy Chicken"
}