{
    "ingredients": [
        {
            "amount": "4 quarts", 
            "ingredient": "mussels, cleaned and debearded"
        }, 
        {
            "amount": "2 cloves", 
            "ingredient": "garlic, minced"
        }, 
        {
            "amount": "1", 
            "ingredient": "onion, chopped"
        }, 
        {
            "amount": "6 tablespoons", 
            "ingredient": "chopped fresh parsley"
        }, 
        {
            "amount": "1", 
            "ingredient": "bay leaf"
        }, 
        {
            "amount": "1/4 teaspoon", 
            "ingredient": "dried thyme"
        }, 
        {
            "amount": "2 cups", 
            "ingredient": "white wine"
        }, 
        {
            "amount": "3 tablespoons", 
            "ingredient": "butter, divided"
        }
    ], 
    "prep_steps": [
        "Scrub mussels. Pull off beards, the tuft of fibers that attach each mussel to it's shell, cutting them at the base with a paring knife. Discard those that do not close when you handle them and any with broken shells. Set aside.", 
        "Combine onion, garlic, 4 tablespoons parsley, bay leaf, thyme, wine, and 2 tablespoons butter in large pot. Bring to boil. Lower heat, and cook 2 minutes. Add mussels, and cover. Cook just until shells open, 3 to 4 minutes. Do not overcook. Remove mussels from sauce, and place in bowls.", 
        "Strain liquid, and return to pot. Add remaining butter and parsley. Heat until butter melts. Pour over mussels."
    ], 
    "prep_time": "50 mins", 
    "recipe_name": "Mussels Mariniere"
}