{
    "ingredients": [
        {
            "amount": "1 cup", 
            "ingredient": "butter"
        }, 
        {
            "amount": "1 (3 ounce) package", 
            "ingredient": "cream cheese"
        }, 
        {
            "amount": "1 cup", 
            "ingredient": "white sugar"
        }, 
        {
            "amount": "1", 
            "ingredient": "egg yolk"
        }, 
        {
            "amount": "2 1/2 cups", 
            "ingredient": "all-purpose flour"
        }, 
        {
            "amount": "1/2 teaspoon", 
            "ingredient": "vanilla extract"
        }
    ], 
    "prep_steps": [
        "Cream the butter, cream cheese and sugar together until light and fluffy. Add the egg yolk and the vanilla. Stir in the flour. Gather the dough into a ball and chill overnight.", 
        "Preheat oven to 350 degrees F (175 degrees C).", 
        "On a lightly floured board, roll dough out to a thickness of 3/16 inch. Cut into desired shapes and place onto an ungreased baking sheet.", 
        "Bake at 350 degrees F (175 degrees C) for 12 minutes or until edges are lightly browned. Let cool. Leave the cookies plain or decorate with your favorite icing."
    ], 
    "recipe_name": "White Velvet Cutouts"
}