{
    "ingredients": [
        {
            "amount": "6", 
            "ingredient": "pattypan squash, stem and blossom removed"
        }, 
        {
            "amount": "6 slices", 
            "ingredient": "bacon"
        }, 
        {
            "amount": "1/2 cup", 
            "ingredient": "diced onion"
        }, 
        {
            "amount": "1 1/2 cups", 
            "ingredient": "soft bread crumbs"
        }, 
        {
            "amount": "1/4 cup", 
            "ingredient": "freshly grated Parmesan cheese"
        }
    ], 
    "prep_steps": [
        "Preheat oven to 350 degrees F (175 degrees C).", 
        "Bring one inch of water to a boil in a saucepan over medium-high heat. Add squash, cover, and cook for 10 minutes, or until a fork can pierce the stem with little resistance. Drain, and slice off the top stem of the squash. Use a melon baller to carefully scoop out the centers of the squash. Reserve all of the bits of squash.", 
        "Place bacon in a large, deep skillet. Cook over medium high heat until evenly brown. Remove bacon to paper towels, and set aside. Saute onion in bacon drippings. Chop the reserved squash pieces, and saute them with the onion for one minute.", 
        "Remove the skillet from heat, and stir in the breadcrumbs. Crumble the bacon, and stir into the stuffing along with the Parmesan cheese. Season to taste with salt and pepper. Stuff each squash to overflowing with the mixture, and place them in a baking dish. Cover the dish loosely with aluminum foil.", 
        "Bake for 15 minutes in the preheated oven, or until squash are heated through."
    ], 
    "prep_time": "30 mins", 
    "recipe_name": "Stuffed Pattypan Squash"
}