{
    "ingredients": [
        {
            "amount": "1 pound", 
            "ingredient": "unsalted butter"
        }, 
        {
            "amount": "5 cups", 
            "ingredient": "all-purpose flour"
        }, 
        {
            "amount": "1 cup", 
            "ingredient": "white sugar"
        }
    ], 
    "prep_steps": [
        "Preheat oven to 350 degrees F (180 degrees C).", 
        "Cream butter and sugar with mixer. Add flour and mix with a wooden spoon. Use hands to thoroughly mix.", 
        "Press into a jelly roll pan. Prick to bottom all over with a fork being sure the fork hits the bottom and the pricks are close together.", 
        "Bake for 10 minutes. Reduce the heat to 300 and continue to bake for 40 minutes more. Wait 2 minutes then cut into finger size bars. Cool thoroughly in pan."
    ], 
    "prep_time": "1\u00bc hrs", 
    "recipe_name": "Scottish Shortbread III"
}