{
    "ingredients": [
        {
            "amount": "3 tablespoons", 
            "ingredient": "olive oil, divided"
        }, 
        {
            "amount": "4", 
            "ingredient": "skinless, boneless chicken breast halves - pounded thin"
        }, 
        {
            "amount": "1/2 cup", 
            "ingredient": "all-purpose flour"
        }, 
        {
            "amount": "6 slices", 
            "ingredient": "bacon, chopped"
        }, 
        {
            "amount": "2", 
            "ingredient": "onions, chopped"
        }, 
        {
            "amount": "4 cloves", 
            "ingredient": "garlic, minced"
        }, 
        {
            "amount": "6", 
            "ingredient": "dates, pitted and chopped"
        }, 
        {
            "amount": "2 cups", 
            "ingredient": "chicken stock"
        }, 
        {
            "amount": "2 teaspoons", 
            "ingredient": "chili powder"
        }, 
        {
            "amount": "1 teaspoon", 
            "ingredient": "garlic powder"
        }
    ], 
    "prep_steps": [
        "Heat the olive oil in a skillet over medium heat. Dredge chicken in flour to evenly coat. Brown chicken in the skillet about 2 minutes on each side.", 
        "Set aside chicken, and heat remaining olive oil in the skillet. Mix in bacon, onions, and garlic, and cook until onions are tender and bacon is evenly brown. Mix in dates. Pour in the chicken stock, and bring to a boil. Reduce heat to low, and simmer 10 minutes.", 
        "Return chicken to skillet. Season with chili powder, garlic powder, salt, pepper, and thyme. Cover, and continue cooking 15 minutes over low heat, or until chicken juices run clear."
    ], 
    "prep_time": "35 mins", 
    "recipe_name": "Viva Madrid Spanish Chicken"
}