{
    "ingredients": [
        {
            "amount": "2", 
            "ingredient": "eggs"
        }, 
        {
            "amount": "1/3 cup", 
            "ingredient": "water"
        }, 
        {
            "amount": "1/4 cup", 
            "ingredient": "margarine"
        }, 
        {
            "amount": "1 cup", 
            "ingredient": "peanut butter"
        }, 
        {
            "amount": "1 (18.25 ounce) package", 
            "ingredient": "yellow cake mix"
        }, 
        {
            "amount": "2 cups", 
            "ingredient": "semisweet chocolate chips"
        }
    ], 
    "prep_steps": [
        "Preheat oven to 350 degrees F (175 degrees C). Grease cookie sheets.", 
        "In a large bowl, cream together the eggs, water, margarine and peanut butter. Stir in the cake mix and blend well. Finally, fold in chocolate chips. Drop by rounded spoonfuls onto the prepared cookie sheet.", 
        "Bake for 8 to 10 minutes in the preheated oven. Allow cookies to cool on baking sheet for 5 minutes before removing to a wire rack to cool completely."
    ], 
    "prep_time": "20 mins", 
    "recipe_name": "Cake Mix Cookies VI"
}