{
    "ingredients": [
        {
            "amount": "2 cups", 
            "ingredient": "diced, cooked chicken meat"
        }, 
        {
            "amount": "1 cup", 
            "ingredient": "fresh broccoli, chopped"
        }, 
        {
            "amount": "1/2 cup", 
            "ingredient": "red bell pepper, chopped"
        }, 
        {
            "amount": "1 clove", 
            "ingredient": "crushed garlic"
        }, 
        {
            "amount": "1 cup", 
            "ingredient": "shredded Cheddar cheese"
        }, 
        {
            "amount": "1/2 cup", 
            "ingredient": "mayonnaise"
        }, 
        {
            "amount": "2 teaspoons", 
            "ingredient": "dried dill weed"
        }, 
        {
            "amount": "1/4 teaspoon", 
            "ingredient": "salt"
        }, 
        {
            "amount": "2 tablespoons", 
            "ingredient": "slivered almonds"
        }, 
        {
            "amount": "1/4 cup", 
            "ingredient": "diced onion"
        }, 
        {
            "amount": "2 (8 ounce) packages", 
            "ingredient": "refrigerated crescent rolls"
        }, 
        {
            "amount": "1", 
            "ingredient": "egg white, beaten"
        }
    ], 
    "prep_steps": [
        "Preheat oven to 375 degrees F (190 degrees F).", 
        "In a large bowl, toss together chicken, broccoli, red bell pepper, garlic, Cheddar cheese, mayonnaise, dill weed, salt, almonds and onion.", 
        "Unroll crescent roll dough, and arrange flat on a medium baking sheet. Pinch together perforations to form a single sheet of dough. Using a knife or scissors, cut 1 inch wide strips in towards the center, starting on the long sides. There should be a solid strip about 3 inches wide down the center, with the cut strips forming a fringe down each side. Spread the chicken mixture along the center strip. Fold the side strips over chicken mixture, alternating strips from each side. Pinch or twist to seal.", 
        "Brush braided dough with the egg white. Bake in the preheated oven 25 to 28 minutes, or until golden brown."
    ], 
    "prep_time": "48 mins", 
    "recipe_name": "Chicken and Broccoli Braid"
}