{
    "ingredients": [
        {
            "amount": "1 1/2 pounds", 
            "ingredient": "lean ground beef"
        }, 
        {
            "amount": "1", 
            "ingredient": "onion, chopped"
        }, 
        {
            "amount": "2 (10 ounce) cans", 
            "ingredient": "diced tomatoes with green chile peppers"
        }, 
        {
            "amount": "1 (15 ounce) can", 
            "ingredient": "kidney beans, drained"
        }, 
        {
            "amount": "1 (15 ounce) can", 
            "ingredient": "white hominy, drained"
        }, 
        {
            "amount": "1 (1.25 ounce) package", 
            "ingredient": "taco seasoning mix"
        }, 
        {
            "amount": "1 (1 ounce) package", 
            "ingredient": "ranch dressing mix"
        }, 
        {
            "amount": "1/4 cup", 
            "ingredient": "shredded Cheddar cheese"
        }, 
        {
            "amount": "1/4 cup", 
            "ingredient": "sour cream"
        }, 
        {
            "amount": "1 1/2 cups", 
            "ingredient": "water"
        }
    ], 
    "prep_steps": [
        "In a Dutch oven, brown ground beef or turkey with chopped onion, stirring frequently. Once beef is browned drain grease from pan.", 
        "Add canned tomatoes, kidney beans, hominy, taco seasoning and ranch salad dressing mix. Mix well and let simmer over low heat for two hours. (Add 1 to 2 cups of water if necessary to make soup the desired consistency)", 
        "Ladle into soup bowls and garnish with shredded Cheddar cheese and a dollop of sour cream, if desired."
    ], 
    "prep_time": "2\u00bd hrs", 
    "recipe_name": "Taco Soup III"
}