{
    "ingredients": [
        {
            "amount": "1 tablespoon", 
            "ingredient": "olive oil"
        }, 
        {
            "amount": "1/4 cup", 
            "ingredient": "chopped fresh ginger root"
        }, 
        {
            "amount": "1/4 cup", 
            "ingredient": "chopped garlic"
        }, 
        {
            "amount": "2 (32 ounce) packages", 
            "ingredient": "fat-free chicken broth"
        }, 
        {
            "amount": "1/2 cup", 
            "ingredient": "cornstarch"
        }, 
        {
            "amount": "1 (6 ounce) can", 
            "ingredient": "mushrooms, drained"
        }, 
        {
            "amount": "1 (8 ounce) can", 
            "ingredient": "bamboo shoots, drained"
        }, 
        {
            "amount": "1/2 cup", 
            "ingredient": "soy sauce"
        }, 
        {
            "amount": "1/4 cup", 
            "ingredient": "rice wine vinegar"
        }, 
        {
            "amount": "1 tablespoon", 
            "ingredient": "fructose (fruit sugar)"
        }, 
        {
            "amount": "1 teaspoon", 
            "ingredient": "crushed red pepper"
        }, 
        {
            "amount": "2 (16 ounce) packages", 
            "ingredient": "frozen mixed stir-fry vegetables"
        }, 
        {
            "amount": "1 pound", 
            "ingredient": "frozen, peeled and deveined shrimp"
        }, 
        {
            "amount": "1/4 cup", 
            "ingredient": "chopped fresh cilantro"
        }, 
        {
            "amount": "1 (10 ounce) package", 
            "ingredient": "frozen chopped spinach, thawed and drained"
        }
    ], 
    "prep_steps": [
        "In a large pot, heat oil over medium heat. Stir in ginger and garlic and cook 3 minutes, until tender. Stir together 1 cup broth with cornstarch. Pour cornstarch mixture into pot with mushrooms, bamboo, soy, vinegar, fructose, crushed red pepper and remaining broth. Bring to a boil and cook until thickened.", 
        "Stir in frozen mixed vegetables, frozen shrimp and cilantro. Simmer until shrimp is opaque, about 10 minutes. Stir in spinach until just wilted, 2 minutes. Serve at once."
    ], 
    "prep_time": "45 mins", 
    "recipe_name": "Miracle Soup"
}