{
    "ingredients": [
        {
            "amount": "4", 
            "ingredient": "skinless, boneless chicken breasts"
        }, 
        {
            "amount": "1 tablespoon", 
            "ingredient": "vegetable oil"
        }, 
        {
            "amount": "1/2 cup", 
            "ingredient": "sliced onion"
        }, 
        {
            "amount": "2 cups", 
            "ingredient": "broccoli florets"
        }, 
        {
            "amount": "2", 
            "ingredient": "carrots, julienned"
        }, 
        {
            "amount": "2 cups", 
            "ingredient": "snow peas"
        }, 
        {
            "amount": "4 cups", 
            "ingredient": "dry Chinese noodles"
        }, 
        {
            "amount": "1/4 cup", 
            "ingredient": "teriyaki sauce"
        }
    ], 
    "prep_steps": [
        "In a large skillet brown chicken in oil, stirring constantly until juices run clear.", 
        "Add the onion, broccoli, carrots and peas. Cover skillet and steam for 2 minutes.", 
        "Add the Chinese noodles and teriyaki sauce. Stir noodles into chicken/vegetable mixture, making sure they are coated with sauce. When the noodles wilt, serve."
    ], 
    "recipe_name": "Chinese Noodle Chicken"
}