{
    "ingredients": [
        {
            "amount": "1 (8 ounce) package", 
            "ingredient": "cream cheese"
        }, 
        {
            "amount": "4 cups", 
            "ingredient": "confectioners' sugar"
        }, 
        {
            "amount": "1 1/2 teaspoons", 
            "ingredient": "vanilla extract"
        }, 
        {
            "amount": "12 ounces", 
            "ingredient": "white chocolate, chopped"
        }, 
        {
            "amount": "3/4 cup", 
            "ingredient": "chopped pecans"
        }
    ], 
    "prep_steps": [
        "Grease an 8x8 inch baking dish. Set aside.", 
        "In a medium bowl, beat cream cheese, sugar, and vanilla until smooth.", 
        "In the top of a double boiler over lightly simmering water, heat white chocolate, stirring until melted and smooth.", 
        "Fold melted white chocolate and pecans into cream cheese mixture. Spread into prepared baking dish. Chill for 1 hour, then cut into 1 inch squares."
    ], 
    "prep_time": "1\u00bd hrs", 
    "recipe_name": "White Chocolate Fudge"
}