{
    "ingredients": [
        {
            "amount": "1/2 cup", 
            "ingredient": "vanilla yogurt"
        }, 
        {
            "amount": "2 tablespoons", 
            "ingredient": "butter, melted"
        }, 
        {
            "amount": "2 tablespoons", 
            "ingredient": "vegetable oil"
        }, 
        {
            "amount": "1", 
            "ingredient": "egg"
        }, 
        {
            "amount": "1 1/3 cups", 
            "ingredient": "all-purpose flour"
        }, 
        {
            "amount": "3/4 cup", 
            "ingredient": "brown sugar"
        }, 
        {
            "amount": "1/2 teaspoon", 
            "ingredient": "baking soda"
        }, 
        {
            "amount": "1/4 teaspoon", 
            "ingredient": "salt"
        }, 
        {
            "amount": "1 cup", 
            "ingredient": "diced rhubarb"
        }, 
        {
            "amount": "1/4 cup", 
            "ingredient": "brown sugar"
        }, 
        {
            "amount": "1/2 teaspoon", 
            "ingredient": "ground cinnamon"
        }, 
        {
            "amount": "1/4 teaspoon", 
            "ingredient": "ground nutmeg"
        }, 
        {
            "amount": "1/4 cup", 
            "ingredient": "crushed sliced almonds"
        }, 
        {
            "amount": "2 teaspoons", 
            "ingredient": "melted butter"
        }
    ], 
    "prep_steps": [
        "Preheat the oven to 350 degrees F (175 degrees C). Grease a 12 cup muffin tin, or line with paper liners.", 
        "In a medium bowl, stir together the yogurt, 2 tablespoons of melted butter, oil and egg. In a large bowl, stir together the flour, 3/4 cup of brown sugar, baking soda and salt. Pour the wet ingredients into the dry, and mix until just blended. Fold in rhubarb. Spoon into the prepared muffin tin, filling cups at least 2/3 full.", 
        "In a small bowl, stir together 1/4 cup of brown sugar, cinnamon, nutmeg, almonds, and 2 teaspoons of melted butter. Spoon over the tops of the muffins, and press down lightly.", 
        "Bake for 25 minutes in the preheated oven, or until the tops spring back when lightly pressed. Cool in the pan for about 15 minutes before removing."
    ], 
    "prep_time": "35 mins", 
    "recipe_name": "Rhubarb Muffins"
}