{
    "ingredients": [
        {
            "amount": "4", 
            "ingredient": "egg yolks"
        }, 
        {
            "amount": "1 (5 ounce) can", 
            "ingredient": "sweetened condensed milk"
        }, 
        {
            "amount": "1 tablespoon", 
            "ingredient": "white sugar"
        }, 
        {
            "amount": "1 teaspoon", 
            "ingredient": "vanilla extract"
        }, 
        {
            "amount": "4 1/2 cups", 
            "ingredient": "milk"
        }, 
        {
            "amount": "4", 
            "ingredient": "egg whites"
        }, 
        {
            "amount": "1 fluid ounce", 
            "ingredient": "rum"
        }, 
        {
            "amount": "1/4 teaspoon", 
            "ingredient": "ground nutmeg"
        }
    ], 
    "prep_steps": [
        "In a large mixing bowl, beat egg yolks until they are thickened and light. Gradually stir in condensed milk, sugar, vanilla and milk. Beat the egg whites until stiff, then add them to the milk mixture. Stir rum into the mixture (to taste). Garnish with nutmeg."
    ], 
    "prep_time": "30 mins", 
    "recipe_name": "Christmas Creamy Egg Nog"
}