{
    "ingredients": [
        {
            "amount": "2 cups", 
            "ingredient": "graham cracker crumbs"
        }, 
        {
            "amount": "1/4 cup", 
            "ingredient": "white sugar"
        }, 
        {
            "amount": "1/2 cup", 
            "ingredient": "butter, melted"
        }, 
        {
            "amount": "1 cup", 
            "ingredient": "semisweet chocolate chips"
        }, 
        {
            "amount": "1 cup", 
            "ingredient": "flaked coconut"
        }, 
        {
            "amount": "1 cup", 
            "ingredient": "chopped pecans"
        }, 
        {
            "amount": "1 (14 ounce) can", 
            "ingredient": "sweetened condensed milk"
        }
    ], 
    "prep_steps": [
        "Preheat oven to 325 degrees F (165 degrees C).", 
        "Combine the graham cracker crumbs, sugar and melted butter. Press into the bottom of an 9x9 inch baking pan. Layer the chocolate chips, coconut and pecans over the crumbs. Pour the sweetened condensed milk over the top.", 
        "Bake at 325 degrees F (165 degrees C) for 25 to 30 minutes. Let cool and cut into squares."
    ], 
    "prep_time": "45 mins", 
    "recipe_name": "Hello Dollies I"
}