{
    "ingredients": [
        {
            "amount": "1 individual package", 
            "ingredient": "graham crackers, crushed"
        }, 
        {
            "amount": "2 tablespoons", 
            "ingredient": "white sugar"
        }, 
        {
            "amount": "1/2 cup", 
            "ingredient": "butter, softened"
        }, 
        {
            "amount": "1 1/2 teaspoons", 
            "ingredient": "ground cinnamon"
        }, 
        {
            "amount": "3 (8 ounce) packages", 
            "ingredient": "cream cheese, softened"
        }, 
        {
            "amount": "1 cup", 
            "ingredient": "white sugar"
        }, 
        {
            "amount": "3", 
            "ingredient": "eggs"
        }, 
        {
            "amount": "1 1/2 teaspoons", 
            "ingredient": "vanilla extract"
        }, 
        {
            "amount": "1 (16 ounce) container", 
            "ingredient": "sour cream"
        }, 
        {
            "amount": "3 teaspoons", 
            "ingredient": "white sugar"
        }, 
        {
            "amount": "1 teaspoon", 
            "ingredient": "vanilla extract"
        }
    ], 
    "prep_steps": [
        "Preheat oven to 375 degrees F (190 degrees C).", 
        "In a food processor, combine graham crackers, 2 tablespoons sugar, butter and cinnamon. Pulse until smooth. Press into the bottom of an 8x12 inch baking dish.", 
        "In the food processor, combine cream cheese, 1 cup sugar, eggs and vanilla. Process until smooth. Pour over crust.", 
        "Bake in preheated oven for 25 to 30 minutes, or until filling is set. Allow to cool for 2 hours.", 
        "Preheat oven to 350 degrees F (175 degrees C). In a small bowl, mix together sour cream, sugar and vanilla. Spread over top of cheesecake. Bake in preheated oven for 10 to 15 minutes."
    ], 
    "prep_time": "3 hrs", 
    "recipe_name": "Killer Cheesecake"
}