{
    "ingredients": [
        {
            "amount": "2 tablespoons", 
            "ingredient": "butter"
        }, 
        {
            "amount": "1 large", 
            "ingredient": "onion, diced"
        }, 
        {
            "amount": "2 medium", 
            "ingredient": "potatoes, sliced"
        }, 
        {
            "amount": "4 cups", 
            "ingredient": "raw radish greens"
        }, 
        {
            "amount": "4 cups", 
            "ingredient": "chicken broth"
        }, 
        {
            "amount": "1/3 cup", 
            "ingredient": "heavy cream"
        }, 
        {
            "amount": "5", 
            "ingredient": "radishes, sliced"
        }
    ], 
    "prep_steps": [
        "Melt butter in a large saucepan over medium heat. Stir in the onion, and saute until tender. Mix in the potatoes and radish greens, coating them with the butter. Pour in chicken broth. Bring the mixture to a boil. Reduce heat, and simmer 30 minutes.", 
        "Allow the soup mixture to cool slightly, and transfer to a blender. Blend until smooth.", 
        "Return the mixture to the saucepan. Mix in the heavy cream. Cook and stir until well blended. Serve with radish slices."
    ], 
    "prep_time": "1 hr", 
    "recipe_name": "Radish Top Soup"
}