{
    "ingredients": [
        {
            "amount": "6 medium", 
            "ingredient": "beets"
        }, 
        {
            "amount": "3 tablespoons", 
            "ingredient": "olive oil"
        }, 
        {
            "amount": "2 tablespoons", 
            "ingredient": "red wine vinegar"
        }, 
        {
            "amount": "2 cloves", 
            "ingredient": "garlic, crushed"
        }
    ], 
    "prep_steps": [
        "Wash the beets and boil until tender, about 45 minutes (or 20 minutes in a pressure cooker). Remove the skins by running cold water over the boiled beets, and then slipping of their skins. Slice the beets and toss with the olive oil, vinegar, garlic, and salt."
    ], 
    "prep_time": "30 mins", 
    "recipe_name": "Garlicky Beet Delight"
}