{
    "ingredients": [
        {
            "amount": "2 (14 ounce) cans", 
            "ingredient": "sweetened condensed milk"
        }, 
        {
            "amount": "5 cups", 
            "ingredient": "milk"
        }, 
        {
            "amount": "2 cups", 
            "ingredient": "heavy cream"
        }, 
        {
            "amount": "2 tablespoons", 
            "ingredient": "vanilla extract"
        }, 
        {
            "amount": "1/2 teaspoon", 
            "ingredient": "salt"
        }, 
        {
            "amount": "3 cups", 
            "ingredient": "chopped strawberries"
        }
    ], 
    "prep_steps": [
        "Combine condensed milk, milk, cream, vanilla, salt and fruit in freezer canister of ice cream maker. Freeze according to manufacturer's directions."
    ], 
    "prep_time": "1 hr", 
    "recipe_name": "Fruited Ice Cream"
}