{
    "ingredients": [
        {
            "amount": "4", 
            "ingredient": "medium zucchini"
        }, 
        {
            "amount": "1 pound", 
            "ingredient": "ground beef"
        }, 
        {
            "amount": "1 pound", 
            "ingredient": "Italian sausage"
        }, 
        {
            "amount": "1 small", 
            "ingredient": "onion, chopped"
        }, 
        {
            "amount": "1/2 cup", 
            "ingredient": "dried bread crumbs"
        }, 
        {
            "amount": "1", 
            "ingredient": "egg, beaten"
        }, 
        {
            "amount": "1 (28 ounce) can", 
            "ingredient": "crushed tomatoes"
        }, 
        {
            "amount": "1 (10.75 ounce) can", 
            "ingredient": "condensed tomato soup"
        }, 
        {
            "amount": "1 cup", 
            "ingredient": "water"
        }
    ], 
    "prep_steps": [
        "Preheat oven to 350 degrees (175 degrees C). Grease or spray a 13x9 inch baking dish.", 
        "Cut the zucchini in half lengthwise. With a spoon, scoop out the seeds. Chop and reserve about 3/4 of the seeds for the stuffing. In a medium bowl, mix together the ground beef, sausage, chopped onion, bread crumbs, egg and the reserved zucchini seeds. Place the meat mixture equally into all of the zucchini halves; mixture should be piled up over the top. Place the filled zucchini halves into the prepared baking dish.", 
        "In a bowl, stir together the crushed tomatoes, tomato soup, and water. Spoon the tomato mixture over the filled zucchini, liberally. Bake in the preheated oven for approximately 45 minutes. You may want to place foil or a cookie sheet underneath the baking dish because it tends to bubble over and splash."
    ], 
    "prep_time": "1 hr", 
    "recipe_name": "Stuffed Zucchini"
}