{
    "ingredients": [
        {
            "amount": "3 cups", 
            "ingredient": "water"
        }, 
        {
            "amount": "4 cubes", 
            "ingredient": "chicken bouillon"
        }, 
        {
            "amount": "2 cups", 
            "ingredient": "instant brown rice"
        }, 
        {
            "amount": "2 tablespoons", 
            "ingredient": "cornstarch"
        }, 
        {
            "amount": "1/4 cup", 
            "ingredient": "olive oil"
        }, 
        {
            "amount": "4", 
            "ingredient": "boneless, skinless chicken breast halves"
        }, 
        {
            "amount": "1 teaspoon", 
            "ingredient": "dried thyme"
        }, 
        {
            "amount": "1 teaspoon", 
            "ingredient": "dried sage"
        }, 
        {
            "amount": "2 teaspoons", 
            "ingredient": "dried basil"
        }, 
        {
            "amount": "1 teaspoon", 
            "ingredient": "dried parsley"
        }, 
        {
            "amount": "1 teaspoon", 
            "ingredient": "dried marjoram"
        }, 
        {
            "amount": "1", 
            "ingredient": "medium onion, chopped"
        }, 
        {
            "amount": "2 (10 ounce) packages", 
            "ingredient": "frozen chopped spinach, thawed and drained"
        }, 
        {
            "amount": "2 cups", 
            "ingredient": "cottage cheese"
        }, 
        {
            "amount": "1/2 cup", 
            "ingredient": "Parmesan cheese"
        }, 
        {
            "amount": "1/4 cup", 
            "ingredient": "margarine"
        }
    ], 
    "prep_steps": [
        "Preheat oven to 350 degrees F (175 degrees C).", 
        "In a medium saucepan, boil 2 cups water and chicken bouillon. Stir in rice. Remove from heat, and set aside. In a small bowl, mix cornstarch with remaining water.", 
        "Heat olive oil in a medium skillet over medium heat. Place chicken in skillet with thyme, sage, basil, parsley, and marjoram. Cook until chicken is no longer pink and juices run clear. Drain and cube.", 
        "Stir onion into the skillet, and cook 5 minutes, or until browned and tender.", 
        "In a large bowl, thoroughly mix rice, cornstarch mixture, chicken, onion, spinach, and cottage cheese.", 
        "Transfer the mixture to a medium baking dish. Season with salt and pepper. Top with Parmesan cheese, and dot with margarine. Bake, covered, 45 minutes in the preheated oven. Remove cover, and continue baking 15 minutes, until surface is lightly browned."
    ], 
    "prep_time": "1\u00bd hrs", 
    "recipe_name": "Chicken Florentine Rice Casserole"
}