{
    "ingredients": [
        {
            "amount": "2 pounds", 
            "ingredient": "ground beef"
        }, 
        {
            "amount": "1 cup", 
            "ingredient": "bread crumbs"
        }, 
        {
            "amount": "2", 
            "ingredient": "eggs, beaten"
        }, 
        {
            "amount": "2 tablespoons", 
            "ingredient": "soy sauce"
        }, 
        {
            "amount": "1/4 teaspoon", 
            "ingredient": "ground black pepper"
        }, 
        {
            "amount": "1/2 teaspoon", 
            "ingredient": "garlic powder"
        }, 
        {
            "amount": "1/3 cup", 
            "ingredient": "ketchup"
        }, 
        {
            "amount": "1 (16 ounce) can", 
            "ingredient": "jellied cranberry sauce"
        }, 
        {
            "amount": "1 (18 ounce) bottle", 
            "ingredient": "barbecue sauce"
        }, 
        {
            "amount": "2 tablespoons", 
            "ingredient": "brown sugar"
        }, 
        {
            "amount": "1 tablespoon", 
            "ingredient": "lemon juice"
        }
    ], 
    "prep_steps": [
        "Preheat oven to 350 degrees F. (175 degrees C).", 
        "Mix together the hamburger, bread crumbs, eggs, soy sauce, pepper, garlic powder and ketchup. Form into small balls and bake for 30 minutes.", 
        "In a saucepan over low heat, combine the cranberry sauce, barbecue sauce, brown sugar and lemon juice. Simmer and stir until smooth. Add meat balls and simmer for I hour. Serve warm."
    ], 
    "recipe_name": "Cranberry Meatballs"
}