{
    "ingredients": [
        {
            "amount": "2 1/2 pounds", 
            "ingredient": "lean ground beef"
        }, 
        {
            "amount": "1 (15 ounce) can", 
            "ingredient": "tomato sauce"
        }, 
        {
            "amount": "1 1/3 (6 ounce) cans", 
            "ingredient": "tomato paste"
        }, 
        {
            "amount": "5 tablespoons", 
            "ingredient": "chili powder"
        }, 
        {
            "amount": "2 teaspoons", 
            "ingredient": "ground cinnamon"
        }, 
        {
            "amount": "1 teaspoon", 
            "ingredient": "ground allspice"
        }, 
        {
            "amount": "1 1/4 teaspoons", 
            "ingredient": "salt"
        }, 
        {
            "amount": "1 tablespoon", 
            "ingredient": "distilled white vinegar"
        }, 
        {
            "amount": "1 teaspoon", 
            "ingredient": "ground black pepper"
        }, 
        {
            "amount": "1/4 teaspoon", 
            "ingredient": "garlic powder"
        }, 
        {
            "amount": "1 teaspoon", 
            "ingredient": "onion salt"
        }, 
        {
            "amount": "2 teaspoons", 
            "ingredient": "steak sauce"
        }, 
        {
            "amount": "1 quart", 
            "ingredient": "water"
        }
    ], 
    "prep_steps": [
        "Brown the beef lightly.", 
        "Place all the ingredients in a crock pot and mix together well. Cook for 12 hours or more on low."
    ], 
    "recipe_name": "Skyline Chili I"
}