{
    "ingredients": [
        {
            "amount": "2 cups", 
            "ingredient": "dried brown lentils, rinsed and drained"
        }, 
        {
            "amount": "3 cups", 
            "ingredient": "chicken stock"
        }, 
        {
            "amount": "1", 
            "ingredient": "bay leaf"
        }, 
        {
            "amount": "1 cup", 
            "ingredient": "chopped carrots"
        }, 
        {
            "amount": "1 cup", 
            "ingredient": "chopped celery"
        }, 
        {
            "amount": "1 cup", 
            "ingredient": "chopped onion"
        }, 
        {
            "amount": "1 cup", 
            "ingredient": "cooked, cubed ham"
        }, 
        {
            "amount": "1 teaspoon", 
            "ingredient": "Worcestershire sauce"
        }, 
        {
            "amount": "1/2 teaspoon", 
            "ingredient": "garlic powder"
        }, 
        {
            "amount": "1/4 teaspoon", 
            "ingredient": "freshly grated nutmeg"
        }, 
        {
            "amount": "5 drops", 
            "ingredient": "hot pepper sauce"
        }, 
        {
            "amount": "1/4 teaspoon", 
            "ingredient": "caraway seed"
        }, 
        {
            "amount": "1/2 teaspoon", 
            "ingredient": "celery salt"
        }, 
        {
            "amount": "1 tablespoon", 
            "ingredient": "chopped fresh parsley"
        }, 
        {
            "amount": "1/2 teaspoon", 
            "ingredient": "ground black pepper"
        }
    ], 
    "prep_steps": [
        "Place lentils in a 5 to 6 quart slow cooker. Add chicken stock, bay leaf, carrots, celery, onion, and ham. Season with Worcestershire sauce, garlic powder, nutmeg, hot pepper sauce, caraway seed, celery salt, parsley, and pepper.", 
        "Cover, and cook on Low for 8 to 10 hours. Remove bay leaf before serving."
    ], 
    "prep_time": "8 hrs", 
    "recipe_name": "German Lentil Soup"
}