{
    "ingredients": [
        {
            "amount": "4 cups", 
            "ingredient": "old-fashioned rolled oats"
        }, 
        {
            "amount": "1 cup", 
            "ingredient": "brown sugar, packed"
        }, 
        {
            "amount": "1 cup", 
            "ingredient": "wheat germ"
        }, 
        {
            "amount": "1 teaspoon", 
            "ingredient": "cinnamon"
        }, 
        {
            "amount": "2 cups", 
            "ingredient": "whole wheat flour"
        }, 
        {
            "amount": "2", 
            "ingredient": "eggs, beaten"
        }, 
        {
            "amount": "1 cup", 
            "ingredient": "honey"
        }, 
        {
            "amount": "1 cup", 
            "ingredient": "canola oil"
        }, 
        {
            "amount": "2 teaspoons", 
            "ingredient": "vanilla extract"
        }, 
        {
            "amount": "1 teaspoon", 
            "ingredient": "salt"
        }, 
        {
            "amount": "1/2 cup", 
            "ingredient": "flax seeds"
        }, 
        {
            "amount": "1/2 cup", 
            "ingredient": "sesame seeds"
        }, 
        {
            "amount": "1/2 cup", 
            "ingredient": "sunflower seeds"
        }, 
        {
            "amount": "1/2 cup", 
            "ingredient": "semi-sweet chocolate chips"
        }
    ], 
    "prep_steps": [
        "Preheat oven to 350 degrees F (175 degrees C). Lightly grease a 9x14 inch ovenproof baking dish.", 
        "Mix the rolled oats, brown sugar, wheat germ, cinnamon, and flour together in a large bowl. In a separate bowl, whisk together the eggs, honey, canola oil, vanilla, and salt until evenly blended., and stir into the oat mixture. Stir in the flax seeds, sesame seeds, sunflower seeds, and chocolate chips. Use your hands to mix the ingredients, and press the mixture into the prepared pan.", 
        "Bake in preheated oven until the edges are golden brown, 20 to 25 minutes. Cool completely in the baking dish before cutting into 2 inch bars."
    ], 
    "prep_time": "40 mins", 
    "recipe_name": "Bird Seed Energy Bars"
}