{
    "ingredients": [
        {
            "amount": "2 tablespoons", 
            "ingredient": "butter or margarine"
        }, 
        {
            "amount": "4 slices", 
            "ingredient": "white bread"
        }, 
        {
            "amount": "2 slices", 
            "ingredient": "American cheese"
        }, 
        {
            "amount": "1", 
            "ingredient": "roma (plum) tomato, thinly sliced"
        }, 
        {
            "amount": "1/4 small", 
            "ingredient": "onion, chopped"
        }, 
        {
            "amount": "1", 
            "ingredient": "jalapeno pepper, chopped"
        }
    ], 
    "prep_steps": [
        "Heat a large skillet over low heat. Spread butter or margarine onto one side of two slices of bread. Place both pieces buttered side down in the skillet. Lay a slice of cheese on each one, and top with slices of tomato, onion and jalapeno. Butter one side of the remaining slices of bread, and place on top buttered side up. When the bottom of the sandwiches are toasted, flip and fry until brown on the other side."
    ], 
    "prep_time": "5 mins", 
    "recipe_name": "Spicy Grilled Cheese Sandwich"
}