{
    "ingredients": [
        {
            "amount": "1 (15 ounce) can", 
            "ingredient": "black beans, drained and rinsed"
        }, 
        {
            "amount": "1 tablespoon", 
            "ingredient": "vegetable oil"
        }, 
        {
            "amount": "1 (10 ounce) can", 
            "ingredient": "artichoke hearts, drained and sliced"
        }, 
        {
            "amount": "1 medium", 
            "ingredient": "onion, diced"
        }, 
        {
            "amount": "3 cloves", 
            "ingredient": "garlic, crushed"
        }, 
        {
            "amount": "8 (10 inch)", 
            "ingredient": "flour tortillas"
        }, 
        {
            "amount": "2 cups", 
            "ingredient": "shredded sharp Cheddar cheese"
        }, 
        {
            "amount": "1 large", 
            "ingredient": "tomato, diced"
        }
    ], 
    "prep_steps": [
        "Pour the beans into a large iron skillet, and bring to a boil. Cook at a hard simmer until they become pasty and begin to resemble burrito beans in texture.", 
        "Heat oil in a separate skillet over medium heat. Stir in artichoke hearts, onion, and garlic; cook until the artichokes become golden brown.", 
        "Place tortillas in a dry skillet over low heat to warm. Remove from skillet. Spoon beans and artichoke mixture onto each tortilla, and top with cheese and tomato. Fold in ends, and roll up."
    ], 
    "prep_time": "40 mins", 
    "recipe_name": "Black Bean and Artichoke Burritos"
}