{
    "ingredients": [
        {
            "amount": "7 pounds", 
            "ingredient": "cut up chicken pieces"
        }, 
        {
            "amount": "4 cups", 
            "ingredient": "chicken stock"
        }, 
        {
            "amount": "2", 
            "ingredient": "onions, chopped"
        }, 
        {
            "amount": "3 stalks", 
            "ingredient": "celery, chopped"
        }, 
        {
            "amount": "3 teaspoons", 
            "ingredient": "salt"
        }, 
        {
            "amount": "1", 
            "ingredient": "egg"
        }, 
        {
            "amount": "1/4 cup", 
            "ingredient": "milk"
        }, 
        {
            "amount": "1 1/2 cups", 
            "ingredient": "all-purpose flour, divided"
        }, 
        {
            "amount": "1 1/2 teaspoons", 
            "ingredient": "baking powder"
        }, 
        {
            "amount": "2 tablespoons", 
            "ingredient": "unsalted butter"
        }, 
        {
            "amount": "2 tablespoons", 
            "ingredient": "chopped fresh parsley"
        }, 
        {
            "amount": "1 cup", 
            "ingredient": "water"
        }, 
        {
            "amount": "1/2 teaspoon", 
            "ingredient": "ground black pepper"
        }
    ], 
    "prep_steps": [
        "In a large pot place chicken pieces and add the chicken stock, onion, celery and 2 teaspoons of the salt. Put heat on medium low and simmer, partially covered, 15 to 20 minutes or until chicken is tender.", 
        "To Prepare Dumplings: In a large mixing bowl beat together the egg and milk. Add 1 cup flour, remaining salt and baking powder and mix all together. Cut the butter into the flour mixture until the mixture is crumbly. Add 1 tablespoon of the parsley and mix. In 6 large spoonfuls, drop dumpling mixture onto the top of the simmering chicken. Cover the pot and let all simmer for 10 minutes more.", 
        "To Make Gravy: Remove chicken and dumplings to a large serving bowl. Cover and set aside, keeping warm. Strain the stock left in the pot, pressing out any 'veggie liquid'. Return stock to pot. Combine water with remaining flour, then stir into the strained stock. Bring all to a boil, stirring constantly, to thicken. Return chicken and dumplings to pot, combing all gently. Serve with remaining parsley."
    ], 
    "recipe_name": "Old Fashioned Chicken and Dumplings"
}