{
    "ingredients": [
        {
            "amount": "1", 
            "ingredient": "large portobello mushroom, stem removed"
        }, 
        {
            "amount": "1 tablespoon", 
            "ingredient": "spaghetti sauce"
        }, 
        {
            "amount": "1/2 cup", 
            "ingredient": "mozzarella cheese"
        }, 
        {
            "amount": "1/2 tablespoon", 
            "ingredient": "sliced black olives"
        }, 
        {
            "amount": "4 slices", 
            "ingredient": "pepperoni sausage"
        }, 
        {
            "amount": "1 clove", 
            "ingredient": "garlic, chopped"
        }
    ], 
    "prep_steps": [
        "Preheat the oven to 375 degrees F (190 degrees C).", 
        "Place the mushroom on a baking sheet, and bake for 5 minutes in the preheated oven. Remove from the oven, and spread spaghetti sauce in the cup of the cap. Top with cheese, olives, pepperoni and garlic.", 
        "Bake for an additional 20 minutes, or until cheese is melted and golden."
    ], 
    "prep_time": "40 mins", 
    "recipe_name": "Personal Portobello Pizza"
}