{
    "ingredients": [
        {
            "amount": "4", 
            "ingredient": "eggs"
        }, 
        {
            "amount": "1 cup", 
            "ingredient": "white sugar"
        }, 
        {
            "amount": "1 cup", 
            "ingredient": "brown sugar"
        }, 
        {
            "amount": "1/2 cup", 
            "ingredient": "vegetable oil"
        }, 
        {
            "amount": "1 teaspoon", 
            "ingredient": "vanilla extract"
        }, 
        {
            "amount": "3 1/2 cups", 
            "ingredient": "all-purpose flour"
        }, 
        {
            "amount": "1 1/2 teaspoons", 
            "ingredient": "baking soda"
        }, 
        {
            "amount": "1/2 teaspoon", 
            "ingredient": "salt"
        }, 
        {
            "amount": "2 teaspoons", 
            "ingredient": "ground cinnamon"
        }, 
        {
            "amount": "1/2 cup", 
            "ingredient": "chopped walnuts"
        }, 
        {
            "amount": "2 cups", 
            "ingredient": "peeled, chopped zucchini"
        }, 
        {
            "amount": "1 cup", 
            "ingredient": "chopped, peeled apple"
        }
    ], 
    "prep_steps": [
        "Preheat oven to 350 degrees F (175 degrees C). Grease 2 - 9x5 inch loaf pans.", 
        "In a large bowl, combine eggs, white sugar, brown sugar, oil and vanilla until well blended. In a separate bowl, combine flour, baking soda, salt and cinnamon. Stir flour mixture into egg mixture. Fold in walnuts, zucchini and apple. Pour into prepared pans.", 
        "Bake 1 hour, or until top springs back when touched lightly in center. Let cool in pans 10 minutes before removing to wire rack to cool completely."
    ], 
    "prep_time": "1\u00bd hrs", 
    "recipe_name": "Zucchini Apple Bread"
}