{
    "ingredients": [
        {
            "amount": "1/4 cup", 
            "ingredient": "butter"
        }, 
        {
            "amount": "1 1/2 pounds", 
            "ingredient": "chicken breast tenderloins or strips"
        }, 
        {
            "amount": "1 pint", 
            "ingredient": "heavy cream"
        }
    ], 
    "prep_steps": [
        "Melt half of the butter in a large skillet over medium-high heat. Season chicken tenders with salt and pepper, and saute them in butter until golden on all sides, about 10 minutes. Add the remaining butter, reduce heat to medium, and cook for 5 more minutes.", 
        "Pour the heavy cream into the skillet, and simmer gently for 5 minutes, stirring occasionally, until the sauce has thickened and chicken is cooked through. Best when served with fresh French bread for dipping."
    ], 
    "prep_time": "22 mins", 
    "recipe_name": "Chicken a la Creme"
}