{
    "ingredients": [
        {
            "amount": "2 1/2 cups", 
            "ingredient": "all-purpose flour"
        }, 
        {
            "amount": "1 teaspoon", 
            "ingredient": "baking powder"
        }, 
        {
            "amount": "1/2 teaspoon", 
            "ingredient": "baking soda"
        }, 
        {
            "amount": "1/4 teaspoon", 
            "ingredient": "salt"
        }, 
        {
            "amount": "1 1/2 teaspoons", 
            "ingredient": "ground ginger"
        }, 
        {
            "amount": "1 teaspoon", 
            "ingredient": "ground cloves"
        }, 
        {
            "amount": "1 teaspoon", 
            "ingredient": "ground nutmeg"
        }, 
        {
            "amount": "3/4 teaspoon", 
            "ingredient": "ground cinnamon"
        }, 
        {
            "amount": "1 cup", 
            "ingredient": "packed brown sugar"
        }, 
        {
            "amount": "1/2 cup", 
            "ingredient": "unsalted butter, softened"
        }, 
        {
            "amount": "1/2 cup", 
            "ingredient": "shortening"
        }, 
        {
            "amount": "1/4 cup", 
            "ingredient": "molasses"
        }, 
        {
            "amount": "1", 
            "ingredient": "egg"
        }, 
        {
            "amount": "2/3 cup", 
            "ingredient": "coarse granulated sugar"
        }
    ], 
    "prep_steps": [
        "Sift together the flour, baking powder, baking soda, salt, ginger, cloves, nutmeg and cinnamon. Set aside. In a medium bowl, cream together the brown sugar, butter, and shortening. Stir in the molasses and egg. Gradually stir in the dry ingredients until everything is incorporated. Cover and chill dough for at least 1 1/2 hours.", 
        "Preheat oven to 350 degrees F (175 degrees C). Lightly grease baking sheets or line them with parchment paper.", 
        "Roll the chilled dough into 1 inch balls. Roll each ball in the coarse sugar. If you do not have coarse sugar, you can use regular sugar. Place cookie 2 inches apart on the prepared cookie sheets, and flatten slightly.", 
        "Bake for 9 to 12 minutes in the preheated oven, until cookies are cracked but still soft in the center. Remove from baking sheets to cool on wire racks. Store cooled cookies in an airtight container for up to 2 weeks."
    ], 
    "recipe_name": "Four Spice Crackles"
}