{
    "ingredients": [
        {
            "amount": "1", 
            "ingredient": "egg"
        }, 
        {
            "amount": "1 tablespoon", 
            "ingredient": "water"
        }, 
        {
            "amount": "1", 
            "ingredient": "small eggplant, cut into 3/4 inch thick slices"
        }, 
        {
            "amount": "1 cup", 
            "ingredient": "dried bread crumbs, seasoned"
        }, 
        {
            "amount": "1 1/2 cups", 
            "ingredient": "shredded mozzarella cheese"
        }, 
        {
            "amount": "1/4 cup", 
            "ingredient": "spaghetti sauce"
        }, 
        {
            "amount": "1/4 teaspoon", 
            "ingredient": "crushed red pepper flakes"
        }, 
        {
            "amount": "3 tablespoons", 
            "ingredient": "grated Parmesan cheese"
        }
    ], 
    "prep_steps": [
        "In a small bowl beat the egg and water together. Place the bread crumbs in shallow dish. Dip eggplant slices in egg mixture then in crumbs, being sure to coat thoroughly.", 
        "Heat oil in a large skillet over medium-high heat until hot. Add eggplant slices and reduce heat to medium. Cook for 3 to 4 minutes per side or until golden brown and tender. Sprinkle mozzarella cheese over eggplant during last minute of cooking to melt.", 
        "While eggplant is cooking, combine spaghetti sauce and pepper flakes in a microwave-safe measuring cup. Cover with plastic wrap and cook at high power for 2 minutes or until heated through.", 
        "Top eggplant with sauce and Parmesan cheese and serve."
    ], 
    "prep_time": "15 mins", 
    "recipe_name": "Quick Eggplant Parmesan"
}