{
    "ingredients": [
        {
            "amount": "1/3 cup", 
            "ingredient": "white sugar"
        }, 
        {
            "amount": "1/2 cup", 
            "ingredient": "white vinegar"
        }, 
        {
            "amount": "1 teaspoon", 
            "ingredient": "salt"
        }, 
        {
            "amount": "1 teaspoon", 
            "ingredient": "ground dry mustard"
        }, 
        {
            "amount": "1 teaspoon", 
            "ingredient": "grated onion"
        }, 
        {
            "amount": "1 cup", 
            "ingredient": "vegetable oil"
        }, 
        {
            "amount": "1 tablespoon", 
            "ingredient": "poppy seeds"
        }
    ], 
    "prep_steps": [
        "In a blender or food processor, combine sugar, vinegar, salt, mustard and onion and process for 20 seconds. With blender or food processor on high, gradually add oil in a slow, steady stream. Stir in poppy seeds."
    ], 
    "prep_time": "15 mins", 
    "recipe_name": "Poppyseed Dressing"
}