{
    "ingredients": [
        {
            "amount": "3 cups", 
            "ingredient": "baby spinach, rinsed and dried"
        }, 
        {
            "amount": "1 pint", 
            "ingredient": "fresh blackberries"
        }, 
        {
            "amount": "6 ounces", 
            "ingredient": "crumbled feta cheese"
        }, 
        {
            "amount": "1 pint", 
            "ingredient": "cherry tomatoes, halved"
        }, 
        {
            "amount": "1", 
            "ingredient": "green onion, sliced"
        }, 
        {
            "amount": "1/4 cup", 
            "ingredient": "finely chopped walnuts"
        }, 
        {
            "amount": "1/2 cup", 
            "ingredient": "edible flowers"
        }
    ], 
    "prep_steps": [
        "In a large bowl, toss together baby spinach, blackberries, feta cheese, cherry tomatoes, green onion, and walnuts. Garnish with edible flowers."
    ], 
    "prep_time": "15 mins", 
    "recipe_name": "Blackberry Spinach Salad"
}