{
    "ingredients": [
        {
            "amount": "6 ounces", 
            "ingredient": "whole wheat penne pasta"
        }, 
        {
            "amount": "3/4 cup", 
            "ingredient": "pumpkin puree"
        }, 
        {
            "amount": "3/4 cup", 
            "ingredient": "low sodium chicken broth"
        }, 
        {
            "amount": "1/4 cup", 
            "ingredient": "nonfat milk"
        }, 
        {
            "amount": "1 teaspoon", 
            "ingredient": "margarine"
        }, 
        {
            "amount": "1/4 teaspoon", 
            "ingredient": "onion powder"
        }, 
        {
            "amount": "1/4 teaspoon", 
            "ingredient": "ground black pepper"
        }, 
        {
            "amount": "1/4 teaspoon", 
            "ingredient": "salt"
        }, 
        {
            "amount": "1 pinch", 
            "ingredient": "ground cloves"
        }, 
        {
            "amount": "1 pinch", 
            "ingredient": "ground nutmeg"
        }, 
        {
            "amount": "1 pinch", 
            "ingredient": "ground cinnamon"
        }, 
        {
            "amount": "1 pinch", 
            "ingredient": "ground ginger"
        }, 
        {
            "amount": "1/4 cup", 
            "ingredient": "grated Parmesan cheese, plus more for serving"
        }
    ], 
    "prep_steps": [
        "Fill a large pot with lightly salted water and bring to a rolling boil over high heat. Once the water is boiling, stir in the penne, and return to a boil. Cook the pasta uncovered, stirring occasionally, until the pasta has cooked through, but is still firm to the bite, about 11 minutes. Drain well in a colander set in the sink.", 
        "Heat the pumpkin puree, chicken broth, milk, margarine, onion powder, black pepper, salt, cloves, nutmeg, cinnamon, and ginger in a large skillet over low heat until heated through, about 5 minutes. Stir in the drained pasta, and toss with the Parmesan cheese."
    ], 
    "prep_time": "20 mins", 
    "recipe_name": "Pumpkin Pasta"
}