{
    "ingredients": [
        {
            "amount": "2 tablespoons", 
            "ingredient": "olive oil"
        }, 
        {
            "amount": "1 large", 
            "ingredient": "white onion, chopped"
        }, 
        {
            "amount": "1/2 cup", 
            "ingredient": "dry lentils"
        }, 
        {
            "amount": "2 cloves", 
            "ingredient": "garlic, minced"
        }, 
        {
            "amount": "3 tablespoons", 
            "ingredient": "curry powder"
        }, 
        {
            "amount": "1 teaspoon", 
            "ingredient": "ground cumin"
        }, 
        {
            "amount": "1 pinch", 
            "ingredient": "cayenne pepper"
        }, 
        {
            "amount": "1 (28 ounce) can", 
            "ingredient": "crushed tomatoes"
        }, 
        {
            "amount": "1 (15 ounce) can", 
            "ingredient": "garbanzo beans, drained and rinsed"
        }, 
        {
            "amount": "1 (8 ounce) can", 
            "ingredient": "kidney beans, drained and rinsed"
        }, 
        {
            "amount": "1/2 cup", 
            "ingredient": "raisins"
        }
    ], 
    "prep_steps": [
        "Heat the oil in a large pot over medium heat, and cook the onion until tender. Mix in the lentils and garlic, and season with curry powder, cumin, and cayenne pepper. Cook and stir 2 minutes. Stir in the tomatoes, garbanzo beans, kidney beans, and raisins. Season with salt and pepper. Reduce heat to low, and simmer at least 1 hour, stirring occasionally."
    ], 
    "prep_time": "1\u00bd hrs", 
    "recipe_name": "Vegetarian Bean Curry"
}