{
    "ingredients": [
        {
            "amount": "1 (10 ounce) package", 
            "ingredient": "frozen broccoli"
        }, 
        {
            "amount": "2 1/2 cups", 
            "ingredient": "milk"
        }, 
        {
            "amount": "2 1/2 cups", 
            "ingredient": "cubed processed cheese"
        }, 
        {
            "amount": "1/3 cup", 
            "ingredient": "all-purpose flour"
        }, 
        {
            "amount": "1 cup", 
            "ingredient": "heavy cream"
        }, 
        {
            "amount": "1 cube", 
            "ingredient": "chicken bouillon"
        }, 
        {
            "amount": "1/2 teaspoon", 
            "ingredient": "salt"
        }, 
        {
            "amount": "1/2 teaspoon", 
            "ingredient": "ground black pepper"
        }
    ], 
    "prep_steps": [
        "Place broccoli in a medium saucepan with just enough water to cover. Cook until tender, about 8 minutes. Set aside and do not drain water.", 
        "In a large saucepan, heat milk. Blend in the flour and cheese until smooth. Stir in the cream and bouillon cube. Add the broccoli and it's water to the mixture and season with salt and pepper. Heat soup to warm and serve immediately."
    ], 
    "prep_time": "30 mins", 
    "recipe_name": "Broccoli Cheese Soup VII"
}