{
    "ingredients": [
        {
            "amount": "1 cup", 
            "ingredient": "all-purpose flour"
        }, 
        {
            "amount": "3 teaspoons", 
            "ingredient": "baking powder"
        }, 
        {
            "amount": "2 teaspoons", 
            "ingredient": "white sugar"
        }, 
        {
            "amount": "1 teaspoon", 
            "ingredient": "salt"
        }, 
        {
            "amount": "2 tablespoons", 
            "ingredient": "shortening"
        }, 
        {
            "amount": "3/4 cup", 
            "ingredient": "mashed sweet potatoes"
        }, 
        {
            "amount": "1/4 cup", 
            "ingredient": "milk"
        }
    ], 
    "prep_steps": [
        "Preheat the oven to 400 degrees F (200 degrees C).", 
        "In a medium bowl, stir together the flour, baking powder, sugar and salt. Cut in the shortening until pieces of shortening are pea-sized or smaller. Mix in the sweet potatoes, and enough of the milk to make a soft dough.", 
        "Turn dough out onto a floured surface, and roll or pat out to 1/2 inch thickness. Cut into circles using a biscuit cutter or a drinking glass. Place biscuits 1 inch apart onto a greased baking sheet.", 
        "Bake for 12 to 15 minutes in the preheated oven, or until golden brown."
    ], 
    "prep_time": "20 mins", 
    "recipe_name": "Sweet Potato Biscuits"
}