{
    "ingredients": [
        {
            "amount": "2 tablespoons", 
            "ingredient": "butter"
        }, 
        {
            "amount": "1 (10.75 ounce) can", 
            "ingredient": "condensed cream of mushroom soup"
        }, 
        {
            "amount": "1 1/4 cups", 
            "ingredient": "water, or as needed"
        }, 
        {
            "amount": "1 (12 fluid ounce) can", 
            "ingredient": "evaporated milk"
        }, 
        {
            "amount": "1", 
            "ingredient": "onion, chopped"
        }, 
        {
            "amount": "2 pounds", 
            "ingredient": "skinless, boneless chicken breast halves - cubed"
        }, 
        {
            "amount": "1 (6 ounce) can", 
            "ingredient": "sliced mushrooms, drained"
        }
    ], 
    "prep_steps": [
        "In a large saucepan, melt the butter/margarine. Add the soup, water and milk. Stir together over medium heat. Add the onion, salt and pepper and bring all to a boil.", 
        "When mixture starts boiling, add the chicken meat and simmer all together until chicken is cooked through. Add the sliced mushrooms and boil over medium heat for about 5 minutes, stirring often. Serve!"
    ], 
    "recipe_name": "Cream of Mushroom Chicken"
}