{
    "ingredients": [
        {
            "amount": "1 cup", 
            "ingredient": "butter"
        }, 
        {
            "amount": "1/2 cup", 
            "ingredient": "confectioners' sugar"
        }, 
        {
            "amount": "2 cups", 
            "ingredient": "all-purpose flour"
        }, 
        {
            "amount": "1 teaspoon", 
            "ingredient": "lemon zest"
        }, 
        {
            "amount": "1/2 teaspoon", 
            "ingredient": "salt"
        }, 
        {
            "amount": "1", 
            "ingredient": "egg, beaten"
        }, 
        {
            "amount": "2/3 cup", 
            "ingredient": "white sugar"
        }, 
        {
            "amount": "1 1/2 teaspoons", 
            "ingredient": "lemon zest"
        }, 
        {
            "amount": "3 tablespoons", 
            "ingredient": "lemon juice"
        }, 
        {
            "amount": "1 1/2 tablespoons", 
            "ingredient": "butter"
        }
    ], 
    "prep_steps": [
        "In a medium bowl, cream together butter and confectioners' sugar until light. Stir in the lemon peel, flour and salt. Cover bowl, and chill for about 1 hour.", 
        "Preheat oven to 400 degrees F (200 degrees C).", 
        "Flatten teaspoons of dough onto cookie sheets, and bake for 5 to 8 minutes, until light brown. Remove from baking sheets to cool on racks.", 
        "To make the filling, combine the beaten egg, sugar, lemon zest, lemon juice and butter in the top of a double boiler. Stir until thick. Sandwich cookies with 1 teaspoon of filling."
    ], 
    "prep_time": "30 mins", 
    "recipe_name": "Angel Whispers"
}