{
    "ingredients": [
        {
            "amount": "2 1/4 cups", 
            "ingredient": "all-purpose flour"
        }, 
        {
            "amount": "1 teaspoon", 
            "ingredient": "baking soda"
        }, 
        {
            "amount": "1 teaspoon", 
            "ingredient": "salt"
        }, 
        {
            "amount": "1 (3.3 ounce) package", 
            "ingredient": "instant white chocolate pudding mix"
        }, 
        {
            "amount": "1 cup", 
            "ingredient": "butter, softened"
        }, 
        {
            "amount": "1 cup", 
            "ingredient": "white sugar"
        }, 
        {
            "amount": "3/4 cup", 
            "ingredient": "brown sugar"
        }, 
        {
            "amount": "2", 
            "ingredient": "eggs"
        }, 
        {
            "amount": "2 teaspoons", 
            "ingredient": "vanilla extract"
        }, 
        {
            "amount": "2 cups", 
            "ingredient": "semisweet chocolate chips"
        }
    ], 
    "prep_steps": [
        "Preheat the oven to 375 degrees F (190 degrees C). Stir together the flour, baking soda, salt and instant pudding powder; set aside.", 
        "In a medium bowl, cream together the butter, white sugar and brown sugar until smooth. Blend in the eggs and vanilla. Gradually mix in the dry ingredients until just blended. Stir in the chocolate chips by hand using a wooden spoon. Scoop cookies using an ice cream scoop or by heaping tablespoons. Place cookies at least 2 inches apart onto ungreased cookie sheets.", 
        "Bake for 8 to 10 minutes in the preheated oven, until lightly golden. Cool on baking sheets for a few minutes before removing to wire racks to cool completely."
    ], 
    "prep_time": "30 mins", 
    "recipe_name": "Chocolate Chip Cookies V"
}