{
    "ingredients": [
        {
            "amount": "1 pound", 
            "ingredient": "boneless, skinless chicken breasts, cut into 1-inch-wide strips"
        }, 
        {
            "amount": "2 tablespoons", 
            "ingredient": "taco seasoning mix"
        }, 
        {
            "amount": "2 tablespoons", 
            "ingredient": "flour"
        }, 
        {
            "amount": "1", 
            "ingredient": "green pepper, cut into 1-inch-wide strips"
        }, 
        {
            "amount": "1", 
            "ingredient": "red pepper, cut into 1-inch-wide strips"
        }, 
        {
            "amount": "1 cup", 
            "ingredient": "frozen corn"
        }, 
        {
            "amount": "1 1/2 cups", 
            "ingredient": "chunky salsa"
        }, 
        {
            "amount": "1 cup", 
            "ingredient": "KRAFT Tex Mex Shredded Cheese"
        }
    ], 
    "prep_steps": [
        "Toss chicken with seasoning and flour in slow cooker. Stir in all remaining ingredients except shredded cheese; cover with lid.", 
        "Cook on LOW 6 to 8 hours (or on HIGH 3 to 4 hours).", 
        "Stir before serving. Top with shredded cheese."
    ], 
    "prep_time": "6 hrs", 
    "recipe_name": "Slow-Cooker Tex-Mex Chicken"
}