{
    "ingredients": [
        {
            "amount": "1", 
            "ingredient": "egg"
        }, 
        {
            "amount": "3", 
            "ingredient": "egg yolks"
        }, 
        {
            "amount": "1 1/2 cups", 
            "ingredient": "whole milk"
        }, 
        {
            "amount": "2/3 cup", 
            "ingredient": "sugar"
        }, 
        {
            "amount": "3/4 cup", 
            "ingredient": "canned pumpkin puree"
        }, 
        {
            "amount": "1 teaspoon", 
            "ingredient": "vanilla extract"
        }, 
        {
            "amount": "1/8 teaspoon", 
            "ingredient": "salt"
        }, 
        {
            "amount": "1/4 teaspoon", 
            "ingredient": "ground cinnamon"
        }, 
        {
            "amount": "1/4 teaspoon", 
            "ingredient": "ground nutmeg"
        }, 
        {
            "amount": "1/4 teaspoon", 
            "ingredient": "ground cloves"
        }, 
        {
            "amount": "3 1/2 cups", 
            "ingredient": "white bread cubes"
        }, 
        {
            "amount": "3/8 cup", 
            "ingredient": "miniature chocolate chips"
        }, 
        {
            "amount": "2 tablespoons", 
            "ingredient": "brown sugar"
        }
    ], 
    "prep_steps": [
        "Preheat oven to 350 degrees F (175 degrees C). Lightly grease 6 large custard cups.", 
        "Whisk together the egg and egg yolks in a large bowl. Add the milk, sugar, pumpkin puree, vanilla extract, salt, cinnamon, nutmeg, and cloves; whisk into a smooth batter. Add the bread cubes and toss gently to dampen. Set aside for 15 minutes.", 
        "Pour the batter evenly into the prepared cups. Sprinkle chocolate chips and brown sugar over each portion. Arrange the custard cups in a shallow baking pan. Pour hot water into the baking pan to halfway up the sides of the custard cups.", 
        "Bake in preheated oven until pudding is golden brown and puffy, about 40 minutes; transfer to cooling rack for 10 minutes."
    ], 
    "prep_time": "1\u00bc hrs", 
    "recipe_name": "Pumpkin Bread Puddin'"
}