{
    "ingredients": [
        {
            "amount": "1/2 cup", 
            "ingredient": "orange marmalade"
        }, 
        {
            "amount": "1/4 cup", 
            "ingredient": "balsamic vinegar"
        }, 
        {
            "amount": "2 tablespoons", 
            "ingredient": "olive oil"
        }, 
        {
            "amount": "1 teaspoon", 
            "ingredient": "rubbed sage"
        }, 
        {
            "amount": "2 tablespoons", 
            "ingredient": "chopped fresh chives"
        }, 
        {
            "amount": "1 (3 pound)", 
            "ingredient": "chicken, cut into pieces"
        }, 
        {
            "amount": "1/2 teaspoon", 
            "ingredient": "garlic salt"
        }, 
        {
            "amount": "1/4 teaspoon", 
            "ingredient": "coarsely ground black pepper"
        }
    ], 
    "prep_steps": [
        "Preheat a grill for medium heat.", 
        "Combine the marmalade, vinegar, olive oil, and sage in a small saucepan. Cook over low heat for 2 minutes until smooth. Stir in the chives, then remove 1/3 of the sauce to serve with the chicken later on.", 
        "Season the chicken pieces with garlic salt and pepper. Grill for about 15 minutes on each side, then brush with glaze. Continue cooking until done, 20 to 30 minutes, turning occasionally, and brushing with additional glaze. Serve with reserved marmalade glaze."
    ], 
    "prep_time": "1\u00bc hrs", 
    "recipe_name": "Grilled Orange Chicken"
}