{
    "ingredients": [
        {
            "amount": "1 (18.25 ounce) package", 
            "ingredient": "chocolate cake mix"
        }, 
        {
            "amount": "1 (8 ounce) package", 
            "ingredient": "cream cheese, softened"
        }, 
        {
            "amount": "2 tablespoons", 
            "ingredient": "butter, softened"
        }, 
        {
            "amount": "1 tablespoon", 
            "ingredient": "cornstarch"
        }, 
        {
            "amount": "1 (14 ounce) can", 
            "ingredient": "sweetened condensed milk"
        }, 
        {
            "amount": "1", 
            "ingredient": "egg"
        }, 
        {
            "amount": "1 teaspoon", 
            "ingredient": "vanilla extract"
        }
    ], 
    "prep_steps": [
        "Preheat oven to 350 degrees F (175 degrees C). Grease and flour a 10 inch Bundt pan.", 
        "Prepare cake according to directions on package. Pour into Bundt pan.", 
        "In a medium bowl, beat together cream cheese, butter (or margarine) and cornstarch until fluffy. Gradually beat in sweetened condensed milk, egg and vanilla until smooth.", 
        "Pour cream cheese mixture evenly over cake batter.", 
        "Bake at 350 degrees F (175 degrees C) for 50 to 55 minutes. Cool for 10 minutes in the pan, then turn out onto a wire rack and cool completely. Glaze with Chocolate Glaze, or as desired."
    ], 
    "prep_time": "1\u00bd hrs", 
    "recipe_name": "Ribboned Fudge Cake"
}