{
    "ingredients": [
        {
            "amount": "3 cups", 
            "ingredient": "all-purpose flour"
        }, 
        {
            "amount": "4", 
            "ingredient": "eggs"
        }, 
        {
            "amount": "2 1/2 cups", 
            "ingredient": "white sugar"
        }, 
        {
            "amount": "3 teaspoons", 
            "ingredient": "baking powder"
        }, 
        {
            "amount": "1/2 teaspoon", 
            "ingredient": "salt"
        }, 
        {
            "amount": "3", 
            "ingredient": "apples - peeled, cored and sliced"
        }, 
        {
            "amount": "1 cup", 
            "ingredient": "vegetable oil"
        }, 
        {
            "amount": "1/2 cup", 
            "ingredient": "orange juice"
        }, 
        {
            "amount": "2 1/2 teaspoons", 
            "ingredient": "vanilla extract"
        }, 
        {
            "amount": "5 tablespoons", 
            "ingredient": "white sugar"
        }, 
        {
            "amount": "2 teaspoons", 
            "ingredient": "ground cinnamon"
        }
    ], 
    "prep_steps": [
        "Preheat oven to 350 degrees F (175 degrees C). Grease and flour one 10 inch tube pan.", 
        "Sprinkle sliced apples with 5 tablespoons white sugar and the ground cinnamon. Toss to coat and set aside.", 
        "Mix the flour, eggs, 2 1/2 cups sugar, baking powder, salt, vegetable oil, orange juice and vanilla until well blended. Batter will be fairly stiff.", 
        "Pour 1/2 of the batter into the prepared pan. Place the apple mixture over the batter then pour the remaining batter over the top.", 
        "Bake at 350 degrees F (175 degrees C) for 60 to 80 minutes. Let cake cool in pan."
    ], 
    "recipe_name": "Jewish Apple Cake II"
}