{
    "ingredients": [
        {
            "amount": "3/4 cup", 
            "ingredient": "halved, thinly sliced red onion"
        }, 
        {
            "amount": "1 tablespoon", 
            "ingredient": "fresh lime juice"
        }, 
        {
            "amount": "1 1/2 quarts", 
            "ingredient": "seeded, cubed watermelon"
        }, 
        {
            "amount": "3/4 cup", 
            "ingredient": "crumbled feta cheese"
        }, 
        {
            "amount": "1/2 cup", 
            "ingredient": "pitted black olive halves"
        }, 
        {
            "amount": "1 cup", 
            "ingredient": "chopped fresh mint"
        }, 
        {
            "amount": "2 tablespoons", 
            "ingredient": "olive oil"
        }
    ], 
    "prep_steps": [
        "Place the onion slices in a small bowl with the lime juice. The acid of the lime will mellow the flavor of the raw onion. Let stand for 10 minutes.", 
        "In a large bowl, combine the watermelon cubes, feta cheese, black olives, onions with the lime juice, and mint. Drizzle olive oil over it all, and toss to blend. Dig in and be prepared for a pleasant surprise!"
    ], 
    "prep_time": "30 mins", 
    "recipe_name": "Watermelon Summer Salad"
}