{
    "ingredients": [
        {
            "amount": "1/2 cup", 
            "ingredient": "all-purpose flour"
        }, 
        {
            "amount": "1/4 cup", 
            "ingredient": "cornstarch"
        }, 
        {
            "amount": "2 tablespoons", 
            "ingredient": "dry potato flakes"
        }, 
        {
            "amount": "1/8 teaspoon", 
            "ingredient": "cayenne pepper, or to taste"
        }, 
        {
            "amount": "1 cup", 
            "ingredient": "chilled club soda"
        }, 
        {
            "amount": "2 cups", 
            "ingredient": "panko bread crumbs, or as needed"
        }, 
        {
            "amount": "2 cups", 
            "ingredient": "vegetable oil for frying"
        }, 
        {
            "amount": "2 large", 
            "ingredient": "onions, cut into 1/4-inch thick slices and separated into rings"
        }
    ], 
    "prep_steps": [
        "Whisk together flour, cornstarch, dry potato flakes, and cayenne pepper in a large bowl. Whisk in club soda to make a smooth batter.", 
        "Place panko bread crumbs in a shallow bowl.", 
        "Heat oil in a deep fryer or large saucepan to 350 degrees F (175 degrees C).", 
        "Place a few onion rings at a time into the bowl of batter and turn to coat all sides with batter.", 
        "Remove onion rings from batter and place into pan of panko bread crumbs; turn to coat completely with crumbs.", 
        "Cook a few rings at a time in the hot oil until golden brown, about 2 to 3 minutes.", 
        "Transfer to a cooling rack set over paper towels to drain. Season with salt to taste and serve."
    ], 
    "prep_time": "30 mins", 
    "recipe_name": "Making Crispy Onion Rings"
}