{
    "ingredients": [
        {
            "amount": "2 tablespoons", 
            "ingredient": "olive oil"
        }, 
        {
            "amount": "1 2/3 cups", 
            "ingredient": "cubed butternut squash"
        }, 
        {
            "amount": "1 large", 
            "ingredient": "onion, chopped"
        }, 
        {
            "amount": "8 ounces", 
            "ingredient": "uncooked penne pasta"
        }, 
        {
            "amount": "1/2 pound", 
            "ingredient": "turkey sausage"
        }, 
        {
            "amount": "1/4 cup", 
            "ingredient": "heavy cream"
        }, 
        {
            "amount": "2 teaspoons", 
            "ingredient": "dried sage"
        }, 
        {
            "amount": "3 cloves", 
            "ingredient": "garlic, minced"
        }, 
        {
            "amount": "3 1/2 tablespoons", 
            "ingredient": "balsamic vinegar"
        }
    ], 
    "prep_steps": [
        "Preheat oven to 350 degrees F (175 degrees C). Coat a roasting pan with the olive oil. Place the squash and onion in the pan, and season with salt and pepper. Roast 30 minutes, or until squash is tender.", 
        "Bring a large pot of lightly salted water to a boil. Place penne pasta in the pot, cook for 8 to 10 minutes, until al dente, and drain.", 
        "In a large skillet over medium heat, cook the turkey sausage until evenly brown. Transfer the cooked squash and onion and the cooked pasta to the skillet. Gradually pour in the cream. Season with sage. Continue cooking until heated through. Mix in garlic. Transfer to a large bowl, and toss with balsamic vinegar to serve."
    ], 
    "prep_time": "1\u00bc hrs", 
    "recipe_name": "Pasta with Roasted Butternut Squash and Sage"
}