{
    "ingredients": [
        {
            "amount": "1 cup", 
            "ingredient": "white sugar"
        }, 
        {
            "amount": "1 1/2 tablespoons", 
            "ingredient": "all-purpose flour"
        }, 
        {
            "amount": "1 teaspoon", 
            "ingredient": "ground cinnamon"
        }, 
        {
            "amount": "1 pinch", 
            "ingredient": "salt"
        }, 
        {
            "amount": "1", 
            "ingredient": "egg, beaten"
        }, 
        {
            "amount": "2 tablespoons", 
            "ingredient": "butter, melted"
        }, 
        {
            "amount": "1 teaspoon", 
            "ingredient": "vanilla extract"
        }, 
        {
            "amount": "1 1/2 cups", 
            "ingredient": "milk"
        }, 
        {
            "amount": "1 (10 inch)", 
            "ingredient": "unbaked pie crust"
        }
    ], 
    "prep_steps": [
        "Preheat oven to 400 degrees F (205 degrees C).", 
        "In a large bowl, combine the sugar, flour, cinnamon and salt. Add the beaten egg, butter, and vanilla. Mix well and add the milk.", 
        "Pour mixture into an unbaked 10 inch pie crust (glass pie plate is best).", 
        "Bake at 400 degrees for 15 minutes, then reduce heat to 350 degrees F (175 degrees C) and bake for an additional 45 minutes. Let cool and serve. Refrigerate any leftovers."
    ], 
    "recipe_name": "Cinnamon Pie"
}