{
    "ingredients": [
        {
            "amount": "2 cups", 
            "ingredient": "all-purpose flour"
        }, 
        {
            "amount": "2 teaspoons", 
            "ingredient": "baking powder"
        }, 
        {
            "amount": "1/2 teaspoon", 
            "ingredient": "salt"
        }, 
        {
            "amount": "1/4 cup", 
            "ingredient": "vegetable oil"
        }, 
        {
            "amount": "3/4 cup", 
            "ingredient": "white sugar"
        }, 
        {
            "amount": "1", 
            "ingredient": "egg"
        }, 
        {
            "amount": "1/2 cup", 
            "ingredient": "milk"
        }, 
        {
            "amount": "1 cup", 
            "ingredient": "blueberries"
        }, 
        {
            "amount": "1/3 cup", 
            "ingredient": "all-purpose flour"
        }, 
        {
            "amount": "1/2 cup", 
            "ingredient": "white sugar"
        }, 
        {
            "amount": "1/2 teaspoon", 
            "ingredient": "ground cinnamon"
        }, 
        {
            "amount": "1/4 cup", 
            "ingredient": "butter, softened"
        }
    ], 
    "prep_steps": [
        "Preheat oven to 375 degrees F (190 degrees C). Grease and flour a 9 inch pan. Sift together the flour, baking powder and salt. Set aside.", 
        "In a large bowl, whisk together the oil, sugar and egg. Stir in the flour mixture alternately with the milk, mixing just until incorporated. Fold in the blueberries. Pour batter into prepared pan. Cover with streusel topping.", 
        "For the topping: In a bowl, combine 1/3 cup flour, cinnamon and 1/2 cup sugar. Cut in the butter until mixture resembles coarse crumbs.", 
        "Bake in the preheated oven for 45 minutes, or until a toothpick inserted into the center of the cake comes out clean. Allow to cool."
    ], 
    "prep_time": "1\u00bc hrs", 
    "recipe_name": "Blueberry Coffee Cake II"
}