{
    "ingredients": [
        {
            "amount": "2/3 cup", 
            "ingredient": "butter"
        }, 
        {
            "amount": "1/3 cup", 
            "ingredient": "white sugar"
        }, 
        {
            "amount": "2", 
            "ingredient": "egg yolks"
        }, 
        {
            "amount": "1 teaspoon", 
            "ingredient": "vanilla extract"
        }, 
        {
            "amount": "1/2 teaspoon", 
            "ingredient": "salt"
        }, 
        {
            "amount": "1 1/2 cups", 
            "ingredient": "all-purpose flour"
        }, 
        {
            "amount": "2", 
            "ingredient": "egg whites, lightly beaten"
        }, 
        {
            "amount": "3/4 cup", 
            "ingredient": "finely chopped walnuts"
        }, 
        {
            "amount": "1/3 cup", 
            "ingredient": "strawberry preserves"
        }
    ], 
    "prep_steps": [
        "Preheat oven to 350 degrees F (175 degrees C). Lightly grease cookie sheets, or line with parchment paper.", 
        "In a large bowl, cream together butter and sugar until light and fluffy. Beat in egg yolks, vanilla, and salt. Gradually mix in flour.", 
        "Shape dough into 3/4 inch balls. Dip in lightly beaten egg whites, then roll in finely chopped walnuts. Place 1 inch apart on prepared cookie sheets. Press down center of each with thumb.", 
        "Bake for 15 to 17 minutes, or until golden brown. Cool on baking sheet for 5 minutes, then remove to a wire rack to cool completely. Just before serving, fill centers of cookies with strawberry preserves."
    ], 
    "prep_time": "45 mins", 
    "recipe_name": "Jam Thumbprints"
}