{
    "ingredients": [
        {
            "amount": "1/3 cup", 
            "ingredient": "sherry"
        }, 
        {
            "amount": "1/3 cup", 
            "ingredient": "soy sauce"
        }, 
        {
            "amount": "1/3 cup", 
            "ingredient": "vegetable oil"
        }, 
        {
            "amount": "2 tablespoons", 
            "ingredient": "honey"
        }, 
        {
            "amount": "2 tablespoons", 
            "ingredient": "grated fresh ginger root"
        }, 
        {
            "amount": "1 clove", 
            "ingredient": "garlic, minced"
        }
    ], 
    "prep_steps": [
        "In a medium bowl, mix sherry, soy sauce, vegetable oil, honey, ginger, and garlic. Marinate steaks for at least 4 hours before grilling as desired."
    ], 
    "prep_time": "10 mins", 
    "recipe_name": "Doreen's Steak Marinade"
}