{
    "ingredients": [
        {
            "amount": "3 1/2 pounds", 
            "ingredient": "rump roast"
        }, 
        {
            "amount": "1 (12 ounce) jar", 
            "ingredient": "pickled mixed vegetables"
        }, 
        {
            "amount": "1 (16 ounce) jar", 
            "ingredient": "pepperoncini"
        }, 
        {
            "amount": "1 (.7 ounce) package", 
            "ingredient": "dry Italian-style salad dressing mix"
        }, 
        {
            "amount": "1 (10.5 ounce) can", 
            "ingredient": "beef broth"
        }
    ], 
    "prep_steps": [
        "Place the roast in a 3 1/2 quart slow-cooker, and add the pickled mixed vegetables, pepperoncini, Italian dressing mix, and beef broth. Stir to blend, cover, and cook on low for 18 hours (yes, 18 hours - a light timer works well if you don't want to stay up until midnight to turn it on).", 
        "To serve, remove roast from the slow cooker. If necessary, slice it for sandwiches, but it usually just falls apart. Place the pickled vegetables and pepperoncini in a bowl to serve along with the meat."
    ], 
    "prep_time": "18 hrs", 
    "recipe_name": "Italian Beef in a Bucket"
}