{
    "ingredients": [
        {
            "amount": "3/4 cup", 
            "ingredient": "soy sauce"
        }, 
        {
            "amount": "3/4 cup", 
            "ingredient": "brown sugar"
        }, 
        {
            "amount": "3/4 cup", 
            "ingredient": "water"
        }, 
        {
            "amount": "1", 
            "ingredient": "garlic clove, minced"
        }, 
        {
            "amount": "2", 
            "ingredient": "green onions, chopped"
        }, 
        {
            "amount": "1 tablespoon", 
            "ingredient": "Asian (toasted) sesame oil"
        }, 
        {
            "amount": "2 pounds", 
            "ingredient": "Korean-style short ribs (beef chuck flanken, cut 1/3 to 1/2 inch thick across bones)"
        }
    ], 
    "prep_steps": [
        "In a bowl, stir together the soy sauce, brown sugar, water, garlic, green onions, and sesame oil until the sugar has dissolved.", 
        "Place the ribs in a large plastic zipper bag. Pour the marinade over the ribs, squeeze out all the air, and refrigerate the bag for 3 hours to overnight.", 
        "Preheat an outdoor grill for medium-high heat, and lightly oil the grate. Remove the ribs from the bag, shake off the excess marinade, and discard the marinade. Grill the ribs on the preheated grill until the meat is still pink but not bloody nearest the bone, 5 to 7 minutes per side."
    ], 
    "prep_time": "3 hrs", 
    "recipe_name": "Kalbi (Korean BBQ Short Ribs)"
}