{
    "ingredients": [
        {
            "amount": "2 tablespoons", 
            "ingredient": "olive oil"
        }, 
        {
            "amount": "2 medium", 
            "ingredient": "eggplants, cut in half lengthwise and hollowed out to 1/4 inch flesh rim"
        }, 
        {
            "amount": "1/2 cup", 
            "ingredient": "chopped onion"
        }, 
        {
            "amount": "2 cloves", 
            "ingredient": "garlic, crushed"
        }, 
        {
            "amount": "1 teaspoon", 
            "ingredient": "dried oregano"
        }, 
        {
            "amount": "1/4 cup", 
            "ingredient": "grated Parmesan cheese"
        }, 
        {
            "amount": "1/2 cup", 
            "ingredient": "bread crumbs"
        }, 
        {
            "amount": "1 teaspoon", 
            "ingredient": "chopped fresh Italian parsley"
        }, 
        {
            "amount": "2 cups", 
            "ingredient": "tomato sauce"
        }, 
        {
            "amount": "1 cup", 
            "ingredient": "shredded mozzarella cheese"
        }
    ], 
    "prep_steps": [
        "Preheat oven to 325 degrees F (165 degrees C).", 
        "Heat olive oil in a large skillet over medium high heat. Roughly chop eggplant centers, and add to pan with onion, garlic, oregano, and pepper. Cook and stir until lightly browned. Spoon mixture back into eggplant, and sprinkle each with Parmesan cheese, bread crumbs, and parsley. Place in a shallow baking dish, and cover with tomato sauce and mozzarella cheese.", 
        "Bake in the preheated oven for 30 minutes, or until eggplant is fork-tender and cheese is bubbly. Serve immediately."
    ], 
    "prep_time": "1 hr", 
    "recipe_name": "Stuffed Eggplant Parmesan"
}