{
    "ingredients": [
        {
            "amount": "1/2 cup", 
            "ingredient": "chopped green onions"
        }, 
        {
            "amount": "2 (8 ounce) packages", 
            "ingredient": "cream cheese, softened"
        }, 
        {
            "amount": "20", 
            "ingredient": "fresh mushrooms, stems removed"
        }, 
        {
            "amount": "1 pound", 
            "ingredient": "sliced bacon, cut in half"
        }
    ], 
    "prep_steps": [
        "Preheat the oven to 350 degrees F (175 degrees C).", 
        "In a medium bowl, mix together the green onions and cream cheese . Stuff mushroom caps with the cheese mixture. Wrap each mushroom with a half-slice of bacon, and secure with toothpicks. Place on a baking sheet.", 
        "Bake for 20 minutes in the preheated oven, until the bacon is cooked through."
    ], 
    "prep_time": "30 mins", 
    "recipe_name": "Bacon Wrapped Stuffed Mushrooms"
}