{
    "ingredients": [
        {
            "amount": "1", 
            "ingredient": "lemon"
        }, 
        {
            "amount": "1", 
            "ingredient": "lime"
        }, 
        {
            "amount": "1", 
            "ingredient": "orange"
        }, 
        {
            "amount": "1 1/2 cups", 
            "ingredient": "rum"
        }, 
        {
            "amount": "1/2 cup", 
            "ingredient": "white sugar"
        }, 
        {
            "amount": "1 (750 milliliter) bottle", 
            "ingredient": "dry red wine"
        }, 
        {
            "amount": "1 cup", 
            "ingredient": "orange juice"
        }
    ], 
    "prep_steps": [
        "Have the fruit, rum, wine, and orange juice well chilled. Slice the lemon, lime and orange into thin rounds and place in a large glass pitcher. Pour in the rum and sugar. Chill in refrigerator for 2 hours to develop the flavors.", 
        "When ready to serve, crush the fruit lightly with a wooden spoon and stir in the wine and orange juice. Adjust sweetness to taste."
    ], 
    "prep_time": "2\u00bc hrs", 
    "recipe_name": "Classic Spanish Sangria"
}