{
    "ingredients": [
        {
            "amount": "1 cup", 
            "ingredient": "butter, softened"
        }, 
        {
            "amount": "1 1/2 cups", 
            "ingredient": "brown sugar"
        }, 
        {
            "amount": "2", 
            "ingredient": "eggs"
        }, 
        {
            "amount": "2 teaspoons", 
            "ingredient": "vanilla extract"
        }, 
        {
            "amount": "2 1/2 cups", 
            "ingredient": "all-purpose flour"
        }, 
        {
            "amount": "1 teaspoon", 
            "ingredient": "baking powder"
        }, 
        {
            "amount": "1/4 teaspoon", 
            "ingredient": "salt"
        }, 
        {
            "amount": "1 cup", 
            "ingredient": "milk chocolate chips"
        }, 
        {
            "amount": "1/2 cup", 
            "ingredient": "semisweet chocolate chips"
        }, 
        {
            "amount": "2/3 cup", 
            "ingredient": "toffee baking bits"
        }, 
        {
            "amount": "1 cup", 
            "ingredient": "chopped pecans"
        }
    ], 
    "prep_steps": [
        "Preheat oven to 350 degrees F (175 degrees C). Grease cookie sheets.", 
        "In a medium bowl, cream together the butter and sugar. Beat in eggs, one at a time, then stir in the vanilla. Combine the flour, baking powder, and salt; stir into the creamed mixture. Stir in the milk chocolate and semisweet chips, toffee bits, and pecans. Drop by tablespoonfuls onto cookie sheets.", 
        "Bake for 10 to 12 minutes in the preheated oven. Allow cookies to cool on the baking sheet before transferring to wire racks to cool completely."
    ], 
    "prep_time": "25 mins", 
    "recipe_name": "Minnesota's Favorite Cookie"
}