{
    "ingredients": [
        {
            "amount": "1 1/2 cups", 
            "ingredient": "water"
        }, 
        {
            "amount": "1 tablespoon", 
            "ingredient": "white sugar"
        }, 
        {
            "amount": "1 1/2 teaspoons", 
            "ingredient": "salt"
        }, 
        {
            "amount": "3 1/2 cups", 
            "ingredient": "bread flour"
        }, 
        {
            "amount": "2 1/2 teaspoons", 
            "ingredient": "active dry yeast"
        }
    ], 
    "prep_steps": [
        "Place ingredients in the pan of the bread machine in the order recommended by the manufacturer. Select Light or Medium Crust cycle; press Start. For a crispier crust, use the French cycle or turn machine off after first rise and start the cycle over."
    ], 
    "prep_time": "3 hr", 
    "recipe_name": "Peasant Bread"
}