{
    "ingredients": [
        {
            "amount": "4 pounds", 
            "ingredient": "russet potatoes, cut into 1/4 inch cubes"
        }, 
        {
            "amount": "2 teaspoons", 
            "ingredient": "chili powder"
        }, 
        {
            "amount": "1 teaspoon", 
            "ingredient": "salt"
        }, 
        {
            "amount": "1/2 teaspoon", 
            "ingredient": "ground black pepper"
        }, 
        {
            "amount": "6 tablespoons", 
            "ingredient": "butter, cubed"
        }, 
        {
            "amount": "1 (8 ounce) package", 
            "ingredient": "shredded colby-Monterey Jack cheese blend"
        }, 
        {
            "amount": "1 (8 ounce) bottle", 
            "ingredient": "Ranch dressing"
        }
    ], 
    "prep_steps": [
        "Preheat oven to 400 degrees F (200 degrees C). Lightly grease a 9x13 inch baking dish.", 
        "Place the potatoes in the baking dish. Season with chili powder, salt, and pepper. Evenly distribute the butter over the potatoes.", 
        "Cover dish with aluminum foil, and bake 1 hour in the preheated oven, until potatoes are tender. Remove from oven, and mix in the cheese and Ranch dressing. Continue cooking 10 minutes, or until cheese is melted and bubbly."
    ], 
    "prep_time": "1\u00bd hrs", 
    "recipe_name": "Cheesy Ranch Potato Bake"
}