{
    "ingredients": [
        {
            "amount": "4", 
            "ingredient": "eggs"
        }, 
        {
            "amount": "1 cup", 
            "ingredient": "cottage cheese"
        }, 
        {
            "amount": "1/2 cup", 
            "ingredient": "milk"
        }, 
        {
            "amount": "1 teaspoon", 
            "ingredient": "vanilla extract"
        }, 
        {
            "amount": "2 tablespoons", 
            "ingredient": "butter, melted"
        }, 
        {
            "amount": "1", 
            "ingredient": "peach, shredded"
        }, 
        {
            "amount": "1 cup", 
            "ingredient": "all-purpose flour"
        }, 
        {
            "amount": "2 tablespoons", 
            "ingredient": "white sugar"
        }, 
        {
            "amount": "1 pinch", 
            "ingredient": "salt"
        }, 
        {
            "amount": "3/4 teaspoon", 
            "ingredient": "baking soda"
        }, 
        {
            "amount": "1 teaspoon", 
            "ingredient": "ground cinnamon"
        }
    ], 
    "prep_steps": [
        "Mix eggs, cottage cheese, milk, vanilla, butter, and peach in a large bowl. Combine flour, sugar, salt, baking soda, and cinnamon in a small bowl. Stir flour mixture into the cottage cheese mixture until just combined.", 
        "Heat a lightly oiled griddle over medium-high heat. Drop batter by large spoonfuls onto the griddle, and cook until bubbles form and the edges are dry. Flip, and cook until browned on the other side. Repeat with remaining batter."
    ], 
    "prep_time": "40 mins", 
    "recipe_name": "Cinnamon-Peach Cottage Cheese Pancakes"
}