{
    "ingredients": [
        {
            "amount": "1/2 pound", 
            "ingredient": "salad shrimp"
        }, 
        {
            "amount": "2", 
            "ingredient": "roma (plum) tomatoes, diced"
        }, 
        {
            "amount": "1/2", 
            "ingredient": "red onion, diced"
        }, 
        {
            "amount": "1/4 cup", 
            "ingredient": "minced cilantro"
        }, 
        {
            "amount": "1/4 cup", 
            "ingredient": "fresh lime juice"
        }, 
        {
            "amount": "1 teaspoon", 
            "ingredient": "salt"
        }, 
        {
            "amount": "1 teaspoon", 
            "ingredient": "freshly ground black pepper"
        }, 
        {
            "amount": "1 clove", 
            "ingredient": "garlic, minced"
        }
    ], 
    "prep_steps": [
        "Stir the salad shrimp, tomatoes, onion, cilantro, lime juice, salt, pepper, and garlic together in a large glass bowl. Cover with plastic wrap and refrigerate until the flavors combine, at least 1 hour. Serve cold."
    ], 
    "prep_time": "1\u00bd hrs", 
    "recipe_name": "Shrimp Salsa"
}