{
    "ingredients": [
        {
            "amount": "1 (4 pound)", 
            "ingredient": "beef bottom round roast or other lean roast"
        }, 
        {
            "amount": "2 teaspoons", 
            "ingredient": "ground black pepper"
        }, 
        {
            "amount": "1 large", 
            "ingredient": "onion, diced"
        }, 
        {
            "amount": "1 (7 ounce) can", 
            "ingredient": "chopped green chilies"
        }, 
        {
            "amount": "2 teaspoons", 
            "ingredient": "chili powder"
        }, 
        {
            "amount": "1 teaspoon", 
            "ingredient": "cayenne pepper"
        }, 
        {
            "amount": "1 tablespoon", 
            "ingredient": "garlic powder"
        }, 
        {
            "amount": "2 teaspoons", 
            "ingredient": "ground cumin"
        }, 
        {
            "amount": "1 (7 ounce) can", 
            "ingredient": "chipotle peppers in adobo sauce, or to taste"
        }, 
        {
            "amount": "1 cube", 
            "ingredient": "beef bouillon"
        }
    ], 
    "prep_steps": [
        "Trim the roast of any excess fat, and cut into four pieces. Rub with black pepper, and place into a slow cooker. Add the onions, green chiles, chili powder, cayenne pepper, garlic powder, cumin, chipotle peppers, and beef bouillon. Pour in enough water to cover 1/3 of the roast.", 
        "Cover, and cook on High until the meat begins to fall apart, about 8 hours. Add water if needed to keep the roast from drying out.", 
        "Turn the slow cooker to Low, and remove meat to a large bowl with a slotted spoon. Shred the meat into bite-sized pieces using two forks. Return the meat to the slow cooker; cook about 20 minutes to reheat before serving."
    ], 
    "prep_time": "9 hrs", 
    "recipe_name": "Kris' Amazing Shredded Mexican Beef"
}