{
    "ingredients": [
        {
            "amount": "1 pound", 
            "ingredient": "crabmeat"
        }, 
        {
            "amount": "1/2 cup", 
            "ingredient": "dry bread crumbs"
        }, 
        {
            "amount": "1", 
            "ingredient": "egg, beaten"
        }, 
        {
            "amount": "1 tablespoon", 
            "ingredient": "mayonnaise"
        }, 
        {
            "amount": "1 teaspoon", 
            "ingredient": "prepared Dijon-style mustard"
        }, 
        {
            "amount": "1 teaspoon", 
            "ingredient": "Worcestershire sauce"
        }, 
        {
            "amount": "1 tablespoon", 
            "ingredient": "Old Bay Seasoning TM"
        }, 
        {
            "amount": "2 tablespoons", 
            "ingredient": "butter"
        }
    ], 
    "prep_steps": [
        "In a medium size bowl, combine the bread crumbs and the crab meat. Stir the beaten egg, mayonnaise, mustard, Worcestershire and Old Bay Seasoning. Lightly mix these ingredients being careful not to overwork the crab meat. Form into 8 round, flat crab cakes.", 
        "Heat butter in a skillet over medium heat. Fry the cakes on each side until crusty and golden brown. Serve warm."
    ], 
    "prep_time": "20 mins", 
    "recipe_name": "New England Crab Cakes"
}