{
    "ingredients": [
        {
            "amount": "1/2 stalk", 
            "ingredient": "celery, chopped"
        }, 
        {
            "amount": "1 small", 
            "ingredient": "onion, chopped"
        }, 
        {
            "amount": "1/2", 
            "ingredient": "carrot, chopped"
        }, 
        {
            "amount": "1 teaspoon", 
            "ingredient": "grated fresh ginger root"
        }, 
        {
            "amount": "1/4 teaspoon", 
            "ingredient": "minced fresh garlic"
        }, 
        {
            "amount": "2 tablespoons", 
            "ingredient": "chicken stock"
        }, 
        {
            "amount": "3 teaspoons", 
            "ingredient": "beef bouillon granules"
        }, 
        {
            "amount": "1 cup", 
            "ingredient": "chopped fresh shiitake mushrooms"
        }, 
        {
            "amount": "2 quarts", 
            "ingredient": "water"
        }, 
        {
            "amount": "1 cup", 
            "ingredient": "baby portobello mushrooms, sliced"
        }, 
        {
            "amount": "1 tablespoon", 
            "ingredient": "minced fresh chives"
        }
    ], 
    "prep_steps": [
        "In a large saucepan or stockpot, combine the celery, onion, carrot, ginger, garlic, and a few of the mushrooms. Add chicken stock, beef bouillon, and water. Place the pot over high heat, and bring to a rolling boil. When the mixture reaches boiling, cover, reduce heat to medium, and cook for 45 minutes.", 
        "Place all of the remaining mushrooms into a separate pot. When the boiling mixture is done, place a strainer over the pot with the mushrooms in it. Strain the cooked soup into the pot with the mushrooms. Discard strained materials.", 
        "Serve the broth with mushrooms in small porcelain bowls, and sprinkle fresh chives over the top. Use Asian soup spoons for an elegant effect."
    ], 
    "prep_time": "1 hr", 
    "recipe_name": "Japanese Onion Soup"
}