{
    "ingredients": [
        {
            "amount": "1 1/2 pounds", 
            "ingredient": "top round steak, cut into strips"
        }, 
        {
            "amount": "1/2", 
            "ingredient": "onion, chopped"
        }, 
        {
            "amount": "1 (10.75 ounce) can", 
            "ingredient": "condensed cream of mushroom soup"
        }, 
        {
            "amount": "1 (8 ounce) can", 
            "ingredient": "canned mushrooms"
        }, 
        {
            "amount": "1/4 cup", 
            "ingredient": "water"
        }, 
        {
            "amount": "1 tablespoon", 
            "ingredient": "dried chives"
        }, 
        {
            "amount": "1 clove", 
            "ingredient": "garlic, minced"
        }, 
        {
            "amount": "1 teaspoon", 
            "ingredient": "Worcestershire sauce"
        }, 
        {
            "amount": "1 cube", 
            "ingredient": "beef bouillon"
        }, 
        {
            "amount": "1/4 cup", 
            "ingredient": "white wine"
        }, 
        {
            "amount": "1 tablespoon", 
            "ingredient": "all-purpose flour"
        }, 
        {
            "amount": "1 (16 ounce) container", 
            "ingredient": "sour cream"
        }, 
        {
            "amount": "1/2 cup", 
            "ingredient": "chopped fresh parsley"
        }
    ], 
    "prep_steps": [
        "Place the beef in the bottom of a slow cooker, and season with salt and pepper to taste. Place onion on top of beef, and then add mushroom soup, mushrooms, and water. Season with chives, garlic, Worcestershire sauce, and bouillon.", 
        "In a small bowl, mix together the wine with the flour. Pour over the beef.", 
        "Cover, and cook on Low for 6 to 7 hours. Stir in the sour cream and parsley, and continue cooking for 1 hour."
    ], 
    "prep_time": "8 hrs", 
    "recipe_name": "Daria's Slow Cooker Beef Stroganoff"
}