{
    "ingredients": [
        {
            "amount": "1 (16 ounce) package", 
            "ingredient": "buttery round crackers"
        }, 
        {
            "amount": "1 pound", 
            "ingredient": "sliced bacon, cut into thirds"
        }, 
        {
            "amount": "1 pound", 
            "ingredient": "brown sugar"
        }
    ], 
    "prep_steps": [
        "Preheat oven to 250 degrees F (120 degrees C).", 
        "Arrange the crackers in a single layer on a large baking sheet. Top each cracker with 1/3 slice bacon, and sprinkle desired amount of brown sugar over all.", 
        "Bake 1 hour in the preheated oven, or until browned and crisp. Serve warm."
    ], 
    "prep_time": "1\u00bc hrs", 
    "recipe_name": "Bacon Crackers"
}