{
    "ingredients": [
        {
            "amount": "24", 
            "ingredient": "vanilla wafer cookies"
        }, 
        {
            "amount": "3 (8 ounce) packages", 
            "ingredient": "cream cheese, softened"
        }, 
        {
            "amount": "1 cup", 
            "ingredient": "white sugar"
        }, 
        {
            "amount": "3", 
            "ingredient": "eggs"
        }, 
        {
            "amount": "1 teaspoon", 
            "ingredient": "vanilla extract"
        }, 
        {
            "amount": "1/4 teaspoon", 
            "ingredient": "ground nutmeg"
        }, 
        {
            "amount": "1 (12 ounce) can", 
            "ingredient": "cherry pie filling"
        }
    ], 
    "prep_steps": [
        "Preheat oven to 325 degrees F (165 degrees C). Line 24 muffin cups with paper or foil baking liners. Place one vanilla wafer in each cup.", 
        "In large bowl, beat cream cheese and sugar until smooth. Beat in the eggs one at a time, then stir in the nutmeg and vanilla. Pour mixture evenly into prepared muffin cups, filling each 2/3 full. Bake for 20 minutes or until set. Cool completely, then top with cherry pie filling. Cover and refrigerate until ready to serve."
    ], 
    "prep_time": "40 mins", 
    "recipe_name": "Miniature Cheesecakes"
}