{
    "ingredients": [
        {
            "amount": "1 (2 to 3 pound)", 
            "ingredient": "whole chicken"
        }, 
        {
            "amount": "2 cups", 
            "ingredient": "all-purpose flour"
        }, 
        {
            "amount": "1 teaspoon", 
            "ingredient": "baking powder"
        }, 
        {
            "amount": "1 cup", 
            "ingredient": "hot chicken broth"
        }, 
        {
            "amount": "1", 
            "ingredient": "egg"
        }
    ], 
    "prep_steps": [
        "In a large stockpot or Dutch oven cover the chicken with salted water and simmer until cooked through. When tender, remove chicken from pot. Remove meat from bones and keep warm while making the dumplings.", 
        "TO MAKE DUMPLINGS: Sift about 2 cups of flour and 1 teaspoon baking powder into a large mixing bowl. Make a well in the flour/powder mixture; pour in 1 cup of hot chicken broth, mixing first with a fork, then with your fingers. Add the egg and mix well again.", 
        "Knead the dough for a few seconds on a floured board. Separate the dough into 4 or 5 parts and roll as thin as possible. Cut into 1 1/2 or 2 inch wide pieces. Break these into 2 inch long strips. Drop into boiling chicken broth and simmer for 10 to 15 minutes. Serve with previously prepared meat."
    ], 
    "prep_time": "2\u00bd hrs", 
    "recipe_name": "Chicken and Dumplings I"
}