{
    "ingredients": [
        {
            "amount": "1/2 cup", 
            "ingredient": "light mayonnaise"
        }, 
        {
            "amount": "2 tablespoons", 
            "ingredient": "cider vinegar"
        }, 
        {
            "amount": "2 cloves", 
            "ingredient": "crushed garlic"
        }, 
        {
            "amount": "3 tablespoons", 
            "ingredient": "chopped fresh dill"
        }, 
        {
            "amount": "1 pound", 
            "ingredient": "skinless, boneless chicken breast halves - cooked"
        }, 
        {
            "amount": "1/4 cup", 
            "ingredient": "crumbled feta cheese"
        }, 
        {
            "amount": "1/2 cup", 
            "ingredient": "red bell pepper, chopped"
        }
    ], 
    "prep_steps": [
        "Blend mayonnaise, vinegar, garlic and dill. Refrigerate for several hours or overnight.", 
        "Stir together chicken, peppers and cheese and blend with the chilled dressing. Serve!"
    ], 
    "recipe_name": "Fancy Chicken Salad"
}