{
    "ingredients": [
        {
            "amount": "4 slices", 
            "ingredient": "bacon, diced"
        }, 
        {
            "amount": "1", 
            "ingredient": "onion, chopped"
        }, 
        {
            "amount": "1 (14.75 ounce) can", 
            "ingredient": "cream-style corn"
        }, 
        {
            "amount": "1 1/2 cups", 
            "ingredient": "cubed potatoes"
        }, 
        {
            "amount": "1 (10.75 ounce) can", 
            "ingredient": "condensed cream of mushroom soup"
        }, 
        {
            "amount": "3 cups", 
            "ingredient": "milk"
        }
    ], 
    "prep_steps": [
        "In a large saucepan over medium heat, saute the bacon and onions together until onions are tender, about 7 minutes. Add the corn, potatoes, soup, milk, and salt and pepper. Raise heat to high and bring to a boil. Reduce heat to low, cover and simmer about 25 to 35 minutes or until the potatoes are tender, stirring occasionally."
    ], 
    "recipe_name": "Easy Corn Chowder I"
}