{
    "ingredients": [
        {
            "amount": "2 tablespoons", 
            "ingredient": "butter"
        }, 
        {
            "amount": "1", 
            "ingredient": "onion, chopped"
        }, 
        {
            "amount": "2 cloves", 
            "ingredient": "garlic, minced"
        }, 
        {
            "amount": "1", 
            "ingredient": "red bell pepper, chopped"
        }, 
        {
            "amount": "1", 
            "ingredient": "green bell pepper, chopped"
        }, 
        {
            "amount": "2 cups", 
            "ingredient": "chicken broth"
        }, 
        {
            "amount": "1 pound", 
            "ingredient": "red potatoes, cut into chunks"
        }, 
        {
            "amount": "1/4 teaspoon", 
            "ingredient": "ground white pepper"
        }, 
        {
            "amount": "1/4 teaspoon", 
            "ingredient": "ground cumin"
        }, 
        {
            "amount": "3 1/2 cups", 
            "ingredient": "whole kernel corn"
        }, 
        {
            "amount": "4 ounces", 
            "ingredient": "kielbasa, halved and sliced"
        }, 
        {
            "amount": "1/3 cup", 
            "ingredient": "milk"
        }, 
        {
            "amount": "1/3 cup", 
            "ingredient": "heavy cream"
        }
    ], 
    "prep_steps": [
        "In a large pot over medium heat, melt butter. Cook onion, garlic, and bell peppers in butter until tender, 10 to 15 minutes. Stir in broth, potatoes, pepper and cumin and bring to a boil. Reduce heat and simmer 20 minutes, until potatoes are tender.", 
        "Place half the corn in a blender or food processor and puree until smooth. Stir pureed corn, remaining whole corn, kielbasa, milk and cream into soup. Simmer 20 minutes more."
    ], 
    "prep_time": "1 hr", 
    "recipe_name": "Corn, Sausage and Pepper Chowder"
}