{
    "ingredients": [
        {
            "amount": "1 (14 ounce) can", 
            "ingredient": "black beans, drained and rinsed"
        }, 
        {
            "amount": "2", 
            "ingredient": "fresh tomatoes, chopped"
        }, 
        {
            "amount": "1 large", 
            "ingredient": "green bell pepper, chopped"
        }, 
        {
            "amount": "1 cup", 
            "ingredient": "fresh sweet white corn, cut from the cob"
        }, 
        {
            "amount": "1 bunch", 
            "ingredient": "green onions, sliced"
        }, 
        {
            "amount": "1", 
            "ingredient": "jicama, peeled and minced"
        }, 
        {
            "amount": "1", 
            "ingredient": "fresh jalapeno pepper, minced"
        }, 
        {
            "amount": "1 (8 ounce) package", 
            "ingredient": "crumbled feta cheese"
        }, 
        {
            "amount": "1 clove", 
            "ingredient": "garlic"
        }, 
        {
            "amount": "1 pinch", 
            "ingredient": "sea salt"
        }, 
        {
            "amount": "1/4 cup", 
            "ingredient": "fresh lime juice"
        }, 
        {
            "amount": "1 teaspoon", 
            "ingredient": "Dijon mustard"
        }, 
        {
            "amount": "1/4 teaspoon", 
            "ingredient": "fresh-ground black pepper"
        }, 
        {
            "amount": "1 cup", 
            "ingredient": "olive oil"
        }
    ], 
    "prep_steps": [
        "Place the beans, tomato, bell pepper, corn, onion, jicama, jalapeno pepper, and feta cheese in a large salad bowl.", 
        "Mash the garlic and salt together with a mortar and pestle. Whisk together the mashed garlic, lime juice, mustard, and pepper in a small bowl. Add the oil in a slow, steady stream while whisking. Continue whisking until smooth. Drizzle the dressing over the salad and toss to coat. Chill overnight."
    ], 
    "prep_time": "9 hr", 
    "recipe_name": "Black Bean, Corn, and Tomato Salad with Feta Cheese"
}