{
    "ingredients": [
        {
            "amount": "6", 
            "ingredient": "red potatoes, peeled and cubed"
        }, 
        {
            "amount": "2 (11 ounce) cans", 
            "ingredient": "whole kernel corn, undrained"
        }, 
        {
            "amount": "1/2 cup", 
            "ingredient": "chopped green bell pepper"
        }, 
        {
            "amount": "1/2 cup", 
            "ingredient": "chopped sweet onion"
        }, 
        {
            "amount": "1 tablespoon", 
            "ingredient": "red pepper flakes"
        }, 
        {
            "amount": "2 cups", 
            "ingredient": "vegetable broth"
        }, 
        {
            "amount": "1 (12 ounce) package", 
            "ingredient": "low-fat, firm silken tofu"
        }
    ], 
    "prep_steps": [
        "Place potatoes in a large pot of salted water and bring to a boil. Cook until tender, about 30 minutes; drain.", 
        "To the potatoes add corn, bell pepper, onion, red pepper flakes and vegetable broth. Boil for about 15 minutes; remove from heat.", 
        "In a food processor or blender puree all but 1 1/2 cups of the vegetable and broth mixture with the tofu. Process in batches if necessary. Combine the pureed mixture with the remaining 1 1/2 cups vegetable and broth mixture, and cook over low heat for 5 minutes; do not boil. Season with salt to taste."
    ], 
    "prep_time": "1\u00bc hrs", 
    "recipe_name": "Creamy Corn Chowder"
}