{
    "ingredients": [
        {
            "amount": "1 (14.75 ounce) can", 
            "ingredient": "salmon, undrained and flaked"
        }, 
        {
            "amount": "1 slice", 
            "ingredient": "bread, shredded"
        }, 
        {
            "amount": "1 small", 
            "ingredient": "onion, grated"
        }, 
        {
            "amount": "1 tablespoon", 
            "ingredient": "all-purpose flour"
        }, 
        {
            "amount": "1", 
            "ingredient": "egg"
        }, 
        {
            "amount": "1 cup", 
            "ingredient": "vegetable oil for frying"
        }
    ], 
    "prep_steps": [
        "Mix together salmon, bread, onion, all-purpose flour, egg, salt and pepper. Shape into four patties.", 
        "In a large skillet heat oil over high heat. Cook the patties until browned on both sides, about 8 minutes. Drain briefly on paper towels before serving."
    ], 
    "prep_time": "20 mins", 
    "recipe_name": "Salmon Cakes III"
}