{
    "ingredients": [
        {
            "amount": "1 1/2 pounds", 
            "ingredient": "ground beef"
        }, 
        {
            "amount": "1/4 cup", 
            "ingredient": "diced onion"
        }, 
        {
            "amount": "1/4 teaspoon", 
            "ingredient": "ground black pepper"
        }, 
        {
            "amount": "2 (15 ounce) cans", 
            "ingredient": "baked beans with pork"
        }, 
        {
            "amount": "1 teaspoon", 
            "ingredient": "Worcestershire sauce"
        }, 
        {
            "amount": "1 cup", 
            "ingredient": "barbeque sauce"
        }, 
        {
            "amount": "1 cup", 
            "ingredient": "biscuit baking mix"
        }, 
        {
            "amount": "1/2 cup", 
            "ingredient": "milk"
        }, 
        {
            "amount": "1", 
            "ingredient": "egg"
        }, 
        {
            "amount": "1/4 cup", 
            "ingredient": "shredded Cheddar cheese"
        }, 
        {
            "amount": "1 tablespoon", 
            "ingredient": "barbecue sauce"
        }
    ], 
    "prep_steps": [
        "Preheat the oven to 350 degrees F (175 degrees C).", 
        "Crumble the ground beef into a large skillet over medium heat. When it is starting to brown, stir in the onion and season with pepper. Continue to cook and stir until beef is browned and the onion is tender.", 
        "Drain off the grease from the beef, and stir in the baked beans, Worcestershire sauce and 1 cup of barbeque sauce. Transfer to a large casserole dish. In a separate bowl, mix together the baking mix, milk and egg. Pour this mixture evenly over the beef and beans in the dish.", 
        "Bake for 40 to 45 minutes in the preheated oven, until the biscuit toping is golden brown. Spread a small amount of barbeque sauce over the top and sprinkle with Cheddar cheese while hot from the oven."
    ], 
    "prep_time": "55 mins", 
    "recipe_name": "BBQ Pie"
}