{
    "ingredients": [
        {
            "amount": "1 tablespoon", 
            "ingredient": "olive oil"
        }, 
        {
            "amount": "4 (4 ounce) fillets", 
            "ingredient": "tilapia"
        }, 
        {
            "amount": "1 (10 ounce) can", 
            "ingredient": "diced tomatoes with green chile peppers"
        }, 
        {
            "amount": "1", 
            "ingredient": "lime, juiced"
        }, 
        {
            "amount": "4 tablespoons", 
            "ingredient": "minced fresh cilantro"
        }, 
        {
            "amount": "1", 
            "ingredient": "lime, thinly sliced"
        }
    ], 
    "prep_steps": [
        "Preheat oven to 350 degrees F (175 degrees C). Coat one side of 4 (8x10 inch) pieces of aluminum foil with olive oil.", 
        "Center each fillet on a foil square. Spoon a generous amount of diced tomatoes with juices over fish. Sprinkle with lime juice and cilantro. Position 2 slices of lime on top of each fillet. Close and seal foil packets, and place on a baking tray.", 
        "Bake in preheated oven for approximately 20 minutes, or until fish flakes easily with a fork."
    ], 
    "prep_time": "35 mins", 
    "recipe_name": "Pancho Villa Baked Tilapia"
}