{
    "ingredients": [
        {
            "amount": "8 ounces", 
            "ingredient": "spaghetti"
        }, 
        {
            "amount": "2 tablespoons", 
            "ingredient": "butter"
        }, 
        {
            "amount": "1 large", 
            "ingredient": "zucchini, julienned"
        }, 
        {
            "amount": "3 large", 
            "ingredient": "carrots, julienned"
        }, 
        {
            "amount": "2 teaspoons", 
            "ingredient": "minced garlic"
        }, 
        {
            "amount": "3/4 cup", 
            "ingredient": "heavy cream"
        }, 
        {
            "amount": "3/4 cup", 
            "ingredient": "grated Parmesan cheese"
        }, 
        {
            "amount": "1 tablespoon", 
            "ingredient": "chopped fresh dill"
        }
    ], 
    "prep_steps": [
        "Bring a large pot of lightly salted water to a boil, cook spaghetti for 8 to 10 minutes, until al dente, and drain.", 
        "Melt the butter in a skillet over medium heat, and saute the zucchini, carrots, and garlic until tender. Stir in the heavy cream, Parmesan cheese, and dill. Cook and stir until thickened. Mix with the cooked spaghetti to serve."
    ], 
    "prep_time": "40 mins", 
    "recipe_name": "Springtime Spaghetti"
}