{
    "ingredients": [
        {
            "amount": "3 tablespoons", 
            "ingredient": "olive oil"
        }, 
        {
            "amount": "2", 
            "ingredient": "skinless, boneless chicken breast halves"
        }, 
        {
            "amount": "1 tablespoon", 
            "ingredient": "garlic powder"
        }, 
        {
            "amount": "1 clove", 
            "ingredient": "garlic, minced"
        }, 
        {
            "amount": "6", 
            "ingredient": "fresh mushrooms, sliced"
        }, 
        {
            "amount": "2 cups", 
            "ingredient": "shredded mozzarella cheese"
        }
    ], 
    "prep_steps": [
        "Heat the olive oil in a skillet over medium heat. Place chicken in the skillet, and season with garlic powder and garlic. Cook 12 minutes on each side, or until juices run clear. Set chicken aside, and keep warm.", 
        "Stir mushrooms into the skillet, and cook until tender. Return chicken to skillet, layer with mushrooms, and top with cheese. Cover skillet, and continue cooking 5 minutes, or until cheese is melted."
    ], 
    "prep_time": "45 mins", 
    "recipe_name": "Mozzarella Mushroom Chicken"
}