{
    "ingredients": [
        {
            "amount": "3 cups", 
            "ingredient": "water"
        }, 
        {
            "amount": "1 cup", 
            "ingredient": "uncooked wild rice"
        }, 
        {
            "amount": "3 cups", 
            "ingredient": "cooked, cubed chicken breast meat"
        }, 
        {
            "amount": "1 (10.75 ounce) can", 
            "ingredient": "condensed cream of celery soup"
        }, 
        {
            "amount": "1 (4 ounce) jar", 
            "ingredient": "diced pimento peppers, drained"
        }, 
        {
            "amount": "1", 
            "ingredient": "onion, chopped"
        }, 
        {
            "amount": "2 (14.5 ounce) cans", 
            "ingredient": "French-style green beans, drained"
        }, 
        {
            "amount": "1 cup", 
            "ingredient": "mayonnaise"
        }, 
        {
            "amount": "1 cup", 
            "ingredient": "water chestnuts, drained and chopped"
        }
    ], 
    "prep_steps": [
        "Combine water and wild rice in a saucepan, and bring to a boil. Reduce heat, cover, and simmer for 50 minutes, or until tender.", 
        "Preheat oven to 350 degrees F (175 degrees C).", 
        "In a large bowl, toss together the cooked rice, chicken, cream of celery soup, pimentos, onion, green beans, mayonnaise, water chestnuts, salt, and pepper. Transfer to a 3 quart casserole dish.", 
        "Bake in the preheated oven for 25 to 30 minutes, or until heated through."
    ], 
    "prep_time": "1\u00be hrs", 
    "recipe_name": "Chicken Spectacular"
}