{
    "ingredients": [
        {
            "amount": "1 pound", 
            "ingredient": "ground sausage"
        }, 
        {
            "amount": "2 cups", 
            "ingredient": "chopped celery"
        }, 
        {
            "amount": "2 large", 
            "ingredient": "onions, chopped"
        }, 
        {
            "amount": "5 cups", 
            "ingredient": "crumbled cornbread"
        }, 
        {
            "amount": "5 cups", 
            "ingredient": "seasoned bread crumbs"
        }, 
        {
            "amount": "2 3/4 cups", 
            "ingredient": "chicken broth"
        }, 
        {
            "amount": "1 1/2 teaspoons", 
            "ingredient": "poultry seasoning"
        }, 
        {
            "amount": "1 teaspoon", 
            "ingredient": "sage"
        }
    ], 
    "prep_steps": [
        "Preheat oven to 325 degrees F (165 degrees C).", 
        "Place sausage, celery and onions in a large, deep skillet. Cook over medium high heat until evenly brown. Drain, crumble and set aside.", 
        "In a large bowl combine sausage mixture with cornbread, bread crumbs, chicken broth, poultry seasoning and sage. Mix well and transfer to a 9x12 inch baking dish.", 
        "Bake, covered, for 45 minutes or until well set and cooked through."
    ], 
    "prep_time": "1\u00bc hrs", 
    "recipe_name": "Cornbread Stuffing With Sausage"
}