{
    "ingredients": [
        {
            "amount": "1 1/2 pounds", 
            "ingredient": "zucchini, halved"
        }, 
        {
            "amount": "1 1/2 cups", 
            "ingredient": "dry bread crumbs"
        }, 
        {
            "amount": "2 ounces", 
            "ingredient": "shredded Cheddar cheese"
        }, 
        {
            "amount": "1/4 cup", 
            "ingredient": "minced onion"
        }, 
        {
            "amount": "2 tablespoons", 
            "ingredient": "chopped fresh parsley"
        }, 
        {
            "amount": "1 1/4 teaspoons", 
            "ingredient": "salt"
        }, 
        {
            "amount": "1/4 cup", 
            "ingredient": "grated Parmesan cheese, divided"
        }, 
        {
            "amount": "2", 
            "ingredient": "eggs, beaten"
        }, 
        {
            "amount": "2 tablespoons", 
            "ingredient": "butter, diced"
        }
    ], 
    "prep_steps": [
        "Preheat oven to 350 degrees F (175 degrees C).", 
        "Bring a large pot of salted water to a boil. Add zucchini and cook until tender, about 15 minutes; drain. Scoop out the flesh of the zucchini, making a 'boat'.", 
        "In a medium bowl combined zucchini flesh, bread crumbs, Cheddar cheese, onion, parsley, salt, most of the Parmesan cheese and egg. Fill zucchini boats with mixture. Dot tops with butter and sprinkle with remaining Parmesan cheese.", 
        "Bake in preheated oven for 30 minutes."
    ], 
    "prep_time": "45 mins", 
    "recipe_name": "Stuffed Zucchini I"
}