{
    "ingredients": [
        {
            "amount": "32 ounces", 
            "ingredient": "plain yogurt"
        }, 
        {
            "amount": "1 large", 
            "ingredient": "English cucumber, peeled and shredded"
        }, 
        {
            "amount": "5 cloves", 
            "ingredient": "garlic, minced"
        }, 
        {
            "amount": "3 tablespoons", 
            "ingredient": "distilled white vinegar"
        }, 
        {
            "amount": "1/4 cup", 
            "ingredient": "extra virgin olive oil"
        }
    ], 
    "prep_steps": [
        "Place a cheese cloth over a medium bowl and strain the yogurt 6 hours in the refrigerator, or over night.", 
        "Drain as much excess liquid from the cucumber and garlic as possible.", 
        "In a large bowl, mix together the yogurt, cucumber, garlic, vinegar, olive oil and salt. Stir until a thick mixture has formed."
    ], 
    "prep_time": "6 hrs", 
    "recipe_name": "Tzatziki"
}