{
    "ingredients": [
        {
            "amount": "1/3 cup", 
            "ingredient": "butter"
        }, 
        {
            "amount": "3 (8 ounce) packages", 
            "ingredient": "fresh mushrooms, sliced"
        }, 
        {
            "amount": "2 tablespoons", 
            "ingredient": "chopped onion"
        }, 
        {
            "amount": "2 teaspoons", 
            "ingredient": "dried tarragon"
        }, 
        {
            "amount": "1/2 teaspoon", 
            "ingredient": "ground nutmeg"
        }, 
        {
            "amount": "1/4 teaspoon", 
            "ingredient": "salt"
        }, 
        {
            "amount": "1/4 teaspoon", 
            "ingredient": "ground black pepper"
        }, 
        {
            "amount": "1/4 cup", 
            "ingredient": "fresh parsley, chopped"
        }
    ], 
    "prep_steps": [
        "In a large skillet over medium heat melt butter. Stir in mushrooms, onion, tarragon, nutmeg, salt and pepper. Saute until mushrooms are tender, stirring occasionally, about 10 minutes. Stir in parsley and serve."
    ], 
    "prep_time": "15 mins", 
    "recipe_name": "Mushroom Saute"
}