{
    "ingredients": [
        {
            "amount": "2 pounds", 
            "ingredient": "kielbasa sausage"
        }, 
        {
            "amount": "2 cups", 
            "ingredient": "ketchup"
        }, 
        {
            "amount": "2 cups", 
            "ingredient": "grape jelly"
        }
    ], 
    "prep_steps": [
        "Slice kielbasa into strips or circles.", 
        "Pour ketchup and jelly into a slow cooker. Turn the heat to a medium temperature, stir occasionally while the jelly and ketchup melt together. When the mixture forms into a thin glaze, add the kielbasa and cook until the kielbasa is hot."
    ], 
    "prep_time": "35 mins", 
    "recipe_name": "Party Kielbasa"
}