{
    "ingredients": [
        {
            "amount": "3 cups", 
            "ingredient": "water"
        }, 
        {
            "amount": "2 tablespoons", 
            "ingredient": "chicken bouillon granules"
        }, 
        {
            "amount": "2 bunches", 
            "ingredient": "broccoli, chopped"
        }, 
        {
            "amount": "1/2", 
            "ingredient": "onion, minced"
        }, 
        {
            "amount": "2 cups", 
            "ingredient": "milk"
        }, 
        {
            "amount": "1/2 cup", 
            "ingredient": "margarine"
        }, 
        {
            "amount": "5 tablespoons", 
            "ingredient": "all-purpose flour"
        }, 
        {
            "amount": "1 (8 ounce) package", 
            "ingredient": "cream cheese, softened"
        }, 
        {
            "amount": "1 cup", 
            "ingredient": "shredded Cheddar cheese"
        }
    ], 
    "prep_steps": [
        "Bring water and chicken bouillon granules to a boil in a pot. Add broccoli and onion; cook at a boil until tender, 10 to 12 minutes.", 
        "Combine milk, margarine, flour, and cream cheese in a large pot over medium heat; cook and stir until the margarine melts and the mixture begins to thicken, about 5 minutes.", 
        "Stir Cheddar cheese into the milk mixture; cook and stir until the Cheddar melts completely.", 
        "Pour the broccoli mixture into the cheese mixture in the large pot; stir well."
    ], 
    "prep_time": "30 mins", 
    "recipe_name": "Erin's Cheesy Broccoli Soup"
}