{
    "ingredients": [
        {
            "amount": "1 pound", 
            "ingredient": "ground beef"
        }, 
        {
            "amount": "1 pound", 
            "ingredient": "ground turkey"
        }, 
        {
            "amount": "1 pound", 
            "ingredient": "ground Italian sausage"
        }, 
        {
            "amount": "1 large", 
            "ingredient": "onion, diced"
        }, 
        {
            "amount": "2", 
            "ingredient": "eggs"
        }, 
        {
            "amount": "1/2 cup", 
            "ingredient": "Italian-style seasoned bread crumbs"
        }, 
        {
            "amount": "1/2 cup", 
            "ingredient": "quick cooking oats"
        }, 
        {
            "amount": "2 tablespoons", 
            "ingredient": "Italian-style seasoning"
        }, 
        {
            "amount": "1 cup", 
            "ingredient": "vegetable oil, or as needed"
        }
    ], 
    "prep_steps": [
        "Preheat oven to 350 degrees F (175 degrees C).", 
        "Combine ground meat, onion, eggs, bread crumbs, oats, and seasoning in a large bowl. Shape into 2-inch diameter balls.", 
        "Heat enough vegetable oil in a large saute pan to be 1/2 inch deep. Brown meatballs in hot oil for about 5 minutes. Transfer to a glass baking dish.", 
        "Bake in preheated oven for 25 minutes."
    ], 
    "prep_time": "1 hr", 
    "recipe_name": "Three Animal Italian Meatballs"
}