{
    "ingredients": [
        {
            "amount": "4 cups", 
            "ingredient": "chopped rhubarb"
        }, 
        {
            "amount": "1 1/3 cups", 
            "ingredient": "white sugar"
        }, 
        {
            "amount": "6 tablespoons", 
            "ingredient": "all-purpose flour"
        }, 
        {
            "amount": "1 tablespoon", 
            "ingredient": "butter"
        }, 
        {
            "amount": "1 recipe", 
            "ingredient": "pastry for a 9 inch double crust pie"
        }
    ], 
    "prep_steps": [
        "Preheat oven to 450 degrees F (230 degrees C).", 
        "Combine sugar and flour. Sprinkle 1/4 of it over pastry in pie plate. Heap rhubarb over this mixture. Sprinkle with remaining sugar and flour. Dot with small pieces of butter. Cover with top crust.", 
        "Place pie on lowest rack in oven. Bake for 15 minutes. Reduce oven temperature to 350 degrees F (175 degrees C), and continue baking for 40 to 45 minutes. Serve warm or cold."
    ], 
    "prep_time": "1\u00bd hrs", 
    "recipe_name": "Fresh Rhubarb Pie"
}