{
    "ingredients": [
        {
            "amount": "1 (8 ounce) package", 
            "ingredient": "cream cheese, softened"
        }, 
        {
            "amount": "1/3 cup", 
            "ingredient": "white sugar"
        }, 
        {
            "amount": "1 (12 ounce) container", 
            "ingredient": "frozen whipped topping, thawed"
        }, 
        {
            "amount": "1 (9 inch)", 
            "ingredient": "prepared graham cracker crust"
        }, 
        {
            "amount": "1/2 pint", 
            "ingredient": "sliced fresh strawberries"
        }
    ], 
    "prep_steps": [
        "Beat cream cheese and sugar until smooth. Fold in whipped topping. Spoon mixture into graham crumb crust. Refrigerate for 2 hours.", 
        "Once the cheesecake has set, garnish with sliced strawberries. Serve."
    ], 
    "recipe_name": "Two Step Creamy Cheesecake"
}