{
    "ingredients": [
        {
            "amount": "1 tablespoon", 
            "ingredient": "butter, softened"
        }, 
        {
            "amount": "4", 
            "ingredient": "hot dog buns or kaiser rolls, split"
        }, 
        {
            "amount": "4", 
            "ingredient": "lettuce leaves"
        }, 
        {
            "amount": "1 1/2 pounds", 
            "ingredient": "cooked and cubed lobster meat"
        }, 
        {
            "amount": "2 tablespoons", 
            "ingredient": "mayonnaise"
        }, 
        {
            "amount": "1 teaspoon", 
            "ingredient": "fresh lime juice"
        }, 
        {
            "amount": "1 dash", 
            "ingredient": "hot pepper sauce (e.g. Tabasco\u2122)"
        }, 
        {
            "amount": "2", 
            "ingredient": "green onions, chopped"
        }, 
        {
            "amount": "1 stalk", 
            "ingredient": "celery, finely chopped"
        }, 
        {
            "amount": "1 pinch", 
            "ingredient": "dried basil, parsley or tarragon"
        }
    ], 
    "prep_steps": [
        "Lightly butter the insides of the buns or rolls and line with lettuce leaves. Set aside.", 
        "In a medium bowl, stir together the mayonnaise, lime juice, hot pepper sauce, salt and pepper until well blended. Mix in the green onion and celery, then lightly mix in the lobster so it just gets coated without falling apart.", 
        "Stuff the lobster filling into the buns and sprinkle parsley, basil or tarragon lightly over the filling."
    ], 
    "prep_time": "15 mins", 
    "recipe_name": "Lobster Rolls"
}