{
    "ingredients": [
        {
            "amount": "1/2 cup", 
            "ingredient": "chopped onion"
        }, 
        {
            "amount": "2 1/2 tablespoons", 
            "ingredient": "pesto"
        }, 
        {
            "amount": "2 tablespoons", 
            "ingredient": "olive oil"
        }, 
        {
            "amount": "2 tablespoons", 
            "ingredient": "grated Parmesan cheese"
        }, 
        {
            "amount": "1 (16 ounce) package", 
            "ingredient": "pasta"
        }
    ], 
    "prep_steps": [
        "Cook pasta in a large pot of boiling water until done. Drain.", 
        "Meanwhile, heat the oil in a frying pan over medium low heat. Add pesto, onion, and salt and pepper. Cook about five minutes, or until onions are soft.", 
        "In a large bowl, mix pesto mixture into pasta. Stir in grated cheese. Serve."
    ], 
    "recipe_name": "Pesto Pasta"
}