{
    "ingredients": [
        {
            "amount": "1/2 cup", 
            "ingredient": "vegetable oil"
        }, 
        {
            "amount": "1/2 cup", 
            "ingredient": "apple cider vinegar"
        }, 
        {
            "amount": "1 tablespoon", 
            "ingredient": "seafood seasoning (such as Old Bay\u00ae)"
        }, 
        {
            "amount": "2 cloves", 
            "ingredient": "minced garlic"
        }, 
        {
            "amount": "1 tablespoon", 
            "ingredient": "chopped fresh basil"
        }, 
        {
            "amount": "1", 
            "ingredient": "lime, juiced"
        }, 
        {
            "amount": "8", 
            "ingredient": "boneless pork chops, 1/2 inch thick"
        }
    ], 
    "prep_steps": [
        "Whisk together the vegetable oil, apple cider vinegar, seafood seasoning, minced garlic, basil, lime juice, and black pepper in a bowl, and pour into a resealable plastic bag. Add the pork chops, coat with the marinade, squeeze out excess air, and seal the bag. Marinate in the refrigerator for 4 to 6 hours, flipping periodically.", 
        "Preheat an outdoor grill for medium-high heat, and lightly oil the grate. Remove the pork chops from the bags. Discard excess marinade.", 
        "Grill until the pork is no longer pink in the center, 5 to 7 minutes per side. An instant-read thermometer inserted into the center should read 145 degrees F (63 degrees C)."
    ], 
    "prep_time": "4 hrs", 
    "recipe_name": "Chesapeake Bay Pork Chops"
}