{
    "ingredients": [
        {
            "amount": "1 pound", 
            "ingredient": "bacon"
        }, 
        {
            "amount": "1 pound", 
            "ingredient": "spaghetti"
        }, 
        {
            "amount": "3 cloves", 
            "ingredient": "garlic, minced"
        }, 
        {
            "amount": "5 tablespoons", 
            "ingredient": "olive oil"
        }, 
        {
            "amount": "2 tablespoons", 
            "ingredient": "grated Parmesan cheese"
        }
    ], 
    "prep_steps": [
        "Cook bacon until crispy. Drain well. Crumble.", 
        "Prepare spaghetti according to package directions.", 
        "Process garlic cloves through a garlic press, and combine with olive oil. Toss spaghetti, bacon, garlic/olive oil. Season with salt and pepper to taste. Sprinkle with Parmesan cheese."
    ], 
    "prep_time": "30 mins", 
    "recipe_name": "Bacon Spaghetti"
}