{
    "ingredients": [
        {
            "amount": "3/4 cup", 
            "ingredient": "water"
        }, 
        {
            "amount": "3/4 cup", 
            "ingredient": "sour cream, room temperature"
        }, 
        {
            "amount": "1 tablespoon", 
            "ingredient": "vegetable oil"
        }, 
        {
            "amount": "1 1/8 teaspoons", 
            "ingredient": "salt"
        }, 
        {
            "amount": "2 1/2 cups", 
            "ingredient": "bread flour"
        }, 
        {
            "amount": "1/2 cup", 
            "ingredient": "barley flour"
        }, 
        {
            "amount": "2 tablespoons", 
            "ingredient": "dry potato flakes"
        }, 
        {
            "amount": "2 tablespoons", 
            "ingredient": "white sugar"
        }, 
        {
            "amount": "1 1/2 teaspoons", 
            "ingredient": "active dry yeast"
        }
    ], 
    "prep_steps": [
        "Place ingredients in the pan of the bread machine in the order suggested by the manufacturer. Select White Bread setting, and Start."
    ], 
    "recipe_name": "Pseudo Sourdough for the Bread Machine"
}