{
    "ingredients": [
        {
            "amount": "2 cups", 
            "ingredient": "all-purpose flour"
        }, 
        {
            "amount": "1/3 cup", 
            "ingredient": "white sugar"
        }, 
        {
            "amount": "2 tablespoons", 
            "ingredient": "Dutch process cocoa powder"
        }, 
        {
            "amount": "1 tablespoon", 
            "ingredient": "baking powder"
        }, 
        {
            "amount": "1 cup", 
            "ingredient": "mashed bananas"
        }, 
        {
            "amount": "2/3 cup", 
            "ingredient": "canola oil"
        }, 
        {
            "amount": "1", 
            "ingredient": "egg, beaten"
        }, 
        {
            "amount": "1 cup", 
            "ingredient": "semi-sweet chocolate chips"
        }
    ], 
    "prep_steps": [
        "In a large bowl combine the flour, sugar, cocoa powder and baking powder.", 
        "In another bowl, blend the bananas, oil and egg together. Add to dry ingredients, mixing just until blended. Fold in the chocolate chips. Spoon the batter into a greased muffin pan, filling three-fourths full.", 
        "Bake in a preheated 425 degree F(220 degrees C) for 15 to 20 minutes. Remove the muffins to a wire rack to cool completely."
    ], 
    "recipe_name": "Banana Chocolate Chip Muffins"
}