{
    "ingredients": [
        {
            "amount": "2 cups", 
            "ingredient": "light brown sugar"
        }, 
        {
            "amount": "1 cup", 
            "ingredient": "white sugar"
        }, 
        {
            "amount": "1 1/2 cups", 
            "ingredient": "butter"
        }, 
        {
            "amount": "5", 
            "ingredient": "eggs"
        }, 
        {
            "amount": "1 teaspoon", 
            "ingredient": "vanilla extract"
        }, 
        {
            "amount": "1 cup", 
            "ingredient": "milk"
        }, 
        {
            "amount": "3 cups", 
            "ingredient": "all-purpose flour"
        }, 
        {
            "amount": "1/2 teaspoon", 
            "ingredient": "baking powder"
        }, 
        {
            "amount": "1 cup", 
            "ingredient": "chopped pecans"
        }
    ], 
    "prep_steps": [
        "Preheat oven to 325 degrees F (165 degrees C). Grease and flour a 10 inch tube pan. Mix together the flour and baking powder; set aside.", 
        "In a large bowl, cream together the butter, brown sugar and white sugar until light and fluffy. Beat in the eggs one at a time, then stir in the vanilla. Beat in the flour mixture alternately with the milk, mixing just until incorporated. Sir in the chopped pecans. Pour batter into prepared pan.", 
        "Bake in the preheated oven for 60 to 75 minutes, or until a toothpick inserted into the center of the cake comes out clean. Let cool in pan for 10 minutes, then turn out onto a wire rack and cool completely."
    ], 
    "prep_time": "1\u00bd hrs", 
    "recipe_name": "Brown Sugar Pound Cake I"
}