{
    "ingredients": [
        {
            "amount": "3/4 cup", 
            "ingredient": "soy sauce"
        }, 
        {
            "amount": "1 cup", 
            "ingredient": "mayonnaise"
        }, 
        {
            "amount": "6", 
            "ingredient": "skinless, boneless chicken breast halves - pounded thin"
        }
    ], 
    "prep_steps": [
        "In a medium bowl, mix together the soy sauce and mayonnaise. Add the chicken, and turn to coat. Cover, and marinate for 30 minutes.", 
        "Preheat a grill for medium heat. When the grill is hot, lightly brush the grate with oil.", 
        "Place the chicken onto the grill with a thick coating of the marinade. Discard remaining marinade. Cook for about 10 minutes per side, or until chicken is firm and juices run clear."
    ], 
    "prep_time": "1\u00bc hrs", 
    "recipe_name": "Chicken Teriyaki - It's a Secret"
}