{
    "ingredients": [
        {
            "amount": "1 (29 ounce) can", 
            "ingredient": "baked beans with pork"
        }, 
        {
            "amount": "1/2 cup", 
            "ingredient": "packed brown sugar"
        }, 
        {
            "amount": "1/2 cup", 
            "ingredient": "ketchup"
        }, 
        {
            "amount": "1 tablespoon", 
            "ingredient": "Worcestershire sauce"
        }
    ], 
    "prep_steps": [
        "Preheat oven to 350 degrees F (175 degrees C).", 
        "In a casserole dish, combine beans, brown sugar, ketchup, and Worcestershire sauce.", 
        "Bake, covered, for 45 minutes or until bubbly."
    ], 
    "prep_time": "1 hr", 
    "recipe_name": "Baked Beans I"
}