{
    "ingredients": [
        {
            "amount": "2 pounds", 
            "ingredient": "ground beef"
        }, 
        {
            "amount": "1 1/2 cups", 
            "ingredient": "fresh bread crumbs"
        }, 
        {
            "amount": "1/4 cup", 
            "ingredient": "chopped onion"
        }, 
        {
            "amount": "1/2 cup", 
            "ingredient": "milk"
        }, 
        {
            "amount": "1 1/2 teaspoons", 
            "ingredient": "salt"
        }, 
        {
            "amount": "2", 
            "ingredient": "eggs"
        }, 
        {
            "amount": "1 (18 ounce) bottle", 
            "ingredient": "barbecue sauce"
        }
    ], 
    "prep_steps": [
        "Preheat oven to 375 degrees F (190 degrees C).", 
        "In a large bowl, combine the beef, bread, onion, milk, salt and eggs. Shape into little meatballs, about 1 inch in size. Place the meatballs into a 9x13 inch baking dish.", 
        "Bake at 375 degrees F (190 degrees C) for 25 to 30 minutes. Pour barbecue sauce over the meatballs and bake for 35 more minutes."
    ], 
    "prep_time": "1\u00bd hrs", 
    "recipe_name": "Barbecued Meatballs"
}