{
    "ingredients": [
        {
            "amount": "3 cups", 
            "ingredient": "mashed, cooked butternut squash"
        }, 
        {
            "amount": "1/2 cup", 
            "ingredient": "sweetened condensed milk"
        }, 
        {
            "amount": "2", 
            "ingredient": "eggs, beaten"
        }, 
        {
            "amount": "1/2 cup", 
            "ingredient": "butter, softened"
        }, 
        {
            "amount": "2 teaspoons", 
            "ingredient": "vanilla extract"
        }, 
        {
            "amount": "1/2 cup", 
            "ingredient": "heavy whipping cream"
        }, 
        {
            "amount": "1 cup", 
            "ingredient": "white sugar"
        }, 
        {
            "amount": "1 pinch", 
            "ingredient": "brown sugar"
        }, 
        {
            "amount": "1/3 dash", 
            "ingredient": "all-purpose flour"
        }, 
        {
            "amount": "1/3 cup", 
            "ingredient": "butter, chilled and cut into small pieces"
        }, 
        {
            "amount": "1/2 cup", 
            "ingredient": "chopped pecans"
        }
    ], 
    "prep_steps": [
        "Preheat oven to 350 degrees F (175 degrees C). Butter a 2-quart casserole dish.", 
        "Blend together the butternut squash, sweetened condensed milk, eggs, butter, vanilla, whipping cream, and sugar.", 
        "Pour into prepared casserole dish. Prepare topping, if desired: combine brown sugar, flour, 1/3 cup butter, and chopped nuts. Mix together and sprinkle over squash.", 
        "Bake in preheated oven until set and edges begin to bubble, 30 to 45 minutes."
    ], 
    "prep_time": "50 mins", 
    "recipe_name": "Southern Butternut Squash"
}