{
    "ingredients": [
        {
            "amount": "2 cups", 
            "ingredient": "peeled, cored and chopped apple"
        }, 
        {
            "amount": "3/4 cup", 
            "ingredient": "white sugar"
        }, 
        {
            "amount": "2 tablespoons", 
            "ingredient": "vegetable oil"
        }, 
        {
            "amount": "1", 
            "ingredient": "egg"
        }, 
        {
            "amount": "1 1/2 cups", 
            "ingredient": "all-purpose flour"
        }, 
        {
            "amount": "1 1/2 teaspoons", 
            "ingredient": "baking powder"
        }, 
        {
            "amount": "1/2 teaspoon", 
            "ingredient": "baking soda"
        }, 
        {
            "amount": "1 teaspoon", 
            "ingredient": "ground cinnamon"
        }, 
        {
            "amount": "1 cup", 
            "ingredient": "fresh or frozen cranberries"
        }, 
        {
            "amount": "1/2 cup", 
            "ingredient": "chopped walnuts"
        }
    ], 
    "prep_steps": [
        "Preheat oven to 350 degrees F (175 degrees C). Lightly grease a 9x5 inch baking pan.", 
        "Stir together apples, sugar and oil. Add egg; mix well. In a separate bowl, sift together flour, baking powder, baking soda and cinnamon. Stir flour mixture into wet ingredients, mixing just until dry ingredients are moist. Stir in cranberries and walnuts. Spread batter into prepared pan.", 
        "Bake in preheated oven for 35 to 45 minutes, until toothpick inserted into center of loaf comes out clean."
    ], 
    "prep_time": "1\u00bc hrs", 
    "recipe_name": "Cranberry Apple Bread"
}