{
    "ingredients": [
        {
            "amount": "1/2 cup", 
            "ingredient": "pearl barley"
        }, 
        {
            "amount": "1/2 cup", 
            "ingredient": "long-grain white rice"
        }, 
        {
            "amount": "1 cup", 
            "ingredient": "canned black beans, drained"
        }, 
        {
            "amount": "1 cup", 
            "ingredient": "canned kidney beans, drained"
        }, 
        {
            "amount": "1 cup", 
            "ingredient": "whole corn kernels, cooked"
        }, 
        {
            "amount": "1/2 cup", 
            "ingredient": "chopped green onions"
        }, 
        {
            "amount": "1", 
            "ingredient": "red bell pepper, chopped"
        }, 
        {
            "amount": "1/4 cup", 
            "ingredient": "chopped fresh cilantro"
        }, 
        {
            "amount": "8 leaves", 
            "ingredient": "lettuce"
        }, 
        {
            "amount": "1/4 cup", 
            "ingredient": "red wine vinegar"
        }, 
        {
            "amount": "1 clove", 
            "ingredient": "garlic, minced"
        }, 
        {
            "amount": "1 teaspoon", 
            "ingredient": "chili powder"
        }, 
        {
            "amount": "1/2 teaspoon", 
            "ingredient": "salt"
        }, 
        {
            "amount": "1/4 teaspoon", 
            "ingredient": "crushed red pepper flakes"
        }, 
        {
            "amount": "1/4 teaspoon", 
            "ingredient": "ground black pepper"
        }, 
        {
            "amount": "1/2 cup", 
            "ingredient": "olive oil"
        }
    ], 
    "prep_steps": [
        "In a large saucepan bring 2 cups of water to a boil. Stir in barley and reduce heat to medium-low, cover and simmer for 40 to 45 minutes or until tender. Let cool.", 
        "In a saucepan bring 1 1/2 cups water to a boil add the rice. Reduce heat to low and simmer, covered for about 20 minutes or until tender. Let cool.", 
        "In a large bowl, combine the cooled barley, rice, black beans, kidney beans, corn, onions, red bell pepper and cilantro. Mix well.", 
        "To make dressing: In a small bowl, whisk together vinegar, garlic, chili powder, salt, red pepper flakes and black pepper. Whisk in oil and pour over salad and toss well. Transfer to a lettuce-lined bowl to serve."
    ], 
    "prep_time": "1\u00bd hrs", 
    "recipe_name": "Kerry's Beany Salad"
}