{
    "ingredients": [
        {
            "amount": "2 tablespoons", 
            "ingredient": "butter, melted"
        }, 
        {
            "amount": "2 pounds", 
            "ingredient": "fresh cod fillets"
        }, 
        {
            "amount": "1 (4 ounce) package", 
            "ingredient": "Boursin cheese with herbs, room temperature"
        }, 
        {
            "amount": "1 (14.5 ounce) can", 
            "ingredient": "diced tomatoes with garlic, onion, and peppers, drained"
        }, 
        {
            "amount": "2 tablespoons", 
            "ingredient": "shredded Parmesan cheese"
        }
    ], 
    "prep_steps": [
        "Preheat oven to 400 degrees F (200 degrees C).", 
        "Pour 1 tablespoon melted butter into baking dish to coat bottom. Arrange the cod fillets in the dish. Pat fillets dry using a paper towel. Spread the Boursin cheese evenly over the fillets. Pour the tomatoes over the tops. Season with salt and pepper to taste. Sprinkle with Parmesan cheese. Drizzle with remaining 1 tablespoon butter.", 
        "Bake, uncovered, in preheated oven for 25 minutes."
    ], 
    "prep_time": "40 mins", 
    "recipe_name": "Baked Cod with Boursin Herb Cheese"
}