{
    "ingredients": [
        {
            "amount": "40", 
            "ingredient": "NILLA Wafers, crushed"
        }, 
        {
            "amount": "3 tablespoons", 
            "ingredient": "butter or margarine, melted"
        }, 
        {
            "amount": "4 (8 ounce) packages", 
            "ingredient": "PHILADELPHIA Cream Cheese, softened, divided"
        }, 
        {
            "amount": "1 cup", 
            "ingredient": "sugar, divided"
        }, 
        {
            "amount": "4 teaspoons", 
            "ingredient": "vanilla, divided"
        }, 
        {
            "amount": "3", 
            "ingredient": "eggs"
        }, 
        {
            "amount": "1 (8 ounce) tub", 
            "ingredient": "COOL WHIP Whipped Topping, thawed"
        }
    ], 
    "prep_steps": [
        "Heat oven to 325 degrees F.", 
        "Mix wafer crumbs and butter; press onto bottom of 9-inch springform pan.", 
        "Beat 3 pkg. cream cheese, 3/4 cup sugar and 1 Tbsp. vanilla with mixer until well blended. Add eggs, 1 at a time, mixing on low speed after each just until blended. Pour over crust.", 
        "Bake 50 to 55 min. or until center is almost set. Run knife around rim of pan to loosen cake; cool completely in pan.", 
        "Beat remaining cream cheese, sugar and vanilla with mixer in large bowl until well blended. Whisk in COOL WHIP; spread over cheesecake. Refrigerate 4 hours. Remove rim of pan before serving cheesecake."
    ], 
    "prep_time": "6 hrs", 
    "recipe_name": "PHILADELPHIA Vanilla Mousse Cheesecake"
}