{
    "ingredients": [
        {
            "amount": "1/2 cup", 
            "ingredient": "butter, softened"
        }, 
        {
            "amount": "1 teaspoon", 
            "ingredient": "vanilla extract"
        }, 
        {
            "amount": "1 (8 ounce) package", 
            "ingredient": "cream cheese, softened"
        }, 
        {
            "amount": "2 1/2 pounds", 
            "ingredient": "confectioners' sugar"
        }, 
        {
            "amount": "1 cup", 
            "ingredient": "creamy peanut butter"
        }, 
        {
            "amount": "1 cup", 
            "ingredient": "flaked coconut"
        }, 
        {
            "amount": "1 cup", 
            "ingredient": "unsweetened cocoa powder"
        }, 
        {
            "amount": "2 cups", 
            "ingredient": "semisweet chocolate pieces"
        }, 
        {
            "amount": "1 tablespoon", 
            "ingredient": "shortening or vegetable oil"
        }
    ], 
    "prep_steps": [
        "In a large bowl, mix together the butter, vanilla, and cream cheese. Stir in confectioners' sugar to make a workable dough. For best results, use your hands for mixing.", 
        "Divide the dough into four parts. Leave one of the parts plain. To the second part, mix in peanut butter. Mix coconut into the third part, and cocoa powder into the last part. Roll each type of dough into egg shapes, and place on a waxed paper-lined cookie sheet. Refrigerate until hard, at least an hour.", 
        "Melt chocolate chips in a heat-proof bowl over a pan of simmering water. Stir occasionally until smooth. If the chocolate seems too thick for coating, stir in a teaspoon of the shortening or oil until it thins to your desired consistency. Dip the chilled candy eggs in chocolate, and return to the waxed paper lined sheet to set. Refrigerate for 1/2 hour to harden."
    ], 
    "prep_time": "2\u00bd hrs", 
    "recipe_name": "Chocolate Covered Easter Eggs"
}