{
    "ingredients": [
        {
            "amount": "1", 
            "ingredient": "small eggplant, cut into 3/4 inch thick slices"
        }, 
        {
            "amount": "2 small", 
            "ingredient": "red bell peppers, seeded and cut into wide strips"
        }, 
        {
            "amount": "3", 
            "ingredient": "zucchinis, sliced"
        }, 
        {
            "amount": "6", 
            "ingredient": "fresh mushrooms, stems removed"
        }, 
        {
            "amount": "1/4 cup", 
            "ingredient": "olive oil"
        }, 
        {
            "amount": "1/4 cup", 
            "ingredient": "lemon juice"
        }, 
        {
            "amount": "1/4 cup", 
            "ingredient": "coarsely chopped fresh basil"
        }, 
        {
            "amount": "2 cloves", 
            "ingredient": "garlic, peeled and minced"
        }
    ], 
    "prep_steps": [
        "Place eggplant, red bell peppers, zucchinis and fresh mushrooms in a medium bowl.", 
        "In a medium bowl, whisk together olive oil, lemon juice, basil and garlic. Pour the mixture over the vegetables, cover and marinate in the refrigerator at least 1 hour.", 
        "Preheat an outdoor grill for high heat.", 
        "Place vegetables directly on the grill or on skewers. Cook on the prepared grill 2 to 3 minutes per side, brushing frequently with the marinade, or to desired doneness."
    ], 
    "prep_time": "1\u00bd hrs", 
    "recipe_name": "Marinated Barbequed Vegetables"
}