{
    "ingredients": [
        {
            "amount": "1 1/2 pounds", 
            "ingredient": "smoked sausage, sliced"
        }, 
        {
            "amount": "1", 
            "ingredient": "green bell pepper, sliced into long strips"
        }, 
        {
            "amount": "1", 
            "ingredient": "red bell pepper, sliced into long strips"
        }, 
        {
            "amount": "1", 
            "ingredient": "onion, thinly sliced"
        }, 
        {
            "amount": "2 tablespoons", 
            "ingredient": "butter"
        }, 
        {
            "amount": "2 tablespoons", 
            "ingredient": "sweet and sour sauce"
        }, 
        {
            "amount": "1 pinch", 
            "ingredient": "ground cayenne pepper"
        }, 
        {
            "amount": "1 dash", 
            "ingredient": "hot pepper sauce, or to taste"
        }
    ], 
    "prep_steps": [
        "Place the sliced sausage in a large skillet over medium high heat. Saute for 5 to 10 minutes, flipping often, until well browned. Drain excess fat and set sausage aside.", 
        "In the same skillet over medium heat, combine the green bell pepper, red bell pepper, onion and butter or margarine and saute for 10 minutes, or until all vegetables are tender. Add the sausage and stir together well. Season with salt and pepper to taste.", 
        "Then add the sweet and sour sauce, cayenne pepper and hot pepper sauce. Reduce heat to low and simmer for 5 to 10 minutes, allowing all the flavors to blend."
    ], 
    "prep_time": "50 mins", 
    "recipe_name": "Sweet and Sour Smoked Sausage"
}