{
    "ingredients": [
        {
            "amount": "1 cup", 
            "ingredient": "shredded Cheddar cheese"
        }, 
        {
            "amount": "1 cup", 
            "ingredient": "grated Parmesan cheese"
        }, 
        {
            "amount": "1 (14 ounce) can", 
            "ingredient": "artichoke hearts, drained"
        }, 
        {
            "amount": "1/2 cup", 
            "ingredient": "chopped green onions"
        }, 
        {
            "amount": "1/2 teaspoon", 
            "ingredient": "garlic salt"
        }, 
        {
            "amount": "1/2 cup", 
            "ingredient": "mayonnaise"
        }, 
        {
            "amount": "1 cup", 
            "ingredient": "cooked and peeled shrimp"
        }
    ], 
    "prep_steps": [
        "Preheat oven to 350 degrees F (175 degrees C).", 
        "In a medium baking dish, mix together Cheddar cheese, Parmesan cheese, artichoke hearts, green onions, garlic salt, mayonnaise and shrimp. Sprinkle with paprika.", 
        "Bake in the preheated oven 20 minutes, or until bubbly and lightly browned."
    ], 
    "prep_time": "35 mins", 
    "recipe_name": "Shrimp Artichoke Dip"
}