{
    "ingredients": [
        {
            "amount": "1 cup", 
            "ingredient": "shortening"
        }, 
        {
            "amount": "1 cup", 
            "ingredient": "packed brown sugar"
        }, 
        {
            "amount": "1/2 cup", 
            "ingredient": "white sugar"
        }, 
        {
            "amount": "2", 
            "ingredient": "eggs"
        }, 
        {
            "amount": "2 teaspoons", 
            "ingredient": "vanilla extract"
        }, 
        {
            "amount": "2 1/4 cups", 
            "ingredient": "all-purpose flour"
        }, 
        {
            "amount": "1 teaspoon", 
            "ingredient": "baking soda"
        }, 
        {
            "amount": "1 teaspoon", 
            "ingredient": "salt"
        }, 
        {
            "amount": "1 1/2 cups", 
            "ingredient": "candy-coated milk chocolate pieces"
        }
    ], 
    "prep_steps": [
        "Preheat oven to 375 degrees F (190 degrees C).", 
        "Thoroughly cream together shortening, sugars, eggs and vanilla.", 
        "In a separate bowl, mix together the dry ingredients, except the candies. Add to creamed mixture and mix well.", 
        "Stir in 1/2 cup candies. Mix well. Drop by teaspoon unto cookie sheets and decorate with remaining candies. Bake for 10 - 12 minutes."
    ], 
    "recipe_name": "Candy-Coated Milk Chocolate Pieces Cookies I"
}