{
    "ingredients": [
        {
            "amount": "2", 
            "ingredient": "skinless, boneless chicken breast halves"
        }, 
        {
            "amount": "1 (4 ounce) can", 
            "ingredient": "tomato sauce"
        }, 
        {
            "amount": "1/4 cup", 
            "ingredient": "salsa"
        }, 
        {
            "amount": "1 (1.25 ounce) package", 
            "ingredient": "taco seasoning mix"
        }, 
        {
            "amount": "1 teaspoon", 
            "ingredient": "ground cumin"
        }, 
        {
            "amount": "2 cloves", 
            "ingredient": "garlic, minced"
        }, 
        {
            "amount": "1 teaspoon", 
            "ingredient": "chili powder"
        }
    ], 
    "prep_steps": [
        "Place chicken breasts and tomato sauce in a medium saucepan over medium high heat. Bring to a boil, then add the salsa, seasoning, cumin, garlic and chili powder. Let simmer for 15 minutes.", 
        "With a fork, start pulling the chicken meat apart into thin strings. Keep cooking pulled chicken meat and sauce, covered, for another 5 to 10 minutes. Add hot sauce to taste and stir together (Note: You may need to add a bit of water if the mixture is cooked too high and gets too thick.)"
    ], 
    "prep_time": "35 mins", 
    "recipe_name": "Salsa Chicken Burrito Filling"
}