{
    "ingredients": [
        {
            "amount": "2 (15 ounce) cans", 
            "ingredient": "tomato sauce"
        }, 
        {
            "amount": "1 (6 ounce) can", 
            "ingredient": "tomato paste"
        }, 
        {
            "amount": "1 tablespoon", 
            "ingredient": "white sugar"
        }, 
        {
            "amount": "1 teaspoon", 
            "ingredient": "dried parsley"
        }, 
        {
            "amount": "1 teaspoon", 
            "ingredient": "dried basil"
        }, 
        {
            "amount": "1 teaspoon", 
            "ingredient": "dried oregano"
        }, 
        {
            "amount": "1 medium", 
            "ingredient": "garlic clove, chopped"
        }, 
        {
            "amount": "3 pounds", 
            "ingredient": "skinless, boneless chicken breast halves"
        }, 
        {
            "amount": "1 cup", 
            "ingredient": "fine dry bread crumbs"
        }, 
        {
            "amount": "1 pound", 
            "ingredient": "Cheddar cheese, shredded"
        }, 
        {
            "amount": "1 pound", 
            "ingredient": "mozzarella cheese, shredded"
        }, 
        {
            "amount": "1 teaspoon", 
            "ingredient": "garlic salt to taste"
        }
    ], 
    "prep_steps": [
        "Preheat oven to 350 degrees F (175 degrees C). Lightly grease a baking dish that is deep enough to allow at least one inch between the chicken and the top of the dish.", 
        "In a large pot over medium heat, stir together tomato sauce, tomato paste, sugar, parsley, basil, oregano, and garlic.", 
        "Meanwhile, in a large bowl, toss chicken with bread crumbs until completely covered. Arrange chicken in baking dish and sprinkle to taste with garlic salt and pepper to taste. Top chicken with half of shredded Cheddar and mozzarella cheeses. Pour tomato sauce evenly over chicken. Reserve half of the remaining Cheddar and mozzarella cheeses, and sprinkle the rest over the chicken and sauce.", 
        "Cover dish with aluminum foil and bake for about 50 minutes, or until chicken is cooked through. Remove foil, and top with remaining Cheddar and mozzarella cheeses. Return dish to oven and cook, uncovered, until the cheese on top melts. Remove pan from oven and let sit five minutes before serving."
    ], 
    "prep_time": "1\u00bd hrs", 
    "recipe_name": "Cheese Lover's Chicken"
}