{
    "ingredients": [
        {
            "amount": "3 1/2 cups", 
            "ingredient": "all-purpose flour"
        }, 
        {
            "amount": "1 cup", 
            "ingredient": "cake flour"
        }, 
        {
            "amount": "1 teaspoon", 
            "ingredient": "baking powder"
        }, 
        {
            "amount": "1 teaspoon", 
            "ingredient": "baking soda"
        }, 
        {
            "amount": "1 1/2 cups", 
            "ingredient": "butter, softened"
        }, 
        {
            "amount": "1 1/4 cups", 
            "ingredient": "white sugar"
        }, 
        {
            "amount": "1 1/4 cups", 
            "ingredient": "packed brown sugar"
        }, 
        {
            "amount": "2", 
            "ingredient": "eggs"
        }, 
        {
            "amount": "1 tablespoon", 
            "ingredient": "vanilla extract"
        }, 
        {
            "amount": "2 cups", 
            "ingredient": "semisweet chocolate chips"
        }, 
        {
            "amount": "1 cup", 
            "ingredient": "chopped walnuts"
        }
    ], 
    "prep_steps": [
        "Preheat the oven to 375 degrees F (190 degrees C). Sift together the all-purpose flour, cake flour, baking powder and baking soda; set aside.", 
        "In a large bowl, cream together the butter, white sugar and brown sugar until smooth. Beat in the eggs and vanilla, until well blended. Gradually stir in the flour mixture. Stir in the chocolate chips by hand using a wooden spoon, stir in walnuts if desired. Drop cookies by rounded tablespoonfuls 2 inches apart onto ungreased cookie sheets.", 
        "Bake for 10 to 14 minutes in the preheated oven, until the edges are light brown. Let cookies cool on the baking sheet before removing to wire racks to cool completely."
    ], 
    "prep_time": "55 mins", 
    "recipe_name": "Chewy Jumbo Chocolate Chip Cookies"
}