{
    "ingredients": [
        {
            "amount": "1 1/2 pounds", 
            "ingredient": "skinless, boneless chicken breasts, cut into 1-inch pieces"
        }, 
        {
            "amount": "2 medium", 
            "ingredient": "Yukon Gold potatoes, cut into 1-inch pieces"
        }, 
        {
            "amount": "2 cups", 
            "ingredient": "whole baby carrots"
        }, 
        {
            "amount": "2 stalks", 
            "ingredient": "celery, sliced"
        }, 
        {
            "amount": "2 (10.75 ounce) cans", 
            "ingredient": "Campbell's\u00ae Condensed Cream of Chicken Soup (Regular or 98% Fat Free)"
        }, 
        {
            "amount": "1 cup", 
            "ingredient": "water"
        }, 
        {
            "amount": "1 teaspoon", 
            "ingredient": "dried thyme leaves, crushed"
        }, 
        {
            "amount": "1/4 teaspoon", 
            "ingredient": "ground black pepper"
        }, 
        {
            "amount": "2 cups", 
            "ingredient": "all-purpose baking mix"
        }, 
        {
            "amount": "2/3 cup", 
            "ingredient": "milk"
        }
    ], 
    "prep_steps": [
        "Place the chicken, potatoes, carrots and celery into a 6-quart slow cooker.", 
        "Stir the soup, water, thyme and black pepper in a small bowl. Pour the soup mixture over the chicken and vegetables.", 
        "Cover and cook on LOW for 7 to 8 hours* or until the chicken is cooked through.", 
        "Stir the baking mix and milk in a medium bowl. Spoon the batter over the chicken mixture. Turn the heat to HIGH. Tilt the lid to vent and cook for 30 minutes or until the dumplings are cooked in the center."
    ], 
    "prep_time": "8 hrs", 
    "recipe_name": "Campbell's\u00ae Slow-Cooker Chicken and Dumplings"
}