{
    "ingredients": [
        {
            "amount": "3", 
            "ingredient": "egg yolks"
        }, 
        {
            "amount": "1/4 cup", 
            "ingredient": "white sugar"
        }, 
        {
            "amount": "2 teaspoons", 
            "ingredient": "vanilla extract"
        }, 
        {
            "amount": "1 1/8 cups", 
            "ingredient": "mascarpone cheese"
        }, 
        {
            "amount": "24", 
            "ingredient": "ladyfingers"
        }, 
        {
            "amount": "1 1/2 cups", 
            "ingredient": "brewed coffee"
        }, 
        {
            "amount": "1 tablespoon", 
            "ingredient": "unsweetened cocoa powder"
        }
    ], 
    "prep_steps": [
        "In a medium bowl, beat yolks with sugar and vanilla until smooth and light yellow. Fold mascarpone into yolk mixture. Set aside.", 
        "Dip ladyfingers briefly in coffee and arrange 12 of them in the bottom of an 8x8 inch dish. Spread half the mascarpone mixture over the ladyfingers. Repeat with remaining cookies and mascarpone. Cover and chill 1 hour. Sprinkle with cocoa just before serving."
    ], 
    "prep_time": "1\u00bc hrs", 
    "recipe_name": "Easy Tiramisu"
}