{
    "ingredients": [
        {
            "amount": "1 (15 ounce) can", 
            "ingredient": "100% pure pumpkin"
        }, 
        {
            "amount": "1 1/2 teaspoons", 
            "ingredient": "ground ginger"
        }, 
        {
            "amount": "1 teaspoon", 
            "ingredient": "ground cinnamon"
        }, 
        {
            "amount": "1/4 teaspoon", 
            "ingredient": "ground cloves"
        }, 
        {
            "amount": "1 cup", 
            "ingredient": "dark brown sugar"
        }, 
        {
            "amount": "1/2 cup", 
            "ingredient": "vegetable oil"
        }, 
        {
            "amount": "2", 
            "ingredient": "large eggs, lightly beaten"
        }, 
        {
            "amount": "2 cups", 
            "ingredient": "all-purpose flour"
        }, 
        {
            "amount": "2 teaspoons", 
            "ingredient": "baking powder"
        }, 
        {
            "amount": "1/4 teaspoon", 
            "ingredient": "baking soda"
        }, 
        {
            "amount": "1/2 teaspoon", 
            "ingredient": "salt"
        }, 
        {
            "amount": "1/2 cup", 
            "ingredient": "confectioners' sugar"
        }, 
        {
            "amount": "1/4 teaspoon", 
            "ingredient": "finely grated orange zest"
        }, 
        {
            "amount": "4 teaspoons", 
            "ingredient": "orange juice"
        }
    ], 
    "prep_steps": [
        "Adjust oven rack to center position and heat oven to 425 degrees. Spray 36 mini-muffin cups with vegetable cooking spray.", 
        "Bring pumpkin, ginger, cinnamon and cloves to a simmer in a medium saucepan until puree thickens enough to start sticking to pan bottom, 6 to 8 minutes. Turn hot puree into a bowl. Whisk in brown sugar and oil, then slowly beat in eggs.", 
        "Meanwhile, whisk the flour, baking powder, baking soda and salt in a medium bowl; whisk into pumpkin mixture until just combined.", 
        "Divide batter among the muffin cups and bake until golden and cooked through, about 10 minutes. Let stand a few minutes, then transfer mini-muffins to a wire rack to cool. Mix the drizzle ingredients together and drizzle over warm muffins."
    ], 
    "prep_time": "50 mins", 
    "recipe_name": "Mini Pumpkin Muffins with Orange Drizzle"
}