{
    "ingredients": [
        {
            "amount": "1/4 cup", 
            "ingredient": "butter, softened"
        }, 
        {
            "amount": "1 tablespoon", 
            "ingredient": "mayonnaise"
        }, 
        {
            "amount": "1 1/2 teaspoons", 
            "ingredient": "garlic paste"
        }, 
        {
            "amount": "2 teaspoons", 
            "ingredient": "finely chopped fresh basil"
        }, 
        {
            "amount": "2 tablespoons", 
            "ingredient": "grated Parmesan cheese"
        }, 
        {
            "amount": "1/4 teaspoon", 
            "ingredient": "freshly ground black pepper"
        }, 
        {
            "amount": "6", 
            "ingredient": "hoagie rolls, split lengthwise"
        }, 
        {
            "amount": "1/4 cup", 
            "ingredient": "grated Parmesan cheese for topping"
        }
    ], 
    "prep_steps": [
        "Preheat the oven broiler. Line a cookie sheet with aluminum foil.", 
        "In a small bowl, make a paste with the butter, mayonnaise, garlic paste, basil, 2 tablespoons Parmesan, and pepper.", 
        "Spread equal amounts of the paste on each roll half. Arrange roll halves on the cookie sheet, topping side up, and sprinkle with remaining Parmesan cheese.", 
        "Broil on the top rack in the preheated oven 1 to 2 minutes, or until lightly toasted. Watch them very carefully! They can burn very quickly. Basically do these at the last minute before serving and check them closely as they broil."
    ], 
    "prep_time": "12 mins", 
    "recipe_name": "Garlic Bread Mama Rita's Way!"
}