{
    "ingredients": [
        {
            "amount": "8 pounds", 
            "ingredient": "untrimmed beef brisket"
        }, 
        {
            "amount": "1 cup", 
            "ingredient": "strong black coffee"
        }, 
        {
            "amount": "1 (14 ounce) bottle", 
            "ingredient": "ketchup"
        }, 
        {
            "amount": "1 (12 fluid ounce) can", 
            "ingredient": "cola carbonated beverage"
        }, 
        {
            "amount": "3 tablespoons", 
            "ingredient": "Worcestershire sauce"
        }, 
        {
            "amount": "3 tablespoons", 
            "ingredient": "prepared yellow mustard"
        }, 
        {
            "amount": "2 tablespoons", 
            "ingredient": "liquid smoke flavoring"
        }, 
        {
            "amount": "2 tablespoons", 
            "ingredient": "brown sugar, packed"
        }
    ], 
    "prep_steps": [
        "Place the beef brisket in a large slow cooker with the fat side up. Pour the coffee over the meat. Cook the brisket on LOW for 24 hours.", 
        "Meanwhile, stir together the ketchup, cola beverage, Worcestershire sauce, mustard, liquid smoke, and brown sugar in a bowl until well blended. Refrigerate until needed.", 
        "After 24 hours, remove and discard any fat from the brisket. Use a fork to pull apart and shred the meat. Pour the sauce over the meat, stirring to coat evenly, and cook 1 hour longer."
    ], 
    "prep_time": "1 days", 
    "recipe_name": "Slow-Cooked, Texas-Style Beef Brisket"
}