{
    "ingredients": [
        {
            "amount": "4 pounds", 
            "ingredient": "beef brisket"
        }, 
        {
            "amount": "1 tablespoon", 
            "ingredient": "garlic powder"
        }, 
        {
            "amount": "1/4 cup", 
            "ingredient": "ketchup"
        }, 
        {
            "amount": "1 large", 
            "ingredient": "onion, thinly sliced"
        }, 
        {
            "amount": "1 tablespoon", 
            "ingredient": "all-purpose flour"
        }, 
        {
            "amount": "1/4 cup", 
            "ingredient": "water"
        }
    ], 
    "prep_steps": [
        "Place brisket fat side up into slow cooker, sprinkle garlic powder on top and rub ketchup generously into brisket. Add onion slices all around and on top of meat, add enough water to coat the bottom of the cooker.", 
        "Cook on Low, all day, for the most tender brisket you will ever eat.", 
        "For gravy, remove brisket from the slow cooker, and increase temperature to High. Mix flour with 1/4 cup water, add to pot, and bring to a boil, stirring constantly."
    ], 
    "prep_time": "8 hrs", 
    "recipe_name": "Deli Style Brisket"
}