{
    "ingredients": [
        {
            "amount": "1 pound", 
            "ingredient": "dry great Northern beans"
        }, 
        {
            "amount": "8 cups", 
            "ingredient": "water"
        }, 
        {
            "amount": "1/2 teaspoon", 
            "ingredient": "salt"
        }, 
        {
            "amount": "1", 
            "ingredient": "ham hock"
        }, 
        {
            "amount": "1 cup", 
            "ingredient": "chopped carrots"
        }, 
        {
            "amount": "1/2 stalk", 
            "ingredient": "celery, chopped"
        }, 
        {
            "amount": "1 cup", 
            "ingredient": "chopped onion"
        }, 
        {
            "amount": "1 teaspoon", 
            "ingredient": "minced garlic"
        }, 
        {
            "amount": "1 teaspoon", 
            "ingredient": "mustard powder"
        }, 
        {
            "amount": "2", 
            "ingredient": "bay leaves"
        }, 
        {
            "amount": "2 cups", 
            "ingredient": "chopped ham"
        }, 
        {
            "amount": "1/2 teaspoon", 
            "ingredient": "ground white pepper"
        }
    ], 
    "prep_steps": [
        "Rinse the beans, sorting out any broken or discolored ones. In a large pot over high heat, bring the water to a boil. Add the salt and the beans and remove from heat. Let beans sit in the hot water for at least 60 minutes.", 
        "After the 60 minutes of soaking, return the pot to high heat and place the ham bone, carrots, celery, onion, garlic, mustard and bay leaves in the pot. Stir well, bring to a boil, reduce heat to low and simmer for 60 more minutes.", 
        "Remove ham bone and discard. Stir in the chopped ham and simmer for 30 more minutes. Season with ground white pepper to taste."
    ], 
    "prep_time": "3 hr", 
    "recipe_name": "Basic Ham and Bean Soup"
}