{
    "ingredients": [
        {
            "amount": "2 (8 ounce) packages", 
            "ingredient": "cream cheese, softened"
        }, 
        {
            "amount": "1/2 cup", 
            "ingredient": "butter"
        }, 
        {
            "amount": "1 tablespoon", 
            "ingredient": "instant Cheddar cheese sauce mix"
        }, 
        {
            "amount": "2 cups", 
            "ingredient": "shredded Cheddar cheese"
        }, 
        {
            "amount": "2 tablespoons", 
            "ingredient": "thinly sliced green onion"
        }, 
        {
            "amount": "1 tablespoon", 
            "ingredient": "lemon juice"
        }, 
        {
            "amount": "1 teaspoon", 
            "ingredient": "dried parsley"
        }, 
        {
            "amount": "1/2 cup", 
            "ingredient": "chopped walnuts to taste"
        }
    ], 
    "prep_steps": [
        "In a medium-sized mixing bowl, blend cream cheese and butter or margarine. Stir in cheese sprinkle, Cheddar cheese, green onion, lemon juice and parsley. Shape mixture into 2 large balls or logs, and roll them in the chopped walnuts. Refrigerate until ready to serve."
    ], 
    "prep_time": "2\u00bc hrs", 
    "recipe_name": "Aunt Phyllis' Magnificent Cheese Ball"
}