{
    "ingredients": [
        {
            "amount": "2", 
            "ingredient": "skinless, boneless chicken breast halves - cut into 1/2 inch pieces"
        }, 
        {
            "amount": "2 tablespoons", 
            "ingredient": "soy sauce"
        }, 
        {
            "amount": "1/4 teaspoon", 
            "ingredient": "garlic powder"
        }, 
        {
            "amount": "1 cup", 
            "ingredient": "pineapple juice"
        }, 
        {
            "amount": "3 tablespoons", 
            "ingredient": "bourbon whiskey"
        }, 
        {
            "amount": "1/8 teaspoon", 
            "ingredient": "ground black pepper"
        }, 
        {
            "amount": "1 tablespoon", 
            "ingredient": "brown sugar"
        }
    ], 
    "prep_steps": [
        "Saute chicken in a large skillet over medium high heat until cooked through (no longer pink).", 
        "In a small bowl, combine the soy sauce, garlic powder, pineapple juice, whiskey, pepper and sugar. Stir until sugar is dissolved and pour over chicken. Let simmer for 10 to 15 minutes, or until sauce is thickened to taste."
    ], 
    "prep_time": "30 mins", 
    "recipe_name": "Whiskey Chicken"
}