{
    "ingredients": [
        {
            "amount": "2 cups", 
            "ingredient": "flour"
        }, 
        {
            "amount": "4 teaspoons", 
            "ingredient": "baking powder"
        }, 
        {
            "amount": "3 tablespoons", 
            "ingredient": "white sugar"
        }, 
        {
            "amount": "1/2 teaspoon", 
            "ingredient": "salt"
        }, 
        {
            "amount": "1/2 teaspoon", 
            "ingredient": "cream of tartar"
        }, 
        {
            "amount": "1/2 cup", 
            "ingredient": "butter or margarine"
        }, 
        {
            "amount": "3/4 cup", 
            "ingredient": "milk"
        }, 
        {
            "amount": "1/2 cup", 
            "ingredient": "shredded Cheddar cheese"
        }, 
        {
            "amount": "1 tablespoon", 
            "ingredient": "chopped fresh thyme"
        }
    ], 
    "prep_steps": [
        "Preheat the oven to 425 degrees F (220 degrees C).", 
        "In a medium bowl, stir together the flour, baking powder, sugar, salt and cream of tartar. Cut in butter using a pastry cutter or a fork until it is the size of peas. Make a well in the center of the mixture and measure the milk, cheese and thyme into the bowl. Gently mix until a soft dough forms.", 
        "Roll or pat out on a floured surface to 3/4 inch thick. Cut into circles and place on a baking sheet.", 
        "Bake for 10 minutes in the preheated oven, or until the bottoms of the biscuits are golden brown."
    ], 
    "prep_time": "25 mins", 
    "recipe_name": "Cheddar-Thyme Flaky Biscuits"
}