{
    "ingredients": [
        {
            "amount": "1 cup", 
            "ingredient": "dark brown sugar"
        }, 
        {
            "amount": "3/8 cup", 
            "ingredient": "cornstarch"
        }, 
        {
            "amount": "1/2 teaspoon", 
            "ingredient": "salt"
        }, 
        {
            "amount": "2", 
            "ingredient": "eggs, beaten"
        }, 
        {
            "amount": "2 cups", 
            "ingredient": "milk"
        }, 
        {
            "amount": "1 teaspoon", 
            "ingredient": "vanilla extract"
        }, 
        {
            "amount": "1/4 cup", 
            "ingredient": "butter"
        }
    ], 
    "prep_steps": [
        "In a 1 quart saucepan, stir together sugar, cornstarch and salt. Place over medium-low heat and stir in eggs and milk. Cook, stirring, until mixture thickens enough to coat the back of a metal spoon. Stir in vanilla and butter. Let cool briefly and serve warm, or chill in refrigerator until serving."
    ], 
    "prep_time": "30 mins", 
    "recipe_name": "Butterscotch Pudding I"
}