{
    "ingredients": [
        {
            "amount": "6 slices", 
            "ingredient": "bacon, chopped"
        }, 
        {
            "amount": "1 large", 
            "ingredient": "onion, diced"
        }, 
        {
            "amount": "3 cloves", 
            "ingredient": "garlic, minced"
        }, 
        {
            "amount": "2 cups", 
            "ingredient": "chicken broth"
        }, 
        {
            "amount": "1/2 teaspoon", 
            "ingredient": "ground cumin"
        }, 
        {
            "amount": "2 (14.5 ounce) cans", 
            "ingredient": "black beans, rinsed and drained"
        }, 
        {
            "amount": "14 1/2 fluid ounces", 
            "ingredient": "water"
        }, 
        {
            "amount": "1/2 teaspoon", 
            "ingredient": "ground black pepper"
        }, 
        {
            "amount": "1/3 cup", 
            "ingredient": "minced green onion"
        }, 
        {
            "amount": "2 teaspoons", 
            "ingredient": "sambal paste (or minced red chiles)"
        }
    ], 
    "prep_steps": [
        "Place bacon in a cold pot. Turn heat to medium, cook and stir until the bacon is cooked but not crisp.", 
        "Stir in onion; cook and stir for 5 minutes, until the onion turns translucent and golden.", 
        "Stir in garlic; cook for 2-3 minutes. Add chicken stock, turn heat to medium-high. Stir in oregano, cayenne and salt. Add black beans and water. Return to a simmer.", 
        "Simmer on medium-low, stirring occasionally, for 20-30 minutes. While it's cooking, mash about half the beans to thicken the soup.", 
        "Stir in black pepper and cumin. Add salt to taste.", 
        "Make the relish by stirring together minced green onion, sambal paste, and lime juice.", 
        "Serve garnished with relish, chopped green onions, and sour cream."
    ], 
    "prep_time": "50 mins", 
    "recipe_name": "Quick and Easy Black Bean Soup"
}