{
    "ingredients": [
        {
            "amount": "1 pound", 
            "ingredient": "spaghetti"
        }, 
        {
            "amount": "1 (28 ounce) can", 
            "ingredient": "crushed tomatoes"
        }, 
        {
            "amount": "1 (14.5 ounce) can", 
            "ingredient": "diced tomatoes"
        }, 
        {
            "amount": "1 (15 ounce) can", 
            "ingredient": "tomato sauce"
        }, 
        {
            "amount": "1 tablespoon", 
            "ingredient": "minced garlic"
        }, 
        {
            "amount": "2 teaspoons", 
            "ingredient": "white sugar"
        }, 
        {
            "amount": "2 teaspoons", 
            "ingredient": "dried parsley"
        }, 
        {
            "amount": "1 teaspoon", 
            "ingredient": "garlic powder"
        }, 
        {
            "amount": "1/2 teaspoon", 
            "ingredient": "salt"
        }, 
        {
            "amount": "1/4 teaspoon", 
            "ingredient": "dried oregano"
        }, 
        {
            "amount": "1/4 teaspoon", 
            "ingredient": "dried basil"
        }, 
        {
            "amount": "1/4 teaspoon", 
            "ingredient": "ground black pepper"
        }, 
        {
            "amount": "1 1/2 tablespoons", 
            "ingredient": "capers"
        }, 
        {
            "amount": "1 pinch", 
            "ingredient": "crushed red pepper flakes"
        }
    ], 
    "prep_steps": [
        "In a large saucepan combine crushed tomatoes, diced tomatoes, tomato sauce, minced garlic, sugar, parsley, garlic powder, salt, oregano, basil, and ground black pepper. Add capers and crushed red pepper if desired. Cover. Bring to a boil.", 
        "Lower heat and simmer, with cover, for 45 to 60 minutes.", 
        "As simmering time nears, in a large pot with boiling salted water cook spaghetti until al dente.", 
        "Toss spaghetti with cooked sauce. Serve warm."
    ], 
    "recipe_name": "Spaghetti With Marinara Sauce"
}