{
    "ingredients": [
        {
            "amount": "1/2", 
            "ingredient": "onion, minced"
        }, 
        {
            "amount": "4 cloves", 
            "ingredient": "garlic, minced"
        }, 
        {
            "amount": "3/4 cup", 
            "ingredient": "bourbon whiskey"
        }, 
        {
            "amount": "1/2 teaspoon", 
            "ingredient": "ground black pepper"
        }, 
        {
            "amount": "1/2 tablespoon", 
            "ingredient": "salt"
        }, 
        {
            "amount": "2 cups", 
            "ingredient": "ketchup"
        }, 
        {
            "amount": "1/4 cup", 
            "ingredient": "tomato paste"
        }, 
        {
            "amount": "1/3 cup", 
            "ingredient": "cider vinegar"
        }, 
        {
            "amount": "2 tablespoons", 
            "ingredient": "liquid smoke flavoring"
        }, 
        {
            "amount": "1/4 cup", 
            "ingredient": "Worcestershire sauce"
        }, 
        {
            "amount": "1/2 cup", 
            "ingredient": "packed brown sugar"
        }, 
        {
            "amount": "1/3 teaspoon", 
            "ingredient": "hot pepper sauce, or to taste"
        }
    ], 
    "prep_steps": [
        "In a large skillet over medium heat, combine the onion, garlic, and whiskey. Simmer for 10 minutes, or until onion is translucent. Mix in the ground black pepper, salt, ketchup, tomato paste, vinegar, liquid smoke, Worcestershire sauce, brown sugar, and hot pepper sauce.", 
        "Bring to a boil. Reduce heat to medium-low, and simmer for 20 minutes. Run sauce through a strainer if you prefer a smooth sauce."
    ], 
    "prep_time": "45 mins", 
    "recipe_name": "Bourbon Whiskey BBQ Sauce"
}