{
    "ingredients": [
        {
            "amount": "2 1/4 cups", 
            "ingredient": "all-purpose flour"
        }, 
        {
            "amount": "1 1/4 cups", 
            "ingredient": "white sugar"
        }, 
        {
            "amount": "1 pinch", 
            "ingredient": "salt"
        }, 
        {
            "amount": "2 teaspoons", 
            "ingredient": "baking powder"
        }, 
        {
            "amount": "1/2 cup", 
            "ingredient": "sliced almonds"
        }, 
        {
            "amount": "1 tablespoon", 
            "ingredient": "orange zest"
        }, 
        {
            "amount": "3", 
            "ingredient": "egg, beaten"
        }, 
        {
            "amount": "1 tablespoon", 
            "ingredient": "vegetable oil"
        }, 
        {
            "amount": "1/4 teaspoon", 
            "ingredient": "almond extract"
        }
    ], 
    "prep_steps": [
        "Preheat oven to 350 degrees F (175 degrees C). Grease and flour a baking sheet.", 
        "In a large bowl, stir together flour, sugar, baking powder, salt, almonds, and orange zest. Make a well in the center and add the eggs oil, and almond extract. Stir or mix by hand until the mixture forms a ball.", 
        "Separate dough into 2 pieces and roll each one into a log about 8 inches long. Place logs on prepared baking sheet and flatten so they are about 3/4 inch thick. Bake in preheated oven for 20 to 25 minutes. Cool slightly, and remove from baking sheets. Slice diagonally into 1/2 inch slices with a serrated knife. Set cookies on side back onto the cookie sheet and bake for 10 to 15 more minutes, turning over after half of the time. Finished cookies should be hard and crunchy."
    ], 
    "recipe_name": "Orange Almond Biscotti II"
}