{
    "ingredients": [
        {
            "amount": "2 cups", 
            "ingredient": "graham cracker crumbs"
        }, 
        {
            "amount": "3/4 cup", 
            "ingredient": "white sugar"
        }, 
        {
            "amount": "1/4 pound", 
            "ingredient": "butter, melted"
        }, 
        {
            "amount": "2 (8 ounce) packages", 
            "ingredient": "cream cheese"
        }, 
        {
            "amount": "1 1/2 cups", 
            "ingredient": "confectioners' sugar"
        }, 
        {
            "amount": "4", 
            "ingredient": "bananas, sliced"
        }, 
        {
            "amount": "1 (15 ounce) can", 
            "ingredient": "crushed pineapple, drained"
        }, 
        {
            "amount": "1 (16 ounce) container", 
            "ingredient": "frozen whipped topping, thawed"
        }, 
        {
            "amount": "1 (16 ounce) jar", 
            "ingredient": "maraschino cherries, drained"
        }, 
        {
            "amount": "12 ounces", 
            "ingredient": "crushed peanuts"
        }
    ], 
    "prep_steps": [
        "Combine the graham cracker crumbs, white sugar and melted butter. Mix together and press into a 9x13 inch cake pan; refrigerate until chilled.", 
        "Beat together the cream cheese and confectioners' sugar; spread over graham cracker crust.", 
        "Layer bananas and pineapple over cream cheese mixture; cover fruit with whipped topping.", 
        "Top with cherries and chopped nuts; refrigerate and serve chilled."
    ], 
    "prep_time": "2 hr", 
    "recipe_name": "Southern Style Banana Split Cake"
}