{
    "ingredients": [
        {
            "amount": "1/4 cup", 
            "ingredient": "butter"
        }, 
        {
            "amount": "6 tablespoons", 
            "ingredient": "all-purpose flour"
        }, 
        {
            "amount": "1/2 teaspoon", 
            "ingredient": "garlic powder"
        }, 
        {
            "amount": "1/4 teaspoon", 
            "ingredient": "salt"
        }, 
        {
            "amount": "1/4 teaspoon", 
            "ingredient": "pepper"
        }, 
        {
            "amount": "2 1/2 cups", 
            "ingredient": "milk"
        }, 
        {
            "amount": "3/4 cup", 
            "ingredient": "shredded Cheddar cheese"
        }, 
        {
            "amount": "3/4 cup", 
            "ingredient": "shredded Swiss cheese"
        }, 
        {
            "amount": "6 large", 
            "ingredient": "russet potatoes, sliced into 1/4 inch slices"
        }, 
        {
            "amount": "1 small", 
            "ingredient": "onion, finely chopped"
        }, 
        {
            "amount": "1 pound", 
            "ingredient": "cooked ham, chopped"
        }, 
        {
            "amount": "1 (16 ounce) package", 
            "ingredient": "frozen cauliflower"
        }, 
        {
            "amount": "1/4 cup", 
            "ingredient": "crushed cornflakes cereal"
        }
    ], 
    "prep_steps": [
        "Preheat oven to 375 degrees F (190 degrees C). Lightly grease a medium baking dish.", 
        "To prepare the cheese sauce, melt butter in a medium saucepan over medium heat. Whisk in flour, garlic powder, salt, and pepper. Mix in milk, and stir constantly until thickened. Mix in Cheddar cheese and Swiss cheese, and continue to stir until smooth. Reduce heat to low.", 
        "Layer potatoes in the bottom of the prepared baking dish. Layer onion and ham over potatoes. Top with cauliflower. Cover with the cheese sauce.", 
        "Bake covered 1 hour in the preheated oven. Remove cover, sprinkle with crushed cornflakes, and continue baking 10 minutes, until vegetables are tender and surface is bubbly and lightly browned. Allow to cool about 10 minutes before serving."
    ], 
    "prep_time": "1\u00bd hrs", 
    "recipe_name": "Absolute Best Potato Casserole"
}