{
    "ingredients": [
        {
            "amount": "3/4 cup", 
            "ingredient": "white sugar"
        }, 
        {
            "amount": "1/2 cup", 
            "ingredient": "vinegar"
        }, 
        {
            "amount": "1/2 teaspoon", 
            "ingredient": "salt"
        }, 
        {
            "amount": "1/2 teaspoon", 
            "ingredient": "ground black pepper"
        }, 
        {
            "amount": "1/4 cup", 
            "ingredient": "extra-virgin olive oil"
        }, 
        {
            "amount": "1 bunch", 
            "ingredient": "kale, stems removed and leaves chopped"
        }, 
        {
            "amount": "1/2 (16 ounce) package", 
            "ingredient": "frozen shelled edamame (soybeans), thawed"
        }, 
        {
            "amount": "1/4", 
            "ingredient": "red onion, sliced thin"
        }, 
        {
            "amount": "1 cup", 
            "ingredient": "shredded carrot"
        }, 
        {
            "amount": "2/3 cup", 
            "ingredient": "fresh blueberries"
        }, 
        {
            "amount": "1/2 cup", 
            "ingredient": "sweetened dried cranberries (such as Ocean Spray\u00ae Craisins\u00ae)"
        }, 
        {
            "amount": "1/2 cup", 
            "ingredient": "cashew pieces"
        }, 
        {
            "amount": "1/2 cup", 
            "ingredient": "shelled, roasted sunflower seeds"
        }
    ], 
    "prep_steps": [
        "Whisk sugar, vinegar, salt, pepper, and olive oil together in a bowl until sugar is dissolved; set aside.", 
        "Toss kale, edamame, red onion, carrot, blueberries, dried cranberries, cashew pieces, and sunflower seeds together in a bowl. Pour about half the dressing over the mixture and toss to coat. Cover bowl with plastic wrap and refrigerate 4 to 6 hours. Serve remaining dressing on side."
    ], 
    "prep_time": "4 hrs", 
    "recipe_name": "Super Summer Kale Salad"
}