{
    "ingredients": [
        {
            "amount": "4 slices", 
            "ingredient": "bacon"
        }, 
        {
            "amount": "3/4 cup", 
            "ingredient": "olive oil"
        }, 
        {
            "amount": "1/3 cup", 
            "ingredient": "red wine vinegar"
        }, 
        {
            "amount": "1/4 cup", 
            "ingredient": "white sugar"
        }, 
        {
            "amount": "1 teaspoon", 
            "ingredient": "salt"
        }, 
        {
            "amount": "1 clove", 
            "ingredient": "garlic, minced"
        }, 
        {
            "amount": "2 ounces", 
            "ingredient": "crumbled Gorgonzola cheese"
        }, 
        {
            "amount": "6 cups", 
            "ingredient": "mixed baby greens"
        }, 
        {
            "amount": "2 tablespoons", 
            "ingredient": "toasted sliced almonds"
        }
    ], 
    "prep_steps": [
        "Place the bacon in a large, deep skillet, and cook over medium-high heat, turning occasionally, until evenly browned, about 10 minutes. Drain the bacon slices on a paper towel-lined plate; crumble and set aside.", 
        "Combine the olive oil, red wine vinegar, white sugar, salt, garlic, and Gorgonzola cheese in a blender; blend until smooth. Pour the dressing into a small saucepan over medium-low heat and warm gently.", 
        "Toss the baby greens, almonds, and crumbled bacon together in a salad bowl; drizzle dressing over salad and toss to coat. Serve immediately."
    ], 
    "prep_time": "30 mins", 
    "recipe_name": "Baby Greens with a Warm Gorgonzola Dressing"
}