{
    "ingredients": [
        {
            "amount": "3/4 cup", 
            "ingredient": "kosher salt"
        }, 
        {
            "amount": "1 gallon", 
            "ingredient": "cold water"
        }, 
        {
            "amount": "2 pounds", 
            "ingredient": "peeled and deveined large shrimp (21 to 30 per pound)"
        }, 
        {
            "amount": "1 (16 ounce) package", 
            "ingredient": "angel hair pasta"
        }, 
        {
            "amount": "1/4 cup", 
            "ingredient": "unsalted butter"
        }, 
        {
            "amount": "1/4 cup", 
            "ingredient": "olive oil"
        }, 
        {
            "amount": "3 tablespoons", 
            "ingredient": "minced garlic"
        }, 
        {
            "amount": "1/3 cup", 
            "ingredient": "white wine"
        }, 
        {
            "amount": "1/4 cup", 
            "ingredient": "lemon juice"
        }, 
        {
            "amount": "1/2 teaspoon", 
            "ingredient": "crushed red pepper flakes"
        }, 
        {
            "amount": "1 teaspoon", 
            "ingredient": "freshly ground black pepper"
        }, 
        {
            "amount": "1/2 cup", 
            "ingredient": "chopped fresh parsley"
        }, 
        {
            "amount": "1 tablespoon", 
            "ingredient": "lemon zest"
        }
    ], 
    "prep_steps": [
        "Dissolve the kosher salt in 1 gallon of water in a large pot. Add the shrimp, and refrigerate 2 to 4 hours. Drain and pat shrimp dry with paper towels.", 
        "Fill a large pot with lightly salted water and bring to a rolling boil over high heat. Once the water is boiling, stir in the angel hair pasta, and return to a boil. Cook the pasta uncovered, stirring occasionally, until the pasta has cooked through but is still firm to the bite, 4 to 5 minutes. Drain well in a colander set in the sink.", 
        "Meanwhile, melt the butter and olive oil in a large skillet over medium-low heat. Stir in the garlic, and cook until softened, 3 to 4 minutes. Add the shrimp, white wine, lemon juice, and red pepper flakes. Cook and stir until the shrimp is no longer translucent in the center, about 6 minutes. Stir in the black pepper, parsley, and lemon zest before tossing with the angel hair pasta."
    ], 
    "prep_time": "2\u00bd hrs", 
    "recipe_name": "Lemony Garlic Shrimp with Pasta"
}