{
    "ingredients": [
        {
            "amount": "4 cups", 
            "ingredient": "cranberry juice cocktail"
        }, 
        {
            "amount": "8 cups", 
            "ingredient": "prepared lemonade"
        }, 
        {
            "amount": "2 cups", 
            "ingredient": "orange juice"
        }, 
        {
            "amount": "1 (4 ounce) jar", 
            "ingredient": "maraschino cherries"
        }, 
        {
            "amount": "1 (2 liter) bottle", 
            "ingredient": "ginger ale"
        }, 
        {
            "amount": "1", 
            "ingredient": "orange, sliced in rounds"
        }
    ], 
    "prep_steps": [
        "In a large punch bowl, combine cranberry juice cocktail, lemonade, and orange juice. Stir in the maraschino cherries. Refrigerate for 2 hours or more.", 
        "When ready to serve, pour in the ginger ale. Garnish each glass with an orange slice."
    ], 
    "prep_time": "2\u00bc hrs", 
    "recipe_name": "Holiday Punch I"
}