{
    "ingredients": [
        {
            "amount": "1 pound", 
            "ingredient": "boneless pork shoulder"
        }, 
        {
            "amount": "1 clove", 
            "ingredient": "garlic, crushed"
        }, 
        {
            "amount": "1", 
            "ingredient": "onion, cut into 4 wedges"
        }, 
        {
            "amount": "1", 
            "ingredient": "carrot, peeled and cut into 1 inch pieces"
        }, 
        {
            "amount": "1", 
            "ingredient": "celery, cut into 1 inch pieces"
        }, 
        {
            "amount": "1", 
            "ingredient": "tomato, chopped"
        }, 
        {
            "amount": "1 tablespoon", 
            "ingredient": "chili powder"
        }, 
        {
            "amount": "1 teaspoon", 
            "ingredient": "salt"
        }, 
        {
            "amount": "1/4 teaspoon", 
            "ingredient": "cumin"
        }, 
        {
            "amount": "1/4 teaspoon", 
            "ingredient": "dried oregano"
        }, 
        {
            "amount": "1/4 teaspoon", 
            "ingredient": "pepper"
        }, 
        {
            "amount": "1", 
            "ingredient": "bay leaf"
        }
    ], 
    "prep_steps": [
        "Place pork, garlic, onion, carrot, celery, and tomato in a saucepan. Season with chili powder, salt, cumin, oregano, pepper, and bay leaf; add enough water to cover. Bring to a boil, then reduce to a simmer. Cover and simmer until pork is tender, about two hours. Cool and shred. Use in tacos or tamales."
    ], 
    "prep_time": "2\u00bd hrs", 
    "recipe_name": "Carnitas Filling"
}