{
    "ingredients": [
        {
            "amount": "6 pounds", 
            "ingredient": "pork spareribs"
        }, 
        {
            "amount": "1/2 cup", 
            "ingredient": "packed brown sugar"
        }, 
        {
            "amount": "2 tablespoons", 
            "ingredient": "chili powder"
        }, 
        {
            "amount": "1 tablespoon", 
            "ingredient": "paprika"
        }, 
        {
            "amount": "1 tablespoon", 
            "ingredient": "freshly ground black pepper"
        }, 
        {
            "amount": "2 tablespoons", 
            "ingredient": "garlic powder"
        }, 
        {
            "amount": "2 teaspoons", 
            "ingredient": "onion powder"
        }, 
        {
            "amount": "2 teaspoons", 
            "ingredient": "kosher salt"
        }, 
        {
            "amount": "2 teaspoons", 
            "ingredient": "ground cumin"
        }, 
        {
            "amount": "1 teaspoon", 
            "ingredient": "ground cinnamon"
        }, 
        {
            "amount": "1 teaspoon", 
            "ingredient": "jalapeno seasoning salt"
        }, 
        {
            "amount": "1 teaspoon", 
            "ingredient": "cayenne pepper"
        }, 
        {
            "amount": "1 cup", 
            "ingredient": "apple cider"
        }, 
        {
            "amount": "3/4 cup", 
            "ingredient": "apple cider vinegar"
        }, 
        {
            "amount": "1 tablespoon", 
            "ingredient": "onion powder"
        }, 
        {
            "amount": "1 tablespoon", 
            "ingredient": "garlic powder"
        }, 
        {
            "amount": "2 tablespoons", 
            "ingredient": "lemon juice"
        }, 
        {
            "amount": "1", 
            "ingredient": "jalapeno pepper, finely chopped"
        }, 
        {
            "amount": "3 tablespoons", 
            "ingredient": "hot pepper sauce"
        }, 
        {
            "amount": "2 cups", 
            "ingredient": "wood chips, soaked"
        }
    ], 
    "prep_steps": [
        "In a medium bowl, mix together the brown sugar, chili powder, paprika, black pepper, 2 tablespoons garlic powder, 2 teaspoons onion powder, kosher salt, cumin, cinnamon, jalapeno seasoning, and cayenne pepper. Rub generously onto the pork spareribs. Cover, and refrigerate for at least 4 hours, or overnight.", 
        "Prepare an outdoor grill for indirect heat, or preheat a smoker to 250 degrees F (120 degrees C). While the grill heats up, prepare the mop sauce. In a medium bowl, stir together the apple cider, apple cider vinegar, 1 tablespoon onion powder, 1 tablespoon garlic powder, lemon juice, jalapeno, hot pepper sauce, salt and pepper.", 
        "When the coals are gray and ashed over, place 2 handfuls of soaked woodchips directly on them. Place the ribs on the grill grate bone side down. Cover, and cook for 3 1/2 to 4 hours. Add more coals as needed. Baste with the mop sauce, and throw handfuls of soaked woodchips onto the coals every hour. Keep the temperature of the grill or smoker from going below 225 degrees F (110 degrees C). Ribs are done when the rub has created a wonderful crispy blackened 'bark', and the meat has pulled away from the bone. Discard any leftover mop sauce."
    ], 
    "prep_time": "12 hr", 
    "recipe_name": "Not Your Every Day Smoked Pork Spare Ribs"
}