{
    "ingredients": [
        {
            "amount": "1 (10 ounce) package", 
            "ingredient": "frozen chopped spinach, thawed and squeezed dry"
        }, 
        {
            "amount": "2 (8 ounce) packages", 
            "ingredient": "cream cheese, softened"
        }, 
        {
            "amount": "1 (4 ounce) can", 
            "ingredient": "water chestnuts, drained and chopped"
        }, 
        {
            "amount": "1 (.4 ounce) packet", 
            "ingredient": "dry vegetable soup mix"
        }, 
        {
            "amount": "2 tablespoons", 
            "ingredient": "mayonnaise"
        }, 
        {
            "amount": "1 cup", 
            "ingredient": "finely shredded Cheddar cheese"
        }, 
        {
            "amount": "1/2 cup", 
            "ingredient": "chopped walnuts"
        }
    ], 
    "prep_steps": [
        "In a large bowl, mix together the spinach, cream cheese, water chestnuts, vegetable soup mix, mayonnaise and Cheddar cheese until well blended. Form into a ball, and roll in chopped walnuts. If the mixture is too soft to form a ball, refrigerate for about 30 minutes to set. Wrap the cheese ball in plastic wrap, and refrigerate overnight to blend the flavors before serving with your favorite crackers."
    ], 
    "prep_time": "20 mins", 
    "recipe_name": "Spinach Cheese Ball"
}