{
    "ingredients": [
        {
            "amount": "4 (16 ounce) jars", 
            "ingredient": "peanut butter"
        }, 
        {
            "amount": "3 1/2 (16 ounce) packages", 
            "ingredient": "confectioners' sugar"
        }, 
        {
            "amount": "1 cup", 
            "ingredient": "butter, melted"
        }, 
        {
            "amount": "3 (12 ounce) packages", 
            "ingredient": "semi-sweet chocolate chips"
        }, 
        {
            "amount": "2 tablespoons", 
            "ingredient": "shortening"
        }
    ], 
    "prep_steps": [
        "Blend together the peanut butter, sugar and melted butter. Allow to chill in refrigerator.", 
        "Roll into 1 inch round balls and return to refrigerator.", 
        "In a double boiler over medium heat, melt the chocolate and shortening. Whisk together until smooth.", 
        "With a toothpick inserted in the balls, dip them into the chocolate so they look like buckeyes. Place on waxed paper and allow to set in refrigerator."
    ], 
    "recipe_name": "Buckeye Balls I"
}