{
    "ingredients": [
        {
            "amount": "1 (10 ounce) can", 
            "ingredient": "coconut milk"
        }, 
        {
            "amount": "1/2 cup", 
            "ingredient": "crunchy peanut butter"
        }, 
        {
            "amount": "1/2 small", 
            "ingredient": "onion, grated"
        }, 
        {
            "amount": "1 tablespoon", 
            "ingredient": "dark soy sauce"
        }, 
        {
            "amount": "2 teaspoons", 
            "ingredient": "brown sugar"
        }, 
        {
            "amount": "1/2 teaspoon", 
            "ingredient": "red pepper flakes"
        }
    ], 
    "prep_steps": [
        "In a saucepan over medium heat, combine coconut milk, peanut butter, onion, soy sauce, brown sugar, and pepper flakes. Bring to a boil, stirring frequently. Remove from heat, and keep warm."
    ], 
    "prep_time": "10 mins", 
    "recipe_name": "Satay Sauce"
}