{
    "ingredients": [
        {
            "amount": "1 1/2 cups", 
            "ingredient": "all-purpose flour"
        }, 
        {
            "amount": "1/2 teaspoon", 
            "ingredient": "baking powder"
        }, 
        {
            "amount": "1/2 teaspoon", 
            "ingredient": "salt"
        }, 
        {
            "amount": "1/2 cup", 
            "ingredient": "butter"
        }, 
        {
            "amount": "2/3 cup", 
            "ingredient": "white sugar"
        }, 
        {
            "amount": "3", 
            "ingredient": "egg yolks"
        }, 
        {
            "amount": "1 teaspoon", 
            "ingredient": "vanilla extract"
        }, 
        {
            "amount": "5 tablespoons", 
            "ingredient": "multicolored sprinkles (jimmies)"
        }
    ], 
    "prep_steps": [
        "Preheat oven to 375 degrees F (190 degrees C). Lightly grease baking sheets.", 
        "Sift together flour, baking powder and salt.", 
        "Cream together the butter and sugar. Add the egg yolks and vanilla, beating until light and fluffy. Mix in the dry ingredients.", 
        "Shape into 1 inch balls. Push your thumb through center of each ball and shape dough into a ring. Dip top of each ring in decorating candies. Place cookies onto the prepare baking sheets.", 
        "Bake at 375 degrees F (190 degrees C) for 10 to 12 minutes or until golden brown. Remove from the baking sheets and let cool on racks."
    ], 
    "recipe_name": "Mexican Cookie Rings"
}