{
    "ingredients": [
        {
            "amount": "1 1/2 cups", 
            "ingredient": "margarine"
        }, 
        {
            "amount": "3 cups", 
            "ingredient": "white sugar"
        }, 
        {
            "amount": "1 tablespoon", 
            "ingredient": "vanilla extract"
        }, 
        {
            "amount": "5", 
            "ingredient": "eggs"
        }, 
        {
            "amount": "2 cups", 
            "ingredient": "all-purpose flour"
        }, 
        {
            "amount": "1 cup", 
            "ingredient": "unsweetened cocoa powder"
        }, 
        {
            "amount": "1 teaspoon", 
            "ingredient": "baking powder"
        }, 
        {
            "amount": "1 teaspoon", 
            "ingredient": "salt"
        }, 
        {
            "amount": "24", 
            "ingredient": "small peppermint patties"
        }
    ], 
    "prep_steps": [
        "Mix butter, sugar, and vanilla. Beat in eggs till well blended. Stir in flour, cocoa, baking powder, and salt. Blend well.", 
        "Reserve 2 cups of batter, set aside", 
        "Grease 13x9x2 inch pan. Spread remaining batter in prepared pan. Arrange peppermint patties in a single layer over batter about 1/2 inch apart.", 
        "Spread reserved 2 cups batter over patties. Bake 350 degrees F (175 degrees C) for 50-55 minutes till brownies begin to pull away from sides of pan. Cool completely in pan on wire rack. Enjoy!!!"
    ], 
    "recipe_name": "Peppermint Patty Brownies"
}