{
    "ingredients": [
        {
            "amount": "5 tablespoons", 
            "ingredient": "lemon juice"
        }, 
        {
            "amount": "5 tablespoons", 
            "ingredient": "fresh lime juice"
        }, 
        {
            "amount": "4 tablespoons", 
            "ingredient": "prepared mustard"
        }, 
        {
            "amount": "6", 
            "ingredient": "chicken thighs"
        }, 
        {
            "amount": "3/4 teaspoon", 
            "ingredient": "salt"
        }, 
        {
            "amount": "1/2 teaspoon", 
            "ingredient": "ground black pepper"
        }, 
        {
            "amount": "1/4 teaspoon", 
            "ingredient": "curry powder"
        }, 
        {
            "amount": "1/4 teaspoon", 
            "ingredient": "dried oregano"
        }, 
        {
            "amount": "1 tablespoon", 
            "ingredient": "lemon zest"
        }, 
        {
            "amount": "1 cup", 
            "ingredient": "dried bread crumbs"
        }, 
        {
            "amount": "6 tablespoons", 
            "ingredient": "butter"
        }, 
        {
            "amount": "1", 
            "ingredient": "lemon - sliced, for garnish"
        }, 
        {
            "amount": "1 tablespoon", 
            "ingredient": "chopped fresh parsley, for garnish"
        }
    ], 
    "prep_steps": [
        "Combine lemon and lime juices with the prepared mustard. Brush over chicken. Set aside.", 
        "Combine bread crumbs, salt, pepper, curry powder, oregano, and grated lemon peel. Roll chicken in crumb mix, coating well.", 
        "In a heavy baking pan or iron skillet, melt butter or margarine over medium heat. Place chicken in pan, skin side down.", 
        "Place in a preheated 350 degree F (175 degree C) oven. Bake, uncovered, for 20 minutes. Turn chicken and bake until tender, about 30 more minutes. Serve on a warm platter with sliced lemons and chopped parsley, if desired."
    ], 
    "recipe_name": "Lemon Mustard Chicken"
}