{
    "ingredients": [
        {
            "amount": "2", 
            "ingredient": "green onions, chopped"
        }, 
        {
            "amount": "1", 
            "ingredient": "lemon grass, cut into 1 inch pieces"
        }, 
        {
            "amount": "1 cup", 
            "ingredient": "chopped fresh cilantro"
        }, 
        {
            "amount": "1 cup", 
            "ingredient": "chopped fresh mint leaves"
        }, 
        {
            "amount": "1 cup", 
            "ingredient": "lime juice"
        }, 
        {
            "amount": "1/3 cup", 
            "ingredient": "fish sauce"
        }, 
        {
            "amount": "1 tablespoon", 
            "ingredient": "sweet chili sauce"
        }, 
        {
            "amount": "1/2 cup", 
            "ingredient": "white sugar"
        }, 
        {
            "amount": "1 1/2 pounds", 
            "ingredient": "(1 inch thick) steak fillet"
        }, 
        {
            "amount": "1 head", 
            "ingredient": "leaf lettuce - rinsed, dried and torn into bite-size pieces"
        }, 
        {
            "amount": "1/2", 
            "ingredient": "English cucumber, diced"
        }, 
        {
            "amount": "1 pint", 
            "ingredient": "cherry tomatoes"
        }
    ], 
    "prep_steps": [
        "In a large bowl, stir together the green onions, lemon grass, cilantro, mint leaves, lime juice, fish sauce, chili sauce and sugar until well combined and the sugar is dissolved. Adjust the flavor, if desired, by adding more sugar and/or fish sauce. Set aside.", 
        "Cook the steak over high heat on a preheated grill for approximately 4-6 minutes on each side, until it is cooked medium. Do not overcook the meat! Remove from heat and slice into thin strips. Add the meat and its juices to the sauce and refrigerate, tightly covered, for at least 3 hours.", 
        "Tear the lettuce into bite size pieces and place in a salad bowl. Arrange the cucumber on top of the lettuce, and then pour the meat and sauce over. Top with the cherry tomatoes and garnish with fresh cilantro leaves."
    ], 
    "prep_time": "4 hrs", 
    "recipe_name": "Thai Beef Salad"
}