{
    "ingredients": [
        {
            "amount": "4 (9 inch)", 
            "ingredient": "unbaked pie crusts"
        }, 
        {
            "amount": "2 pounds", 
            "ingredient": "ricotta cheese"
        }, 
        {
            "amount": "6", 
            "ingredient": "eggs"
        }, 
        {
            "amount": "8 ounces", 
            "ingredient": "mozzarella cheese, grated"
        }, 
        {
            "amount": "1 pound", 
            "ingredient": "cooked ham, chopped"
        }, 
        {
            "amount": "1/2 pound", 
            "ingredient": "Genoa salami, chopped"
        }, 
        {
            "amount": "1/4 pound", 
            "ingredient": "prosciutto, chopped"
        }, 
        {
            "amount": "1/4 cup", 
            "ingredient": "grated Parmesan cheese"
        }
    ], 
    "prep_steps": [
        "Preheat oven to 325 degrees F (165 degrees C).", 
        "Place ricotta in a large mixing bowl and add eggs one at a time while mixing on low speed. Stir in mozzarella, ham, salami, and prosciutto until all ingredients are well combined. Line two 9 inch pans with pastry. Spoon half of mixture into each pan. Sprinkle half of the Parmesan cheese over each pie, then cover with top pastry. Crimp edges and cut steam vents in tops.", 
        "Bake in preheated oven for 1 hour, until crust is golden brown. Cool on racks."
    ], 
    "prep_time": "1\u00be hrs", 
    "recipe_name": "Easter Meat Pie"
}