{
    "ingredients": [
        {
            "amount": "1/4 cup", 
            "ingredient": "butter, cubed"
        }, 
        {
            "amount": "2 1/2 cups", 
            "ingredient": "sliced carrots"
        }, 
        {
            "amount": "1 large", 
            "ingredient": "potato, peeled and cubed"
        }, 
        {
            "amount": "1 cup", 
            "ingredient": "chopped onion"
        }, 
        {
            "amount": "1 stalk", 
            "ingredient": "celery, chopped"
        }, 
        {
            "amount": "3 cups", 
            "ingredient": "chicken broth"
        }, 
        {
            "amount": "1 teaspoon", 
            "ingredient": "ground ginger"
        }, 
        {
            "amount": "1/2 cup", 
            "ingredient": "heavy whipping cream"
        }, 
        {
            "amount": "1 teaspoon", 
            "ingredient": "curry powder"
        }, 
        {
            "amount": "1/2 teaspoon", 
            "ingredient": "salt"
        }, 
        {
            "amount": "1/8 teaspoon", 
            "ingredient": "ground black pepper"
        }
    ], 
    "prep_steps": [
        "Heat butter in a Dutch oven over medium heat; add carrots, potato, onion, celery, chicken broth, and ginger. Cover and cook, stirring occasionally, until vegetables are tender, about 30 minutes. Uncover and cool for 15 minutes.", 
        "Transfer soup in batches to a food processor; blend until smooth. Return soup to the Dutch oven; stir in cream. Add curry powder, salt, and black pepper; cook over low heat until heated through, about 10 minutes."
    ], 
    "prep_time": "1\u00bc hrs", 
    "recipe_name": "Cream Of Carrot Soup"
}