{
    "ingredients": [
        {
            "amount": "1/4 cup", 
            "ingredient": "olive oil"
        }, 
        {
            "amount": "2 tablespoons", 
            "ingredient": "brown sugar"
        }, 
        {
            "amount": "1 1/2 tablespoons", 
            "ingredient": "lemon juice"
        }, 
        {
            "amount": "1/2 teaspoon", 
            "ingredient": "cayenne pepper"
        }, 
        {
            "amount": "1/2 teaspoon", 
            "ingredient": "garlic powder"
        }, 
        {
            "amount": "1/2 teaspoon", 
            "ingredient": "dried oregano"
        }, 
        {
            "amount": "1/2 teaspoon", 
            "ingredient": "dried thyme"
        }, 
        {
            "amount": "1 pinch", 
            "ingredient": "salt"
        }, 
        {
            "amount": "1 pinch", 
            "ingredient": "fresh ground black pepper"
        }, 
        {
            "amount": "1 pound", 
            "ingredient": "broccoli florets"
        }
    ], 
    "prep_steps": [
        "Preheat oven to 350 degrees F (175 degrees C).", 
        "In a bowl, mix together the olive oil, brown sugar, lemon juice, cayenne pepper, garlic powder, oregano, thyme, salt, and black pepper until thoroughly combined. Add the broccoli florets, and toss until evenly coated with the seasoning. Spread the broccoli florets out onto an baking sheet with a rim.", 
        "Bake in the preheated oven until the broccoli is just browned on the top, 10 to 15 minutes."
    ], 
    "prep_time": "20 mins", 
    "recipe_name": "Baked Broccoli"
}