{
    "ingredients": [
        {
            "amount": "1/2 cup", 
            "ingredient": "hoisin sauce"
        }, 
        {
            "amount": "4 cloves", 
            "ingredient": "garlic, minced"
        }, 
        {
            "amount": "1 1/2 tablespoons", 
            "ingredient": "soy sauce"
        }, 
        {
            "amount": "1 tablespoon", 
            "ingredient": "grated fresh ginger"
        }, 
        {
            "amount": "1 tablespoon", 
            "ingredient": "red wine vinegar"
        }, 
        {
            "amount": "1 tablespoon", 
            "ingredient": "rice vinegar"
        }, 
        {
            "amount": "1 tablespoon", 
            "ingredient": "sherry vinegar"
        }, 
        {
            "amount": "2 teaspoons", 
            "ingredient": "sesame oil"
        }, 
        {
            "amount": "2 teaspoons", 
            "ingredient": "white sugar"
        }, 
        {
            "amount": "1 1/2 teaspoons", 
            "ingredient": "hot sauce"
        }, 
        {
            "amount": "1/2 teaspoon", 
            "ingredient": "ground white pepper"
        }, 
        {
            "amount": "1/2 teaspoon", 
            "ingredient": "freshly ground black pepper"
        }, 
        {
            "amount": "2 (10 ounce)", 
            "ingredient": "thick bone-in center cut pork chops"
        }, 
        {
            "amount": "1/4 cup", 
            "ingredient": "red wine vinegar"
        }, 
        {
            "amount": "3 tablespoons", 
            "ingredient": "white sugar"
        }, 
        {
            "amount": "2 tablespoons", 
            "ingredient": "hot mustard powder (such as Coleman's \u00ae) or Chinese style, to taste"
        }, 
        {
            "amount": "1", 
            "ingredient": "egg yolk"
        }, 
        {
            "amount": "1/3 cup", 
            "ingredient": "creme fraiche"
        }, 
        {
            "amount": "1 teaspoon", 
            "ingredient": "Dijon mustard"
        }, 
        {
            "amount": "1/4 teaspoon", 
            "ingredient": "ground turmeric"
        }
    ], 
    "prep_steps": [
        "Combine hoisin sauce, garlic, soy sauce, ginger, 1 tablespoon red wine vinegar, rice vinegar, sherry vinegar, sesame oil, 2 teaspoons sugar, hot sauce, white pepper, and black pepper in a large bowl. Whisk thoroughly and set aside.", 
        "Place pork chops in a resealable freezer bag; pour slightly more than 1/2 the marinade into freezer bag over pork chops. Seal bag and refrigerate for 6 to 8 hours. Reserve remaining marinade.", 
        "Combine 1/4 cup red wine vinegar, 3 tablespoons sugar, 2 tablespoons hot mustard powder, and egg yolk in a small saucepan over medium-low heat. Whisk until slightly thickened, about 5 minutes; remove from heat.", 
        "Stir in creme fraiche, Dijon mustard, turmeric, and cayenne pepper. Refrigerate until needed.", 
        "Remove pork chops from marinade and pat dry using paper towel.", 
        "Preheat an outdoor grill for high heat, and lightly oil the grate.", 
        "Cook pork chops on the preheated grill until browned grill marks appear, about 4 minutes per side.", 
        "Move pork chops from directly above heat source. Continue cooking over indirect medium heat, brushing the remaining marinade on each side, until no longer pink inside, about 25 minutes. An instant-read thermometer inserted into the center should read 145 degrees F (63 degrees C). Serve pork chops topped with mustard sauce."
    ], 
    "prep_time": "7 hr", 
    "recipe_name": "Grilled Mongolian Pork Chops"
}