{
    "ingredients": [
        {
            "amount": "1/2 cup", 
            "ingredient": "olive oil"
        }, 
        {
            "amount": "1 large", 
            "ingredient": "onion, chopped"
        }, 
        {
            "amount": "6 cloves", 
            "ingredient": "garlic, minced"
        }, 
        {
            "amount": "1 pinch", 
            "ingredient": "red pepper flakes, or to taste"
        }, 
        {
            "amount": "1 3/4 cups", 
            "ingredient": "half-and-half cream"
        }, 
        {
            "amount": "3 (6.5 ounce) cans", 
            "ingredient": "minced clams, drained with juice reserved"
        }, 
        {
            "amount": "1/4 cup", 
            "ingredient": "grated Parmesan cheese for topping"
        }, 
        {
            "amount": "1 (8 ounce) package", 
            "ingredient": "dried linguine pasta"
        }
    ], 
    "prep_steps": [
        "Heat olive oil in a large skillet over medium-high heat. Add onion and red pepper flakes, and cook stirring constantly until onion is tender. Add garlic, and cook for a couple of minutes, just until fragrant. Pour in the reserved clam juice, and simmer over low heat for 10 minutes.", 
        "Gradually stir the half-and-half cream into the skillet, and simmer for another 20 minutes, but do not boil. At this time, I like to prepare my linguine and garlic bread.", 
        "Bring a large pot of lightly salted water to a boil. Add linguine pasta, and cook for 8 to 10 minutes, until al dente.", 
        "Add clams to the sauce, and cook just until clams are heated through, or they will become tough and chewy. Remove from heat, and serve over linguine pasta. Top with a sprinkle of grated Parmesan cheese."
    ], 
    "prep_time": "1\u00bc hrs", 
    "recipe_name": "Amazing White Clam Sauce"
}