{
    "ingredients": [
        {
            "amount": "1 cup", 
            "ingredient": "butter, softened"
        }, 
        {
            "amount": "1 cup", 
            "ingredient": "white sugar"
        }, 
        {
            "amount": "1 cup", 
            "ingredient": "packed brown sugar"
        }, 
        {
            "amount": "2", 
            "ingredient": "eggs"
        }, 
        {
            "amount": "1", 
            "ingredient": "egg yolk"
        }, 
        {
            "amount": "2 teaspoons", 
            "ingredient": "vanilla extract"
        }, 
        {
            "amount": "1 (18 ounce) jar", 
            "ingredient": "peanut butter"
        }, 
        {
            "amount": "2 cups", 
            "ingredient": "all-purpose flour"
        }, 
        {
            "amount": "1 teaspoon", 
            "ingredient": "baking soda"
        }, 
        {
            "amount": "1/2 teaspoon", 
            "ingredient": "salt"
        }, 
        {
            "amount": "1 cup", 
            "ingredient": "chopped peanuts"
        }
    ], 
    "prep_steps": [
        "In a large bowl, cream butter, white sugar, and brown sugar until smooth. Add the eggs, yolks, and vanilla; mix until fluffy. Stir in peanut butter. Sift together the flour, baking soda, and salt; stir into the peanut butter mixture. Finally, stir in the peanuts. Refrigerate the dough for at least 2 hours.", 
        "Preheat oven to 350 degrees F (175 degrees C). Lightly grease a cookie sheet.", 
        "Roll dough into walnut sized balls. Place on the prepared cookie sheet and flatten slightly with a fork. Bake for 12 to 15 minutes in the preheated oven. Cookies should look dry on top. Allow to cool for a few minutes on the cookie sheet before removing to cool completely on a rack. These cookies taste great when slightly undercooked."
    ], 
    "recipe_name": "The Whole Jar of Peanut Butter Cookies"
}