{
    "ingredients": [
        {
            "amount": "2 (15 ounce) cans", 
            "ingredient": "mixed vegetables, drained"
        }, 
        {
            "amount": "1 small", 
            "ingredient": "onion, diced"
        }, 
        {
            "amount": "1 (10.75 ounce) can", 
            "ingredient": "condensed cream of chicken soup"
        }, 
        {
            "amount": "1 cup", 
            "ingredient": "mayonnaise"
        }, 
        {
            "amount": "1 cup", 
            "ingredient": "shredded white Cheddar cheese"
        }, 
        {
            "amount": "36", 
            "ingredient": "buttery round crackers, crushed"
        }
    ], 
    "prep_steps": [
        "Preheat oven to 350 degrees F (175 degrees C).", 
        "In a medium bowl combine the mixed vegetables, onion, soup, mayonnaise and cheese. Mix well and spread mixture into a 9x13 inch baking dish. Top with the cracker crumbs.", 
        "Bake about 30 minutes, or until browned and bubbly."
    ], 
    "prep_time": "45 mins", 
    "recipe_name": "Mixed Vegetable Casserole"
}