{
    "ingredients": [
        {
            "amount": "2", 
            "ingredient": "ripe tomatoes"
        }, 
        {
            "amount": "1 clove", 
            "ingredient": "garlic"
        }, 
        {
            "amount": "1 tablespoon", 
            "ingredient": "chopped fresh basil"
        }, 
        {
            "amount": "1 pinch", 
            "ingredient": "ground cinnamon"
        }, 
        {
            "amount": "1 teaspoon", 
            "ingredient": "salt"
        }, 
        {
            "amount": "1 pinch", 
            "ingredient": "ground black pepper"
        }, 
        {
            "amount": "1/4 teaspoon", 
            "ingredient": "white sugar"
        }, 
        {
            "amount": "1 teaspoon", 
            "ingredient": "dried oregano"
        }, 
        {
            "amount": "2 tablespoons", 
            "ingredient": "olive oil"
        }, 
        {
            "amount": "1 teaspoon", 
            "ingredient": "chopped fresh parsley"
        }
    ], 
    "prep_steps": [
        "In a food processor, combine the tomatoes, garlic, basil, cinnamon, salt, pepper, sugar, oregano, oil and parsley. Blend without liquifying - should remain a little chunky."
    ], 
    "prep_time": "10 mins", 
    "recipe_name": "Pizza Sauce I"
}