{
    "ingredients": [
        {
            "amount": "2 teaspoons", 
            "ingredient": "canola oil"
        }, 
        {
            "amount": "1 cup", 
            "ingredient": "basmati rice, rinsed"
        }, 
        {
            "amount": "1 (2 inch) piece", 
            "ingredient": "fresh ginger, minced"
        }, 
        {
            "amount": "1", 
            "ingredient": "lemon, juiced and zested"
        }, 
        {
            "amount": "2 cups", 
            "ingredient": "chicken broth"
        }
    ], 
    "prep_steps": [
        "Heat the oil in a pot over medium heat. Cook the rice, ginger, and lemon zest together in the hot oil for about 1 minute; add the lemon juice and chicken broth. Bring the mixture to a boil; cover the pot and allow the mixture to simmer until the liquid is absorbed and the rice is tender, 18 to 20 minutes. Season with salt and pepper."
    ], 
    "prep_time": "30 mins", 
    "recipe_name": "Lemon Basmati Rice"
}