{
    "ingredients": [
        {
            "amount": "1 tablespoon", 
            "ingredient": "butter"
        }, 
        {
            "amount": "1/2 tablespoon", 
            "ingredient": "dried thyme"
        }, 
        {
            "amount": "1/2 cup", 
            "ingredient": "chopped Granny Smith apples"
        }, 
        {
            "amount": "1/4 cup", 
            "ingredient": "Gorgonzola cheese at room temperature, crumbled"
        }, 
        {
            "amount": "2", 
            "ingredient": "thick cut pork chops"
        }, 
        {
            "amount": "1/2 teaspoon", 
            "ingredient": "olive oil"
        }, 
        {
            "amount": "2 cloves", 
            "ingredient": "garlic"
        }, 
        {
            "amount": "1/4 cup", 
            "ingredient": "Gorgonzola cheese"
        }, 
        {
            "amount": "3 tablespoons", 
            "ingredient": "dry sherry"
        }, 
        {
            "amount": "1/8 cup", 
            "ingredient": "heavy cream"
        }, 
        {
            "amount": "1/2 cup", 
            "ingredient": "chicken broth"
        }
    ], 
    "prep_steps": [
        "Preheat oven to 375 degrees F (190 degrees C).", 
        "To make the apple stuffing: In a saute pan or skillet on medium heat, melt the butter and saute thyme, chopped apples, salt and pepper together until the apples are completely softened; about 15 to 20 minutes.", 
        "Place the apple mixture in a bowl and mix in 1/4 cup Gorgonzola cheese. The cheese should liquefy into the stuffing within a couple of minutes.", 
        "To prepare the pork chops: Butterfly the pork chops by slicing them parallel to the plane of the chop from the fat side to the bone. Stuff each one with about 2 to 3 tablespoons of the apple mixture.", 
        "Bake the chops for about 1 hour. Place the chops on a rack with the two stuffing sides pressed together to hold the stuffing inside the chops.", 
        "To make the sauce: Heat the oil in a saute pan or skillet on medium heat, then saute the garlic until transparent, and the cheese until slightly melting. Immediately add the sherry, let cook for a minute until combined, then add the cream and 1/4 cup of the chicken stock, salt and pepper. Stir until well blended. Stir occasionally and reduce the liquid on medium high heat until the sauce begins to toast/caramelize and turn darker brown. Add the remaining 1/4 cup chicken stock, reincorporate the cheese and continue reducing until there is just 1/4 to 1/2 cup of thick liquid remaining."
    ], 
    "prep_time": "1\u00be hrs", 
    "recipe_name": "Stuffed Pork Chops with Gorgonzola and Apple"
}