{
    "ingredients": [
        {
            "amount": "3 tablespoons", 
            "ingredient": "butter"
        }, 
        {
            "amount": "3", 
            "ingredient": "eggs"
        }, 
        {
            "amount": "1 cup", 
            "ingredient": "milk"
        }, 
        {
            "amount": "1 cup", 
            "ingredient": "all-purpose flour"
        }, 
        {
            "amount": "1 teaspoon", 
            "ingredient": "salt"
        }, 
        {
            "amount": "1/2 teaspoon", 
            "ingredient": "ground black pepper"
        }, 
        {
            "amount": "1 teaspoon", 
            "ingredient": "baking powder"
        }, 
        {
            "amount": "1 1/2 teaspoons", 
            "ingredient": "minced garlic"
        }, 
        {
            "amount": "1/2 cup", 
            "ingredient": "chopped fresh mushrooms"
        }, 
        {
            "amount": "1 small", 
            "ingredient": "onion, chopped"
        }, 
        {
            "amount": "4 cups", 
            "ingredient": "shredded Cheddar cheese"
        }, 
        {
            "amount": "1 (10 ounce) package", 
            "ingredient": "frozen chopped spinach, thawed and drained"
        }
    ], 
    "prep_steps": [
        "Preheat the oven to 350 degrees F (175 degrees C). Melt butter in a 9x13 inch baking dish while the oven preheats.", 
        "In a large bowl, whisk together the eggs, milk, flour, salt, pepper, baking powder and garlic until well blended. Add the mushrooms, spinach and cheese, and stir to blend evenly. Tip the baking dish to coat with melted butter, then pour the spinach mixture into the pan.", 
        "Bake for 30 minutes in the preheated oven, until firm and golden. Cut into bars, and serve warm."
    ], 
    "prep_time": "45 mins", 
    "recipe_name": "Spinach Bars"
}