{
    "ingredients": [
        {
            "amount": "1 cup", 
            "ingredient": "all-purpose flour"
        }, 
        {
            "amount": "1 teaspoon", 
            "ingredient": "baking soda"
        }, 
        {
            "amount": "1 teaspoon", 
            "ingredient": "ground cinnamon"
        }, 
        {
            "amount": "1/2 teaspoon", 
            "ingredient": "salt"
        }, 
        {
            "amount": "1 cup", 
            "ingredient": "white sugar"
        }, 
        {
            "amount": "1", 
            "ingredient": "egg"
        }, 
        {
            "amount": "1/4 cup", 
            "ingredient": "vegetable oil"
        }, 
        {
            "amount": "2 cups", 
            "ingredient": "apple - peeled, cored, and chopped"
        }, 
        {
            "amount": "1/2 cup", 
            "ingredient": "chopped walnuts"
        }, 
        {
            "amount": "1/2 cup", 
            "ingredient": "raisins or dates"
        }
    ], 
    "prep_steps": [
        "Preheat oven to 350 degrees F (175 degrees C). Grease and flour an 8x4-inch loaf pan.", 
        "Sift together the flour, baking soda, cinnamon and salt. Set aside.", 
        "In a medium bowl, mix together the sugar, egg, and oil. Stir in the flour mixture just until combined, and fold in the apples, nuts, and raisins.", 
        "Bake for 55 to 60 minutes in the preheated oven, or until a toothpick inserted into the cake comes out clean."
    ], 
    "prep_time": "1\u00bd hrs", 
    "recipe_name": "Grandma's Fresh Apple Cake"
}