{
    "ingredients": [
        {
            "amount": "6", 
            "ingredient": "skinless, boneless chicken breast halves"
        }, 
        {
            "amount": "1/4 cup", 
            "ingredient": "olive oil"
        }, 
        {
            "amount": "1/2 cup", 
            "ingredient": "minced garlic"
        }, 
        {
            "amount": "2 tablespoons", 
            "ingredient": "ground sage"
        }, 
        {
            "amount": "1 pound", 
            "ingredient": "thinly sliced prosciutto"
        }, 
        {
            "amount": "1/4 cup", 
            "ingredient": "butter"
        }, 
        {
            "amount": "1 cup", 
            "ingredient": "dry white wine"
        }, 
        {
            "amount": "1 tablespoon", 
            "ingredient": "chopped fresh sage leaves"
        }, 
        {
            "amount": "1 teaspoon", 
            "ingredient": "cornstarch"
        }
    ], 
    "prep_steps": [
        "Flatten the chicken breasts as much as possible. In a small bowl, combine the oil and garlic and mix together; brush mixture onto each chicken piece. Season with salt, pepper and sage and top with thin layers of prosciutto. Roll up and secure with toothpicks.", 
        "In a large skillet, melt butter over medium high heat and saute rolls evenly on all sides until nicely browned, about 10 minutes.", 
        "Pour in the wine; season with fresh sage, salt and pepper. Reduce heat to medium low, over and simmer until rolls are cooked through and tender, 15 to 20 minutes. Thicken wine sauce with cornstarch and water as needed, heat through and serve."
    ], 
    "prep_time": "45 mins", 
    "recipe_name": "Saltimbocca alla Pollo"
}