{
    "ingredients": [
        {
            "amount": "1 (3 pound)", 
            "ingredient": "whole chicken"
        }, 
        {
            "amount": "1", 
            "ingredient": "onion, quartered"
        }, 
        {
            "amount": "2 slices", 
            "ingredient": "lemon"
        }, 
        {
            "amount": "3 cups", 
            "ingredient": "water"
        }, 
        {
            "amount": "1", 
            "ingredient": "bay leaf"
        }, 
        {
            "amount": "1/2 teaspoon", 
            "ingredient": "dried thyme"
        }, 
        {
            "amount": "2 cups", 
            "ingredient": "all-purpose flour"
        }, 
        {
            "amount": "3 tablespoons", 
            "ingredient": "shortening"
        }, 
        {
            "amount": "1 teaspoon", 
            "ingredient": "salt"
        }, 
        {
            "amount": "1/4 cup", 
            "ingredient": "water"
        }
    ], 
    "prep_steps": [
        "In a heavy pot with a lid place the chicken, onion, lemon, salt, pepper, water, bay leaf and thyme. Simmer all over low heat until tender, about 1 hour.", 
        "Let chicken cool slightly in pot, then remove and take the meat off of the bones. Discard the bones and skin and skim excess fat off the broth if desired. Discard the onion, lemon and bay leaf. If desired, wash out pot well. Return broth and chicken pieces to the pot. Simmer over low heat while making the dumplings.", 
        "To Make Dumplings: In a medium mixing bowl, cut shortening into the flour and salt. Stir in 1/4 cup water (more if needed) to form a soft dough. Roll out dough on a floured surface, with a rolling pin, until very thin. Cut into 1 inch wide strips using a pizza cutter or knife. Tear off 1 inch long pieces from these strips and drop into simmering broth and chicken meat. Simmer for 10 minutes with the lid off, then 10 minutes more with the lid on. Serve immediately."
    ], 
    "recipe_name": "Southern Style Chicken and Dumplings"
}