{
    "ingredients": [
        {
            "amount": "3", 
            "ingredient": "eggs, beaten"
        }, 
        {
            "amount": "2 cups", 
            "ingredient": "white sugar"
        }, 
        {
            "amount": "1 teaspoon", 
            "ingredient": "vanilla extract"
        }, 
        {
            "amount": "1 cup", 
            "ingredient": "vegetable oil"
        }, 
        {
            "amount": "2 cups", 
            "ingredient": "grated zucchini"
        }, 
        {
            "amount": "3 cups", 
            "ingredient": "all-purpose flour"
        }, 
        {
            "amount": "1 teaspoon", 
            "ingredient": "baking soda"
        }, 
        {
            "amount": "1 teaspoon", 
            "ingredient": "baking powder"
        }, 
        {
            "amount": "1 teaspoon", 
            "ingredient": "salt"
        }, 
        {
            "amount": "1/2 cup", 
            "ingredient": "raisins"
        }, 
        {
            "amount": "1 cup", 
            "ingredient": "chopped pecans"
        }, 
        {
            "amount": "1 cup", 
            "ingredient": "crushed pineapple, drained"
        }
    ], 
    "prep_steps": [
        "Mix together the eggs, sugar, vanilla, oil, and zucchini in a large bowl.", 
        "In a separate bowl mix together the flour, soda, baking powder, and salt. Add to the zucchini batter and mix well. Stir in raisins, nuts, and pineapple until just blended. Pour into 2-9x5x3 inch loaf pans.", 
        "Bake in a preheated 325 degree F (165 degrees C) for one hour, or until browned."
    ], 
    "prep_time": "1\u00bd hrs", 
    "recipe_name": "Zucchini Pineapple Bread II"
}