{
    "ingredients": [
        {
            "amount": "1 (15 ounce) container", 
            "ingredient": "ricotta cheese"
        }, 
        {
            "amount": "2", 
            "ingredient": "eggs"
        }, 
        {
            "amount": "2 cups", 
            "ingredient": "shredded Cheddar cheese"
        }, 
        {
            "amount": "1 cup", 
            "ingredient": "shredded mozzarella cheese"
        }, 
        {
            "amount": "1 cup", 
            "ingredient": "grated Parmesan cheese"
        }, 
        {
            "amount": "1 medium", 
            "ingredient": "onion, minced"
        }, 
        {
            "amount": "1 tablespoon", 
            "ingredient": "minced garlic"
        }, 
        {
            "amount": "2 tablespoons", 
            "ingredient": "chopped fresh parsley"
        }, 
        {
            "amount": "1 teaspoon", 
            "ingredient": "freshly ground black pepper"
        }, 
        {
            "amount": "2 (16 ounce) jars", 
            "ingredient": "Alfredo pasta sauce"
        }, 
        {
            "amount": "16", 
            "ingredient": "no-boil lasagna noodles"
        }, 
        {
            "amount": "2 pounds", 
            "ingredient": "cooked and cubed lobster meat"
        }, 
        {
            "amount": "1 (10 ounce) package", 
            "ingredient": "baby spinach leaves"
        }
    ], 
    "prep_steps": [
        "Preheat the oven to 375 degrees F (190 degrees C). Grease a 9x13 inch baking dish.", 
        "In a large bowl, stir together the ricotta cheese, eggs, half of the Cheddar, half of the mozzarella cheese and half of the Parmesan cheese. Mix in the onion, garlic, parsley and pepper.", 
        "Spread 1 1/2 cups of Alfredo sauce in the bottom of the prepared baking dish. Top with a layer of lasagna noodles. Arrange 1/3 of the lobster meat over the noodles, cover with 1/3 of the ricotta cheese mixture, then 1/3 of the spinach and then another layer of Alfredo sauce. Repeat this process two more times ending with sauce on top. Sprinkle the remainder of the Cheddar, mozzarella and Parmesan cheeses over the top. Give the whole pan a gentle shake to get everything settled in.", 
        "Bake, covered loosely with aluminum foil, for 45 minutes in the preheated oven. Remove the foil and continue baking for an additional 10 minutes or until the top is browned. Let stand for 10 minutes before serving."
    ], 
    "prep_time": "2 hrs", 
    "recipe_name": "Maine Lobster Lasagna"
}