{
    "ingredients": [
        {
            "amount": "1 1/2 cups", 
            "ingredient": "white sugar"
        }, 
        {
            "amount": "1 (14 ounce) can", 
            "ingredient": "sweetened condensed milk"
        }, 
        {
            "amount": "1 (12 fluid ounce) can", 
            "ingredient": "evaporated milk"
        }, 
        {
            "amount": "1/2 cup", 
            "ingredient": "milk"
        }, 
        {
            "amount": "6", 
            "ingredient": "eggs"
        }, 
        {
            "amount": "1/2 cup", 
            "ingredient": "fresh shredded coconut"
        }
    ], 
    "prep_steps": [
        "Preheat oven to 350 degrees F (175 degrees C).", 
        "Place 1 cup of the sugar in a small saucepan over medium heat. Cook gently, without stirring, but shaking occasionally until the sugar has melted. Continue cooking until the sugar has completely melted, and turned golden brown. Pour into a large, glass baking dish. Spread the caramel evenly over the bottom of the dish, then set aside to cool for 15 minutes before proceeding.", 
        "Once the caramel has hardened, pour the condensed milk, evaporated milk, milk, eggs, 1/2 cup sugar, and coconut into a blender. Blend for 3 minutes until smooth. Pour into baking dish over the caramel.", 
        "Bake in preheated oven for 45 minutes until set. When done, remove from oven and let cool for 30 minutes. Run a knife around the edges of the dish to separate the flan from the sides. Refrigerate overnight."
    ], 
    "prep_time": "9 hrs", 
    "recipe_name": "Flan de Coco (Coconut Flan)"
}