{
    "ingredients": [
        {
            "amount": "1 (10.75 ounce) can", 
            "ingredient": "condensed cream of mushroom soup"
        }, 
        {
            "amount": "3/4 cup", 
            "ingredient": "milk"
        }, 
        {
            "amount": "1/4 cup", 
            "ingredient": "grated Parmesan cheese"
        }, 
        {
            "amount": "1/8 teaspoon", 
            "ingredient": "ground black pepper"
        }, 
        {
            "amount": "2 cups", 
            "ingredient": "broccoli florets"
        }, 
        {
            "amount": "1/8 teaspoon", 
            "ingredient": "garlic powder"
        }, 
        {
            "amount": "2", 
            "ingredient": "carrots, sliced thin"
        }, 
        {
            "amount": "1 1/2 cups", 
            "ingredient": "farfalle pasta"
        }, 
        {
            "amount": "2 (5 ounce) cans", 
            "ingredient": "chicken chunks, drained"
        }
    ], 
    "prep_steps": [
        "Cook pasta in boiling water until al dente. Drain.", 
        "Meanwhile, prepare the cream sauce. In a medium saucepan mix together cream of mushroom soup, milk, Parmesan Cheese, pepper, broccoli, garlic powder, and carrots. Bring to a boil over medium heat. Reduce heat to low and cover. Simmer for 10 minutes, or until vegetables are tender. Stir occasionally.", 
        "Stir pasta and chicken into cream sauce, and heat through."
    ], 
    "recipe_name": "Chicken and Pasta Primavera"
}