{
    "ingredients": [
        {
            "amount": "4", 
            "ingredient": "skinless, boneless chicken breasts"
        }, 
        {
            "amount": "2 tablespoons", 
            "ingredient": "vegetable oil"
        }, 
        {
            "amount": "1/2 cup", 
            "ingredient": "chopped celery"
        }, 
        {
            "amount": "1/2 cup", 
            "ingredient": "chopped onion"
        }, 
        {
            "amount": "1 (10.75 ounce) can", 
            "ingredient": "condensed cream of chicken soup"
        }, 
        {
            "amount": "1 (10.75 ounce) can", 
            "ingredient": "condensed cream of celery soup"
        }, 
        {
            "amount": "2 tablespoons", 
            "ingredient": "Worcestershire sauce"
        }, 
        {
            "amount": "2 tablespoons", 
            "ingredient": "soy sauce"
        }, 
        {
            "amount": "2 cups", 
            "ingredient": "water"
        }, 
        {
            "amount": "1/2 cup", 
            "ingredient": "uncooked white rice"
        }, 
        {
            "amount": "1 (4.5 ounce) can", 
            "ingredient": "mushrooms, drained"
        }
    ], 
    "prep_steps": [
        "Preheat oven to 350 degrees F (175 degrees C).", 
        "In a large skillet, brown chicken breasts in oil until golden. Remove from skillet and set aside.", 
        "Saute celery and onion for 2 to 3 minutes, until translucent. Add cream of chicken soup, cream of celery soup, Worcestershire sauce, soy sauce and water. Heat until mixture is hot and bubbly. Add uncooked rice and mushrooms and stir all together to mix well.", 
        "Pour mixture into a 9x13 inch baking dish, place browned chicken on top and bake, covered, in preheated oven for about 1 1/2 hours."
    ], 
    "recipe_name": "Soy Sauce Chicken and Rice"
}