{
    "ingredients": [
        {
            "amount": "2 (15 ounce) cans", 
            "ingredient": "cannellini beans, rinsed and drained"
        }, 
        {
            "amount": "1/3 cup", 
            "ingredient": "chopped fresh cilantro"
        }, 
        {
            "amount": "3 cloves", 
            "ingredient": "garlic, crushed or to taste"
        }, 
        {
            "amount": "1/3 cup", 
            "ingredient": "olive oil"
        }, 
        {
            "amount": "1 1/2", 
            "ingredient": "lemons, juiced"
        }
    ], 
    "prep_steps": [
        "In a food processor, combine the cannellini beans, cilantro, garlic, olive oil and lemon juice. Process until smooth, or to your desired consistency. Taste, and season with salt and pepper."
    ], 
    "prep_time": "10 mins", 
    "recipe_name": "White Bean Dip"
}