{
    "ingredients": [
        {
            "amount": "1 pound", 
            "ingredient": "cube steak"
        }, 
        {
            "amount": "2 tablespoons", 
            "ingredient": "vegetable oil"
        }, 
        {
            "amount": "1 medium", 
            "ingredient": "onion, sliced"
        }, 
        {
            "amount": "1 clove", 
            "ingredient": "garlic, minced"
        }, 
        {
            "amount": "1", 
            "ingredient": "green bell pepper, sliced"
        }, 
        {
            "amount": "2 cups", 
            "ingredient": "water"
        }
    ], 
    "prep_steps": [
        "Preheat oven to 350 degrees F (175 degrees C).", 
        "Season the steak with salt and pepper to taste. Dredge in the flour and shake off the excess. Heat the oil in a frying pan over medium-high heat. Brown the steaks in the oil, then transfer to a large, shallow casserole dish. Sprinkle the garlic, onion, and green pepper over top, pour in water, and wrap with aluminum foil.", 
        "Bake in preheated oven until steak is tender and vegetables are soft, about 1 1/2 hours."
    ], 
    "prep_time": "1\u00be hrs", 
    "recipe_name": "Poor Man's Pepper Steak"
}