{
    "ingredients": [
        {
            "amount": "3 (8 ounce) packages", 
            "ingredient": "linguine pasta"
        }, 
        {
            "amount": "2 tablespoons", 
            "ingredient": "olive oil"
        }, 
        {
            "amount": "1", 
            "ingredient": "onion, chopped"
        }, 
        {
            "amount": "2", 
            "ingredient": "skinless, boneless chicken breasts, cut into strips"
        }, 
        {
            "amount": "1 pound", 
            "ingredient": "shrimp, peeled and deveined"
        }, 
        {
            "amount": "1 tablespoon", 
            "ingredient": "sugar"
        }, 
        {
            "amount": "1 tablespoon", 
            "ingredient": "Cajun seasoning"
        }, 
        {
            "amount": "1 tablespoon", 
            "ingredient": "paprika"
        }, 
        {
            "amount": "1 teaspoon", 
            "ingredient": "garlic powder"
        }, 
        {
            "amount": "1 teaspoon", 
            "ingredient": "dried oregano"
        }, 
        {
            "amount": "1 teaspoon", 
            "ingredient": "salt"
        }, 
        {
            "amount": "1 tablespoon", 
            "ingredient": "Louisiana-style hot sauce"
        }, 
        {
            "amount": "1 pound", 
            "ingredient": "kielbasa, cut into 1/4-inch slices"
        }, 
        {
            "amount": "1 (28 ounce) can", 
            "ingredient": "diced tomatoes, undrained"
        }, 
        {
            "amount": "1 tablespoon", 
            "ingredient": "cornstarch"
        }, 
        {
            "amount": "2 tablespoons", 
            "ingredient": "cold water"
        }
    ], 
    "prep_steps": [
        "Fill a large pot with lightly salted water and bring to a rolling boil over high heat. Once the water is boiling, stir in the linguine, and return to a boil. Cook the pasta uncovered, stirring occasionally, until the pasta has cooked through, but is still firm to the bite, about 11 minutes. Drain well in a colander set in the sink.", 
        "Heat the oil in a large skillet over high heat; cook and stir the onion in the oil until translucent, about 5 minutes. Add the chicken, shrimp, sugar, Cajun seasoning, paprika, garlic powder, oregano, salt, and hot sauce and cook until the chicken is no longer pink in the center and the juices run clear, 8 to 10 minutes. Stir in the kielbasa and diced tomatoes. Whisk together the cornstarch and cold water in a small bowl until smooth; pour into the skillet. Reduce heat to medium and simmer until thickened, about 10 minutes. Ladle over the linguine."
    ], 
    "prep_time": "50 mins", 
    "recipe_name": "Jambalasta"
}