{
    "ingredients": [
        {
            "amount": "2 1/4 cups", 
            "ingredient": "all-purpose flour"
        }, 
        {
            "amount": "1 tablespoon", 
            "ingredient": "baking soda"
        }, 
        {
            "amount": "1 cup", 
            "ingredient": "butter"
        }, 
        {
            "amount": "3/4 cup", 
            "ingredient": "white sugar"
        }, 
        {
            "amount": "3/4 cup", 
            "ingredient": "packed brown sugar"
        }, 
        {
            "amount": "1/4 cup", 
            "ingredient": "peanut butter"
        }, 
        {
            "amount": "3", 
            "ingredient": "eggs"
        }, 
        {
            "amount": "3 tablespoons", 
            "ingredient": "vanilla extract"
        }, 
        {
            "amount": "1/2 cup", 
            "ingredient": "chopped walnuts"
        }
    ], 
    "prep_steps": [
        "Preheat oven to 350 degrees F (175 degrees C).", 
        "Sift together the flour, and baking soda, set aside. In a medium bowl, cream the white sugar and brown sugar with the butter. Stir in the eggs, one at a time, then the vanilla and peanut butter. Add the dry ingredients to the creamed mixture and stir until combined. Finally, stir in the nuts.", 
        "Drop by heaping teaspoonfuls onto cookie sheets. Bake for 12 to 15 minutes in the preheated oven. Cool on wire racks."
    ], 
    "recipe_name": "Better Butter Cookies"
}