{
    "ingredients": [
        {
            "amount": "2 cups", 
            "ingredient": "water"
        }, 
        {
            "amount": "1 cup", 
            "ingredient": "quinoa"
        }, 
        {
            "amount": "1 pinch", 
            "ingredient": "salt"
        }, 
        {
            "amount": "1/4 cup", 
            "ingredient": "olive oil"
        }, 
        {
            "amount": "1/2 teaspoon", 
            "ingredient": "sea salt"
        }, 
        {
            "amount": "1/4 cup", 
            "ingredient": "lemon juice"
        }, 
        {
            "amount": "3", 
            "ingredient": "tomatoes, diced"
        }, 
        {
            "amount": "1", 
            "ingredient": "cucumber, diced"
        }, 
        {
            "amount": "2 bunches", 
            "ingredient": "green onions, diced"
        }, 
        {
            "amount": "2", 
            "ingredient": "carrots, grated"
        }, 
        {
            "amount": "1 cup", 
            "ingredient": "fresh parsley, chopped"
        }
    ], 
    "prep_steps": [
        "In a saucepan bring water to a boil. Add quinoa and a pinch of salt. Reduce heat to low, cover and simmer for 15 minutes. Allow to cool to room temperature; fluff with a fork.", 
        "Meanwhile, in a large bowl, combine olive oil, sea salt, lemon juice, tomatoes, cucumber, green onions, carrots and parsley. Stir in cooled quinoa."
    ], 
    "prep_time": "30 mins", 
    "recipe_name": "Quinoa Tabbouleh"
}