{
    "ingredients": [
        {
            "amount": "4", 
            "ingredient": "skinless, boneless chicken breast halves"
        }, 
        {
            "amount": "4 tablespoons", 
            "ingredient": "margarine"
        }, 
        {
            "amount": "2 tablespoons", 
            "ingredient": "chicken bouillon granules"
        }
    ], 
    "prep_steps": [
        "Melt margarine in a medium skillet over medium heat. Stir in bouillon granules; when melted together, add chicken and brown, turning often. If necessary, add a little more margarine and bouillon. Cook for about 20 minutes, or until chicken is cooked through and juices run clear."
    ], 
    "prep_time": "25 mins", 
    "recipe_name": "Chicken with Bouillon"
}