{
    "ingredients": [
        {
            "amount": "1 (14.5 ounce) can", 
            "ingredient": "green beans, drained"
        }, 
        {
            "amount": "1 (14.5 ounce) can", 
            "ingredient": "wax beans, drained"
        }, 
        {
            "amount": "1 (15.25 ounce) can", 
            "ingredient": "red kidney beans, drained"
        }, 
        {
            "amount": "1 (15 ounce) can", 
            "ingredient": "garbanzo beans, drained"
        }, 
        {
            "amount": "1 (15 ounce) can", 
            "ingredient": "black beans, drained"
        }, 
        {
            "amount": "1", 
            "ingredient": "red onion, chopped"
        }, 
        {
            "amount": "1", 
            "ingredient": "green bell pepper, chopped"
        }, 
        {
            "amount": "3/4 cup", 
            "ingredient": "red wine vinegar"
        }, 
        {
            "amount": "3/4 cup", 
            "ingredient": "white sugar"
        }, 
        {
            "amount": "3/4 cup", 
            "ingredient": "vegetable oil"
        }, 
        {
            "amount": "3/4 teaspoon", 
            "ingredient": "ground dry mustard"
        }, 
        {
            "amount": "1/2 teaspoon", 
            "ingredient": "dried tarragon"
        }, 
        {
            "amount": "1 1/2 teaspoons", 
            "ingredient": "dried cilantro"
        }
    ], 
    "prep_steps": [
        "In a large bowl, layer the beans, onion and green pepper. Set aside.", 
        "In a small saucepan, mix the vinegar, sugar, oil, mustard, tarragon and cilantro. Cook and stir over medium heat until sugar dissolves. Remove from heat and pour over bean mixture. Stir until all ingredients are coated. This is best if it is left to marinate for a few hours in the refrigerator, and stirred occasionally."
    ], 
    "prep_time": "35 mins", 
    "recipe_name": "Three Bean Salad I"
}