{
    "ingredients": [
        {
            "amount": "2 (2 pound)", 
            "ingredient": "boneless pork loin roast"
        }, 
        {
            "amount": "2 cups", 
            "ingredient": "apple juice"
        }, 
        {
            "amount": "1/2 cup", 
            "ingredient": "apple butter"
        }, 
        {
            "amount": "1/4 cup", 
            "ingredient": "brown sugar"
        }, 
        {
            "amount": "2 tablespoons", 
            "ingredient": "water"
        }, 
        {
            "amount": "1/4 teaspoon", 
            "ingredient": "ground cinnamon"
        }, 
        {
            "amount": "1/4 teaspoon", 
            "ingredient": "ground cloves"
        }
    ], 
    "prep_steps": [
        "Preheat the oven to 350 degrees F (175 degrees C).", 
        "Season the pork loins with seasoning salt, and place them in a 9x13 inch baking dish or small roasting pan. Pour apple juice over the pork, and cover the dish with a lid or aluminum foil.", 
        "Bake for 1 hour in the preheated oven. While the pork is roasting, mix together the apple butter, brown sugar, water, cinnamon, and cloves. Remove pork roasts from the oven, and spread with apple butter mixture.", 
        "Cover, and return to the oven for 2 hours, or until fork-tender."
    ], 
    "prep_time": "3 hrs", 
    "recipe_name": "Apple Butter Pork Loin"
}