{
    "ingredients": [
        {
            "amount": "1 (2 pound)", 
            "ingredient": "beef round roast"
        }, 
        {
            "amount": "2 large", 
            "ingredient": "carrots, chopped"
        }, 
        {
            "amount": "1 large", 
            "ingredient": "onion, thinly sliced"
        }, 
        {
            "amount": "2 stalks", 
            "ingredient": "celery, chopped"
        }, 
        {
            "amount": "1 teaspoon", 
            "ingredient": "garlic powder"
        }, 
        {
            "amount": "1/2 cup", 
            "ingredient": "Worcestershire sauce"
        }, 
        {
            "amount": "1/2 cup", 
            "ingredient": "barbeque sauce"
        }
    ], 
    "prep_steps": [
        "Place beef round roast in slow cooker, then add carrots, onion, and celery. Season with garlic powder and black pepper. Pour Worcestershire and barbeque sauce over meat and vegetables. Cook on Low until the meat is tender, 6 to 8 hours."
    ], 
    "prep_time": "6 hrs", 
    "recipe_name": "Slow Cooker Beef Roast"
}