{
    "ingredients": [
        {
            "amount": "1 pound", 
            "ingredient": "dried great Northern beans, soaked overnight"
        }, 
        {
            "amount": "1/2 pound", 
            "ingredient": "cooked ham, chopped"
        }, 
        {
            "amount": "1/2 cup", 
            "ingredient": "brown sugar"
        }, 
        {
            "amount": "1 tablespoon", 
            "ingredient": "onion powder"
        }, 
        {
            "amount": "1 tablespoon", 
            "ingredient": "dried parsley"
        }, 
        {
            "amount": "1/2 teaspoon", 
            "ingredient": "garlic salt"
        }, 
        {
            "amount": "1/2 teaspoon", 
            "ingredient": "black pepper"
        }, 
        {
            "amount": "1/4 teaspoon", 
            "ingredient": "cayenne pepper"
        }
    ], 
    "prep_steps": [
        "Combine the beans, ham, brown sugar, onion powder, parsley, garlic salt, black pepper, and cayenne pepper in a slow cooker. Pour enough water into the slow cooker to cover the mixture by about 2 inches. Set slow cooker to Low; simmer 12 hours, stirring occasionally."
    ], 
    "prep_time": "20 hrs", 
    "recipe_name": "Slow Cooker Ham and Beans"
}