{
    "ingredients": [
        {
            "amount": "1 gallon", 
            "ingredient": "boiling water"
        }, 
        {
            "amount": "6", 
            "ingredient": "black tea bags"
        }, 
        {
            "amount": "1 1/2 cups", 
            "ingredient": "white sugar"
        }, 
        {
            "amount": "4", 
            "ingredient": "limes, juiced"
        }
    ], 
    "prep_steps": [
        "Pour the water into a gallon sized jar over the tea bags. Allow to steep for 45 minutes. Remove and discard the tea bags. Stir in the sugar and lime juice until the sugar has dissolved. Cool to room temperature; refrigerate until cold before serving."
    ], 
    "prep_time": "4 hr", 
    "recipe_name": "Sweet Lime Iced Tea"
}