{
    "ingredients": [
        {
            "amount": "1 pound", 
            "ingredient": "lean ground beef"
        }, 
        {
            "amount": "1", 
            "ingredient": "onion, chopped"
        }, 
        {
            "amount": "2 (15 ounce) cans", 
            "ingredient": "tomato sauce"
        }, 
        {
            "amount": "1/4 cup", 
            "ingredient": "white sugar"
        }, 
        {
            "amount": "1/4 cup", 
            "ingredient": "butter"
        }, 
        {
            "amount": "2 teaspoons", 
            "ingredient": "dried oregano"
        }, 
        {
            "amount": "1/4 tablespoon", 
            "ingredient": "dried basil"
        }, 
        {
            "amount": "1 pinch", 
            "ingredient": "garlic powder"
        }
    ], 
    "prep_steps": [
        "Saute the beef and onion. Drain.", 
        "Stir in the tomato sauce, butter and sugar. Add the oregano, basil, salt, pepper and garlic powder to taste. Cook over low heat until hot."
    ], 
    "recipe_name": "Spaghetti Sauce I"
}