{
    "ingredients": [
        {
            "amount": "2 cups", 
            "ingredient": "pitted cherries"
        }, 
        {
            "amount": "2 cups", 
            "ingredient": "blueberries, rinsed and drained"
        }, 
        {
            "amount": "1 1/4 cups", 
            "ingredient": "white sugar"
        }, 
        {
            "amount": "1/4 cup", 
            "ingredient": "all-purpose flour"
        }, 
        {
            "amount": "1 tablespoon", 
            "ingredient": "ground cinnamon"
        }, 
        {
            "amount": "1/2 teaspoon", 
            "ingredient": "lemon juice"
        }, 
        {
            "amount": "1 tablespoon", 
            "ingredient": "butter"
        }, 
        {
            "amount": "1 recipe", 
            "ingredient": "pastry for a 9 inch double crust pie"
        }
    ], 
    "prep_steps": [
        "Mix sugar, flour, and cinnamon in large bowl. Add fruit. Add lemon juice, and stir well.", 
        "Pour into a 9 inch unbaked pie shell. Dot with the butter or margarine. Cover with top crust and flute edges. Cut small slits in the top.", 
        "Bake at 375 degrees F (190 degrees C) for 1 hour. I put a baking sheet under mine to catch any liquid that might bubble over."
    ], 
    "recipe_name": "Blueberry Cherry Pie"
}