{
    "ingredients": [
        {
            "amount": "1/4 cup", 
            "ingredient": "honey"
        }, 
        {
            "amount": "3 tablespoons", 
            "ingredient": "lime juice"
        }, 
        {
            "amount": "2 cloves", 
            "ingredient": "garlic, minced"
        }, 
        {
            "amount": "1 pound", 
            "ingredient": "tilapia fillets"
        }, 
        {
            "amount": "1", 
            "ingredient": "butternut squash - peeled, seeded and sliced"
        }, 
        {
            "amount": "1 bunch", 
            "ingredient": "fresh asparagus spears, trimmed and chopped"
        }, 
        {
            "amount": "1/2 cup", 
            "ingredient": "mozzarella cheese"
        }
    ], 
    "prep_steps": [
        "In a large bowl, mix the honey, lime juice, and garlic. Season tilapia with salt and pepper, place in the bowl, and marinate 1 hour in the refrigerator.", 
        "Preheat oven to 350 degrees F (175 degrees C). Lightly grease a medium baking dish.", 
        "Arrange the squash and asparagus in the baking dish. Place tilapia on top of vegetables, and season with poultry seasoning. Discard remaining marinade.", 
        "Bake 20 minutes in the preheated oven, until vegetables are tender and fish is easily flaked. Sprinkle with mozzarella, and continue baking 5 minutes, or until cheese is lightly browned."
    ], 
    "prep_time": "1\u00be hrs", 
    "recipe_name": "Honey Lime Tilapia"
}