{
    "ingredients": [
        {
            "amount": "1 (18.25 ounce) package", 
            "ingredient": "yellow cake mix"
        }, 
        {
            "amount": "1 cup", 
            "ingredient": "non dairy amaretto flavored creamer"
        }, 
        {
            "amount": "1 cup", 
            "ingredient": "amaretto liqueur"
        }, 
        {
            "amount": "3", 
            "ingredient": "eggs"
        }, 
        {
            "amount": "1/3 cup", 
            "ingredient": "vegetable oil"
        }, 
        {
            "amount": "1 (3.5 ounce) package", 
            "ingredient": "instant vanilla pudding mix"
        }, 
        {
            "amount": "1 cup", 
            "ingredient": "non dairy amaretto flavored creamer"
        }, 
        {
            "amount": "1/4 cup", 
            "ingredient": "amaretto liqueur"
        }, 
        {
            "amount": "2 cups", 
            "ingredient": "heavy cream, whipped"
        }, 
        {
            "amount": "4 (1.4 ounce) bars", 
            "ingredient": "chocolate covered toffee bars, chopped"
        }, 
        {
            "amount": "1 (1.5 ounce) bar", 
            "ingredient": "chocolate candy bar, melted"
        }, 
        {
            "amount": "1/2 cup", 
            "ingredient": "sliced almonds"
        }
    ], 
    "prep_steps": [
        "Preheat oven to 325 degrees F (165 degrees C). Grease and flour three 8- inch pans.", 
        "Mix together the cake mix, 1 cup amaretto flavored creamer, 1 cup amaretto liqueur, eggs and oil until blended. Distribute cake batter evenly between the cake pans. Bake in the preheated oven for 15 minutes, making certain the cake layers do not overbake. Allow to cool completely before filling.", 
        "To make the amaretto whipped cream filling: Combine pudding mix, 1/4 cup amaretto liqueur and 1 cup amaretto flavored creamer. Set aside for 5 minutes until thickened. Fold the whipped cream into the amaretto mixture, then stir in the crushed chocolate covered toffee bars. Use to fill and frost top of the cake (do not frost sides). Drizzle cake with melted chocolate candy bar and sprinkle with sliced almonds. Refrigerate until ready to serve."
    ], 
    "prep_time": "45 mins", 
    "recipe_name": "Amaretto Divine"
}