{
    "ingredients": [
        {
            "amount": "3 cups", 
            "ingredient": "all-purpose flour"
        }, 
        {
            "amount": "2 cups", 
            "ingredient": "white sugar"
        }, 
        {
            "amount": "1 teaspoon", 
            "ingredient": "baking soda"
        }, 
        {
            "amount": "1 teaspoon", 
            "ingredient": "salt"
        }, 
        {
            "amount": "1 1/2 cups", 
            "ingredient": "canola oil"
        }, 
        {
            "amount": "3", 
            "ingredient": "eggs"
        }, 
        {
            "amount": "1 (8 ounce) can", 
            "ingredient": "crushed pineapple, drained"
        }, 
        {
            "amount": "2 cups", 
            "ingredient": "mashed bananas"
        }, 
        {
            "amount": "1 cup", 
            "ingredient": "chopped black walnuts"
        }, 
        {
            "amount": "1 (8 ounce) package", 
            "ingredient": "cream cheese, softened"
        }, 
        {
            "amount": "1/4 pound", 
            "ingredient": "butter, softened"
        }, 
        {
            "amount": "1 pound", 
            "ingredient": "confectioners' sugar"
        }, 
        {
            "amount": "1 teaspoon", 
            "ingredient": "vanilla extract"
        }
    ], 
    "prep_steps": [
        "Preheat oven to 350 degrees F (175 degrees C). Grease and flour 2 - 9 inch cake pans.", 
        "Sift together the flour, sugar, baking soda and salt. Set aside.", 
        "In a large bowl, combine the oil, eggs, pineapple, bananas and nuts. Add flour mixture, and mix together by hand.", 
        "Pour batter into prepared pans and bake for 1 hour or until a toothpick inserted in center comes out clean. Remove from oven and allow to cool on racks.", 
        "Prepare the frosting by blending together the cream cheese, butter, sugar and vanilla until smooth. Evenly spread frosting on middle, sides and top of cake."
    ], 
    "recipe_name": "Hummingbird Cake"
}