{
    "ingredients": [
        {
            "amount": "1 tablespoon", 
            "ingredient": "olive oil"
        }, 
        {
            "amount": "1", 
            "ingredient": "medium onion, chopped"
        }, 
        {
            "amount": "1 clove", 
            "ingredient": "garlic, minced"
        }, 
        {
            "amount": "6", 
            "ingredient": "medium green bell peppers"
        }, 
        {
            "amount": "2 tablespoons", 
            "ingredient": "chopped fresh dill"
        }, 
        {
            "amount": "3/4 teaspoon", 
            "ingredient": "salt"
        }, 
        {
            "amount": "1/2 teaspoon", 
            "ingredient": "ground allspice"
        }, 
        {
            "amount": "1/2 teaspoon", 
            "ingredient": "ground black pepper"
        }, 
        {
            "amount": "1 cup", 
            "ingredient": "cooked rice"
        }, 
        {
            "amount": "8 ounces", 
            "ingredient": "ground lamb"
        }, 
        {
            "amount": "1 cup", 
            "ingredient": "crumbled feta cheese"
        }, 
        {
            "amount": "1 cup", 
            "ingredient": "tomato sauce"
        }, 
        {
            "amount": "1 cup", 
            "ingredient": "cold water"
        }, 
        {
            "amount": "1 tablespoon", 
            "ingredient": "fresh lemon juice"
        }, 
        {
            "amount": "1 teaspoon", 
            "ingredient": "white sugar"
        }
    ], 
    "prep_steps": [
        "Preheat oven to 375 degrees F (190 degrees C).", 
        "Heat oil in a medium skillet over medium heat, add onion and cook for four minutes until soft. Stir in garlic and cook one minute.", 
        "Slice tops off peppers and remove seeds. Stand peppers upright in a a 9x12-inch baking dish.", 
        "In large bowl, combine onion mixture, dill, salt, allspice and pepper. Mix in rice and lamb, fold in feta cheese. Stuff peppers with mixture.", 
        "Mix tomato sauce with water, lemon juice and sugar. Pour half over peppers, and half over bottom of dish. Cover with foil.", 
        "Bake in the preheated oven for 45 minutes. Uncover and continue baking 15 minutes, basing occasionally with sauce, until a meat thermometer inserted in center of filling reads 160 degrees F (70 degrees C)."
    ], 
    "prep_time": "1\u00bc hrs", 
    "recipe_name": "Lamb Feta Peppers"
}