{
    "ingredients": [
        {
            "amount": "2 tablespoons", 
            "ingredient": "butter, or more if needed"
        }, 
        {
            "amount": "2", 
            "ingredient": "leeks, cleaned and chopped"
        }, 
        {
            "amount": "1/2 cup", 
            "ingredient": "chopped onion"
        }, 
        {
            "amount": "6", 
            "ingredient": "potatoes, peeled and cubed"
        }, 
        {
            "amount": "4 cups", 
            "ingredient": "chicken broth"
        }, 
        {
            "amount": "1 cup", 
            "ingredient": "half-and-half"
        }, 
        {
            "amount": "4 ounces", 
            "ingredient": "shredded Cheddar cheese"
        }, 
        {
            "amount": "1 tablespoon", 
            "ingredient": "chopped fresh parsley"
        }, 
        {
            "amount": "1 teaspoon", 
            "ingredient": "garlic powder"
        }
    ], 
    "prep_steps": [
        "Melt butter in a pot over medium heat. Cook and stir leeks and onion until vegetables are tender, about 5 minutes.", 
        "Stir potatoes and chicken broth into onion mixture; simmer until potatoes are tender, 20 to 25 minutes.", 
        "Pour half-and-half into potato soup and continue to simmer until slightly thickened, about 15 minutes more.", 
        "Stir Cheddar cheese, parsley, garlic powder, salt, and black pepper into soup until cheese is melted, about 5 minutes."
    ], 
    "prep_time": "1\u00bc hrs", 
    "recipe_name": "Winter Leek and Potato Soup"
}