{
    "ingredients": [
        {
            "amount": "1 (18.25 ounce) package", 
            "ingredient": "yellow cake mix"
        }, 
        {
            "amount": "1 (15 ounce) can", 
            "ingredient": "pumpkin puree"
        }, 
        {
            "amount": "1 teaspoon", 
            "ingredient": "ground cinnamon"
        }, 
        {
            "amount": "1/2 teaspoon", 
            "ingredient": "ground nutmeg"
        }, 
        {
            "amount": "1/4 teaspoon", 
            "ingredient": "ground cloves"
        }
    ], 
    "prep_steps": [
        "Preheat the oven to 350 degrees F (175 degrees C). Grease a 12 cup muffin pan or line with paper liners.", 
        "In a large bowl, mix together the cake mix, pumpkin puree, cinnamon, nutmeg and cloves until smooth. Spoon equal amounts of batter into the prepared muffin cups.", 
        "Bake for 20 to 25 minutes in the preheated oven, until a toothpick inserted in the center of one comes out clean."
    ], 
    "prep_time": "30 mins", 
    "recipe_name": "Easy Pumpkin Muffins"
}