{
    "ingredients": [
        {
            "amount": "1 cup", 
            "ingredient": "whole wheat flour"
        }, 
        {
            "amount": "1/2 cup", 
            "ingredient": "rolled oats"
        }, 
        {
            "amount": "1/4 cup", 
            "ingredient": "cornmeal"
        }, 
        {
            "amount": "3 tablespoons", 
            "ingredient": "flaxseed meal"
        }, 
        {
            "amount": "3 tablespoons", 
            "ingredient": "brown sugar"
        }, 
        {
            "amount": "1 teaspoon", 
            "ingredient": "baking powder"
        }, 
        {
            "amount": "1/2 teaspoon", 
            "ingredient": "baking soda"
        }, 
        {
            "amount": "1", 
            "ingredient": "egg, beaten"
        }, 
        {
            "amount": "2 cups", 
            "ingredient": "buttermilk"
        }
    ], 
    "prep_steps": [
        "In a large bowl, stir together the whole wheat flour, oats, cornmeal, flaxseed meal, brown sugar, baking powder, and baking soda. Pour in buttermilk and egg. Stir just until smooth.", 
        "Heat a large skillet or griddle over medium heat. Coat with cooking spray. Drop batter by large spoonfuls onto the griddle, and cook until bubbles form and the edges are dry. Flip, and cook until browned on the other side. Repeat with remaining batter."
    ], 
    "prep_time": "30 mins", 
    "recipe_name": "Whole Grain Pancakes"
}