{
    "ingredients": [
        {
            "amount": "3 tablespoons", 
            "ingredient": "olive oil"
        }, 
        {
            "amount": "5", 
            "ingredient": "boneless, skinless chicken breast halves, cut into bite-sized pieces"
        }, 
        {
            "amount": "2 cloves", 
            "ingredient": "garlic"
        }, 
        {
            "amount": "2 tablespoons", 
            "ingredient": "lime juice"
        }, 
        {
            "amount": "1/2 cup", 
            "ingredient": "chopped fresh cilantro"
        }
    ], 
    "prep_steps": [
        "Heat the oil in a large skillet over medium heat. Fry chicken pieces in the hot oil until browned on all sides. Add the garlic, and continue to cook until the chicken is no longer pink in the middle. Stir in the cilantro and lime juice, and season with salt and pepper. Cook just until heated through. Serve with rice."
    ], 
    "prep_time": "20 mins", 
    "recipe_name": "Chicken and Garlic"
}