{
    "ingredients": [
        {
            "amount": "3/4 cup", 
            "ingredient": "vegetable oil"
        }, 
        {
            "amount": "2", 
            "ingredient": "eggs"
        }, 
        {
            "amount": "2 cups", 
            "ingredient": "white sugar"
        }, 
        {
            "amount": "2 1/2 cups", 
            "ingredient": "all-purpose flour"
        }, 
        {
            "amount": "3 cups", 
            "ingredient": "chopped Granny Smith apples"
        }, 
        {
            "amount": "1 teaspoon", 
            "ingredient": "salt"
        }, 
        {
            "amount": "1/2 teaspoon", 
            "ingredient": "ground cinnamon"
        }, 
        {
            "amount": "1/4 teaspoon", 
            "ingredient": "ground nutmeg"
        }, 
        {
            "amount": "2 teaspoons", 
            "ingredient": "baking soda"
        }, 
        {
            "amount": "1 (8 ounce) package", 
            "ingredient": "cream cheese, softened"
        }, 
        {
            "amount": "1 tablespoon", 
            "ingredient": "milk"
        }, 
        {
            "amount": "1 teaspoon", 
            "ingredient": "vanilla extract"
        }, 
        {
            "amount": "1 pinch", 
            "ingredient": "salt"
        }, 
        {
            "amount": "2 1/2 cups", 
            "ingredient": "confectioners' sugar"
        }
    ], 
    "prep_steps": [
        "Preheat oven to 350 degrees F(175 degrees C). Grease and flour a 9x13 inch pan.", 
        "Chop apples finely and place into a large bowl. In a separate bowl, beat eggs and oil together and pour over apples. Let stand while mixing the dry ingredients.", 
        "in a medium bowl, mix sugar, flour, 1 teaspoon salt, cinnamon, nutmeg and baking soda. Fold into apples, eggs and oil and mix well. Batter will be thick.", 
        "Pour into prepared 9x13 inch pan, and bake at 350 degrees F ( 175 degrees C) for 45 minutes. Once cool frost with Cream Cheese Icing.", 
        "To Make Cream Cheese Frosting: In a medium bowl, combine cream cheese, milk, vanilla and pinch of salt. Gradually add sugar, beating until frosting is smooth. Add additional milk, 1 tablespoon at a time, until frosting is desired consistency."
    ], 
    "recipe_name": "Raw Apple Cake"
}