{
    "ingredients": [
        {
            "amount": "5 pounds", 
            "ingredient": "chicken wings, separated at joints, tips discarded"
        }, 
        {
            "amount": "1 tablespoon", 
            "ingredient": "seasoned salt"
        }, 
        {
            "amount": "2 tablespoons", 
            "ingredient": "garlic powder"
        }, 
        {
            "amount": "2 tablespoons", 
            "ingredient": "onion powder"
        }, 
        {
            "amount": "2 tablespoons", 
            "ingredient": "ground black pepper"
        }, 
        {
            "amount": "1 tablespoon", 
            "ingredient": "monosodium glutamate (MSG, or Accent flavor enhancer)"
        }, 
        {
            "amount": "3 tablespoons", 
            "ingredient": "prepared yellow mustard"
        }, 
        {
            "amount": "3 cups", 
            "ingredient": "all-purpose flour"
        }, 
        {
            "amount": "1 quart", 
            "ingredient": "oil for frying, or as needed"
        }
    ], 
    "prep_steps": [
        "Season the chicken wings on both sides by sprinkling with seasoned salt, garlic powder, onion powder, pepper, and MSG. I like to lay it all out on a big plastic bag for easier clean up. Coat each piece with a thin layer of mustard. You may use a basting brush or your fingers. Put the flour into a plastic bag, add the chicken, and shake to coat.", 
        "Heat the oil in a deep-fryer or deep heavy skillet to 350 degrees F (175 degrees C). When the oil is hot, add the chicken and cook for 6 minutes on each side, or until juices run clear. Drain on paper towels, and cool for 5 minutes before serving."
    ], 
    "prep_time": "35 mins", 
    "recipe_name": "Mustard Fried Chicken"
}