{
    "ingredients": [
        {
            "amount": "6 cups", 
            "ingredient": "fresh spinach, torn into bite-size pieces"
        }, 
        {
            "amount": "1 cup", 
            "ingredient": "thickly sliced strawberries"
        }, 
        {
            "amount": "1 cup", 
            "ingredient": "blueberries, trimmed"
        }, 
        {
            "amount": "1 small", 
            "ingredient": "red onion, thinly sliced"
        }, 
        {
            "amount": "1/2 cup", 
            "ingredient": "chopped pecans"
        }, 
        {
            "amount": "2 tablespoons", 
            "ingredient": "balsamic vinegar"
        }, 
        {
            "amount": "2 tablespoons", 
            "ingredient": "rice vinegar"
        }, 
        {
            "amount": "4 teaspoons", 
            "ingredient": "honey"
        }, 
        {
            "amount": "1 teaspoon", 
            "ingredient": "curry powder"
        }, 
        {
            "amount": "2 teaspoons", 
            "ingredient": "Dijon mustard"
        }, 
        {
            "amount": "1 pinch", 
            "ingredient": "Salt and pepper to taste"
        }
    ], 
    "prep_steps": [
        "Wash and dry spinach. Whip together dressing ingredients. Add to spinach and toss lightly. Add berries, onion and pecans. Toss lightly and serve."
    ], 
    "recipe_name": "Spinach Salad With Berries and Curry Dressing"
}