{
    "ingredients": [
        {
            "amount": "1/2 pound", 
            "ingredient": "extra-lean ground beef"
        }, 
        {
            "amount": "1", 
            "ingredient": "egg, lightly beaten"
        }, 
        {
            "amount": "2 tablespoons", 
            "ingredient": "dry bread crumbs"
        }, 
        {
            "amount": "1 tablespoon", 
            "ingredient": "grated Parmesan cheese"
        }, 
        {
            "amount": "1/2 teaspoon", 
            "ingredient": "dried basil"
        }, 
        {
            "amount": "1/2 teaspoon", 
            "ingredient": "onion powder"
        }, 
        {
            "amount": "5 3/4 cups", 
            "ingredient": "chicken broth"
        }, 
        {
            "amount": "2 cups", 
            "ingredient": "thinly sliced escarole"
        }, 
        {
            "amount": "1 cup", 
            "ingredient": "uncooked orzo pasta"
        }, 
        {
            "amount": "1/3 cup", 
            "ingredient": "finely chopped carrot"
        }
    ], 
    "prep_steps": [
        "In medium bowl, combine meat, egg, bread crumbs, cheese, basil and onion powder; shape into 3/4 inch balls.", 
        "In large saucepan, heat broth to boiling; stir in escarole, orzo pasta, chopped carrot and meatballs. Return to boil, then reduce heat to medium. Cook at slow boil for 10 minutes, or until pasta is al dente. Stir frequently to prevent sticking."
    ], 
    "prep_time": "50 mins", 
    "recipe_name": "Italian Wedding Soup I"
}