{
    "ingredients": [
        {
            "amount": "1 pinch", 
            "ingredient": "steak seasoning, or to taste"
        }, 
        {
            "amount": "1 pinch", 
            "ingredient": "garlic salt, or to taste"
        }, 
        {
            "amount": "1 pinch", 
            "ingredient": "ground black pepper, or to taste"
        }, 
        {
            "amount": "1 pinch", 
            "ingredient": "chili powder, or to taste"
        }, 
        {
            "amount": "1 (4 pound) package", 
            "ingredient": "boneless country-style pork ribs"
        }, 
        {
            "amount": "1 cup", 
            "ingredient": "barbecue sauce"
        }, 
        {
            "amount": "1/4 cup", 
            "ingredient": "Worcestershire sauce"
        }, 
        {
            "amount": "1/4 cup", 
            "ingredient": "soy sauce"
        }, 
        {
            "amount": "1/4 cup", 
            "ingredient": "teriyaki sauce"
        }, 
        {
            "amount": "1/4 cup", 
            "ingredient": "orange juice"
        }, 
        {
            "amount": "2 dashes", 
            "ingredient": "hot pepper sauce, or to taste"
        }
    ], 
    "prep_steps": [
        "Mix the steak seasoning, garlic salt, black pepper, and chili powder in a small bowl. Rub the ribs all over with the seasoning mix, and place into the bottom of a slow cooker. Pour in barbecue sauce, Worcestershire sauce, soy sauce, teriyaki sauce, orange juice, and hot pepper sauce. Liquid should not cover the ribs all the way.", 
        "Set the cooker to Low, and cook until ribs are tender, about 8 hours."
    ], 
    "prep_time": "8 hrs", 
    "recipe_name": "Slow Cooker Ribs"
}