{
    "ingredients": [
        {
            "amount": "12 ounces", 
            "ingredient": "spaghetti"
        }, 
        {
            "amount": "1 cup", 
            "ingredient": "chopped onions"
        }, 
        {
            "amount": "1 cup", 
            "ingredient": "chopped green bell peppers"
        }, 
        {
            "amount": "1 pound", 
            "ingredient": "lean ground beef"
        }, 
        {
            "amount": "1 (16 ounce) can", 
            "ingredient": "diced tomatoes"
        }, 
        {
            "amount": "1 (4.5 ounce) can", 
            "ingredient": "mushrooms, drained"
        }, 
        {
            "amount": "1 teaspoon", 
            "ingredient": "dried oregano"
        }, 
        {
            "amount": "2 cups", 
            "ingredient": "shredded mild Cheddar cheese"
        }, 
        {
            "amount": "1 (10.75 ounce) can", 
            "ingredient": "condensed cream of mushroom soup"
        }, 
        {
            "amount": "1/4 cup", 
            "ingredient": "water"
        }, 
        {
            "amount": "1/4 cup", 
            "ingredient": "grated Parmesan cheese"
        }
    ], 
    "prep_steps": [
        "Bring a large pot of lightly salted water to a boil. Add spaghetti, and cook for 8 to 10 minutes, or until al dente. Drain, and set aside.", 
        "In a large skillet over medium-high heat, saute the onions, green peppers and ground beef. Once beef is brown and onions and peppers softened, add the tomatoes, mushrooms and oregano. Simmer uncovered for 10 minutes.", 
        "Preheat oven to 350 degrees F (175 degrees C). Grease a 9x13 inch baking dish. Place half of the cooked spaghetti into the prepared dish. Top with half of the meat mixture. Sprinkle with 1 cup of the mild Cheddar cheese. Repeat. In a medium bowl, mix together cream of mushroom soup and water until smooth; pour over casserole. Sprinkle with Parmesan cheese.", 
        "Bake in preheated oven for 30 to 35 minutes. Let stand 10 minutes before serving."
    ], 
    "prep_time": "1\u00bc hrs", 
    "recipe_name": "Baked Spaghetti I"
}