{
    "ingredients": [
        {
            "amount": "2 heads", 
            "ingredient": "cauliflower, separated into florets"
        }, 
        {
            "amount": "3 cloves", 
            "ingredient": "garlic, chopped"
        }, 
        {
            "amount": "2", 
            "ingredient": "shallots, chopped"
        }, 
        {
            "amount": "1 tablespoon", 
            "ingredient": "olive oil"
        }, 
        {
            "amount": "3 cups", 
            "ingredient": "chicken broth"
        }, 
        {
            "amount": "1 cup", 
            "ingredient": "water"
        }, 
        {
            "amount": "1", 
            "ingredient": "bay leaf"
        }, 
        {
            "amount": "1 teaspoon", 
            "ingredient": "dried thyme"
        }, 
        {
            "amount": "2 cups", 
            "ingredient": "heavy cream"
        }
    ], 
    "prep_steps": [
        "Preheat the oven to 425 degrees F (220 degrees C). In a large bowl, toss cauliflower pieces with olive oil, garlic and shallots. Spread out in a roasting pan or baking sheet with sides.", 
        "Roast in the preheated oven until toasted and tender, about 30 minutes.", 
        "When the cauliflower is done, transfer to a soup pot and pour in the chicken broth and water. Season with thyme and the bay leaf and bring to a boil. Cook over medium heat for 30 minutes. Remove and discard the bay leaf.", 
        "Puree the soup in the pot using an immersion blender, or transfer to a blender and puree in batches, then return to the pot. Stir in the cream and season with salt and pepper. Heat through before serving but do not boil."
    ], 
    "prep_time": "1\u00bd hrs", 
    "recipe_name": "Fabulous Roasted Cauliflower Soup"
}