{
    "ingredients": [
        {
            "amount": "1 (12 ounce) package", 
            "ingredient": "extra firm tofu"
        }, 
        {
            "amount": "3 tablespoons", 
            "ingredient": "cornstarch"
        }, 
        {
            "amount": "2", 
            "ingredient": "green onions, chopped"
        }, 
        {
            "amount": "2 tablespoons", 
            "ingredient": "hoisin sauce"
        }
    ], 
    "prep_steps": [
        "Cut tofu into 12 cubes. Place cornstarch on a plate or in a shallow bowl and dredge tofu in it, coating thoroughly.", 
        "Heat enough oil so that tofu will be half-way submerged. Fry tofu in hot oil for 3 to 5 minutes on each side, or until crispy. Drain on paper towels.", 
        "Sprinkle green onions over tofu and drizzle with hoisin sauce. Serve immediately."
    ], 
    "prep_time": "15 mins", 
    "recipe_name": "Agedashi-esque Tofu"
}