{
    "ingredients": [
        {
            "amount": "2 (8 ounce) packages", 
            "ingredient": "corn bread mix"
        }, 
        {
            "amount": "2 tablespoons", 
            "ingredient": "vegetable oil"
        }, 
        {
            "amount": "1 pound", 
            "ingredient": "spicy pork sausage"
        }, 
        {
            "amount": "2", 
            "ingredient": "onions, chopped"
        }, 
        {
            "amount": "2", 
            "ingredient": "apples, cored and chopped"
        }, 
        {
            "amount": "4 stalks", 
            "ingredient": "celery, diced"
        }, 
        {
            "amount": "3/4 cup", 
            "ingredient": "chicken broth"
        }, 
        {
            "amount": "1/4 cup", 
            "ingredient": "unsalted butter, melted"
        }, 
        {
            "amount": "1/4 cup", 
            "ingredient": "chopped fresh parsley"
        }, 
        {
            "amount": "2 teaspoons", 
            "ingredient": "rubbed sage"
        }, 
        {
            "amount": "1/2 teaspoon", 
            "ingredient": "dried thyme"
        }, 
        {
            "amount": "1/2 teaspoon", 
            "ingredient": "dried rosemary"
        }, 
        {
            "amount": "1/2 teaspoon", 
            "ingredient": "salt"
        }, 
        {
            "amount": "1/4 teaspoon", 
            "ingredient": "ground black pepper"
        }
    ], 
    "prep_steps": [
        "Bake cornbread according to package directions. Cool and crumble into a large bowl.", 
        "Preheat oven to 375 degrees F (190 degrees C). Heat oil in a large skillet over medium-high heat. Cook sausage until brown and crumbly, remove from the skillet but keep the oil in the pan. Add onions, apples and celery; cook stirring occasionally until tender, about 5 minutes.", 
        "Toss the cooked mixture and the sausage into the bowl with the crumbled cornbread. Stir in the chicken broth and melted butter. Season with parsley, sage, thyme, rosemary salt and pepper. Blend well and press into a 9x13 inch baking dish.", 
        "Bake in the preheated oven for 35 to 45 minutes."
    ], 
    "prep_time": "2 hrs", 
    "recipe_name": "Sausage and Cornbread Dressing"
}