{
    "ingredients": [
        {
            "amount": "1 pound", 
            "ingredient": "chorizo sausage, casings removed and crumbled"
        }, 
        {
            "amount": "1 cup", 
            "ingredient": "chopped onion"
        }, 
        {
            "amount": "2 cloves", 
            "ingredient": "garlic, finely chopped"
        }, 
        {
            "amount": "1 (4 ounce) can", 
            "ingredient": "chopped green chile peppers, drained"
        }, 
        {
            "amount": "8 (10 inch)", 
            "ingredient": "flour tortillas"
        }, 
        {
            "amount": "2 cups", 
            "ingredient": "shredded Pepper Jack cheese, divided"
        }, 
        {
            "amount": "1 (16 ounce) can", 
            "ingredient": "refried beans, divided"
        }, 
        {
            "amount": "1 (7 ounce) jar", 
            "ingredient": "roasted red peppers, drained"
        }
    ], 
    "prep_steps": [
        "In a large skillet or frying pan, cook chorizo, onion and garlic over medium heat. Cook, stirring occasionally, until sausage is done. Drain off grease, stir in chilies and set aside.", 
        "Preheat oven to 400 degrees F (200 degrees C). Lightly grease a 10 inch pie plate.", 
        "Place 2 tortillas in pie plate. Spread half of the sausage mixture over tortillas. Sprinkle with half of the cheese. Place 2 tortillas on top of cheese. Spread with beans. Place 2 tortillas on beans and place peppers on tortillas. Place 2 tortillas on top of peppers. Spread with remaining sausage mixture. Sprinkle with remaining cheese.", 
        "Cover and bake in preheated oven for 40 minutes. Uncover and bake 15 minutes more, or until cheese is melted and center is hot. Cool 10 minutes before cutting."
    ], 
    "prep_time": "1\u00bc hrs", 
    "recipe_name": "Spicy Mexican Torte"
}