{
    "ingredients": [
        {
            "amount": "1 (8 ounce) can", 
            "ingredient": "sliced mushrooms, drained"
        }, 
        {
            "amount": "1 small", 
            "ingredient": "onion, sliced"
        }, 
        {
            "amount": "1", 
            "ingredient": "green bell pepper, seeded and sliced into strips"
        }, 
        {
            "amount": "8 slices", 
            "ingredient": "provolone cheese"
        }, 
        {
            "amount": "1 pound", 
            "ingredient": "thinly sliced roast beef"
        }, 
        {
            "amount": "4", 
            "ingredient": "submarine rolls, halved"
        }
    ], 
    "prep_steps": [
        "Preheat an electric griddle or stovetop griddle over medium-high heat. On one half of the griddle, place the mushrooms, onion and pepper. On the other side, place the roast beef. Cook and stir each group separately, chopping the beef into smaller pieces as it cooks, and seasoning with salt and seasoned salt.", 
        "When the vegetables are tender and the beef is hot, place the slices of provolone cheese over the beef to melt. Turn off the griddle. Scoop the cheesy grilled beef into sandwich rolls, and top with the onions and peppers."
    ], 
    "prep_time": "20 mins", 
    "recipe_name": "Griddle Style Philly Steak Sandwiches"
}