{
    "ingredients": [
        {
            "amount": "2 teaspoons", 
            "ingredient": "seasoned salt"
        }, 
        {
            "amount": "1/4 teaspoon", 
            "ingredient": "garlic salt"
        }, 
        {
            "amount": "1/2 teaspoon", 
            "ingredient": "black pepper"
        }, 
        {
            "amount": "1/2 teaspoon", 
            "ingredient": "cayenne pepper"
        }, 
        {
            "amount": "1 teaspoon", 
            "ingredient": "dried oregano"
        }, 
        {
            "amount": "1 1/2 pounds", 
            "ingredient": "venison, cut into 2 inch strips"
        }, 
        {
            "amount": "4 tablespoons", 
            "ingredient": "vegetable oil"
        }, 
        {
            "amount": "1 medium", 
            "ingredient": "red bell pepper, cut into 2 inch strips"
        }, 
        {
            "amount": "1 medium", 
            "ingredient": "yellow bell pepper, cut into 2 inch strips"
        }, 
        {
            "amount": "1 medium", 
            "ingredient": "onion, cut into 1/2-inch wedges"
        }, 
        {
            "amount": "12", 
            "ingredient": "fajita size flour tortillas, warmed"
        }
    ], 
    "prep_steps": [
        "Combine seasoned salt, garlic salt, black pepper, cayenne pepper, and oregano to make the fajita seasoning. Sprinkle two teaspoons of the seasoning over the sliced venison. Mix well, cover, and refrigerate for 30 minutes.", 
        "Heat 2 tablespoons of oil in a heavy frying pan. Cook bell peppers and onion until starting to soften, then remove. Pour in remaining oil, then cook venison until browned. Return pepper mixture to the pan, season with remaining fajita seasoning, and reheat. Served with the warmed tortillas."
    ], 
    "prep_time": "45 mins", 
    "recipe_name": "Venison Fajitas"
}