{
    "ingredients": [
        {
            "amount": "2 tablespoons", 
            "ingredient": "vegetable oil"
        }, 
        {
            "amount": "1 teaspoon", 
            "ingredient": "cumin seeds"
        }, 
        {
            "amount": "1/2 teaspoon", 
            "ingredient": "salt"
        }, 
        {
            "amount": "1/2 teaspoon", 
            "ingredient": "chili powder"
        }, 
        {
            "amount": "1/2 teaspoon", 
            "ingredient": "lemon pepper"
        }, 
        {
            "amount": "2", 
            "ingredient": "tomatoes, chopped"
        }, 
        {
            "amount": "2 (15 ounce) cans", 
            "ingredient": "garbanzo beans, drained"
        }, 
        {
            "amount": "1 tablespoon", 
            "ingredient": "lemon juice"
        }, 
        {
            "amount": "1", 
            "ingredient": "onion, chopped"
        }
    ], 
    "prep_steps": [
        "In a large pot over low heat, warm oil and cumin; heat until cumin turns a darker shade of brown.", 
        "Add salt, chili powder and lemon and pepper seasoning; mix well. Stir in tomatoes; once the juice begins to thicken add in chickpeas and mix well.", 
        "Add in lemon juice and mix well; add onions and stir until they become soft.", 
        "Remove from heat and place into a serving bowl; serve immediately."
    ], 
    "recipe_name": "Pakistani Spicy Chickpeas"
}