{
    "ingredients": [
        {
            "amount": "1/4 cup", 
            "ingredient": "butter"
        }, 
        {
            "amount": "1/4 cup", 
            "ingredient": "Worcestershire sauce"
        }, 
        {
            "amount": "2 tablespoons", 
            "ingredient": "lemon juice"
        }, 
        {
            "amount": "2 tablespoons", 
            "ingredient": "white sugar"
        }, 
        {
            "amount": "1/4 teaspoon", 
            "ingredient": "paprika"
        }, 
        {
            "amount": "1/8 teaspoon", 
            "ingredient": "salt"
        }, 
        {
            "amount": "1/8 teaspoon", 
            "ingredient": "cayenne pepper"
        }, 
        {
            "amount": "1/2 pound", 
            "ingredient": "boneless pork, cooked and cubed"
        }, 
        {
            "amount": "4", 
            "ingredient": "hamburger buns"
        }
    ], 
    "prep_steps": [
        "Melt butter or margarine in a large saucepan over medium heat. Add the Worcestershire sauce, lemon juice, sugar, paprika, salt and cayenne pepper. Mix together and bring mixture to a boil, stirring often. Add the cooked pork and let simmer just until pork is heated through. Divide into 4 equal portions onto the bottom of each hamburger bun."
    ], 
    "prep_time": "20 mins", 
    "recipe_name": "Tangy Sliced Pork Sandwiches"
}