{
    "ingredients": [
        {
            "amount": "3 tablespoons", 
            "ingredient": "melted butter"
        }, 
        {
            "amount": "18", 
            "ingredient": "graham crackers, crushed"
        }, 
        {
            "amount": "1/4 cup", 
            "ingredient": "all-purpose flour"
        }, 
        {
            "amount": "1 cup", 
            "ingredient": "sour cream"
        }, 
        {
            "amount": "1 tablespoon", 
            "ingredient": "vanilla extract"
        }, 
        {
            "amount": "4 (8 ounce) packages", 
            "ingredient": "cream cheese"
        }, 
        {
            "amount": "1 1/2 cups", 
            "ingredient": "white sugar"
        }, 
        {
            "amount": "2/3 cup", 
            "ingredient": "milk"
        }, 
        {
            "amount": "4", 
            "ingredient": "eggs"
        }, 
        {
            "amount": "1 teaspoon", 
            "ingredient": "finely grated lemon zest"
        }, 
        {
            "amount": "1 teaspoon", 
            "ingredient": "finely grated orange zest"
        }
    ], 
    "prep_steps": [
        "Preheat oven to 350 degrees F (175 degrees C).", 
        "Lightly grease the bottom and sides of a 9-inch springform pan.", 
        "Mix graham cracker crumbs and melted butter in a bowl until evenly moistened. Press crumb mixture into the bottom and about 1/2-inch up the sides of the springform pan.", 
        "Whisk flour, sour cream, and vanilla extract in bowl. Set aside.", 
        "Stir cream cheese and sugar with a wooden spoon in a large bowl until evenly incorporated, 3 to 5 minutes.", 
        "Pour milk into cream cheese mixture and whisk until just combined.", 
        "Whisk in eggs, one at a time, stirring well after each addition.", 
        "Stir in lemon zest, orange zest, and sour cream mixture; whisk until just incorporated.", 
        "Pour mixture into prepared springform pan.", 
        "Bake in the preheated oven until the edges have nicely puffed and the surface of the cheesecake is firm except for a small spot in the center that will jiggle when the pan is gently shaken, about 1 hour.", 
        "When the cheesecake is done, turn off the oven and let it cool in the oven for 3 to 4 hours. This prevents any cracks from forming on the top of the cheesecake."
    ], 
    "prep_time": "4 hrs", 
    "recipe_name": "New York-Style Cheesecake"
}