{
    "ingredients": [
        {
            "amount": "2", 
            "ingredient": "ham steaks"
        }, 
        {
            "amount": "1/4 cup", 
            "ingredient": "packed brown sugar"
        }, 
        {
            "amount": "1 (8 ounce) can", 
            "ingredient": "crushed pineapple, drained"
        }, 
        {
            "amount": "1 (15 ounce) can", 
            "ingredient": "sweet potatoes, drained"
        }, 
        {
            "amount": "1 cup", 
            "ingredient": "miniature marshmallows"
        }
    ], 
    "prep_steps": [
        "Preheat the oven to 350 degrees F (175 degrees C).", 
        "Tear off two large sheets of aluminum foil. Place one ham slice onto each piece of foil, and sprinkle brown sugar on both sides. Spread a little bit of the crushed pineapple over the ham, then top with sweet potatoes. Sprinkle a little bit more brown sugar and pineapple over the sweet potatoes. Close the aluminum foil tightly around the ham, and place on a baking sheet.", 
        "Bake for 30 minutes in the preheated oven. Remove from the oven, and carefully open the packets. Sprinkle miniature marshmallows over the top, and return to the oven with the foil open. Bake for another 10 minutes. If you want the marshmallows really toasty, you could brown them under the broiler for a couple of minutes. You will end up with a sweet, juicy ham dish and very few dishes to wash."
    ], 
    "prep_time": "45 mins", 
    "recipe_name": "Quick and Easy Ham with Sweet Potatoes"
}