{
    "ingredients": [
        {
            "amount": "1 (3 ounce) package", 
            "ingredient": "cream cheese, softened"
        }, 
        {
            "amount": "1/2 cup", 
            "ingredient": "butter, softened"
        }, 
        {
            "amount": "1 teaspoon", 
            "ingredient": "vanilla extract"
        }, 
        {
            "amount": "2 cups", 
            "ingredient": "confectioners' sugar"
        }
    ], 
    "prep_steps": [
        "Cream together butter or margarine with the cream cheese. Then stir in vanilla.", 
        "Next, add the powdered sugar, slowly, keep beating until mixture is smooth."
    ], 
    "recipe_name": "Pumpkin Bar Icing"
}