{
    "ingredients": [
        {
            "amount": "6 tablespoons", 
            "ingredient": "Dijon mustard"
        }, 
        {
            "amount": "1/4 cup", 
            "ingredient": "honey"
        }, 
        {
            "amount": "1/4 cup", 
            "ingredient": "orange juice"
        }, 
        {
            "amount": "2 tablespoons", 
            "ingredient": "milk"
        }, 
        {
            "amount": "2 tablespoons", 
            "ingredient": "butter"
        }, 
        {
            "amount": "2 teaspoons", 
            "ingredient": "lemon juice, to taste"
        }, 
        {
            "amount": "1/4 teaspoon", 
            "ingredient": "ground mustard"
        }, 
        {
            "amount": "1/4 teaspoon", 
            "ingredient": "salt"
        }, 
        {
            "amount": "1 dash", 
            "ingredient": "ground black pepper"
        }, 
        {
            "amount": "1/2 cup", 
            "ingredient": "chopped pecans"
        }, 
        {
            "amount": "6", 
            "ingredient": "skinless, boneless chicken breast halves"
        }
    ], 
    "prep_steps": [
        "Preheat oven to 350 degrees F (175 degrees C). Lightly grease a medium baking dish.", 
        "In a medium saucepan over medium heat, blend the Dijon mustard, honey, orange juice, milk, butter, and lemon juice. Season with ground mustard, salt, and pepper. Stir in the pecans.", 
        "Arrange chicken in the prepared baking dish, and cook in the preheated oven about 10 minutes. Cover with the Dijon mustard mixture, and continue cooking 20 minutes, or until chicken is no longer pink and juices run clear."
    ], 
    "prep_time": "1 hr", 
    "recipe_name": "Pecan Dijon Chicken"
}