{
    "ingredients": [
        {
            "amount": "2 cups", 
            "ingredient": "biscuit mix"
        }, 
        {
            "amount": "2/3 cup", 
            "ingredient": "milk"
        }, 
        {
            "amount": "1/2 cup", 
            "ingredient": "shredded Cheddar cheese"
        }, 
        {
            "amount": "2 tablespoons", 
            "ingredient": "butter, melted"
        }, 
        {
            "amount": "1/8 teaspoon", 
            "ingredient": "garlic powder"
        }
    ], 
    "prep_steps": [
        "Preheat oven to 450 degrees F (230 degrees C). Lightly grease a baking sheet.", 
        "Measure biscuit mix into a large bowl. Stir in milk and cheese until a soft dough forms. Drop 9 spoonfuls of the dough onto prepared baking sheet.", 
        "Bake in preheated oven for 8 to 10 minutes, until golden brown. While biscuits bake stir together butter and garlic powder. Remove biscuits from oven and brush with butter mixture."
    ], 
    "prep_time": "15 mins", 
    "recipe_name": "Cheese Garlic Biscuits I"
}