{
    "ingredients": [
        {
            "amount": "1 (10.75 ounce) can", 
            "ingredient": "condensed cream of mushroom soup"
        }, 
        {
            "amount": "3/4 cup", 
            "ingredient": "milk"
        }, 
        {
            "amount": "2 (9 ounce) packages", 
            "ingredient": "frozen green beans"
        }, 
        {
            "amount": "1 1/3 cups", 
            "ingredient": "French-fried onions"
        }
    ], 
    "prep_steps": [
        "In a 1-1/2 quart casserole mix soup, milk, and pepper. Stir in beans and 2/3 cup french fried onions.", 
        "Bake at 350 degrees F (175 degrees C) for 30 minutes or until heated through, stir. Top with remaining 2/3 cup of french fried onions. Bake 5 minutes more or until the onions are golden."
    ], 
    "recipe_name": "Green Bean Casserole II"
}