{
    "ingredients": [
        {
            "amount": "1 cup", 
            "ingredient": "warm water (110 degrees F/45 degrees C)"
        }, 
        {
            "amount": "1 1/2 teaspoons", 
            "ingredient": "salt"
        }, 
        {
            "amount": "2 tablespoons", 
            "ingredient": "white sugar"
        }, 
        {
            "amount": "3 cups", 
            "ingredient": "bread flour"
        }, 
        {
            "amount": "2 1/4 teaspoons", 
            "ingredient": "active dry yeast"
        }, 
        {
            "amount": "3 quarts", 
            "ingredient": "boiling water"
        }, 
        {
            "amount": "3 tablespoons", 
            "ingredient": "white sugar"
        }, 
        {
            "amount": "1 tablespoon", 
            "ingredient": "cornmeal"
        }, 
        {
            "amount": "1", 
            "ingredient": "egg white"
        }, 
        {
            "amount": "3 tablespoons", 
            "ingredient": "poppy seeds"
        }
    ], 
    "prep_steps": [
        "Place water, salt, sugar, flour and yeast in the bread machine pan in the order recommended by the manufacturer. Select Dough setting.", 
        "When cycle is complete, let dough rest on a lightly floured surface. Meanwhile, in a large pot bring 3 quarts of water to a boil. Stir in 3 tablespoons of sugar.", 
        "Cut dough into 9 equal pieces, and roll each piece into a small ball. Flatten balls. Poke a hole in the middle of each with your thumb. Twirl the dough on your finger or thumb to enlarge the hole, and to even out the dough around the hole. Cover bagels with a clean cloth, and let rest for 10 minutes.", 
        "Sprinkle an ungreased baking sheet with cornmeal. Carefully transfer bagels to boiling water. Boil for 1 minute, turning half way through. Drain briefly on clean towel. Arrange boiled bagels on baking sheet. Glaze tops with egg white, and sprinkle with your choice of toppings.", 
        "Bake in a preheated 375 degree F (190 degrees C) oven for 20 to 25 minutes, until well browned."
    ], 
    "prep_time": "4 hrs", 
    "recipe_name": "Bread Machine Bagels"
}