{
    "ingredients": [
        {
            "amount": "3 tablespoons", 
            "ingredient": "extra virgin olive oil"
        }, 
        {
            "amount": "1 large", 
            "ingredient": "onion, chopped"
        }, 
        {
            "amount": "2 cloves", 
            "ingredient": "garlic, crushed"
        }, 
        {
            "amount": "2 (14.5 ounce) cans", 
            "ingredient": "tomatoes, chopped"
        }, 
        {
            "amount": "1/4 teaspoon", 
            "ingredient": "red pepper flakes, or to taste"
        }, 
        {
            "amount": "2 teaspoons", 
            "ingredient": "balsamic vinegar"
        }, 
        {
            "amount": "2 teaspoons", 
            "ingredient": "white sugar"
        }, 
        {
            "amount": "3/4 cup", 
            "ingredient": "basil leaves, torn into pieces"
        }
    ], 
    "prep_steps": [
        "Heat the olive oil in a skillet over medium heat; cook the onion and garlic in the hot oil until tender, about 5 minutes. Stir the tomatoes, red pepper flakes, vinegar, and sugar into the onion and garlic mixture; bring to a boil, reduce heat to low, and simmer until the flavors blend to your liking, 45 to 60 minutes. Stir the basil into the sauce; season with salt and pepper."
    ], 
    "prep_time": "1 hr", 
    "recipe_name": "Tomato and Basil Pasta Sauce"
}