{
    "ingredients": [
        {
            "amount": "5 medium", 
            "ingredient": "potatoes, peeled and cubed"
        }, 
        {
            "amount": "2", 
            "ingredient": "carrots, chopped"
        }, 
        {
            "amount": "1 stalk", 
            "ingredient": "celery, chopped"
        }, 
        {
            "amount": "4 1/2 cups", 
            "ingredient": "water"
        }, 
        {
            "amount": "4 cubes", 
            "ingredient": "vegetable bouillon"
        }, 
        {
            "amount": "1 tablespoon", 
            "ingredient": "olive oil"
        }, 
        {
            "amount": "1 large", 
            "ingredient": "onion, diced"
        }, 
        {
            "amount": "4 cloves", 
            "ingredient": "garlic, minced"
        }, 
        {
            "amount": "1 tablespoon", 
            "ingredient": "chili powder"
        }, 
        {
            "amount": "1 tablespoon", 
            "ingredient": "cumin"
        }, 
        {
            "amount": "1 1/2 tablespoons", 
            "ingredient": "seasoned salt"
        }, 
        {
            "amount": "1 (29 ounce) can", 
            "ingredient": "hominy, drained"
        }, 
        {
            "amount": "1 (28 ounce) can", 
            "ingredient": "diced tomatoes with green chile peppers"
        }
    ], 
    "prep_steps": [
        "Place the potatoes, carrots, and celery in a pot with enough lightly salted water to cover, and bring to a boil. Cook about 10 minutes, until slightly tender. Drain, and set aside.", 
        "Place the 4 1/2 cups water and vegetable bouillon cubes in a pot. Bring to a boil, and cook until bouillon cubes have dissolved. Remove from heat, and set aside.", 
        "Heat the olive oil in a large pot. Saute the onion and garlic until tender. Season with chili powder, cumin, and seasoned salt. Mix in the potatoes, carrots, and celery. Cook and stir about 2 minutes, until heated through. Mix in the water and dissolved bouillon cube mixture, hominy, and diced tomatoes with green chiles. Bring to a boil, reduce heat, and simmer 45 minutes. Season with salt and pepper to taste."
    ], 
    "prep_time": "1\u00bd hrs", 
    "recipe_name": "Vegan Mexican Stew"
}