{
    "ingredients": [
        {
            "amount": "2 1/4 cups", 
            "ingredient": "white sugar"
        }, 
        {
            "amount": "2 tablespoons", 
            "ingredient": "all-purpose flour"
        }, 
        {
            "amount": "6", 
            "ingredient": "eggs"
        }, 
        {
            "amount": "1 cup", 
            "ingredient": "buttermilk"
        }, 
        {
            "amount": "1/2 cup", 
            "ingredient": "margarine, melted"
        }, 
        {
            "amount": "1 cup", 
            "ingredient": "flaked coconut"
        }, 
        {
            "amount": "1 cup", 
            "ingredient": "chopped pecans"
        }, 
        {
            "amount": "2", 
            "ingredient": "prepared 8 inch pastry shells"
        }
    ], 
    "prep_steps": [
        "Preheat oven to 350 degrees F (175 degrees C). In a small bowl, mix together the sugar and flour.", 
        "In a large bowl, mix the eggs with a wire whisk. Whisk flour mixture into eggs, until smooth. Stir in buttermilk, margarine, coconut and pecans. Pour into unbaked pie crusts.", 
        "Bake in preheated oven for 45 minutes. If making a 9 inch deep dish pie, bake for 1 hour."
    ], 
    "prep_time": "55 mins", 
    "recipe_name": "French Coconut Pie"
}