{
    "ingredients": [
        {
            "amount": "1/2 cup", 
            "ingredient": "shortening"
        }, 
        {
            "amount": "1 1/2 cups", 
            "ingredient": "white sugar"
        }, 
        {
            "amount": "2", 
            "ingredient": "eggs, room temperature"
        }, 
        {
            "amount": "1 teaspoon", 
            "ingredient": "butter flavored extract"
        }, 
        {
            "amount": "4 tablespoons", 
            "ingredient": "red food coloring"
        }, 
        {
            "amount": "2 tablespoons", 
            "ingredient": "unsweetened cocoa powder"
        }, 
        {
            "amount": "1 cup", 
            "ingredient": "buttermilk, room temperature"
        }, 
        {
            "amount": "1 teaspoon", 
            "ingredient": "salt"
        }, 
        {
            "amount": "2 1/2 cups", 
            "ingredient": "sifted all-purpose flour"
        }, 
        {
            "amount": "1 tablespoon", 
            "ingredient": "white vinegar"
        }, 
        {
            "amount": "1 teaspoon", 
            "ingredient": "baking soda"
        }, 
        {
            "amount": "1/2 cup", 
            "ingredient": "butter, room temperature"
        }, 
        {
            "amount": "1 (8 ounce) package", 
            "ingredient": "cream cheese, room temperature"
        }, 
        {
            "amount": "4 cups", 
            "ingredient": "confectioners' sugar, sifted"
        }, 
        {
            "amount": "1 teaspoon", 
            "ingredient": "vanilla extract"
        }
    ], 
    "prep_steps": [
        "Preheat oven to 350 degrees F (175 degrees C). Grease and flour two 9-inch round pans.", 
        "Beat shortening and sugar until light and fluffy. Add eggs one at a time, mixing until fully incorporated. Stir in butter flavoring. Make a paste with food coloring and cocoa and add to the shortening mixture.", 
        "Mix buttermilk, salt, baking soda and vinegar; add to batter alternating with the flour mixture.", 
        "Divide batter into prepared pans. Bake in preheated oven until cake springs back when touched lightly with a finger or tester comes out clean, 20 to 30 minutes. Cook completely on wire rack.", 
        "To Make Cream Cheese Frosting: beat butter and cream cheese with an electric mixer until smooth. Gradually beat in confectioners' sugar and 1 teaspoon vanilla. Mix until well blended."
    ], 
    "prep_time": "2 hrs", 
    "recipe_name": "Ravishing Red Velvet Cake"
}