{
    "ingredients": [
        {
            "amount": "4", 
            "ingredient": "skinless, boneless chicken breasts"
        }, 
        {
            "amount": "1 teaspoon", 
            "ingredient": "garlic powder"
        }, 
        {
            "amount": "1 teaspoon", 
            "ingredient": "Italian-style seasoning"
        }, 
        {
            "amount": "1 (18 ounce) bottle", 
            "ingredient": "barbecue sauce"
        }, 
        {
            "amount": "4 slices", 
            "ingredient": "ham"
        }, 
        {
            "amount": "4 slices", 
            "ingredient": "Monterey Jack cheese"
        }, 
        {
            "amount": "1/8 cup", 
            "ingredient": "chopped green onion for topping"
        }, 
        {
            "amount": "1/4 cup", 
            "ingredient": "chopped tomatoes, for garnish"
        }
    ], 
    "prep_steps": [
        "Preheat oven to 350 degrees F (175 degrees C).", 
        "Place chicken breasts in a lightly greased 9x13 inch baking dish. Season with pepper, garlic powder and Italian seasoning to taste. Bake seasoned chicken in the preheated oven for 20 to 30 minutes or until cooked through and juices run clear.", 
        "When chicken is done, remove from oven and pour on barbecue sauce. Layer each breast with slice of ham, then slice of cheese. Return to oven and continue to bake for 5 minutes or until cheese has melted. Remove from oven and top with chopped green onions and tomatoes."
    ], 
    "recipe_name": "Smoky Mountain Chicken"
}