{
    "ingredients": [
        {
            "amount": "1", 
            "ingredient": "picked over turkey carcass"
        }, 
        {
            "amount": "12 cups", 
            "ingredient": "water"
        }, 
        {
            "amount": "1 1/2 cups", 
            "ingredient": "chopped celery"
        }, 
        {
            "amount": "5", 
            "ingredient": "carrots"
        }, 
        {
            "amount": "1", 
            "ingredient": "yellow onion, cut into wedges"
        }, 
        {
            "amount": "2 teaspoons", 
            "ingredient": "salt"
        }, 
        {
            "amount": "3/4 teaspoon", 
            "ingredient": "dried thyme"
        }, 
        {
            "amount": "1 cube", 
            "ingredient": "chicken bouillon"
        }, 
        {
            "amount": "1", 
            "ingredient": "bay leaf"
        }, 
        {
            "amount": "6 tablespoons", 
            "ingredient": "all-purpose flour"
        }, 
        {
            "amount": "1/2 cup", 
            "ingredient": "milk"
        }, 
        {
            "amount": "1 small", 
            "ingredient": "rutabaga, cubed"
        }, 
        {
            "amount": "1/2 teaspoon", 
            "ingredient": "ground black pepper"
        }, 
        {
            "amount": "1 1/2 pounds", 
            "ingredient": "cooked turkey, cubed"
        }, 
        {
            "amount": "1/2 cup", 
            "ingredient": "chopped fresh parsley"
        }, 
        {
            "amount": "2 slices", 
            "ingredient": "white bread, quartered"
        }, 
        {
            "amount": "1 1/4 cups", 
            "ingredient": "all-purpose flour"
        }, 
        {
            "amount": "1 teaspoon", 
            "ingredient": "baking powder"
        }, 
        {
            "amount": "1/4 teaspoon", 
            "ingredient": "salt"
        }, 
        {
            "amount": "1/2 cup", 
            "ingredient": "milk"
        }, 
        {
            "amount": "4 tablespoons", 
            "ingredient": "butter, melted"
        }
    ], 
    "prep_steps": [
        "Combine turkey carcass, water, 1 cup celery, 2 carrots, onion, 2 teaspoons salt, thyme, bouillon, and bay leaf in large 4 quart stockpot. Bring to boiling. Lower heat, and cover. Simmer for 1 1/2 hours. Strain stock, and discard solids. Skim off fat using ladle or fat separator. Pick meat off bones when cooled. Reserve meat.", 
        "Combine 6 tablespoons flour and 1/2 cup milk in a jar with a tight fitting lid. Shake to combine. Pour stock into pot. Bring to simmering. Strain flour mixture through sieve into stock, stirring.", 
        "Slice remaining 3 carrots. Add rutabaga, ground pepper, remaining 1/2 cup celery, and sliced carrots. Simmer 20 minutes, or until vegetables are tender.", 
        "While the soup is simmering, prepare the dumplings. Combine parsley and bread in processor; whirl until medium size crumbs. Add 1 1/4 cups flour, baking powder, and salt; process just until combined. Add 1/2 cup milk and butter; process using on-off pulses just until blended.", 
        "Drop mounded tablespoons of dumpling mixture into simmering soup. Place cover on pot. Cook for 12 minutes, or until dumplings are dry in center. Add turkey meat; cook 3 minutes, or until heated through."
    ], 
    "recipe_name": "Hearty Turkey Soup with Parsley Dumplings"
}