{
    "ingredients": [
        {
            "amount": "6", 
            "ingredient": "skinless, boneless chicken breast halves"
        }, 
        {
            "amount": "1 (8 ounce) bottle", 
            "ingredient": "Italian-style salad dressing"
        }, 
        {
            "amount": "1 (10.75 ounce) can", 
            "ingredient": "condensed cream of chicken soup"
        }, 
        {
            "amount": "1 cup", 
            "ingredient": "chicken broth"
        }, 
        {
            "amount": "1 (8 ounce) package", 
            "ingredient": "cream cheese"
        }, 
        {
            "amount": "1/2 teaspoon", 
            "ingredient": "dried basil"
        }, 
        {
            "amount": "1/2 teaspoon", 
            "ingredient": "dried thyme"
        }
    ], 
    "prep_steps": [
        "In a slow cooker, combine the chicken breasts and Italian-style dressing.", 
        "Cover, and cook on Low for 6 to 8 hours.", 
        "Drain off the juices, and shred the chicken meat. In a medium bowl, mix the soup, broth, cream cheese, basil, thyme, salt, and pepper. Pour over the chicken in the slow cooker. Continue cooking on Low for 1 hour."
    ], 
    "prep_time": "9 hrs", 
    "recipe_name": "Easy and Delicious Chicken"
}