{
    "ingredients": [
        {
            "amount": "1/4 cup", 
            "ingredient": "whiskey"
        }, 
        {
            "amount": "1/4 cup", 
            "ingredient": "soy sauce"
        }, 
        {
            "amount": "1/4 cup", 
            "ingredient": "Dijon mustard"
        }, 
        {
            "amount": "1/4 cup", 
            "ingredient": "finely chopped green onion"
        }, 
        {
            "amount": "1/4 cup", 
            "ingredient": "packed brown sugar"
        }, 
        {
            "amount": "1 teaspoon", 
            "ingredient": "salt"
        }, 
        {
            "amount": "1 dash", 
            "ingredient": "Worcestershire sauce"
        }
    ], 
    "prep_steps": [
        "Stir together the whiskey, soy sauce, Dijon mustard, green onion, brown sugar, salt, Worcestershire sauce, and pepper."
    ], 
    "prep_time": "5 mins", 
    "recipe_name": "Whiskey Marinade"
}