{
    "ingredients": [
        {
            "amount": "3", 
            "ingredient": "green bell pepper, minced"
        }, 
        {
            "amount": "2 (4 ounce) cans", 
            "ingredient": "diced jalapeno peppers"
        }, 
        {
            "amount": "1 1/2 cups", 
            "ingredient": "distilled white vinegar"
        }, 
        {
            "amount": "6 1/2 cups", 
            "ingredient": "white sugar"
        }, 
        {
            "amount": "1/2 teaspoon", 
            "ingredient": "cayenne pepper"
        }, 
        {
            "amount": "1 (6 fluid ounce) container", 
            "ingredient": "liquid pectin"
        }, 
        {
            "amount": "5 drops", 
            "ingredient": "green food coloring"
        }
    ], 
    "prep_steps": [
        "In a large, stainless steel saucepan, combine peppers, vinegar, sugar, and cayenne pepper. Cook over medium high heat. Stir frequently until mixture begins to boil.", 
        "Stir in pectin; boil 5 minutes longer, stirring constantly, and mix in food coloring. Skim off foam, and remove from heat.", 
        "Ladle into sterilized jars. Seal, and process in a boiling-water canner for 5 minutes."
    ], 
    "recipe_name": "Jalapeno Pepper Jelly"
}