{
    "ingredients": [
        {
            "amount": "2 tablespoons", 
            "ingredient": "dried minced onion"
        }, 
        {
            "amount": "2 1/2 teaspoons", 
            "ingredient": "dried thyme"
        }, 
        {
            "amount": "2 teaspoons", 
            "ingredient": "ground allspice"
        }, 
        {
            "amount": "2 teaspoons", 
            "ingredient": "ground black pepper"
        }, 
        {
            "amount": "1/2 teaspoon", 
            "ingredient": "ground cinnamon"
        }, 
        {
            "amount": "1/2 teaspoon", 
            "ingredient": "cayenne pepper"
        }, 
        {
            "amount": "1/2 teaspoon", 
            "ingredient": "salt"
        }, 
        {
            "amount": "2 tablespoons", 
            "ingredient": "vegetable oil"
        }
    ], 
    "prep_steps": [
        "In a small bowl, stir together the dried onion, thyme, allspice, ground black pepper, cinnamon, cayenne pepper, and salt. Coat meat lightly with oil, then rub seasoning onto meat."
    ], 
    "prep_time": "10 mins", 
    "recipe_name": "Jerk Seasoning"
}