{
    "ingredients": [
        {
            "amount": "4 tablespoons", 
            "ingredient": "butter, melted"
        }, 
        {
            "amount": "1/2 cup", 
            "ingredient": "brown sugar"
        }, 
        {
            "amount": "1/2 cup", 
            "ingredient": "chopped pecans"
        }, 
        {
            "amount": "4", 
            "ingredient": "bananas, sliced"
        }, 
        {
            "amount": "1 (18.25 ounce) package", 
            "ingredient": "banana cake mix"
        }
    ], 
    "prep_steps": [
        "Preheat oven to 350 degrees F (175 degrees C). Grease and flour 2 (8 inch) pans. Combine butter and brown sugar, divide and spread evenly between the 2 pans. Sprinkle pecans evenly over both brown sugar mixtures, arrange banana slices evenly over each.", 
        "Prepare cake mix according to package instructions. Divide batter into the 2 pans.", 
        "Bake in the preheated oven for 40 to 45 minutes, or until a toothpick inserted into the center of the cake comes out clean. Turn cakes upside down on a platter or plate, gently tap bottom and carefully remove pans, replacing caramel mixture that sticks to pan."
    ], 
    "prep_time": "1\u00bd hrs", 
    "recipe_name": "Banana Upside-Down Cake"
}