{
    "ingredients": [
        {
            "amount": "1/3 cup", 
            "ingredient": "white sugar"
        }, 
        {
            "amount": "3 tablespoons", 
            "ingredient": "cornstarch"
        }, 
        {
            "amount": "1/4 teaspoon", 
            "ingredient": "salt"
        }, 
        {
            "amount": "2 1/2 cups", 
            "ingredient": "milk"
        }, 
        {
            "amount": "1 1/2 teaspoons", 
            "ingredient": "vanilla extract"
        }
    ], 
    "prep_steps": [
        "In a saucepan, combine the sugar, corn starch and salt. Add milk and cook over medium heat, stirring constantly until mixture thickens. Add vanilla and continue to cook for 2 to 3 minutes.", 
        "Pour into individual molds rinsed with cold water; chill until firm and unmold."
    ], 
    "recipe_name": "Vanilla Pudding"
}