{
    "ingredients": [
        {
            "amount": "2 cups", 
            "ingredient": "all-purpose flour"
        }, 
        {
            "amount": "1 cup", 
            "ingredient": "white sugar"
        }, 
        {
            "amount": "1 1/2 teaspoons", 
            "ingredient": "baking powder"
        }, 
        {
            "amount": "1/2 teaspoon", 
            "ingredient": "baking soda"
        }, 
        {
            "amount": "2 teaspoons", 
            "ingredient": "orange zest"
        }, 
        {
            "amount": "1 1/2 teaspoons", 
            "ingredient": "ground nutmeg"
        }, 
        {
            "amount": "1 teaspoon", 
            "ingredient": "ground cinnamon"
        }, 
        {
            "amount": "1/2 teaspoon", 
            "ingredient": "ground ginger"
        }, 
        {
            "amount": "1/2 cup", 
            "ingredient": "shortening"
        }, 
        {
            "amount": "3/4 cup", 
            "ingredient": "orange juice"
        }, 
        {
            "amount": "1 teaspoon", 
            "ingredient": "vanilla extract"
        }, 
        {
            "amount": "2", 
            "ingredient": "eggs, beaten"
        }, 
        {
            "amount": "1 1/2 cups", 
            "ingredient": "chopped cranberries"
        }, 
        {
            "amount": "1 1/2 cups", 
            "ingredient": "chopped walnuts"
        }, 
        {
            "amount": "1 (8 ounce) can", 
            "ingredient": "whole cranberry sauce"
        }, 
        {
            "amount": "2 tablespoons", 
            "ingredient": "brown sugar, packed"
        }, 
        {
            "amount": "1/4 cup", 
            "ingredient": "margarine"
        }
    ], 
    "prep_steps": [
        "Preheat oven to 350 degrees F (175 degrees C). Spray or grease a 12 cup and 6 cup muffin tin.", 
        "Mix together the flour, sugar, baking powder, baking soda, orange peel, nutmeg, cinnamon and ginger.", 
        "Cut in shortening; stir in juice, vanilla, eggs, cranberries and nuts. Pour into muffin cups and bake for 25 minutes or until brown.", 
        "Prepare the topping in a saucepan over low heat by whisking together the cranberry sauce, brown sugar and margarine. Cook until heated and smooth. Remove from heat and serve as a spread for the muffins."
    ], 
    "recipe_name": "Cranberry Muffins"
}