{
    "ingredients": [
        {
            "amount": "1 pound", 
            "ingredient": "ground venison"
        }, 
        {
            "amount": "1", 
            "ingredient": "onion, chopped"
        }, 
        {
            "amount": "1 (14.5 ounce) can", 
            "ingredient": "stewed tomatoes"
        }, 
        {
            "amount": "2 (8 ounce) cans", 
            "ingredient": "tomato sauce"
        }, 
        {
            "amount": "3 cups", 
            "ingredient": "water"
        }, 
        {
            "amount": "1 tablespoon", 
            "ingredient": "minced garlic"
        }, 
        {
            "amount": "2 teaspoons", 
            "ingredient": "dried basil"
        }, 
        {
            "amount": "2 teaspoons", 
            "ingredient": "dried oregano"
        }, 
        {
            "amount": "1 teaspoon", 
            "ingredient": "salt"
        }, 
        {
            "amount": "1/2 teaspoon", 
            "ingredient": "ground black pepper"
        }, 
        {
            "amount": "1 (15 ounce) can", 
            "ingredient": "pinto beans"
        }, 
        {
            "amount": "1 (15 ounce) can", 
            "ingredient": "green beans"
        }, 
        {
            "amount": "1", 
            "ingredient": "carrot, chopped"
        }, 
        {
            "amount": "1", 
            "ingredient": "zucchini, chopped"
        }, 
        {
            "amount": "1/2 (16 ounce) package", 
            "ingredient": "fusilli (spiral) pasta"
        }
    ], 
    "prep_steps": [
        "Brown venison, onion, and garlic over medium heat until meat is no longer pink. Add tomatoes, tomato sauce, water, and spices. Bring to a boil, and then simmer for about 30 minutes.", 
        "Stir in beans, carrots, and zucchini. Simmer soup for 90 minutes.", 
        "Add pasta, and cook until tender. Top individual servings with grated cheese, and serve."
    ], 
    "prep_time": "3 hrs", 
    "recipe_name": "Venison Italian Soup"
}