{
    "ingredients": [
        {
            "amount": "1 1/2 cups", 
            "ingredient": "oat bran"
        }, 
        {
            "amount": "1 1/2 cups", 
            "ingredient": "all-purpose flour"
        }, 
        {
            "amount": "1/2 cup", 
            "ingredient": "packed brown sugar"
        }, 
        {
            "amount": "2 teaspoons", 
            "ingredient": "baking soda"
        }, 
        {
            "amount": "2 teaspoons", 
            "ingredient": "baking powder"
        }, 
        {
            "amount": "1 teaspoon", 
            "ingredient": "ground cinnamon"
        }, 
        {
            "amount": "1/2 teaspoon", 
            "ingredient": "salt"
        }, 
        {
            "amount": "1 1/8 cups", 
            "ingredient": "applesauce"
        }, 
        {
            "amount": "1/2 cup", 
            "ingredient": "egg substitute"
        }, 
        {
            "amount": "2 tablespoons", 
            "ingredient": "canola oil"
        }, 
        {
            "amount": "1 teaspoon", 
            "ingredient": "vanilla extract"
        }, 
        {
            "amount": "1 1/2 cups", 
            "ingredient": "blueberries"
        }, 
        {
            "amount": "1/4 cup", 
            "ingredient": "chopped pecans"
        }, 
        {
            "amount": "1/2 cup", 
            "ingredient": "low fat granola"
        }
    ], 
    "prep_steps": [
        "Preheat oven to 400 degrees F (200 degrees C). Line a 12 cup muffin pan with paper muffin liners, and spray liners with cooking spray.", 
        "In a large bowl, mix the oat bran, flour, brown sugar, baking soda, baking powder, cinnamon, and salt. In a separate bowl, blend the applesauce, egg substitute, canola oil, and vanilla extract. Thoroughly mix the applesauce mixture into the flour mixture. Fold in the blueberries and pecans. Spoon the batter into the prepared muffin cups. Sprinkle batter with granola, and press granola lightly to make it stick.", 
        "Bake 18 minutes in the preheated oven, or until a toothpick inserted into a muffin comes out clean. Cool on a wire rack."
    ], 
    "prep_time": "45 mins", 
    "recipe_name": "Blueberry Nut Oat Bran Muffins"
}