{
    "ingredients": [
        {
            "amount": "1 tablespoon", 
            "ingredient": "butter"
        }, 
        {
            "amount": "8 small", 
            "ingredient": "tomatoes, diced"
        }, 
        {
            "amount": "1/4 cup", 
            "ingredient": "chopped fresh basil"
        }, 
        {
            "amount": "1 teaspoon", 
            "ingredient": "olive oil"
        }, 
        {
            "amount": "1 teaspoon", 
            "ingredient": "garlic salt"
        }, 
        {
            "amount": "1 tablespoon", 
            "ingredient": "all-purpose flour"
        }, 
        {
            "amount": "1/4 cup", 
            "ingredient": "water"
        }, 
        {
            "amount": "1 clove", 
            "ingredient": "garlic, grated"
        }
    ], 
    "prep_steps": [
        "Melt the butter in a large skillet over medium heat; cook the tomatoes in the melted butter until they begin to fall apart, 5 to 7 minutes. Add the basil, olive oil, garlic salt, salt, and pepper. Slowly stir the flour into the mixture and cook until it begins to thicken, 5 to 7 minutes. Stir the water through the mixture to break up any lumps of the flour. Mix the garlic into the sauce and simmer another 5 minutes. Serve hot."
    ], 
    "prep_time": "30 mins", 
    "recipe_name": "Homemade Tomato Basil Pasta Sauce"
}