{
    "ingredients": [
        {
            "amount": "4", 
            "ingredient": "green bell peppers, tops and seeds removed"
        }, 
        {
            "amount": "1 1/2 pounds", 
            "ingredient": "lean ground beef"
        }, 
        {
            "amount": "1 cup", 
            "ingredient": "cooked white rice"
        }, 
        {
            "amount": "1", 
            "ingredient": "egg, lightly beaten"
        }, 
        {
            "amount": "1/4 cup", 
            "ingredient": "finely chopped onion"
        }, 
        {
            "amount": "1/2 cup", 
            "ingredient": "Italian-style bread crumbs"
        }, 
        {
            "amount": "1/4 teaspoon", 
            "ingredient": "salt"
        }, 
        {
            "amount": "1/4 teaspoon", 
            "ingredient": "black pepper"
        }, 
        {
            "amount": "1/2 teaspoon", 
            "ingredient": "garlic powder"
        }, 
        {
            "amount": "1/4 cup", 
            "ingredient": "grated Parmesan cheese"
        }, 
        {
            "amount": "1 (28 ounce) can", 
            "ingredient": "tomato sauce"
        }, 
        {
            "amount": "1/4 cup", 
            "ingredient": "white vinegar"
        }, 
        {
            "amount": "2 tablespoons", 
            "ingredient": "grated Parmesan cheese"
        }
    ], 
    "prep_steps": [
        "Bring a large pot of water to a boil.", 
        "Cook the peppers in boiling water until softened, 4 to 5 minutes.", 
        "Remove peppers from boiling water and rinse with cold water; set peppers aside to drain.", 
        "Mix together ground beef, cooked white rice, lightly beaten egg, finely chopped onion, Italian-style bread crumbs, salt, black pepper, garlic powder, and 1/4 cup grated Parmesan cheese in a large bowl until evenly mixed.", 
        "Preheat oven to 350 degrees F (175 degrees C).", 
        "Divide beef and rice mixture among peppers; stuff each pepper with beef and rice mixture.", 
        "Place peppers open side up in a 9x13-inch baking dish or shallow roasting pan.", 
        "Combine tomato sauce and white vinegar in a bowl.", 
        "Pour tomato mixture over stuffed peppers.", 
        "Top with 2 tablespoons grated Parmesan cheese.", 
        "Bake in the preheated oven until heated through, basting the peppers two or three times while baking, about 80 minutes."
    ], 
    "prep_time": "2 hrs", 
    "recipe_name": "Homestyle Stuffed Peppers"
}