{
    "ingredients": [
        {
            "amount": "1 (16 ounce) package", 
            "ingredient": "lasagna noodles"
        }, 
        {
            "amount": "1 pound", 
            "ingredient": "fresh mushrooms, sliced"
        }, 
        {
            "amount": "3/4 cup", 
            "ingredient": "chopped green bell pepper"
        }, 
        {
            "amount": "3/4 cup", 
            "ingredient": "chopped onion"
        }, 
        {
            "amount": "3 cloves", 
            "ingredient": "garlic, minced"
        }, 
        {
            "amount": "2 tablespoons", 
            "ingredient": "vegetable oil"
        }, 
        {
            "amount": "2 (26 ounce) jars", 
            "ingredient": "pasta sauce"
        }, 
        {
            "amount": "1 teaspoon", 
            "ingredient": "dried basil"
        }, 
        {
            "amount": "1 (15 ounce) container", 
            "ingredient": "part-skim ricotta cheese"
        }, 
        {
            "amount": "4 cups", 
            "ingredient": "shredded mozzarella cheese"
        }, 
        {
            "amount": "2", 
            "ingredient": "eggs"
        }, 
        {
            "amount": "1/2 cup", 
            "ingredient": "grated Parmesan cheese"
        }
    ], 
    "prep_steps": [
        "Cook the lasagna noodles in a large pot of boiling water for 10 minutes, or until al dente. Rinse with cold water, and drain.", 
        "In a large saucepan, cook and stir mushrooms, green peppers, onion, and garlic in oil. Stir in pasta sauce and basil; bring to a boil. Reduce heat, and simmer 15 minutes.", 
        "Mix together ricotta, 2 cups mozzarella cheese, and eggs.", 
        "Preheat oven to 350 degrees F (175 degrees C). Spread 1 cup tomato sauce into the bottom of a greased 9x13 inch baking dish. Layer 1/2 each, lasagna noodles, ricotta mix, sauce, and Parmesan cheese. Repeat layering, and top with remaining 2 cups mozzarella cheese.", 
        "Bake, uncovered, for 40 minutes. Let stand 15 minutes before serving."
    ], 
    "prep_time": "1\u00be hrs", 
    "recipe_name": "Hearty Vegetable Lasagna"
}