{
    "ingredients": [
        {
            "amount": "1 teaspoon", 
            "ingredient": "sea salt"
        }, 
        {
            "amount": "1 teaspoon", 
            "ingredient": "ground black pepper"
        }, 
        {
            "amount": "1 teaspoon", 
            "ingredient": "ground cumin"
        }, 
        {
            "amount": "1 teaspoon", 
            "ingredient": "paprika"
        }, 
        {
            "amount": "1 teaspoon", 
            "ingredient": "Italian seasoning"
        }, 
        {
            "amount": "1 teaspoon", 
            "ingredient": "garlic powder"
        }, 
        {
            "amount": "3", 
            "ingredient": "skinless, boneless chicken breast halves"
        }, 
        {
            "amount": "1 (10.75 ounce) can", 
            "ingredient": "cream of mushroom soup"
        }, 
        {
            "amount": "6 ounces", 
            "ingredient": "Italian salad dressing"
        }, 
        {
            "amount": "2/3 cup", 
            "ingredient": "sour cream"
        }, 
        {
            "amount": "1/2 cup", 
            "ingredient": "grated Parmesan cheese"
        }, 
        {
            "amount": "1/4 cup", 
            "ingredient": "all-purpose flour"
        }, 
        {
            "amount": "2 teaspoons", 
            "ingredient": "malt vinegar"
        }, 
        {
            "amount": "1 (8 ounce) package", 
            "ingredient": "angel hair pasta"
        }
    ], 
    "prep_steps": [
        "Whisk sea salt, black pepper, cumin, paprika, Italian seasoning, and garlic powder together in a bowl. Season chicken breasts with seasoning mixture and place chicken in the slow cooker.", 
        "Stir cream of mushroom soup, Italian dressing, sour cream, Parmesan cheese, flour, and vinegar together in a bowl; pour over chicken.", 
        "Cook on Low for 6 hours.", 
        "Shred chicken in the slow cooker using 2 forks.", 
        "Bring a large pot of lightly salted water to a boil. Cook angel hair in the boiling water, stirring occasionally until cooked through but firm to the bite, 4 to 5 minutes. Drain.", 
        "Serve chicken over angel hair pasta."
    ], 
    "prep_time": "6 hrs", 
    "recipe_name": "Melt-in-Your-Mouth Slow Cooker Chicken"
}