{
    "ingredients": [
        {
            "amount": "1 (16 ounce) package", 
            "ingredient": "rotini pasta"
        }, 
        {
            "amount": "4 (3.5 ounce) links", 
            "ingredient": "Italian sausages, sliced"
        }, 
        {
            "amount": "2", 
            "ingredient": "skinless, boneless chicken breast halves, cubed"
        }, 
        {
            "amount": "1", 
            "ingredient": "onion, chopped"
        }, 
        {
            "amount": "1 clove", 
            "ingredient": "garlic, minced"
        }, 
        {
            "amount": "1", 
            "ingredient": "green bell pepper, diced"
        }, 
        {
            "amount": "1 teaspoon", 
            "ingredient": "Italian seasoning"
        }, 
        {
            "amount": "1 (14.5 ounce) can", 
            "ingredient": "diced tomatoes"
        }, 
        {
            "amount": "1 3/4 cups", 
            "ingredient": "spaghetti sauce"
        }, 
        {
            "amount": "1 (4.5 ounce) can", 
            "ingredient": "sliced mushrooms"
        }, 
        {
            "amount": "3", 
            "ingredient": "zucchinis, thickly sliced"
        }
    ], 
    "prep_steps": [
        "In a large pot with boiling salted water cook rotini pasta until al dente. Drain.", 
        "Meanwhile, in a large Dutch oven cook sliced Italian sausage until brown. Add cubed chicken and cook until no pink remains in either meat. Add onion, garlic, green bell pepper, Italian seasoning, salt and ground black pepper and stir together. Cover and simmer until vegetables are tender. Stir in tomatoes, spaghetti sauce, mushrooms, and zucchini. Simmer until zucchini is tender yet crisp.", 
        "Toss cooked pasta with sauce. Serve warm."
    ], 
    "prep_time": "40 mins", 
    "recipe_name": "Chicken, Sausage and Zucchini Pasta"
}