{
    "ingredients": [
        {
            "amount": "1 pound", 
            "ingredient": "ground beef"
        }, 
        {
            "amount": "1", 
            "ingredient": "onion, chopped"
        }, 
        {
            "amount": "1 (10.75 ounce) can", 
            "ingredient": "condensed vegetable beef soup, undiluted"
        }, 
        {
            "amount": "1 (10.75 ounce) can", 
            "ingredient": "condensed cream of mushroom soup"
        }, 
        {
            "amount": "3", 
            "ingredient": "potatoes, peeled and cubed"
        }, 
        {
            "amount": "4", 
            "ingredient": "carrots, sliced"
        }, 
        {
            "amount": "1/4 teaspoon", 
            "ingredient": "salt"
        }, 
        {
            "amount": "1/8 teaspoon", 
            "ingredient": "black pepper"
        }, 
        {
            "amount": "1 recipe", 
            "ingredient": "pastry for a 9 inch double crust pie"
        }
    ], 
    "prep_steps": [
        "Preheat oven to 350 degrees F (175 degrees C.)", 
        "In a large skillet, cook the ground beef and chopped onion until meat is no longer pink. Remove from heat and drain off excess fat. Stir in the vegetable beef and cream of mushroom soups, the potatoes and carrots. Season with salt and pepper. Divide filling between 2 - 9 inch pie plates.", 
        "Roll pastry to fit the top of each pie. Cover each pie and cut slits in top to allow steam to escape.", 
        "Bake in the preheated oven for 45 to 50 minutes, or until golden brown. Let stand on a wire rack for 15 minutes before serving."
    ], 
    "prep_time": "45 mins", 
    "recipe_name": "Tasty Meat Pie"
}