{
    "ingredients": [
        {
            "amount": "1 pound", 
            "ingredient": "lean ground beef"
        }, 
        {
            "amount": "1 (11 ounce) can", 
            "ingredient": "whole kernel corn"
        }, 
        {
            "amount": "1 (10.75 ounce) can", 
            "ingredient": "condensed tomato soup"
        }, 
        {
            "amount": "1 (8 ounce) package", 
            "ingredient": "wide egg noodles"
        }, 
        {
            "amount": "1/4 cup", 
            "ingredient": "grated Parmesan cheese"
        }
    ], 
    "prep_steps": [
        "In a large skillet, cook and stir ground meat until browned. Drain off excess fat.", 
        "Stir in corn and tomato soup. Simmer while the noodles are cooking, about 10 minutes.", 
        "Cook pasta in a large pot of boiling water until al dente. Drain.", 
        "Stir noodles into ground beef mixture, and sprinkle parmesan cheese on top. Serve immediately."
    ], 
    "prep_time": "30 mins", 
    "recipe_name": "Slumgullion"
}