{
    "ingredients": [
        {
            "amount": "7 cups", 
            "ingredient": "chopped new potatoes"
        }, 
        {
            "amount": "1 (8 ounce) container", 
            "ingredient": "sour cream"
        }, 
        {
            "amount": "2 teaspoons", 
            "ingredient": "chopped fresh dill weed"
        }, 
        {
            "amount": "1 teaspoon", 
            "ingredient": "dried parsley"
        }, 
        {
            "amount": "2 tablespoons", 
            "ingredient": "Dijon mustard"
        }, 
        {
            "amount": "1/2 teaspoon", 
            "ingredient": "salt"
        }, 
        {
            "amount": "1/4 teaspoon", 
            "ingredient": "pepper"
        }
    ], 
    "prep_steps": [
        "Bring a large pot of salted water to a boil. Add potatoes and cook until tender but still firm, about 15 minutes. Drain, cool, peel and chill.", 
        "Meanwhile, in a medium bowl combine sour cream, dill, parsley, Dijon, salt and pepper.", 
        "Pour dressing over potatoes and toss gently. Chill before serving."
    ], 
    "prep_time": "1\u00bc hrs", 
    "recipe_name": "Dill Potato Salad"
}