{
    "ingredients": [
        {
            "amount": "1/2 cup", 
            "ingredient": "all-purpose flour"
        }, 
        {
            "amount": "1/2 cup", 
            "ingredient": "cornmeal"
        }, 
        {
            "amount": "2 tablespoons", 
            "ingredient": "white sugar"
        }, 
        {
            "amount": "2 teaspoons", 
            "ingredient": "baking powder"
        }, 
        {
            "amount": "1/4 teaspoon", 
            "ingredient": "salt"
        }, 
        {
            "amount": "1", 
            "ingredient": "egg"
        }, 
        {
            "amount": "1/2 cup", 
            "ingredient": "milk"
        }, 
        {
            "amount": "2 tablespoons", 
            "ingredient": "vegetable oil"
        }
    ], 
    "prep_steps": [
        "Mix the flour, cornmeal, sugar, baking powder, salt, egg, milk, and vegetable oil in a microwave-safe glass or ceramic bowl.", 
        "Heat in the microwave on high, until a toothpick inserted into the center comes out clean, about 3 minutes, rotating the bowl halfway through cooking if the microwave does not have a rotating tray."
    ], 
    "prep_time": "10 mins", 
    "recipe_name": "5 Minute Microwave Cornbread"
}