{
    "ingredients": [
        {
            "amount": "4 cups", 
            "ingredient": "quinoa"
        }, 
        {
            "amount": "4 cups", 
            "ingredient": "water"
        }, 
        {
            "amount": "1/4 cup", 
            "ingredient": "red wine vinegar"
        }, 
        {
            "amount": "2 teaspoons", 
            "ingredient": "salt"
        }, 
        {
            "amount": "1 teaspoon", 
            "ingredient": "ground black pepper"
        }, 
        {
            "amount": "1 teaspoon", 
            "ingredient": "lemon juice"
        }, 
        {
            "amount": "4 teaspoons", 
            "ingredient": "Dijon mustard"
        }, 
        {
            "amount": "1 cup", 
            "ingredient": "canola oil"
        }, 
        {
            "amount": "2", 
            "ingredient": "cucumbers, peeled and chopped"
        }, 
        {
            "amount": "1", 
            "ingredient": "green bell pepper, chopped"
        }, 
        {
            "amount": "1/2", 
            "ingredient": "red onion, chopped"
        }, 
        {
            "amount": "2", 
            "ingredient": "tomatoes, chopped"
        }, 
        {
            "amount": "1 (15 ounce) can", 
            "ingredient": "black olives, chopped"
        }
    ], 
    "prep_steps": [
        "Bring the quinoa and water to a boil in a saucepan. Reduce heat to medium-low, cover, and simmer until the quinoa is tender and the water has been absorbed, about 15 to 20 minutes. Scrape the cooked quinoa into a large bowl and refrigerate until cold, about 1 hour.", 
        "Place the vinegar, salt, pepper, lemon juice, and mustard into a blender. Drizzle in the oil while blending at high speed until the dressing is thick.", 
        "Add the cucumbers, bell pepper, red onion, tomato, and olives to the bowl with the quinoa. Pour the dressing overtop and gently fold until evenly mixed."
    ], 
    "prep_time": "1\u00bd hrs", 
    "recipe_name": "Quinoa Veggie Salad with Zesty Vinaigrette"
}