{
    "ingredients": [
        {
            "amount": "4 fluid ounces", 
            "ingredient": "amaretto liqueur, plus additional"
        }, 
        {
            "amount": "6 fluid ounces", 
            "ingredient": "frozen limeade concentrate"
        }, 
        {
            "amount": "6 fluid ounces", 
            "ingredient": "tequila"
        }, 
        {
            "amount": "1/2 cup", 
            "ingredient": "orange juice"
        }, 
        {
            "amount": "6 cups", 
            "ingredient": "ice"
        }
    ], 
    "prep_steps": [
        "Dip the rims of 4 margarita glasses in amaretto, then into sugar; set aside. Pour the limeaid, tequila, amaretto, orange juice, and ice into the bowl of a blender. Puree until smooth, then pour into prepared glasses."
    ], 
    "prep_time": "10 mins", 
    "recipe_name": "Italian Amaretto Margaritas"
}