{
    "ingredients": [
        {
            "amount": "1/4 pound", 
            "ingredient": "bacon"
        }, 
        {
            "amount": "2 pounds", 
            "ingredient": "venison stew meat"
        }, 
        {
            "amount": "1 large", 
            "ingredient": "yellow onion, chopped"
        }, 
        {
            "amount": "1/2 cup", 
            "ingredient": "brown sugar"
        }, 
        {
            "amount": "1/4 cup", 
            "ingredient": "wine vinegar"
        }, 
        {
            "amount": "1 tablespoon", 
            "ingredient": "ground cumin"
        }, 
        {
            "amount": "1 teaspoon", 
            "ingredient": "chili powder"
        }, 
        {
            "amount": "2 tablespoons", 
            "ingredient": "minced garlic"
        }, 
        {
            "amount": "1 tablespoon", 
            "ingredient": "prepared Dijon-style mustard"
        }, 
        {
            "amount": "1 cup", 
            "ingredient": "ketchup"
        }
    ], 
    "prep_steps": [
        "Place bacon in a large, deep skillet. Cook over medium high heat until evenly brown. Remove from skillet, crumble and set aside. Brown stew meat in bacon grease for flavor.", 
        "Put onion, sugar, vinegar, cumin, chili powder, garlic, mustard, ketchup, salt and pepper in slow cooker and mix well. Add bacon and venison and stir together.", 
        "Cook for a minimum of 8 hours on Low setting. Use a fork to separate the meat into a thick and yummy Sloppy Joe-style barbecue."
    ], 
    "prep_time": "8 hrs", 
    "recipe_name": "Slow Cooker Venison Sloppy Joes"
}