{
    "ingredients": [
        {
            "amount": "3 pounds", 
            "ingredient": "flat iron steak"
        }, 
        {
            "amount": "3 tablespoons", 
            "ingredient": "extra-virgin olive oil"
        }, 
        {
            "amount": "2 tablespoons", 
            "ingredient": "coarsely ground mixed peppercorns"
        }, 
        {
            "amount": "1 1/2 teaspoons", 
            "ingredient": "salt"
        }, 
        {
            "amount": "1 tablespoon", 
            "ingredient": "butter"
        }, 
        {
            "amount": "1 clove", 
            "ingredient": "garlic, minced"
        }, 
        {
            "amount": "1 cup", 
            "ingredient": "balsamic vinegar"
        }, 
        {
            "amount": "1/4 cup", 
            "ingredient": "chopped fresh parsley"
        }
    ], 
    "prep_steps": [
        "Brush steak with olive oil, then press into ground peppercorns and season with salt; set aside. Melt butter in a large skillet over medium high heat. Add flat iron, and cook to desired degree of doneness, about 4 minutes per side for medium-rare.", 
        "Once the steak has finished cooking, remove to a plate and keep warm. Stir the minced garlic into the skillet, and cook over medium heat until the garlic begins to brown around the edges, about 1 minute. Pour in the balsamic vinegar, increase heat to medium-high, and simmer until the vinegar has reduced by half.", 
        "Thinly slice the flat iron steak across the grain, and arrange on a serving platter. Pour the reduced balsamic overtop, and sprinkle with chopped parsley to serve."
    ], 
    "prep_time": "40 mins", 
    "recipe_name": "Flat Iron Steak with Balsamic Reduction"
}