{
    "ingredients": [
        {
            "amount": "1/2 bunch", 
            "ingredient": "cilantro, coarsely chopped"
        }, 
        {
            "amount": "3", 
            "ingredient": "serrano chile peppers, seeded and chopped"
        }, 
        {
            "amount": "3 cloves", 
            "ingredient": "garlic"
        }, 
        {
            "amount": "1 cup", 
            "ingredient": "mayonnaise"
        }, 
        {
            "amount": "1 cup", 
            "ingredient": "heavy cream"
        }
    ], 
    "prep_steps": [
        "Place cilantro, serrano peppers, garlic, mayonnaise, and cream into a blender; season with salt and pepper. Puree until smooth, about 15 seconds."
    ], 
    "prep_time": "10 mins", 
    "recipe_name": "Cilantro Serrano Cream Sauce"
}