{
    "ingredients": [
        {
            "amount": "3 cups", 
            "ingredient": "all-purpose flour"
        }, 
        {
            "amount": "1/2 teaspoon", 
            "ingredient": "baking powder"
        }, 
        {
            "amount": "1/2 teaspoon", 
            "ingredient": "salt"
        }, 
        {
            "amount": "1/2 cup", 
            "ingredient": "unsweetened cocoa powder"
        }, 
        {
            "amount": "1 cup", 
            "ingredient": "butter, softened"
        }, 
        {
            "amount": "1/2 cup", 
            "ingredient": "shortening"
        }, 
        {
            "amount": "3 cups", 
            "ingredient": "white sugar"
        }, 
        {
            "amount": "1 teaspoon", 
            "ingredient": "vanilla extract"
        }, 
        {
            "amount": "5", 
            "ingredient": "eggs"
        }, 
        {
            "amount": "1 cup", 
            "ingredient": "milk"
        }
    ], 
    "prep_steps": [
        "Preheat oven to 325 degrees F (165 degrees C). Grease and flour a 10 inch Bundt pan. Sift flour, baking powder, salt and cocoa. Set aside.", 
        "In a large bowl, cream butter, shortening, sugar, and vanilla until light and fluffy. Add eggs one at a time, beating well after each. Add flour mixture alternately with the milk. Mix well.", 
        "Pour into 10 inch Bundt pan. Bake at 325 F (165 degrees C) for 70 minutes or until a toothpick inserted into cake comes out clean. Let cool for 10 minutes in the pan, then turn out onto a wire rack and cool completely."
    ], 
    "prep_time": "2 hr", 
    "recipe_name": "Chocolate Bundt Cake"
}