{
    "ingredients": [
        {
            "amount": "3 cups", 
            "ingredient": "self-rising flour"
        }, 
        {
            "amount": "2 tablespoons", 
            "ingredient": "white sugar"
        }, 
        {
            "amount": "1 (12 fluid ounce) can or bottle", 
            "ingredient": "beer"
        }, 
        {
            "amount": "1/2 cup", 
            "ingredient": "shredded Cheddar cheese"
        }, 
        {
            "amount": "1/4 cup", 
            "ingredient": "canned green chile peppers, chopped"
        }, 
        {
            "amount": "6 tablespoons", 
            "ingredient": "butter, melted"
        }
    ], 
    "prep_steps": [
        "Preheat oven to 350 degrees F (175 degrees C). Lightly grease a 9x5 inch loaf pan.", 
        "In a large bowl, stir together flour, sugar, beer, cheese and chilies. Spoon batter into prepared loaf pan; spread batter to evenly fill pan. Pour melted butter on top of loaf.", 
        "Bake in preheated oven for 50 to 60 minutes, until a toothpick inserted into center of loaf comes out clean."
    ], 
    "prep_time": "1\u00bc hrs", 
    "recipe_name": "Beer Bread II"
}