{
    "ingredients": [
        {
            "amount": "4", 
            "ingredient": "yellow squash"
        }, 
        {
            "amount": "1 tablespoon", 
            "ingredient": "minced onion"
        }, 
        {
            "amount": "1 tablespoon", 
            "ingredient": "butter"
        }, 
        {
            "amount": "1/2 cup", 
            "ingredient": "milk"
        }
    ], 
    "prep_steps": [
        "Slice and steam or boil squash until tender. Pour off any remaining water.", 
        "Mash the squash slightly. In a medium size pot place mashed squash, onion, butter, milk, salt and pepper. Mix well and heat over a medium flame. Serve warm."
    ], 
    "prep_time": "1 hr", 
    "recipe_name": "Yellow Squash"
}