{
    "ingredients": [
        {
            "amount": "2 tablespoons", 
            "ingredient": "canola oil"
        }, 
        {
            "amount": "1 medium", 
            "ingredient": "onion, chopped"
        }, 
        {
            "amount": "2 pounds", 
            "ingredient": "carrots, cut into medium dice"
        }, 
        {
            "amount": "2 teaspoons", 
            "ingredient": "ground ginger"
        }, 
        {
            "amount": "4 cups", 
            "ingredient": "vegetable broth"
        }, 
        {
            "amount": "2 cups", 
            "ingredient": "half-and-half"
        }
    ], 
    "prep_steps": [
        "Heat oil in a large pot over medium heat. Cook and stir onion until translucent and tender, about 5 minutes. Stir in carrots, ginger, and vegetable broth, and simmer for 20 minutes, or until carrots are tender. Remove from heat and allow to cool slightly.", 
        "Transfer to a blender or food processor and blend until smooth. Return to soup pot, add half and half, and heat until warmed through. Season with salt and pepper, and serve."
    ], 
    "prep_time": "1 hr", 
    "recipe_name": "Carrot Ginger Creme"
}