{
    "ingredients": [
        {
            "amount": "1 1/2 pounds", 
            "ingredient": "lean ground beef"
        }, 
        {
            "amount": "1", 
            "ingredient": "onion, finely diced"
        }, 
        {
            "amount": "1/4 cup", 
            "ingredient": "chopped green bell pepper"
        }, 
        {
            "amount": "1 (15 ounce) can", 
            "ingredient": "tomato sauce"
        }, 
        {
            "amount": "6 ounces", 
            "ingredient": "tomato paste"
        }, 
        {
            "amount": "1 (16 ounce) can", 
            "ingredient": "chili beans, drained"
        }, 
        {
            "amount": "1 tablespoon", 
            "ingredient": "chili powder"
        }, 
        {
            "amount": "1 teaspoon", 
            "ingredient": "hot pepper sauce"
        }, 
        {
            "amount": "1/2 teaspoon", 
            "ingredient": "seasoning salt"
        }, 
        {
            "amount": "1/2 teaspoon", 
            "ingredient": "ground cayenne pepper"
        }, 
        {
            "amount": "1/4 teaspoon", 
            "ingredient": "garlic powder"
        }
    ], 
    "prep_steps": [
        "Place ground beef in a large, deep skillet. Cook over medium-high heat until evenly brown. Drain excess fat, and crumble. Stir in onion, green pepper, tomato sauce, tomato paste and chili beans. Season with chili powder, hot sauce, seasoning salt, cayenne pepper and garlic powder.", 
        "Cook over low heat, stirring occasionally, until desired consistency (at least 1 hour for best flavor)."
    ], 
    "prep_time": "1\u00bc hrs", 
    "recipe_name": "Skillet Chili"
}