{
    "ingredients": [
        {
            "amount": "4", 
            "ingredient": "skinless, boneless chicken breast halves - cooked and diced"
        }, 
        {
            "amount": "1 stalk", 
            "ingredient": "celery, diced"
        }, 
        {
            "amount": "4", 
            "ingredient": "green onions, chopped"
        }, 
        {
            "amount": "1", 
            "ingredient": "Golden Delicious apple - peeled, cored and diced"
        }, 
        {
            "amount": "1/3 cup", 
            "ingredient": "golden raisins"
        }, 
        {
            "amount": "1/3 cup", 
            "ingredient": "seedless green grapes, halved"
        }, 
        {
            "amount": "1/2 cup", 
            "ingredient": "chopped toasted pecans"
        }, 
        {
            "amount": "1/8 teaspoon", 
            "ingredient": "ground black pepper"
        }, 
        {
            "amount": "1/2 teaspoon", 
            "ingredient": "curry powder"
        }, 
        {
            "amount": "3/4 cup", 
            "ingredient": "light mayonnaise"
        }
    ], 
    "prep_steps": [
        "In a large bowl combine the chicken, celery, onion, apple, raisins, grapes, pecans, pepper, curry powder and mayonnaise. Mix all together. Serve!"
    ], 
    "prep_time": "45 mins", 
    "recipe_name": "Fruity Curry Chicken Salad"
}