{
    "ingredients": [
        {
            "amount": "2 (8 ounce) packages", 
            "ingredient": "cream cheese, softened"
        }, 
        {
            "amount": "1 (1 ounce) package", 
            "ingredient": "dry ranch salad dressing mix"
        }, 
        {
            "amount": "2 cups", 
            "ingredient": "shredded Cheddar cheese"
        }, 
        {
            "amount": "1/2 cup", 
            "ingredient": "beer, or as needed"
        }
    ], 
    "prep_steps": [
        "In a bowl, mash the cream cheese with the ranch dressing mix until thoroughly combined, then stir in the Cheddar cheese. Mix in beer, 1 tablespoon at a time, until you reach the desired consistency (add more for a thinner dip). Stir in the seasoned salt and cayenne pepper. Refrigerate until thoroughly chilled, at least 1 hour."
    ], 
    "prep_time": "1\u00bc hrs", 
    "recipe_name": "Beer Cheese Pretzel Dip"
}