{
    "ingredients": [
        {
            "amount": "7/8 cup", 
            "ingredient": "all-purpose flour"
        }, 
        {
            "amount": "1/2 cup", 
            "ingredient": "unsweetened cocoa powder"
        }, 
        {
            "amount": "1/2 teaspoon", 
            "ingredient": "baking powder"
        }, 
        {
            "amount": "1/2 teaspoon", 
            "ingredient": "salt"
        }, 
        {
            "amount": "3/4 cup", 
            "ingredient": "butter, melted"
        }, 
        {
            "amount": "1 1/2 cups", 
            "ingredient": "white sugar"
        }, 
        {
            "amount": "1 1/2 teaspoons", 
            "ingredient": "vanilla extract"
        }, 
        {
            "amount": "3", 
            "ingredient": "eggs"
        }, 
        {
            "amount": "3/4 cup", 
            "ingredient": "semisweet chocolate chips"
        }, 
        {
            "amount": "1/2 cup", 
            "ingredient": "chopped pecans"
        }
    ], 
    "prep_steps": [
        "Preheat the oven to 350 degrees F (175 degrees C). Grease an 8 inch square baking dish.", 
        "In a large bowl, combine the flour, cocoa, baking powder and salt; set aside. In a separate bowl, stir together the melted butter, sugar, and vanilla. Mix in the eggs. Gradually stir in the dry ingredients just until blended. Fold in chocolate chips and pecans if using. Spread the batter evenly in the prepared pan.", 
        "Bake in the preheated oven until the edges start to pull away from the sides of the pan and the top appears dry, 35 to 40 minutes."
    ], 
    "prep_time": "50 mins", 
    "recipe_name": "High Altitude Deep Dish Brownies"
}