{
    "ingredients": [
        {
            "amount": "16 ounces", 
            "ingredient": "pasta"
        }, 
        {
            "amount": "1 (6 ounce) can", 
            "ingredient": "black olives, drained and chopped"
        }, 
        {
            "amount": "1 (5 ounce) jar", 
            "ingredient": "stuffed green olives, sliced"
        }, 
        {
            "amount": "8 ounces", 
            "ingredient": "shredded Cheddar cheese"
        }, 
        {
            "amount": "8 ounces", 
            "ingredient": "shredded Monterey Jack cheese"
        }, 
        {
            "amount": "2 1/2 tablespoons", 
            "ingredient": "bacon bits"
        }, 
        {
            "amount": "1 (16 ounce) bottle", 
            "ingredient": "ranch-style salad dressing"
        }, 
        {
            "amount": "1/2 cup", 
            "ingredient": "chopped green onions"
        }, 
        {
            "amount": "1/2 teaspoon", 
            "ingredient": "ground black pepper"
        }
    ], 
    "prep_steps": [
        "Bring a large pot of lightly salted water to a boil. Add pasta and cook for 8 to 10 minutes or until al dente; drain and reserve.", 
        "In a large bowl, combine black olives, green olives, Cheddar cheese, Monterey Jack cheese, bacon bits, dressing, onion, ground black pepper and pasta; mix well.", 
        "Cover bowl, refrigerate to chill for one hour, and serve."
    ], 
    "recipe_name": "Ranch Pasta Salad"
}