{
    "ingredients": [
        {
            "amount": "8 slices", 
            "ingredient": "bacon"
        }, 
        {
            "amount": "1 (10 ounce) package", 
            "ingredient": "frozen green peas, thawed"
        }, 
        {
            "amount": "1 pound", 
            "ingredient": "imitation crab meat, flaked"
        }, 
        {
            "amount": "1/2 cup", 
            "ingredient": "mayonnaise"
        }, 
        {
            "amount": "1/4 teaspoon", 
            "ingredient": "onion powder"
        }
    ], 
    "prep_steps": [
        "Place bacon in a large, deep skillet. Cook over medium high heat until evenly brown. Drain, crumble and set aside.", 
        "In a medium bowl, combine peas, imitation crab, bacon, mayonnaise, and onion powder. Mix thoroughly. Cover and refrigerate until serving."
    ], 
    "prep_time": "15 mins", 
    "recipe_name": "Crab and Pea Salad"
}