{
    "ingredients": [
        {
            "amount": "4 cups", 
            "ingredient": "vegetable stock"
        }, 
        {
            "amount": "2 (14.5 ounce) cans", 
            "ingredient": "stewed tomatoes"
        }, 
        {
            "amount": "1 large", 
            "ingredient": "potato, cubed"
        }, 
        {
            "amount": "1", 
            "ingredient": "onion, chopped"
        }, 
        {
            "amount": "2 stalks", 
            "ingredient": "celery, chopped"
        }, 
        {
            "amount": "2", 
            "ingredient": "carrots, chopped"
        }, 
        {
            "amount": "1 large head", 
            "ingredient": "cabbage, finely chopped"
        }, 
        {
            "amount": "2 tablespoons", 
            "ingredient": "Italian seasoning"
        }, 
        {
            "amount": "1 (15 ounce) can", 
            "ingredient": "kidney beans"
        }, 
        {
            "amount": "3 cups", 
            "ingredient": "fresh corn kernels"
        }, 
        {
            "amount": "1 large", 
            "ingredient": "zucchini, sliced"
        }, 
        {
            "amount": "1 cup", 
            "ingredient": "uncooked orzo pasta"
        }
    ], 
    "prep_steps": [
        "In a large soup pot combine the vegetable stock, the undrained tomatoes, potato, onion, celery, carrot, cabbage and Italian seasoning. Bring to a boil and reduce heat. Simmer for about 15 minutes.", 
        "Stir in the beans, corn, zucchini and pasta; simmer for 10 to 15 more minutes until the vegetables are tender. Season with salt and pepper."
    ], 
    "recipe_name": "Minestrone Soup"
}