{
    "ingredients": [
        {
            "amount": "1 (6 inch)", 
            "ingredient": "flour tortilla"
        }, 
        {
            "amount": "2 tablespoons", 
            "ingredient": "peanut butter"
        }, 
        {
            "amount": "1 tablespoon", 
            "ingredient": "honey"
        }, 
        {
            "amount": "1", 
            "ingredient": "banana"
        }, 
        {
            "amount": "2 tablespoons", 
            "ingredient": "raisins"
        }
    ], 
    "prep_steps": [
        "Lay tortilla flat. Spread peanut butter and honey on tortilla. Place banana in the middle and sprinkle in the raisins. Wrap, and serve."
    ], 
    "prep_time": "5 mins", 
    "recipe_name": "Banana Tortilla Snacks"
}