{
    "ingredients": [
        {
            "amount": "6 cups", 
            "ingredient": "water"
        }, 
        {
            "amount": "1 tablespoon", 
            "ingredient": "salt"
        }, 
        {
            "amount": "1", 
            "ingredient": "onion, chopped"
        }, 
        {
            "amount": "1 (3 pound)", 
            "ingredient": "whole chicken"
        }, 
        {
            "amount": "3 1/2 cups", 
            "ingredient": "chicken broth"
        }, 
        {
            "amount": "1 cup", 
            "ingredient": "long-grain white rice"
        }, 
        {
            "amount": "1/2 pound", 
            "ingredient": "smoked sausage of your choice, sliced"
        }, 
        {
            "amount": "2 tablespoons", 
            "ingredient": "Italian-style seasoning"
        }, 
        {
            "amount": "2 cubes", 
            "ingredient": "chicken bouillon"
        }
    ], 
    "prep_steps": [
        "Place water, salt and onion in a large pot. Add chicken and bring all to a boil; cook until chicken is tender, about 1 hour.", 
        "Remove chicken from pot and let cool. Remove skin and bones and chop remaining meat into bite size pieces.", 
        "Skim off fat from cooking liquid and measure 3 1/2 cups of this chicken broth into a 6-quart saucepan. Add rice, chicken pieces, sausage, herb seasoning and bouillon to this saucepan. Cook all together for 30 minutes; let come to a boil, then reduce heat to low, keeping pan covered the whole time. If mixture is too watery or juicy, cook over medium low heat, uncovered, until it reaches the desired consistency. Stir often while cooking."
    ], 
    "recipe_name": "Chicken Bog"
}