{
    "ingredients": [
        {
            "amount": "1/2 cup", 
            "ingredient": "shortening"
        }, 
        {
            "amount": "1 1/2 cups", 
            "ingredient": "white sugar"
        }, 
        {
            "amount": "3", 
            "ingredient": "eggs"
        }, 
        {
            "amount": "1/2 cup", 
            "ingredient": "molasses"
        }, 
        {
            "amount": "2 3/4 cups", 
            "ingredient": "all-purpose flour"
        }, 
        {
            "amount": "1 teaspoon", 
            "ingredient": "baking soda"
        }, 
        {
            "amount": "1 teaspoon", 
            "ingredient": "ground cinnamon"
        }, 
        {
            "amount": "1 teaspoon", 
            "ingredient": "ground allspice"
        }, 
        {
            "amount": "1 teaspoon", 
            "ingredient": "ground ginger"
        }, 
        {
            "amount": "1 1/2 cups", 
            "ingredient": "raisins"
        }
    ], 
    "prep_steps": [
        "Preheat oven to 350 degrees F (175 degrees C). Grease baking sheets.", 
        "In a large bowl, cream together shortening and sugar until smooth. Beat in the eggs one at a time, then stir in the molasses. Combine the flour, baking soda, cinnamon, allspice, and ginger; blend into the molasses mixture. Stir in raisins. Drop dough by tablespoonfuls onto prepared baking sheets.", 
        "Bake for 12 to 15 minutes in preheated oven, or until the center is set. Cool on wire racks."
    ], 
    "prep_time": "45 mins", 
    "recipe_name": "Grammy Burnham's Molasses Cookies"
}