{
    "ingredients": [
        {
            "amount": "2 pounds", 
            "ingredient": "pork sausage"
        }, 
        {
            "amount": "1 1/2 cups", 
            "ingredient": "buttermilk baking mix"
        }, 
        {
            "amount": "16 ounces", 
            "ingredient": "shredded Cheddar cheese"
        }, 
        {
            "amount": "1/2 cup", 
            "ingredient": "diced onion"
        }, 
        {
            "amount": "1/2 cup", 
            "ingredient": "chopped celery"
        }, 
        {
            "amount": "1/2 teaspoon", 
            "ingredient": "garlic powder"
        }
    ], 
    "prep_steps": [
        "Preheat oven to 375 degrees F (190 degrees C).", 
        "Combine the sausage, baking mix, cheddar cheese, onion, celery and garlic powder. Mix well and form into 1 inch balls.", 
        "Place on ungreased cookie sheet 1/2 inch apart. Bake for 15 minutes or until golden brown."
    ], 
    "recipe_name": "Sausage Cheese Balls"
}