{
    "ingredients": [
        {
            "amount": "1/4 cup", 
            "ingredient": "butter"
        }, 
        {
            "amount": "1/2 cup", 
            "ingredient": "sliced onion"
        }, 
        {
            "amount": "1 clove", 
            "ingredient": "garlic, minced"
        }, 
        {
            "amount": "8 ounces", 
            "ingredient": "fresh mushrooms, sliced"
        }, 
        {
            "amount": "1 pound", 
            "ingredient": "ground beef"
        }, 
        {
            "amount": "1/2 cup", 
            "ingredient": "Burgundy wine"
        }, 
        {
            "amount": "3 tablespoons", 
            "ingredient": "lemon juice"
        }, 
        {
            "amount": "1 (10.5 ounce) can", 
            "ingredient": "condensed beef consomme"
        }, 
        {
            "amount": "1/2 teaspoon", 
            "ingredient": "salt"
        }, 
        {
            "amount": "1/4 teaspoon", 
            "ingredient": "ground black pepper"
        }, 
        {
            "amount": "2 cups", 
            "ingredient": "medium egg noodles"
        }, 
        {
            "amount": "1 cup", 
            "ingredient": "sour cream"
        }, 
        {
            "amount": "1 tablespoon", 
            "ingredient": "chopped fresh parsley for garnish"
        }
    ], 
    "prep_steps": [
        "Melt the butter in a large skillet over medium heat. Add the onions, garlic and mushrooms; cook and stir until lightly browned. Crumble in the ground beef, and cook until no longer pink. Drain excess grease.", 
        "Stir in the Burgundy wine, scraping any bits of food from the bottom of the pan to flavor the sauce. Then stir in the lemon juice, beef consomme, salt and pepper. Simmer uncovered for 15 minutes.", 
        "Mix the uncooked noodles into the skillet. Cover, and simmer for 10 minutes, or until noodles are tender. Remove from the heat and stir in the sour cream. Sprinkle parsley over the top and serve."
    ], 
    "prep_time": "1 hr", 
    "recipe_name": "Noodles Marmaduke"
}