{
    "ingredients": [
        {
            "amount": "1/4 cup", 
            "ingredient": "canola oil"
        }, 
        {
            "amount": "1/4 cup", 
            "ingredient": "high-quality root beer"
        }, 
        {
            "amount": "2 tablespoons", 
            "ingredient": "Worcestershire sauce"
        }, 
        {
            "amount": "2 tablespoons", 
            "ingredient": "teriyaki sauce"
        }, 
        {
            "amount": "2 tablespoons", 
            "ingredient": "steak sauce (such as Heinz 57\u00ae)"
        }, 
        {
            "amount": "1 teaspoon", 
            "ingredient": "garlic salt"
        }, 
        {
            "amount": "1/2 teaspoon", 
            "ingredient": "onion salt"
        }, 
        {
            "amount": "1/2 teaspoon", 
            "ingredient": "ground black pepper"
        }, 
        {
            "amount": "1/2 teaspoon", 
            "ingredient": "dried basil"
        }, 
        {
            "amount": "1/2 teaspoon", 
            "ingredient": "ground thyme"
        }, 
        {
            "amount": "1/2 teaspoon", 
            "ingredient": "dried rosemary"
        }, 
        {
            "amount": "4 (6 ounce)", 
            "ingredient": "rib-eye steaks"
        }
    ], 
    "prep_steps": [
        "Stir the canola oil, root beer, Worcestershire sauce, teriyaki sauce, steak sauce, garlic salt, onion salt, black pepper, basil, thyme, and rosemary together in a bowl.", 
        "Pierce the steaks in several places on both sides; arrange in a single layer in a shallow non-reactive dish. Pour the marinade over the steaks, flipping the meat to coat both sides. Allow to marinate in refrigerator 3 to 4 hours, flipping meat once halfway through.", 
        "Preheat an outdoor grill for medium-high heat, and lightly oil the grate.", 
        "Remove the steaks from the marinade and shake off excess moisture; discard the remaining marinade.", 
        "Cook the steaks until they are beginning to firm, and are hot and slightly pink in the center, 5 to 7 minutes per side. An instant-read thermometer inserted into the center should read 140 degrees F (60 degrees C) for medium."
    ], 
    "prep_time": "3 hrs", 
    "recipe_name": "Juicy Marinated Steaks"
}