{
    "ingredients": [
        {
            "amount": "1 pound", 
            "ingredient": "ground beef"
        }, 
        {
            "amount": "1 (24 ounce) jar", 
            "ingredient": "spaghetti sauce"
        }, 
        {
            "amount": "1 cup", 
            "ingredient": "water"
        }, 
        {
            "amount": "1 (15 ounce) container", 
            "ingredient": "POLLY-O Original Ricotta Cheese"
        }, 
        {
            "amount": "1 (7 ounce) package", 
            "ingredient": "KRAFT 2% Milk Shredded Mozzarella Cheese, divided"
        }, 
        {
            "amount": "1/4 cup", 
            "ingredient": "KRAFT Grated Parmesan Cheese, divided"
        }, 
        {
            "amount": "1", 
            "ingredient": "egg"
        }, 
        {
            "amount": "2 tablespoons", 
            "ingredient": "chopped fresh parsley"
        }, 
        {
            "amount": "6", 
            "ingredient": "lasagna noodles, uncooked"
        }
    ], 
    "prep_steps": [
        "Brown meat in large skillet; drain. Stir in spaghetti sauce and water. Mix ricotta, 1-1/2 cups mozzarella, 2 Tbsp. Parmesan, egg and parsley.", 
        "Spoon 1 cup meat sauce into slow cooker; top with layers of half each of the noodles (broken to fit) and cheese mixture. Cover with 2 cups meat sauce. Top with remaining noodles (broken to fit), cheese mixture and meat sauce. Cover with lid.", 
        "Cook on LOW 4 to 6 hours or until liquid is absorbed. Sprinkle with remaining cheeses; let stand, covered, 10 min. or until melted."
    ], 
    "prep_time": "4 hrs", 
    "recipe_name": "Slow-Cooker Lasagna"
}