{
    "ingredients": [
        {
            "amount": "5 large", 
            "ingredient": "potatoes, peeled and cut into wedges"
        }, 
        {
            "amount": "1/4 cup", 
            "ingredient": "vegetable oil"
        }, 
        {
            "amount": "1/4 cup", 
            "ingredient": "chopped fresh parsley"
        }, 
        {
            "amount": "1 tablespoon", 
            "ingredient": "chopped fresh thyme"
        }, 
        {
            "amount": "1 tablespoon", 
            "ingredient": "chopped fresh oregano"
        }, 
        {
            "amount": "1 teaspoon", 
            "ingredient": "salt"
        }, 
        {
            "amount": "1 teaspoon", 
            "ingredient": "black pepper"
        }
    ], 
    "prep_steps": [
        "Preheat oven to 450 degrees F (230 degrees C).", 
        "In a large bowl, toss potato wedges with oil. Arrange in a single layer in a roasting pan.", 
        "Bake in preheated oven for 50 minutes. Sprinkle with parsley, thyme, oregano, salt and pepper. Bake for 10 minutes, or until golden brown."
    ], 
    "prep_time": "1\u00bc hrs", 
    "recipe_name": "Herby Roasted Potato Wedges"
}