{
    "ingredients": [
        {
            "amount": "8 ounces", 
            "ingredient": "dry fettuccini pasta"
        }, 
        {
            "amount": "1 cup", 
            "ingredient": "milk"
        }, 
        {
            "amount": "2 tablespoons", 
            "ingredient": "all-purpose flour"
        }, 
        {
            "amount": "1 cup", 
            "ingredient": "cottage cheese"
        }, 
        {
            "amount": "1/2 teaspoon", 
            "ingredient": "garlic powder"
        }, 
        {
            "amount": "3 teaspoons", 
            "ingredient": "minced onion"
        }, 
        {
            "amount": "1/2 cup", 
            "ingredient": "grated Parmesan cheese"
        }, 
        {
            "amount": "2 cups", 
            "ingredient": "diced, cooked chicken breast meat"
        }
    ], 
    "prep_steps": [
        "Bring a large pot of lightly salted water to a boil. Cook pasta in boiling water for 8 to 10 minutes, or until al dente; drain, and set aside.", 
        "In a food processor, place the milk, flour, cottage cheese, garlic powder, onion, salt and pepper, and Parmesan cheese. Blend until smooth.", 
        "Transfer the blended mixture to a saucepan over medium heat. Mix in the chicken, and cook until heated through. Serve hot over pasta."
    ], 
    "prep_time": "30 mins", 
    "recipe_name": "Easy Chicken Alfredo II"
}