{
    "ingredients": [
        {
            "amount": "2 cups", 
            "ingredient": "all-purpose flour"
        }, 
        {
            "amount": "3/4 teaspoon", 
            "ingredient": "baking powder"
        }, 
        {
            "amount": "3/4 teaspoon", 
            "ingredient": "baking soda"
        }, 
        {
            "amount": "3/4 teaspoon", 
            "ingredient": "salt"
        }, 
        {
            "amount": "3/4 teaspoon", 
            "ingredient": "ground cinnamon"
        }, 
        {
            "amount": "3", 
            "ingredient": "eggs"
        }, 
        {
            "amount": "1 cup", 
            "ingredient": "white sugar"
        }, 
        {
            "amount": "2/3 cup", 
            "ingredient": "vegetable oil"
        }, 
        {
            "amount": "1 1/3 cups", 
            "ingredient": "grated zucchini"
        }, 
        {
            "amount": "3/4 teaspoon", 
            "ingredient": "lemon extract"
        }, 
        {
            "amount": "2/3 cup", 
            "ingredient": "chopped pecans"
        }
    ], 
    "prep_steps": [
        "Preheat oven to 350 degrees F (175 degrees C). Lightly grease a 9x5 inch loaf pan. Sift together flour, baking soda, baking powder, salt and cinnamon.", 
        "In a large bowl, beat eggs with sugar for 10 minutes. Gradually add oil and beat for two more minutes. Mix in lemon extract, zucchini and pecans. Fold in flour mixture until evenly moistened; do not overmix. Pour batter into prepared pan.", 
        "Bake in preheated oven for 60 minutes, or until a toothpick inserted into center of the loaf comes out clean."
    ], 
    "prep_time": "1\u00bc hrs", 
    "recipe_name": "Zucchini Bread VI"
}