{
    "ingredients": [
        {
            "amount": "1/2 cup", 
            "ingredient": "butter"
        }, 
        {
            "amount": "3/4 cup", 
            "ingredient": "white sugar"
        }, 
        {
            "amount": "2", 
            "ingredient": "eggs"
        }, 
        {
            "amount": "1 tablespoon", 
            "ingredient": "orange zest"
        }, 
        {
            "amount": "2 tablespoons", 
            "ingredient": "orange liqueur"
        }, 
        {
            "amount": "2 1/4 cups", 
            "ingredient": "all-purpose flour"
        }, 
        {
            "amount": "1 1/2 teaspoons", 
            "ingredient": "baking powder"
        }, 
        {
            "amount": "1/4 teaspoon", 
            "ingredient": "salt"
        }, 
        {
            "amount": "1 1/2 teaspoons", 
            "ingredient": "ground cinnamon"
        }, 
        {
            "amount": "1/4 cup", 
            "ingredient": "chopped dried cranberries"
        }, 
        {
            "amount": "3/4 cup", 
            "ingredient": "toasted and chopped almonds"
        }
    ], 
    "prep_steps": [
        "Preheat oven to 350 degrees F (175 degrees C).", 
        "In a medium bowl, cream together the butter and sugar. Beat in egg. Stir in the orange zest and orange liqueur. Sift together the flour, baking powder, salt and cinnamon, stir into the creamed mixture, then stir in the almonds and dried cranberries.", 
        "On a lightly floured surface, divide the dough in half. Roll each half into a log about 1 1/2 inches wide and 10 inches long. Set the rolls lengthwise on a baking sheet at least 3 inches apart, and flatten slightly.", 
        "Bake for 20 to 25 minutes in the preheated oven, until firm to the touch and slightly brown on the top.", 
        "Cool for 10 to 15 minutes, then slice each log crosswise, at a diagonal, into 1/2 inch wide slices. Lay them cut side down on the baking sheet and return to the oven for ten minutes, turn them over and bake for 10 more minutes. Cool on wire racks, store in an airtight container. These keep for over a month."
    ], 
    "recipe_name": "Orange Cranberry Biscotti"
}