{
    "ingredients": [
        {
            "amount": "2 cups", 
            "ingredient": "white sugar"
        }, 
        {
            "amount": "1 cup", 
            "ingredient": "vegetable oil"
        }, 
        {
            "amount": "4", 
            "ingredient": "eggs"
        }, 
        {
            "amount": "2 (4.5 ounce) jars", 
            "ingredient": "carrot baby food"
        }, 
        {
            "amount": "1 teaspoon", 
            "ingredient": "vanilla extract"
        }, 
        {
            "amount": "2 cups", 
            "ingredient": "all-purpose flour"
        }, 
        {
            "amount": "1/2 teaspoon", 
            "ingredient": "salt"
        }, 
        {
            "amount": "1 1/2 teaspoons", 
            "ingredient": "baking soda"
        }, 
        {
            "amount": "2 teaspoons", 
            "ingredient": "ground cinnamon"
        }, 
        {
            "amount": "1/4 teaspoon", 
            "ingredient": "ground nutmeg"
        }, 
        {
            "amount": "1/4 teaspoon", 
            "ingredient": "ground cloves"
        }, 
        {
            "amount": "1 (8 ounce) package", 
            "ingredient": "cream cheese, softened"
        }, 
        {
            "amount": "1/2 cup", 
            "ingredient": "butter, softened"
        }, 
        {
            "amount": "1 tablespoon", 
            "ingredient": "vanilla extract"
        }, 
        {
            "amount": "4 cups", 
            "ingredient": "confectioners' sugar"
        }, 
        {
            "amount": "1 1/4 cups", 
            "ingredient": "chopped pecans"
        }
    ], 
    "prep_steps": [
        "Preheat oven to 350 degrees F (175 degrees C). Grease and flour two 9 inch round pans.", 
        "In a large bowl, combine sugar and oil; beat well. Add eggs, carrots, and 1 teaspoon vanilla; beat mixture until smooth. Combine flour, salt, soda, and spices; add to creamed mixture, beating well. Pour batter into prepared pans.", 
        "Bake for 30 minutes, or until cake tests done. Cool in pans for 10 minutes, and then transfer layers to wire racks.", 
        "To Make Cream Cheese Frosting: Combine cream cheese and butter or margarine, beating until light and fluffy. Add 1 tablespoon vanilla and confectioners' sugar; beat until smooth. Stir in chopped pecans. Fill and frost the cake with cream cheese frosting. Garnish with pecans, if desired."
    ], 
    "recipe_name": "Carrot Cake V"
}