{
    "ingredients": [
        {
            "amount": "2 1/2 cups", 
            "ingredient": "dried yellow split peas"
        }, 
        {
            "amount": "2 1/2 cups", 
            "ingredient": "water"
        }, 
        {
            "amount": "1 1/2 teaspoons", 
            "ingredient": "salt"
        }, 
        {
            "amount": "1/2 teaspoon", 
            "ingredient": "grated fresh ginger root"
        }, 
        {
            "amount": "1 teaspoon", 
            "ingredient": "diced jalapeno chile pepper"
        }, 
        {
            "amount": "1/2 cup", 
            "ingredient": "diced tomatoes"
        }, 
        {
            "amount": "3 teaspoons", 
            "ingredient": "lemon juice"
        }, 
        {
            "amount": "1/2 teaspoon", 
            "ingredient": "ground turmeric"
        }, 
        {
            "amount": "2 teaspoons", 
            "ingredient": "vegetable oil"
        }, 
        {
            "amount": "1 teaspoon", 
            "ingredient": "cumin seed"
        }, 
        {
            "amount": "1/2", 
            "ingredient": "dried red chile pepper"
        }, 
        {
            "amount": "1 pinch", 
            "ingredient": "Asafoetida"
        }, 
        {
            "amount": "2 cloves", 
            "ingredient": "garlic, finely chopped"
        }, 
        {
            "amount": "1/4 cup", 
            "ingredient": "chopped fresh cilantro"
        }
    ], 
    "prep_steps": [
        "Rinse split peas; add to saucepan with 2 1/2 cups water. Allow split peas to soak for 30 minutes.", 
        "Heat split peas and water, with salt, until boiling. Reduce heat to medium-low and cook until tender and thickened, 15 to 20 minutes. Add more water, if necessary, to prevent drying out. Stir in ginger, jalapeno pepper, tomato, lemon juice, and turmeric.", 
        "Heat oil in a small saucepan and add cumin seed and red chile pepper. When pepper is heated, add Asafoetida powder and garlic. Stir mixture into split peas and add cilantro; mix well."
    ], 
    "prep_time": "1\u00bd hrs", 
    "recipe_name": "Moong Dal"
}