{
    "ingredients": [
        {
            "amount": "1 (12 ounce) package", 
            "ingredient": "penne pasta"
        }, 
        {
            "amount": "1 (3 ounce) package", 
            "ingredient": "pancetta bacon, diced"
        }, 
        {
            "amount": "2 tablespoons", 
            "ingredient": "butter"
        }, 
        {
            "amount": "1 (10 ounce) package", 
            "ingredient": "sliced mushrooms"
        }, 
        {
            "amount": "1 tablespoon", 
            "ingredient": "minced garlic"
        }, 
        {
            "amount": "1/2 cup", 
            "ingredient": "heavy cream"
        }, 
        {
            "amount": "1/4 teaspoon", 
            "ingredient": "Italian seasoning"
        }, 
        {
            "amount": "1/4 cup", 
            "ingredient": "grated Parmesan cheese, or to taste"
        }
    ], 
    "prep_steps": [
        "Bring a large pot of lightly salted water to a boil. Add pasta and cook for 8 to 10 minutes or until al dente; drain and set aside. Meanwhile, cook pancetta in a large skillet over medium heat until browned but not crispy, about 5 minutes. Drain on a paper towel-lined plate and set aside.", 
        "Pour pancetta grease out of the skillet, and add butter. Increase heat to medium-high and stir in sliced mushrooms. Cook and stir until the mushrooms have softened and released their liquid. Add the minced garlic, and cook 2 more minutes. Reduce heat to medium-low, then stir in cream and Italian seasoning. Simmer until the sauce has thickened slightly.", 
        "To serve, toss the cooked penne with the sauce, and sprinkle with Parmesan cheese."
    ], 
    "prep_time": "35 mins", 
    "recipe_name": "Penne with Pancetta and Mushrooms"
}