{
    "ingredients": [
        {
            "amount": "2 large", 
            "ingredient": "white onions, chopped"
        }, 
        {
            "amount": "4", 
            "ingredient": "lamb shanks"
        }, 
        {
            "amount": "2 cups", 
            "ingredient": "dry red wine"
        }, 
        {
            "amount": "1 cup", 
            "ingredient": "balsamic vinegar"
        }, 
        {
            "amount": "1/3 cup", 
            "ingredient": "olive oil"
        }, 
        {
            "amount": "4 cloves", 
            "ingredient": "garlic, pressed"
        }, 
        {
            "amount": "2", 
            "ingredient": "lemons, quartered"
        }, 
        {
            "amount": "2 (14.5 ounce) cans", 
            "ingredient": "diced tomatoes"
        }, 
        {
            "amount": "1 bunch", 
            "ingredient": "fresh basil, chopped"
        }, 
        {
            "amount": "1 tablespoon", 
            "ingredient": "kosher salt"
        }, 
        {
            "amount": "1 tablespoon", 
            "ingredient": "cracked black pepper"
        }
    ], 
    "prep_steps": [
        "Preheat the oven to 350 degrees F (175 degrees C).", 
        "Place the onions in a layer in the bottom of a Dutch oven or medium roasting pan with a lid. Arrange the lamb shanks on top of the onions. Pour the wine, balsamic vinegar and olive oil over the lamb. Place a clove of pressed garlic next to each shank, and a quarter of a lemon on each side. Pour the tomatoes over everything, then season with salt, pepper and basil.", 
        "Cover and place in the preheated oven. Cook for 3 hours. Use juices from the pan to make a nice flavorful gravy."
    ], 
    "prep_time": "3 hrs", 
    "recipe_name": "Braised Lamb Shanks"
}