{
    "ingredients": [
        {
            "amount": "2 pounds", 
            "ingredient": "carrots, peeled and cut into sticks"
        }, 
        {
            "amount": "1/4 cup", 
            "ingredient": "butter"
        }, 
        {
            "amount": "1/4 cup", 
            "ingredient": "packed brown sugar"
        }, 
        {
            "amount": "1/4 teaspoon", 
            "ingredient": "salt"
        }, 
        {
            "amount": "1/8 teaspoon", 
            "ingredient": "ground white pepper"
        }
    ], 
    "prep_steps": [
        "Place carrots into a large saucepan, pour in enough water to reach depth of 1 inch, and bring to a boil. Reduce heat to low, cover, and simmer carrots until tender, 8 to 10 minutes. Drain and transfer to a bowl.", 
        "Melt butter in the same saucepan; stir brown sugar, salt, and white pepper into butter until brown sugar and salt have dissolved. Transfer carrots into brown sugar sauce; cook and stir until carrots are glazed with sauce, about 5 more minutes."
    ], 
    "prep_time": "25 mins", 
    "recipe_name": "Glazed Carrots"
}