{
    "ingredients": [
        {
            "amount": "1 (15.5 ounce) can", 
            "ingredient": "black beans, rinsed and drained"
        }, 
        {
            "amount": "3", 
            "ingredient": "eggs"
        }, 
        {
            "amount": "3 tablespoons", 
            "ingredient": "vegetable oil"
        }, 
        {
            "amount": "1/4 cup", 
            "ingredient": "cocoa powder"
        }, 
        {
            "amount": "1 pinch", 
            "ingredient": "salt"
        }, 
        {
            "amount": "1 teaspoon", 
            "ingredient": "vanilla extract"
        }, 
        {
            "amount": "3/4 cup", 
            "ingredient": "white sugar"
        }, 
        {
            "amount": "1 teaspoon", 
            "ingredient": "instant coffee"
        }, 
        {
            "amount": "1/2 cup", 
            "ingredient": "milk chocolate chips"
        }
    ], 
    "prep_steps": [
        "Preheat oven to 350 degrees F (175 degrees C). Lightly grease an 8x8 square baking dish.", 
        "Combine the black beans, eggs, oil, cocoa powder, salt, vanilla extract, sugar, and instant coffee in a blender; blend until smooth; pour the mixture into the prepared baking dish. Sprinkle the chocolate chips over the top of the mixture.", 
        "Bake in the preheated oven until the top is dry and the edges start to pull away from the sides of the pan, about 30 minutes."
    ], 
    "prep_time": "40 mins", 
    "recipe_name": "Black Bean Brownies"
}