{
    "ingredients": [
        {
            "amount": "2", 
            "ingredient": "red bell pepper, cut into strips"
        }, 
        {
            "amount": "2", 
            "ingredient": "red onions, cut into strips"
        }, 
        {
            "amount": "1 tablespoon", 
            "ingredient": "olive oil"
        }, 
        {
            "amount": "1 teaspoon", 
            "ingredient": "butter"
        }, 
        {
            "amount": "1/4 cup", 
            "ingredient": "red wine"
        }, 
        {
            "amount": "1 pinch", 
            "ingredient": "salt"
        }, 
        {
            "amount": "1 pinch", 
            "ingredient": "ground black pepper"
        }, 
        {
            "amount": "1 pinch", 
            "ingredient": "dried basil"
        }
    ], 
    "prep_steps": [
        "In a hot saucepan over a medium heat, combine red peppers, onion, oil and butter; saute for 2 minutes. Reduce heat to medium-low and continue cooking, stirring occasionally, until the onions and peppers soften.", 
        "If desired, stir red wine into the vegetables and cook until the wine evaporates; approximately 30 minutes. Season with salt, pepper, and basil."
    ], 
    "prep_time": "40 mins", 
    "recipe_name": "Caramelized Red Bell Peppers and Onions"
}