{
    "ingredients": [
        {
            "amount": "2 cups", 
            "ingredient": "dry lentils"
        }, 
        {
            "amount": "2 quarts", 
            "ingredient": "vegetable broth"
        }, 
        {
            "amount": "2 tablespoons", 
            "ingredient": "extra-virgin olive oil"
        }, 
        {
            "amount": "4 cloves", 
            "ingredient": "garlic, minced"
        }, 
        {
            "amount": "1 large", 
            "ingredient": "onion, chopped"
        }, 
        {
            "amount": "2 stalks", 
            "ingredient": "celery, chopped"
        }, 
        {
            "amount": "1 pound", 
            "ingredient": "turkey sausage"
        }, 
        {
            "amount": "2", 
            "ingredient": "tomatoes, peeled, seeded, and chopped"
        }, 
        {
            "amount": "1 teaspoon", 
            "ingredient": "ground turmeric"
        }, 
        {
            "amount": "1 teaspoon", 
            "ingredient": "ground cumin"
        }, 
        {
            "amount": "1/2 teaspoon", 
            "ingredient": "dried thyme leaves"
        }, 
        {
            "amount": "1 pinch", 
            "ingredient": "crushed red pepper flakes"
        }, 
        {
            "amount": "1 (8 ounce) container", 
            "ingredient": "plain lowfat yogurt"
        }, 
        {
            "amount": "1/4 cup", 
            "ingredient": "chopped fresh parsley for garnish"
        }
    ], 
    "prep_steps": [
        "Bring lentils and vegetable broth to a boil in a large pot over high heat. Reduce heat to medium, and simmer for 10 minutes.", 
        "Meanwhile, heat the olive oil in a large skillet over medium-high heat. Stir in the garlic, onion, celery, and sausage; cook and stir until the sausage is crumbly and no longer pink, about 10 minutes. Stir in tomatoes, turmeric, cumin, thyme, and red pepper flakes; cook 5 minutes more.", 
        "Stir the sausage mixture into the simmering lentils. Continue simmering until the lentils are tender, 20 to 30 minutes. Season to taste with salt. Garnish each serving with a dollop of yogurt and a sprinkle of chopped parsley to serve."
    ], 
    "prep_time": "1\u00bc hrs", 
    "recipe_name": "Turkey-Lentil Chili"
}