{
    "ingredients": [
        {
            "amount": "1 cup", 
            "ingredient": "butter"
        }, 
        {
            "amount": "2 cups", 
            "ingredient": "white sugar"
        }, 
        {
            "amount": "4", 
            "ingredient": "eggs"
        }, 
        {
            "amount": "1 cup", 
            "ingredient": "buttermilk"
        }, 
        {
            "amount": "1 teaspoon", 
            "ingredient": "vanilla extract"
        }, 
        {
            "amount": "3 cups", 
            "ingredient": "all-purpose flour"
        }, 
        {
            "amount": "1/2 teaspoon", 
            "ingredient": "baking powder"
        }, 
        {
            "amount": "1/2 teaspoon", 
            "ingredient": "baking soda"
        }, 
        {
            "amount": "1 pinch", 
            "ingredient": "salt"
        }, 
        {
            "amount": "1 teaspoon", 
            "ingredient": "rum flavored extract"
        }, 
        {
            "amount": "1 cup", 
            "ingredient": "butter"
        }, 
        {
            "amount": "1 cup", 
            "ingredient": "white sugar"
        }, 
        {
            "amount": "1/2 cup", 
            "ingredient": "rum"
        }
    ], 
    "prep_steps": [
        "Preheat oven to 350 degrees F (175 degrees C). Grease and flour one 9 or 10 inch tube pan.", 
        "Cream 1 cup of the butter and 2 cups of the white sugar together. Add eggs one at a time mixing well after each one.", 
        "Sift the flour, baking powder, baking soda, and salt together and add alternately with the buttermilk to the egg mixture. Stir in the vanilla and rum extracts. Pour batter into prepared pan.", 
        "Bake at 350 degrees F (175 degrees C) for 1 hour. Remove cake from oven and pour all of the Rum Butter glaze over cake while still warm. Leave cake in pan for 2 hours before removing to serving dish.", 
        "To Make Butter Rum Glaze: Melt the remaining 1 cup of the butter and 1 cup of white sugar over low heat. Remove from heat and stir in rum. Use immediately to glaze cake."
    ], 
    "recipe_name": "Rum Cake II"
}