{
    "ingredients": [
        {
            "amount": "1 (17.5 ounce) package", 
            "ingredient": "frozen puff pastry, thawed"
        }, 
        {
            "amount": "1 cup", 
            "ingredient": "white sugar"
        }, 
        {
            "amount": "3/8 cup", 
            "ingredient": "dry bread crumbs"
        }, 
        {
            "amount": "3 tablespoons", 
            "ingredient": "ground cinnamon"
        }, 
        {
            "amount": "1 pinch", 
            "ingredient": "ground nutmeg"
        }, 
        {
            "amount": "1", 
            "ingredient": "egg, beaten"
        }, 
        {
            "amount": "4", 
            "ingredient": "Granny Smith apples - peeled, cored and halved"
        }, 
        {
            "amount": "1 cup", 
            "ingredient": "confectioners' sugar"
        }, 
        {
            "amount": "1 teaspoon", 
            "ingredient": "vanilla extract"
        }, 
        {
            "amount": "3 tablespoons", 
            "ingredient": "milk"
        }
    ], 
    "prep_steps": [
        "Preheat oven to 425 degrees F (220 degrees C). Lightly grease a baking sheet.", 
        "Roll out each sheet of pastry to measure 12x12 inches. Cut into quarters, to make 8 - 6 inch squares.", 
        "In a small bowl, combine sugar, bread crumbs, cinnamon and nutmeg. Brush a pastry square with beaten egg. Place 1 tablespoon bread crumb mixture in center. Place one apple half, core side down, over bread crumbs. Top with another tablespoon of mixture. Pull up four corners of pastry and pinch sides together to seal seams completely. Repeat with remaining apples.", 
        "Brush each dumpling with beaten egg. Place in preheated oven for 15 minutes, then reduce heat to 350 degrees F (175 degrees C) and continue baking 25 minutes more, until lightly browned. Let cool completely at room temperature.", 
        "To make icing, combine confectioners' sugar and vanilla and enough milk to make a drizzling consistency. Drizzle over cooled dumplings. Serve the same day."
    ], 
    "prep_time": "1 hr", 
    "recipe_name": "Allie's Delicious Baked Dumplings"
}