{
    "ingredients": [
        {
            "amount": "1 large", 
            "ingredient": "baking potato"
        }, 
        {
            "amount": "6", 
            "ingredient": "eggs"
        }, 
        {
            "amount": "1 teaspoon", 
            "ingredient": "salt"
        }, 
        {
            "amount": "1/2 teaspoon", 
            "ingredient": "ground black pepper"
        }, 
        {
            "amount": "1/4 cup", 
            "ingredient": "chopped fresh parsley"
        }, 
        {
            "amount": "2 tablespoons", 
            "ingredient": "olive oil"
        }, 
        {
            "amount": "1", 
            "ingredient": "onion, chopped"
        }, 
        {
            "amount": "1/4 cup", 
            "ingredient": "chopped red bell pepper"
        }, 
        {
            "amount": "1/4 cup", 
            "ingredient": "chopped fresh mushrooms"
        }, 
        {
            "amount": "1/2 cup", 
            "ingredient": "chopped ham"
        }, 
        {
            "amount": "1", 
            "ingredient": "tomato, sliced"
        }, 
        {
            "amount": "1/4 cup", 
            "ingredient": "shredded Cheddar cheese"
        }
    ], 
    "prep_steps": [
        "Bring a medium pot of salted water to a boil. Add potato and cook until tender but still firm, about 15 minutes. Drain, cool, peel and slice.", 
        "Preheat oven to 350 degrees F (175 degrees C). Beat together eggs, salt, pepper and parsley.", 
        "In a cast iron skillet, heat olive oil over medium-high heat. Saute onion and red pepper until soft, then stir in mushrooms. When mushrooms start to shrink, add the chopped ham, potato and tomato slices. Pour in the egg mixture; gently stir to combine.", 
        "Sprinkle cheese on top of eggs and place skillet in preheated oven. Bake until eggs are firm, about 10 to 15 minutes. Allow to cool briefly before serving."
    ], 
    "prep_time": "40 mins", 
    "recipe_name": "Baked Omelet Pie"
}