{
    "ingredients": [
        {
            "amount": "1 pound", 
            "ingredient": "lean (at least 80%) ground beef"
        }, 
        {
            "amount": "1 large", 
            "ingredient": "onion, chopped"
        }, 
        {
            "amount": "1/2 teaspoon", 
            "ingredient": "salt"
        }, 
        {
            "amount": "1 cup", 
            "ingredient": "shredded Cheddar cheese"
        }, 
        {
            "amount": "1/2 cup", 
            "ingredient": "Original Bisquick\u00ae mix"
        }, 
        {
            "amount": "1 cup", 
            "ingredient": "milk"
        }, 
        {
            "amount": "2", 
            "ingredient": "eggs"
        }
    ], 
    "prep_steps": [
        "Heat oven to 400 degrees F. Spray 9-inch glass pie plate with cooking spray.", 
        "In 10-inch skillet, cook beef and onion over medium heat 8 to 10 minutes, stirring occasionally, until beef is brown; drain. Stir in salt. Spread in pie plate. Sprinkle with cheese.", 
        "In small bowl, stir remaining ingredients with fork or wire whisk until blended. Pour into pie plate.", 
        "Bake about 25 minutes or until knife inserted in center comes out clean."
    ], 
    "prep_time": "40 mins", 
    "recipe_name": "Impossibly Easy Cheeseburger Pie"
}