{
    "ingredients": [
        {
            "amount": "4 medium", 
            "ingredient": "sweet potatoes, peeled and sliced 1/2 inch thick"
        }, 
        {
            "amount": "1/4 cup", 
            "ingredient": "butter, melted"
        }, 
        {
            "amount": "2 tablespoons", 
            "ingredient": "sugar"
        }, 
        {
            "amount": "1/2 teaspoon", 
            "ingredient": "ground cinnamon"
        }
    ], 
    "prep_steps": [
        "Preheat oven to 350 degrees F (175 degrees C). Spray a baking sheet with cooking spray.", 
        "Arrange sweet potato slices on the baking sheet. Brush with 1/2 the butter. Mix the sugar and cinnamon in a small bowl, and sprinkle 1/2 over the potatoes.", 
        "Bake 15 minutes in the preheated oven. Turn, brush with remaining butter, and sprinkle with remaining cinnamon and sugar. Continue baking 15 minutes, or until tender."
    ], 
    "prep_time": "45 mins", 
    "recipe_name": "Cinnamon Sweet Potato Slices"
}