{
    "ingredients": [
        {
            "amount": "2 tablespoons", 
            "ingredient": "olive oil"
        }, 
        {
            "amount": "2 pounds", 
            "ingredient": "round steak, cut into small pieces"
        }, 
        {
            "amount": "3 tablespoons", 
            "ingredient": "all-purpose flour"
        }, 
        {
            "amount": "2 cups", 
            "ingredient": "beef broth"
        }, 
        {
            "amount": "1 1/2 cups", 
            "ingredient": "dry red wine"
        }, 
        {
            "amount": "1 teaspoon", 
            "ingredient": "salt"
        }, 
        {
            "amount": "1/2 teaspoon", 
            "ingredient": "dried marjoram, crushed"
        }, 
        {
            "amount": "1/2 teaspoon", 
            "ingredient": "dried thyme, crushed"
        }, 
        {
            "amount": "1/4 teaspoon", 
            "ingredient": "ground black pepper"
        }, 
        {
            "amount": "2 1/2 cups", 
            "ingredient": "sliced fresh mushrooms"
        }, 
        {
            "amount": "3", 
            "ingredient": "onions, sliced"
        }
    ], 
    "prep_steps": [
        "In a large stock pot over medium/high heat, heat the oil and add the beef pieces. Sprinkle the flour over the beef. Brown the meat on all sides.", 
        "Pour in broth and red wine. Sprinkle in salt, marjoram, thyme and black pepper.", 
        "Bring to a boil. Cover, and reduce heat. Simmer for 1 1/2 hours or until beef is tender, stirring occasionally.", 
        "Add mushrooms and onions to the pot. Liquid should just cover everything. If necessary, add some more wine to cover. Cook until onions are limp."
    ], 
    "prep_time": "2\u00bd hrs", 
    "recipe_name": "Beef Burgundy I"
}