{
    "ingredients": [
        {
            "amount": "1 (750 milliliter) bottle", 
            "ingredient": "Merlot wine"
        }, 
        {
            "amount": "2 (14.5 ounce) cans", 
            "ingredient": "low-sodium chicken broth"
        }, 
        {
            "amount": "1 (14.5 ounce) can", 
            "ingredient": "beef broth"
        }, 
        {
            "amount": "2 tablespoons", 
            "ingredient": "unsalted butter, softened"
        }, 
        {
            "amount": "1 tablespoon", 
            "ingredient": "all-purpose flour"
        }, 
        {
            "amount": "1 tablespoon", 
            "ingredient": "olive oil"
        }, 
        {
            "amount": "6 (6 ounce) fillets", 
            "ingredient": "beef tenderloin"
        }, 
        {
            "amount": "1/4 cup", 
            "ingredient": "chopped shallots"
        }, 
        {
            "amount": "1 tablespoon", 
            "ingredient": "chopped garlic"
        }, 
        {
            "amount": "1 teaspoon", 
            "ingredient": "fresh thyme"
        }
    ], 
    "prep_steps": [
        "In a heavy sauce pan over high heat, combine wine, chicken broth and beef broth. Bring to a boil, and cook until mixture is reduced to 2 cups, about an hour. (This can be prepared a day ahead - cover and refrigerate).", 
        "In a small bowl, mix butter and flour. Heat 1 tablespoon olive oil in a large skillet over medium heat. Sprinkle steaks with salt and pepper, and saute until medium-rare, about 4 minutes per side. Transfer steaks to a plate.", 
        "Stir shallots, garlic and thyme into skillet. Add 2 cups reduced wine mixture to skillet. Bring mixture to a boil, scraping up any browned bits. Whisk in butter mixture until smooth. Boil sauce until thick enough to coat a spoon, about 2 to 3 minutes."
    ], 
    "prep_time": "1\u00be hrs", 
    "recipe_name": "Filet with a Merlot Sauce"
}