{
    "ingredients": [
        {
            "amount": "1 (14.25 ounce) can", 
            "ingredient": "hearts of palm, drained and chopped"
        }, 
        {
            "amount": "1 cup", 
            "ingredient": "shredded mozzarella cheese"
        }, 
        {
            "amount": "1/2 cup", 
            "ingredient": "grated Parmesan cheese"
        }, 
        {
            "amount": "1 cup", 
            "ingredient": "chopped green onion"
        }, 
        {
            "amount": "1/4 cup", 
            "ingredient": "sour cream"
        }, 
        {
            "amount": "3/4 cup", 
            "ingredient": "mayonnaise"
        }
    ], 
    "prep_steps": [
        "Preheat the oven to 350 degrees F (175 degrees C). Lightly grease a glass pie plate.", 
        "In a medium bowl, mix together the hearts of palm, mozzarella cheese, Parmesan cheese, green onion, sour cream and mayonnaise. Spread into the greased pie plate.", 
        "Bake uncovered for 20 minutes, or until light brown and bubbly. Serve with crackers or Melba rounds."
    ], 
    "prep_time": "25 mins", 
    "recipe_name": "Hearts of Palm Dip"
}