{
    "ingredients": [
        {
            "amount": "3 tablespoons", 
            "ingredient": "butter"
        }, 
        {
            "amount": "1 (20 ounce) can", 
            "ingredient": "crushed pineapple with juice"
        }, 
        {
            "amount": "8", 
            "ingredient": "maraschino cherries"
        }, 
        {
            "amount": "1/4 cup", 
            "ingredient": "walnut halves"
        }, 
        {
            "amount": "2/3 cup", 
            "ingredient": "packed brown sugar"
        }, 
        {
            "amount": "1/3 cup", 
            "ingredient": "shortening"
        }, 
        {
            "amount": "1/2 cup", 
            "ingredient": "white sugar"
        }, 
        {
            "amount": "1", 
            "ingredient": "egg"
        }, 
        {
            "amount": "1 teaspoon", 
            "ingredient": "vanilla extract"
        }, 
        {
            "amount": "1 1/4 cups", 
            "ingredient": "sifted cake flour"
        }, 
        {
            "amount": "1 1/2 teaspoons", 
            "ingredient": "baking powder"
        }, 
        {
            "amount": "1/2 teaspoon", 
            "ingredient": "salt"
        }, 
        {
            "amount": "1/2 cup", 
            "ingredient": "reserved pineapple juice"
        }
    ], 
    "prep_steps": [
        "Preheat oven to 350 degrees F (175 degrees C). Drain pineapple and reserve 1/2 cup of the juice.", 
        "Melt butter in a 9 inch round pan. Arrange cherries and walnut halves in the pan according to how many servings you want. Sprinkle with brown sugar, and then pineapple.", 
        "Cream together shortening and granulated sugar until light and fluffy. Add egg and vanilla, and beat well. Sift together flour, baking powder and salt. Add alternately with reserved pineapple syrup, beating after each addition.", 
        "Spread batter in pan over pineapple. Bake at 350 degrees F (175 degrees C) for 45 to 50 minutes. Let stand 5 minutes in the pan, then invert onto plate. Serve warm."
    ], 
    "prep_time": "1\u00bd hrs", 
    "recipe_name": "Pineapple Upside-Down Cake IV"
}