{
    "ingredients": [
        {
            "amount": "1 cup", 
            "ingredient": "white sugar"
        }, 
        {
            "amount": "1 tablespoon", 
            "ingredient": "cornstarch"
        }, 
        {
            "amount": "2 cups", 
            "ingredient": "water"
        }, 
        {
            "amount": "1/4 cup", 
            "ingredient": "butter"
        }, 
        {
            "amount": "2 teaspoons", 
            "ingredient": "vanilla extract"
        }
    ], 
    "prep_steps": [
        "In a saucepan, combine the sugar and cornstarch. Whisk in the water, stirring until blended. Bring mixture to a boil and continue to cook for 1 minute, stirring constantly. Remove from heat and mix in the butter and vanilla. Serve warm."
    ], 
    "prep_time": "16 mins", 
    "recipe_name": "Vanilla Sauce"
}