{
    "ingredients": [
        {
            "amount": "1/4 cup", 
            "ingredient": "olive oil"
        }, 
        {
            "amount": "1/4 cup", 
            "ingredient": "lemon juice"
        }, 
        {
            "amount": "3 tablespoons", 
            "ingredient": "chopped fresh parsley"
        }, 
        {
            "amount": "1 tablespoon", 
            "ingredient": "minced garlic"
        }, 
        {
            "amount": "1 1/2 pounds", 
            "ingredient": "medium shrimp, peeled and deveined"
        }
    ], 
    "prep_steps": [
        "In a large, non-reactive bowl, stir together the olive oil, lemon juice, parsley, garlic, and black pepper. Season with crushed red pepper, if desired. Add shrimp, and toss to coat. Marinate in the refrigerator for 30 minutes.", 
        "Preheat grill for high heat. Thread shrimp onto skewers, piercing once near the tail and once near the head. Discard any remaining marinade.", 
        "Lightly oil grill grate. Grill for 2 to 3 minutes per side, or until opaque."
    ], 
    "prep_time": "36 mins", 
    "recipe_name": "Grilled Shrimp Scampi"
}