{
    "ingredients": [
        {
            "amount": "1 (16 ounce) package", 
            "ingredient": "dry macaroni"
        }, 
        {
            "amount": "1 1/2 cups", 
            "ingredient": "chunky salsa"
        }, 
        {
            "amount": "1 cup", 
            "ingredient": "mayonnaise"
        }, 
        {
            "amount": "1/2 cup", 
            "ingredient": "finely chopped green bell pepper"
        }, 
        {
            "amount": "1 teaspoon", 
            "ingredient": "garlic powder"
        }, 
        {
            "amount": "1 teaspoon", 
            "ingredient": "salt"
        }, 
        {
            "amount": "1 (6 ounce) can", 
            "ingredient": "sliced black olives, drained"
        }
    ], 
    "prep_steps": [
        "Bring a large pot of lightly salted water to a boil. Add pasta and cook for 8 to 10 minutes or until al dente; rinse under cold running water, and drain.", 
        "In a large bowl, combine the salsa, mayonnaise, green pepper, garlic powder, salt, black pepper, and olives; mix well. Pour pasta into mixture, and stir to coat thoroughly. Cover, and refrigerate at least one hour before serving."
    ], 
    "prep_time": "1\u00bd hrs", 
    "recipe_name": "One - Two - Three - Mexican Macaroni Salad"
}