{
    "ingredients": [
        {
            "amount": "4 cups", 
            "ingredient": "water"
        }, 
        {
            "amount": "2 cubes", 
            "ingredient": "vegetable bouillon"
        }, 
        {
            "amount": "1 cup", 
            "ingredient": "raisins"
        }, 
        {
            "amount": "1/4 cup", 
            "ingredient": "olive oil"
        }, 
        {
            "amount": "2", 
            "ingredient": "onions, chopped"
        }, 
        {
            "amount": "1 tablespoon", 
            "ingredient": "minced garlic"
        }, 
        {
            "amount": "2 tablespoons", 
            "ingredient": "minced ginger"
        }, 
        {
            "amount": "2", 
            "ingredient": "cinnamon sticks"
        }, 
        {
            "amount": "6", 
            "ingredient": "whole cloves"
        }, 
        {
            "amount": "1 teaspoon", 
            "ingredient": "cayenne pepper"
        }, 
        {
            "amount": "1 teaspoon", 
            "ingredient": "ground turmeric"
        }, 
        {
            "amount": "1 teaspoon", 
            "ingredient": "ground coriander"
        }, 
        {
            "amount": "1 teaspoon", 
            "ingredient": "ground cumin"
        }, 
        {
            "amount": "2 (19 ounce) cans", 
            "ingredient": "garbanzo beans (chickpeas)"
        }, 
        {
            "amount": "1 medium", 
            "ingredient": "yam, peeled and diced"
        }, 
        {
            "amount": "1", 
            "ingredient": "pear, peeled and cubed"
        }, 
        {
            "amount": "1 cup", 
            "ingredient": "chopped fresh cilantro"
        }
    ], 
    "prep_steps": [
        "Place water, bouillon cubes, and raisins in a saucepan over high heat. Bring to a boil, and simmer until bouillon cubes dissolve.", 
        "Meanwhile, heat olive oil in a large saucepan over medium heat. Add onion, garlic, and ginger; cook and stir until the onion has softened and turned translucent, about 5 minutes. Add cinnamon sticks, cloves, cayenne, turmeric, coriander, and cumin; cook for about 3 minutes until fragrant, stirring constantly.", 
        "Stir garbanzo beans, yams, and pear into onions; pour in hot vegetable stock and raisins. Bring to a simmer, then reduce heat to medium-low, cover, and simmer until the vegetables have softened and the sauce has thickened, about 1 hour.", 
        "Season to taste with salt and stir in chopped cilantro before serving."
    ], 
    "prep_time": "2 hr", 
    "recipe_name": "Delicious Chickpea Curry"
}