{
    "ingredients": [
        {
            "amount": "2 cloves", 
            "ingredient": "garlic, peeled"
        }, 
        {
            "amount": "1/2", 
            "ingredient": "red onion"
        }, 
        {
            "amount": "1 pound", 
            "ingredient": "ground Italian sausage"
        }, 
        {
            "amount": "10 large", 
            "ingredient": "russet potatoes, peeled and cubed"
        }, 
        {
            "amount": "1/2 teaspoon", 
            "ingredient": "freshly ground black pepper"
        }, 
        {
            "amount": "1 tablespoon", 
            "ingredient": "cayenne pepper, or to taste"
        }, 
        {
            "amount": "1 (12 fluid ounce) can", 
            "ingredient": "evaporated milk"
        }, 
        {
            "amount": "1/4 cup", 
            "ingredient": "butter"
        }, 
        {
            "amount": "1 teaspoon", 
            "ingredient": "dried parsley"
        }
    ], 
    "prep_steps": [
        "In a blender or food processor, puree garlic and onion. Heat garlic and onion puree with Italian sausage in a skillet over medium heat. Cook until sausage is no longer pink.", 
        "Transfer the sausage mixture to a large soup pot. Add potatoes and water to cover. Stir in the seasoned salt, black pepper and cayenne pepper to taste. Bring to a boil over medium-high heat and cook until potatoes are tender. when potatoes are done, stir in the butter, evaporated milk and parsley. Cook long enough for the butter to melt. Serve hot with bread or crackers."
    ], 
    "prep_time": "55 mins", 
    "recipe_name": "Ultimate Spicy Spud Soup"
}