{
    "ingredients": [
        {
            "amount": "2 (6.5 ounce) cans", 
            "ingredient": "minced clams"
        }, 
        {
            "amount": "1 1/2 cups", 
            "ingredient": "water"
        }, 
        {
            "amount": "1 (16 ounce) can", 
            "ingredient": "diced tomatoes"
        }, 
        {
            "amount": "1 cup", 
            "ingredient": "chopped onion"
        }, 
        {
            "amount": "2", 
            "ingredient": "potatoes, peeled and chopped"
        }, 
        {
            "amount": "1/2 cup", 
            "ingredient": "finely chopped carrots"
        }, 
        {
            "amount": "1 teaspoon", 
            "ingredient": "salt"
        }, 
        {
            "amount": "1/2 teaspoon", 
            "ingredient": "dried thyme"
        }
    ], 
    "prep_steps": [
        "Drain clams and reserve liquid. Add enough water to reserved liquid to make 3 cups of stock.", 
        "In a large saucepan pour clam juice and water mixture, undrained tomatoes, onions, potatoes, carrots, salt, pepper and thyme. Cover and simmer for 30 to 35 minutes.", 
        "Remove the pan from the heat. Mash the vegetables slightly to thicken the broth. Add clams to the saucepan and heat thoroughly. Serve hot."
    ], 
    "prep_time": "50 mins", 
    "recipe_name": "Manhattan Clam Chowder II"
}