{
    "ingredients": [
        {
            "amount": "1 1/2 cups", 
            "ingredient": "all-purpose flour"
        }, 
        {
            "amount": "3/4 cup", 
            "ingredient": "cake flour"
        }, 
        {
            "amount": "1/2 teaspoon", 
            "ingredient": "salt"
        }, 
        {
            "amount": "1 tablespoon", 
            "ingredient": "white sugar"
        }, 
        {
            "amount": "1 cup", 
            "ingredient": "unsalted butter"
        }, 
        {
            "amount": "3 tablespoons", 
            "ingredient": "shortening"
        }, 
        {
            "amount": "1/4 cup", 
            "ingredient": "sour cream"
        }, 
        {
            "amount": "1/8 teaspoon", 
            "ingredient": "lemon juice"
        }, 
        {
            "amount": "5 large", 
            "ingredient": "Granny Smith apples - peeled, cored and sliced"
        }, 
        {
            "amount": "1/2 cup", 
            "ingredient": "white sugar"
        }, 
        {
            "amount": "2 tablespoons", 
            "ingredient": "all-purpose flour"
        }, 
        {
            "amount": "1/2 tablespoon", 
            "ingredient": "ground nutmeg"
        }, 
        {
            "amount": "1/8 teaspoon", 
            "ingredient": "lemon juice"
        }, 
        {
            "amount": "1", 
            "ingredient": "egg, beaten"
        }
    ], 
    "prep_steps": [
        "Preheat oven to 350 degrees F (175 degrees C). Grease a 9 inch pie pan.", 
        "To Make Crust: In a large bowl, combine flours, salt and sugar. Cut in butter and shortening until coarse crumbs are formed. Mix in sour cream and lemon juice. Keep mixing until dough forms a ball; dough may be slightly lumpy, this is fine. Wrap dough ball in plastic wrap and allow to chill for 1 hour.", 
        "Once chilled, take dough out of refrigerator and cut it in half; keep one half covered and in the refrigerator. Roll dough to 1/8 of an inch. To lift pie shell, roll dough around rolling pin and then unroll into pie pan. Trim overhanging edges of pie crust.", 
        "To Make Filling: Place apples into pie shell. In a small bowl, combine sugar, flour and nutmeg; mix thoroughly. Sprinkle mixture over apples. Squirt lemon juice over apples. Place pie in refrigerator while top crust is rolled out.", 
        "Remove pie from refrigerator. Brush outer edge of bottom crust with beaten egg. Place second crust on top of pie; crimp pie shell edges together. Brush entire top crust with egg and cut 4 steam slots into it.", 
        "Bake in a preheated 350 degrees F (175 degrees C) oven for 45 minutes, or until golden brown. Allow pie to completely cool before serving. Serve warm with whipped cream or vanilla ice cream."
    ], 
    "prep_time": "2 hr", 
    "recipe_name": "Mum's Irish Apple Pie"
}