{
    "ingredients": [
        {
            "amount": "1/2 pound", 
            "ingredient": "rotini/corkscrew pasta"
        }, 
        {
            "amount": "1/2 cup", 
            "ingredient": "sliced fresh mushrooms"
        }, 
        {
            "amount": "1/2 cup", 
            "ingredient": "sliced green olives"
        }, 
        {
            "amount": "1 stalk", 
            "ingredient": "celery, chopped"
        }, 
        {
            "amount": "1/4 cup", 
            "ingredient": "minced onion"
        }, 
        {
            "amount": "1 cup", 
            "ingredient": "shredded Cheddar cheese"
        }, 
        {
            "amount": "1 (10 ounce) package", 
            "ingredient": "frozen corn kernels"
        }, 
        {
            "amount": "1", 
            "ingredient": "green bell pepper, chopped"
        }, 
        {
            "amount": "3/4 cup", 
            "ingredient": "Italian-style salad dressing"
        }, 
        {
            "amount": "1/2 cup", 
            "ingredient": "mayonnaise"
        }, 
        {
            "amount": "1 cup", 
            "ingredient": "canned chicken meat - drained and flaked"
        }
    ], 
    "prep_steps": [
        "Bring a large pot of lightly salted water to a boil. Add pasta and cook for 8 to 10 minutes or until al dente; drain and rinse with cool water. Pour into a large dish.", 
        "Combine mushrooms, olives, celery, onion, cheese, corn and green bell pepper with pasta; mix well.", 
        "In a small bowl, whisk together dressing and mayonnaise; pour dressing over salad and toss again to coat.", 
        "Gently mix in flaked chicken; refrigerate for a few hours or serve."
    ], 
    "prep_time": "40 mins", 
    "recipe_name": "Chicken Pasta Salad II"
}