{
    "ingredients": [
        {
            "amount": "1 (16 ounce) can", 
            "ingredient": "crushed tomatoes"
        }, 
        {
            "amount": "1 (8 ounce) can", 
            "ingredient": "diced tomatoes"
        }, 
        {
            "amount": "3 (6 ounce) cans", 
            "ingredient": "tomato paste"
        }, 
        {
            "amount": "2 1/4 cups", 
            "ingredient": "water"
        }, 
        {
            "amount": "1 tablespoon", 
            "ingredient": "dried basil"
        }, 
        {
            "amount": "2 pounds", 
            "ingredient": "ground chicken"
        }, 
        {
            "amount": "1 cup", 
            "ingredient": "dry bread crumbs"
        }, 
        {
            "amount": "1/2 cup", 
            "ingredient": "grated Parmesan cheese"
        }, 
        {
            "amount": "2", 
            "ingredient": "eggs, lightly beaten"
        }, 
        {
            "amount": "2 tablespoons", 
            "ingredient": "Italian seasoning"
        }, 
        {
            "amount": "1 (16 ounce) package", 
            "ingredient": "whole-wheat spaghetti"
        }
    ], 
    "prep_steps": [
        "Stir together the crushed tomatoes, diced tomatoes, tomato paste, water, and basil in a large saucepan over medium heat. Salt and pepper to taste. Bring to a boil, reduce heat to low, and simmer for 15 minutes while preparing meatballs.", 
        "Mix together the ground chicken, bread crumbs, Parmesan cheese, eggs, Italian seasoning, salt, and pepper in a medium bowl. Roll into 1 inch balls. Heat a large skillet over medium heat, and coat with cooking spray. Brown the meatballs on all sides. Add meatballs to the simmering pasta sauce and cook until internal temperature of meatballs reaches a minimum of 160 degrees F (72 degrees C), about 30 minutes.", 
        "Fill a large pot with lightly salted water, and bring to a rolling boil over high heat. Once the water is boiling, stir in the spaghetti, and return to a boil. Cook until the pasta has cooked through, but is still firm to the bite, about 12 minutes. Drain. Serve the meatballs and sauce over the cooked spaghetti."
    ], 
    "prep_time": "1\u00bc hrs", 
    "recipe_name": "Chicken Meatballs and Spaghetti"
}