{
    "ingredients": [
        {
            "amount": "1 pound", 
            "ingredient": "cubed beef stew meat"
        }, 
        {
            "amount": "1 tablespoon", 
            "ingredient": "all-purpose flour"
        }, 
        {
            "amount": "2 tablespoons", 
            "ingredient": "olive oil"
        }, 
        {
            "amount": "2 teaspoons", 
            "ingredient": "butter"
        }, 
        {
            "amount": "1 medium", 
            "ingredient": "yellow onion, thinly sliced"
        }, 
        {
            "amount": "1/4 cup", 
            "ingredient": "red wine"
        }, 
        {
            "amount": "1", 
            "ingredient": "beef bouillon cube"
        }, 
        {
            "amount": "1 cup", 
            "ingredient": "hot water"
        }, 
        {
            "amount": "1 large", 
            "ingredient": "potato, cubed"
        }, 
        {
            "amount": "1/2 cup", 
            "ingredient": "baby carrots"
        }, 
        {
            "amount": "1/2 teaspoon", 
            "ingredient": "rosemary"
        }, 
        {
            "amount": "1/2 teaspoon", 
            "ingredient": "dried thyme"
        }, 
        {
            "amount": "1/2 tablespoon", 
            "ingredient": "garlic powder"
        }, 
        {
            "amount": "1/2 teaspoon", 
            "ingredient": "ground black pepper"
        }, 
        {
            "amount": "1/4 cup", 
            "ingredient": "water"
        }, 
        {
            "amount": "2 dashes", 
            "ingredient": "Worcestershire sauce"
        }
    ], 
    "prep_steps": [
        "Place cubed beef and flour in a resealable plastic bag. Seal and shake to evenly coat beef with flour. Heat the oil in a skillet over medium heat, and brown beef on all sides. Transfer to a slow cooker.", 
        "Melt the butter in the skillet over medium heat, and cook onion until tender. Transfer to the slow cooker with the beef. Pour wine into the skillet to deglaze, then pour wine into slow cooker.", 
        "Dissolve the beef bouillon cube in 1 cup hot water, and pour into slow cooker. Place potato and carrots in slow cooker, and season with rosemary, thyme, garlic powder, and pepper. Mix in remaining water and Worcestershire sauce. Add more water if needed to cover all ingredients.", 
        "Cover slow cooker, and cook stew 7 to 8 hours on Low."
    ], 
    "prep_time": "8 hrs", 
    "recipe_name": "Diego's Special Beef Stew"
}