{
    "ingredients": [
        {
            "amount": "1 head", 
            "ingredient": "romaine lettuce"
        }, 
        {
            "amount": "2 cups", 
            "ingredient": "croutons, divided"
        }, 
        {
            "amount": "6 cloves", 
            "ingredient": "garlic, minced"
        }, 
        {
            "amount": "1 tablespoon", 
            "ingredient": "prepared Dijon-style mustard"
        }, 
        {
            "amount": "1", 
            "ingredient": "lemon, juiced"
        }, 
        {
            "amount": "1 dash", 
            "ingredient": "Worcestershire sauce"
        }, 
        {
            "amount": "1/2 cup", 
            "ingredient": "olive oil"
        }, 
        {
            "amount": "1/4 cup", 
            "ingredient": "grated Parmesan cheese"
        }
    ], 
    "prep_steps": [
        "Clean and chop lettuce, set aside.", 
        "Crush 5 or 6 of the croutons in a deep mixing bowl. Add the garlic, mustard, lemon juice and Worcestershire sauce. Blend thoroughly in a mixer and slowly add olive oil until creamy.", 
        "Pour dressing over the lettuce, add parmesan, remaining croutons, toss and enjoy."
    ], 
    "prep_time": "10 mins", 
    "recipe_name": "Caesar Salad II"
}