{
    "ingredients": [
        {
            "amount": "1/2 cup", 
            "ingredient": "rice vinegar"
        }, 
        {
            "amount": "2 tablespoons", 
            "ingredient": "red wine vinegar"
        }, 
        {
            "amount": "2 tablespoons", 
            "ingredient": "honey"
        }, 
        {
            "amount": "1 tablespoon", 
            "ingredient": "sesame oil"
        }, 
        {
            "amount": "1 teaspoon", 
            "ingredient": "dried rosemary"
        }, 
        {
            "amount": "1 teaspoon", 
            "ingredient": "dried basil"
        }, 
        {
            "amount": "1 teaspoon", 
            "ingredient": "dried marjoram"
        }, 
        {
            "amount": "1 teaspoon", 
            "ingredient": "dry mustard powder"
        }, 
        {
            "amount": "3 cloves", 
            "ingredient": "garlic, pressed"
        }, 
        {
            "amount": "1 cup", 
            "ingredient": "vegetable oil"
        }
    ], 
    "prep_steps": [
        "Whisk together the rice vinegar, red wine vinegar, honey, sesame oil, rosemary, basil, marjoram, mustard, garlic, salt, and pepper in a bowl until evenly combined. Whisk in the vegetable oil, then pour into a vinaigrette shaker; refrigerate overnight before using to blend the flavors. Shake to mix before pouring."
    ], 
    "prep_time": "8 hrs", 
    "recipe_name": "Byrdhouse Dream Salad Dressing"
}