{
    "ingredients": [
        {
            "amount": "1 (10 ounce) package", 
            "ingredient": "mixed salad greens"
        }, 
        {
            "amount": "1/2 cup", 
            "ingredient": "slivered almonds"
        }, 
        {
            "amount": "1/2 cup", 
            "ingredient": "crumbled feta cheese"
        }, 
        {
            "amount": "1 cup", 
            "ingredient": "tart apple, cored and chopped"
        }, 
        {
            "amount": "1/4 cup", 
            "ingredient": "sliced red onion"
        }, 
        {
            "amount": "1/4 cup", 
            "ingredient": "golden raisins"
        }, 
        {
            "amount": "1 cup", 
            "ingredient": "raspberry vinaigrette salad dressing"
        }
    ], 
    "prep_steps": [
        "In a large salad bowl, combine the salad greens, almonds, feta cheese, apple, red onion and raisins. Toss to blend. Apply salad dressing to individual servings."
    ], 
    "prep_time": "10 mins", 
    "recipe_name": "Apple Almond Crunch Salad"
}