{
    "ingredients": [
        {
            "amount": "2 tablespoons", 
            "ingredient": "light corn syrup"
        }, 
        {
            "amount": "1/2 cup", 
            "ingredient": "butter"
        }, 
        {
            "amount": "1 cup", 
            "ingredient": "packed brown sugar"
        }, 
        {
            "amount": "1 (1 pound) loaf", 
            "ingredient": "unsliced white bread, with crust trimmed"
        }, 
        {
            "amount": "5", 
            "ingredient": "eggs"
        }, 
        {
            "amount": "1 1/2 cups", 
            "ingredient": "milk"
        }, 
        {
            "amount": "1 tablespoon", 
            "ingredient": "vanilla extract"
        }, 
        {
            "amount": "1/4 teaspoon", 
            "ingredient": "salt"
        }
    ], 
    "prep_steps": [
        "Combine light corn syrup, butter and sugar in saucepan; simmer until syrup-like. Pour mixture over the bottom of a 9\"x 13\" pan.", 
        "Slice bread into 12-16 slices; place over the syrup. Layer as needed.", 
        "Beat together the eggs, milk, vanilla, and salt. Pour over bread. Cover with saran wrap. Refrigerate overnight.", 
        "Bake in a preheated oven 350 degree F (175 degrees C) for 45 minutes.", 
        "Cut into squares. Invert and serve."
    ], 
    "recipe_name": "Skiers' French Toast"
}