{
    "ingredients": [
        {
            "amount": "1/2 cup", 
            "ingredient": "butter"
        }, 
        {
            "amount": "1 1/2 cups", 
            "ingredient": "graham cracker crumbs"
        }, 
        {
            "amount": "1 (14 ounce) can", 
            "ingredient": "sweetened condensed milk"
        }, 
        {
            "amount": "2 cups", 
            "ingredient": "semisweet chocolate chips"
        }, 
        {
            "amount": "1 cup", 
            "ingredient": "peanut butter chips"
        }
    ], 
    "prep_steps": [
        "Preheat oven to 350 degrees F.", 
        "Melt butter over low heat.", 
        "Pour butter into 13 x 9 inch pan. Sprinkle graham cracker crumbs over butter.", 
        "Pour condensed milk over crumbs. Sprinkle chocolate and peanut butter chips over milk mixture and press down firmly.", 
        "Bake 25 to 30 minutes."
    ], 
    "recipe_name": "Peanut Butter/Chocolate Chip Cookie Bars"
}