{
    "ingredients": [
        {
            "amount": "1 pound", 
            "ingredient": "ground beef"
        }, 
        {
            "amount": "1/2", 
            "ingredient": "onion, finely chopped"
        }, 
        {
            "amount": "2 (8 ounce) packages", 
            "ingredient": "corn muffin mix"
        }, 
        {
            "amount": "2 cups", 
            "ingredient": "milk"
        }, 
        {
            "amount": "2", 
            "ingredient": "eggs"
        }, 
        {
            "amount": "1 (15 ounce) can", 
            "ingredient": "creamed corn"
        }, 
        {
            "amount": "3 tablespoons", 
            "ingredient": "pickled jalapeno slices"
        }, 
        {
            "amount": "1 cup", 
            "ingredient": "shredded Cheddar cheese"
        }
    ], 
    "prep_steps": [
        "Preheat oven to 350 degrees F (175 degrees C). Grease a 9x13 inch baking dish. In a skillet over medium-high heat, cook the ground beef with about half of the chopped onion until meat is no longer pink and onion is tender. Season with salt and pepper to taste. Drain juices and set aside.", 
        "Empty packages of cornbread mix into a large bowl. Mix in the milk, eggs and creamed corn until smooth. Fold in the ground beef mixture and pickled jalapenos. Spread the batter evenly into the prepared pan, and sprinkle Cheddar cheese over the top.", 
        "Bake for 20 to 25 minutes in the preheated oven, or until a knife inserted into the center comes out clean."
    ], 
    "prep_time": "35 mins", 
    "recipe_name": "Cornbread that is a Meal"
}