{
    "ingredients": [
        {
            "amount": "1 (18.25 ounce) package", 
            "ingredient": "yellow cake mix"
        }, 
        {
            "amount": "1/2 cup", 
            "ingredient": "butter, melted"
        }, 
        {
            "amount": "1", 
            "ingredient": "egg"
        }, 
        {
            "amount": "1 cup", 
            "ingredient": "semisweet chocolate chips"
        }, 
        {
            "amount": "1 (8 ounce) package", 
            "ingredient": "cream cheese, softened"
        }, 
        {
            "amount": "2", 
            "ingredient": "eggs"
        }, 
        {
            "amount": "3 1/2 cups", 
            "ingredient": "confectioners' sugar"
        }
    ], 
    "prep_steps": [
        "Preheat oven to 350 degrees F (175 degrees C). Grease a 9x13 inch pan.", 
        "In a large bowl, mix together the cake mix, melted butter and 1 egg until smooth. Batter will be thick. Spread evenly into the bottom of the prepared pan. Next, sprinkle the chocolate chips over the layer of dough. Finally, beat the cream cheese, 2 eggs and confectioners' sugar together in a medium bowl until smooth. Pour as evenly as you can over the chocolate chips.", 
        "Bake for 35 to 40 minutes in the preheated oven, until the top is set. Let cool for at least 30 minutes before cutting into bars."
    ], 
    "prep_time": "55 mins", 
    "recipe_name": "Gooey Bars"
}