{
    "prep_steps": [
        "If grilling, preheat an outdoor grill for high heat, and lightly oil a sheet of aluminum foil. If baking, preheat oven to 375 degrees F (190 degrees C), and lightly oil a baking sheet.", 
        "In a medium bowl, mash black beans with a fork until thick and pasty.", 
        "In a food processor, finely chop bell pepper, onion, and garlic. Then stir into mashed beans.", 
        "In a small bowl, stir together egg, chili powder, cumin, and chili sauce.", 
        "Stir the egg mixture into the mashed beans. Mix in bread crumbs until the mixture is sticky and holds together. Divide mixture into four patties.", 
        "If grilling, place patties on foil, and grill about 8 minutes on each side. If baking, place patties on baking sheet, and bake about 10 minutes on each side."
    ], 
    "recipe_name": "Homemade Black Bean Veggie Burgers", 
    "prep_time": "35 mins", 
    "ingredients": [
        {
            "std_metric": "grams", 
            "quantity": "1/2", 
            "std_weight": 50.0, 
            "uri": "www.semanticfoodnetwork.com/onion_cut_into_wedges", 
            "ingredient": "onion, cut into wedges"
        }, 
        {
            "std_metric": "grams", 
            "quantity": "1", 
            "std_weight": 100.0, 
            "uri": "www.semanticfoodnetwork.com/egg_large", 
            "ingredient": "egg"
        }, 
        {
            "std_weight": 118.295, 
            "std_metric": "milliliters", 
            "metric": "cup", 
            "uri": "www.semanticfoodnetwork.com/bread_crumbs_plain_dry", 
            "ingredient": "bread crumbs", 
            "quantity": "0.5"
        }, 
        {
            "std_weight": 4.93, 
            "std_metric": "milliliters", 
            "metric": "teaspoon", 
            "uri": "www.semanticfoodnetwork.com/thai_chili_sauce_or_hot_sauce", 
            "ingredient": "Thai chili sauce or hot sauce", 
            "quantity": "1"
        }, 
        {
            "std_weight": 14.79, 
            "std_metric": "milliliters", 
            "metric": "tablespoon", 
            "uri": "www.semanticfoodnetwork.com/chili_powder", 
            "ingredient": "chili powder", 
            "quantity": "1"
        }, 
        {
            "std_metric": "grams", 
            "quantity": "1/2", 
            "std_weight": 50.0, 
            "uri": "www.semanticfoodnetwork.com/green_bell_pepper_cut_into_2_inch_pieces", 
            "ingredient": "green bell pepper, cut into 2 inch pieces"
        }, 
        {
            "std_weight": 502.69, 
            "std_metric": "grams", 
            "metric": "ounce", 
            "uri": "www.semanticfoodnetwork.com/black_beans_drained_and_rinsed", 
            "ingredient": "black beans, drained and rinsed", 
            "quantity": "17.0"
        }, 
        {
            "std_weight": 14.79, 
            "std_metric": "milliliters", 
            "metric": "tablespoon", 
            "uri": "www.semanticfoodnetwork.com/cumin", 
            "ingredient": "cumin", 
            "quantity": "1"
        }, 
        {
            "std_weight": 300.0, 
            "std_metric": "grams", 
            "metric": "unknown", 
            "uri": "www.semanticfoodnetwork.com/garlic", 
            "ingredient": "garlic, peeled", 
            "quantity": "3"
        }
    ]
}