{
    "prep_steps": [
        "Preheat waffle iron. Beat eggs in large bowl with hand beater until fluffy. Beat in flour, milk, vegetable oil, sugar, baking powder, salt and vanilla, just until smooth.", 
        "Spray preheated waffle iron with non-stick cooking spray. Pour mix onto hot waffle iron. Cook until golden brown. Serve hot."
    ], 
    "recipe_name": "Waffles I", 
    "prep_time": "20 mins", 
    "ingredients": [
        {
            "std_weight": 2.465, 
            "std_metric": "milliliters", 
            "metric": "teaspoon", 
            "uri": "www.semanticfoodnetwork.com/vanilla_extract", 
            "ingredient": "vanilla extract", 
            "quantity": "0.5"
        }, 
        {
            "std_weight": 473.18, 
            "std_metric": "milliliters", 
            "metric": "cups", 
            "uri": "www.semanticfoodnetwork.com/all-purpose_flour_unsifted", 
            "ingredient": "all-purpose flour", 
            "quantity": "2"
        }, 
        {
            "std_weight": 118.295, 
            "std_metric": "milliliters", 
            "metric": "cup", 
            "uri": "www.semanticfoodnetwork.com/vegetable_oil", 
            "ingredient": "vegetable oil", 
            "quantity": "0.5"
        }, 
        {
            "std_weight": 19.72, 
            "std_metric": "milliliters", 
            "metric": "teaspoons", 
            "uri": "www.semanticfoodnetwork.com/baking_powder_double-acting", 
            "ingredient": "baking powder", 
            "quantity": "4"
        }, 
        {
            "std_weight": 414.0325, 
            "std_metric": "milliliters", 
            "metric": "cups", 
            "uri": "www.semanticfoodnetwork.com/milk_whole_goat", 
            "ingredient": "milk", 
            "quantity": "1.75"
        }, 
        {
            "std_weight": 1.2325, 
            "std_metric": "milliliters", 
            "metric": "teaspoon", 
            "uri": "www.semanticfoodnetwork.com/salt_iodized_or_non-iodized", 
            "ingredient": "salt", 
            "quantity": "0.25"
        }, 
        {
            "std_metric": "grams", 
            "quantity": "2", 
            "std_weight": 200.0, 
            "uri": "www.semanticfoodnetwork.com/eggs", 
            "ingredient": "eggs"
        }, 
        {
            "std_weight": 14.79, 
            "std_metric": "milliliters", 
            "metric": "tablespoon", 
            "uri": "www.semanticfoodnetwork.com/white_sugar", 
            "ingredient": "white sugar", 
            "quantity": "1"
        }
    ]
}