{
    "prep_steps": [
        "Preheat oven to 350 degrees F (175 degrees C).", 
        "In a medium bowl, combine condensed milk, sour cream, lime juice, and lime rind. Mix well and pour into graham cracker crust.", 
        "Bake in preheated oven for 5 to 8 minutes, until tiny pinhole bubbles burst on the surface of pie. DO NOT BROWN! Chill pie thoroughly before serving. Garnish with lime slices and whipped cream if desired."
    ], 
    "recipe_name": "Key Lime Pie VII", 
    "prep_time": "55 mins", 
    "ingredients": [
        {
            "std_weight": 709.77, 
            "std_metric": "milliliters", 
            "metric": "cups", 
            "uri": "www.semanticfoodnetwork.com/condensed_milk_sweetened", 
            "ingredient": "sweetened condensed milk", 
            "quantity": "3"
        }, 
        {
            "std_weight": 14.79, 
            "std_metric": "milliliters", 
            "metric": "tablespoon", 
            "uri": "www.semanticfoodnetwork.com/grated_lime_zest", 
            "ingredient": "grated lime zest", 
            "quantity": "1"
        }, 
        {
            "std_weight": 177.4425, 
            "std_metric": "milliliters", 
            "metric": "cup", 
            "uri": "www.semanticfoodnetwork.com/key_lime_juice", 
            "ingredient": "key lime juice", 
            "quantity": "0.75"
        }, 
        {
            "std_weight": 118.295, 
            "std_metric": "milliliters", 
            "metric": "cup", 
            "uri": "www.semanticfoodnetwork.com/sour_cream_regular", 
            "ingredient": "sour cream", 
            "quantity": "0.5"
        }
    ]
}