{
    "prep_steps": [
        "Bring a large pot of salted water to a boil. Cut the tops off the peppers, and remove the seeds. Cook peppers in boiling water for 5 minutes; drain. Sprinkle salt inside each pepper, and set aside.", 
        "In a large skillet, saute beef and onions for 5 minutes, or until beef is browned. Drain off excess fat, and season with salt and pepper. Stir in the tomatoes, rice, 1/2 cup water and Worcestershire sauce. Cover, and simmer for 15 minutes, or until rice is tender. Remove from heat, and stir in the cheese.", 
        "Preheat the oven to 350 degrees F. (175 degrees C). Stuff each pepper with the beef and rice mixture, and place peppers open side up in a baking dish. In a medium bowl, combine tomato soup with just enough water to make the soup a gravy consistency. Pour over the peppers.", 
        "Bake covered for 25 to 35 minutes, until heated through and cheese is melted and bubbly."
    ], 
    "recipe_name": "Stuffed Green Peppers I", 
    "prep_time": "1 hr", 
    "ingredients": [
        {
            "std_weight": 59.14, 
            "std_metric": "grams", 
            "metric": "ounce", 
            "uri": "www.semanticfoodnetwork.com/condensed_tomato_soup", 
            "ingredient": "condensed tomato soup", 
            "quantity": "2.0"
        }, 
        {
            "std_weight": 29.57, 
            "std_metric": "grams", 
            "metric": "ounce", 
            "uri": "www.semanticfoodnetwork.com/whole_peeled_tomatoes_chopped", 
            "ingredient": "whole peeled tomatoes, chopped", 
            "quantity": "1.0"
        }, 
        {
            "std_weight": 454.0, 
            "std_metric": "grams", 
            "metric": "pound", 
            "uri": "www.semanticfoodnetwork.com/ground_beef_extra_lean_raw", 
            "ingredient": "ground beef", 
            "quantity": "1"
        }, 
        {
            "std_weight": 4.93, 
            "std_metric": "milliliters", 
            "metric": "teaspoon", 
            "uri": "www.semanticfoodnetwork.com/worcestershire_sauce", 
            "ingredient": "Worcestershire sauce", 
            "quantity": "1"
        }, 
        {
            "std_weight": 78.86333333325447, 
            "std_metric": "milliliters", 
            "metric": "cup", 
            "uri": "www.semanticfoodnetwork.com/onion_yellow_(raw)", 
            "ingredient": "chopped onion", 
            "quantity": "0.333333333333"
        }, 
        {
            "std_metric": "grams", 
            "quantity": "6", 
            "std_weight": 600.0, 
            "uri": "www.semanticfoodnetwork.com/bell_pepper", 
            "ingredient": "green bell peppers"
        }, 
        {
            "std_weight": 236.59, 
            "std_metric": "milliliters", 
            "metric": "cup", 
            "uri": "www.semanticfoodnetwork.com/cheese_brie", 
            "ingredient": "shredded Cheddar cheese", 
            "quantity": "1"
        }, 
        {
            "std_weight": 118.295, 
            "std_metric": "milliliters", 
            "metric": "cup", 
            "uri": "www.semanticfoodnetwork.com/uncooked_rice", 
            "ingredient": "uncooked rice", 
            "quantity": "0.5"
        }, 
        {
            "std_weight": 118.295, 
            "std_metric": "milliliters", 
            "metric": "cup", 
            "uri": "www.semanticfoodnetwork.com/water", 
            "ingredient": "water", 
            "quantity": "0.5"
        }
    ]
}