{
    "prep_steps": [
        "Preheat oven to 350 degrees F (175 degrees C).", 
        "Sprinkle chicken breasts with salt and pepper to taste, and place in a lightly greased 9x13 inch baking dish. In a small bowl, combine the honey, mustard, basil, paprika, and parsley. Mix well. Pour 1/2 of this mixture over the chicken, and brush to cover.", 
        "Bake in the preheated oven for 30 minutes. Turn chicken pieces over and brush with the remaining 1/2 of the honey mustard mixture. Bake for an additional 10 to 15 minutes, or until chicken is no longer pink and juices run clear. Let cool 10 minutes before serving."
    ], 
    "recipe_name": "Baked Honey Mustard Chicken", 
    "prep_time": "1 hr", 
    "ingredients": [
        {
            "std_weight": 4.93, 
            "std_metric": "milliliters", 
            "metric": "teaspoon", 
            "uri": "www.semanticfoodnetwork.com/paprika_paprika", 
            "ingredient": "paprika", 
            "quantity": "1"
        }, 
        {
            "std_weight": 2.465, 
            "std_metric": "milliliters", 
            "metric": "teaspoon", 
            "uri": "www.semanticfoodnetwork.com/parsley_fresh", 
            "ingredient": "dried parsley", 
            "quantity": "0.5"
        }, 
        {
            "std_weight": 4.93, 
            "std_metric": "milliliters", 
            "metric": "teaspoon", 
            "uri": "www.semanticfoodnetwork.com/basil_fresh", 
            "ingredient": "dried basil", 
            "quantity": "1"
        }, 
        {
            "std_metric": "grams", 
            "quantity": "6", 
            "std_weight": 600.0, 
            "uri": "www.semanticfoodnetwork.com/chicken_hotdog", 
            "ingredient": "skinless, boneless chicken breast halves"
        }, 
        {
            "std_weight": 118.295, 
            "std_metric": "milliliters", 
            "metric": "cup", 
            "uri": "www.semanticfoodnetwork.com/mustard_dijon", 
            "ingredient": "prepared mustard", 
            "quantity": "0.5"
        }, 
        {
            "std_weight": 118.295, 
            "std_metric": "milliliters", 
            "metric": "cup", 
            "uri": "www.semanticfoodnetwork.com/honey", 
            "ingredient": "honey", 
            "quantity": "0.5"
        }
    ]
}