{
    "prep_steps": [
        "In a medium bowl, mix together the butter or margarine, graham cracker crumbs, confectioners' sugar, and 1 cup peanut butter until well blended. Press evenly into the bottom of an ungreased 9x13 inch pan.", 
        "In a metal bowl over simmering water, or in the microwave, melt the chocolate chips with the peanut butter, stirring occasionally until smooth. Spread over the prepared crust. Refrigerate for at least one hour before cutting into squares."
    ], 
    "recipe_name": "Peanut Butter Bars I", 
    "prep_time": "1\u00bd hrs", 
    "ingredients": [
        {
            "std_weight": 236.59, 
            "std_metric": "milliliters", 
            "metric": "cup", 
            "uri": "www.semanticfoodnetwork.com/butter_whipped", 
            "ingredient": "butter or margarine, melted", 
            "quantity": "1"
        }, 
        {
            "std_weight": 473.18, 
            "std_metric": "milliliters", 
            "metric": "cups", 
            "uri": "www.semanticfoodnetwork.com/sugar_confectioners_unsifted", 
            "ingredient": "confectioners' sugar", 
            "quantity": "2"
        }, 
        {
            "std_weight": 473.18, 
            "std_metric": "milliliters", 
            "metric": "cups", 
            "uri": "www.semanticfoodnetwork.com/graham_crackers", 
            "ingredient": "graham cracker crumbs", 
            "quantity": "2"
        }, 
        {
            "std_weight": 354.885, 
            "std_metric": "milliliters", 
            "metric": "cups", 
            "uri": "www.semanticfoodnetwork.com/semisweet_chocolate_chips", 
            "ingredient": "semisweet chocolate chips", 
            "quantity": "1.5"
        }, 
        {
            "std_weight": 59.16, 
            "std_metric": "milliliters", 
            "metric": "tablespoons", 
            "uri": "www.semanticfoodnetwork.com/peanut_butter_smooth", 
            "ingredient": "peanut butter", 
            "quantity": "4"
        }, 
        {
            "std_weight": 236.59, 
            "std_metric": "milliliters", 
            "metric": "cup", 
            "uri": "www.semanticfoodnetwork.com/peanut_butter_smooth", 
            "ingredient": "peanut butter", 
            "quantity": "1"
        }
    ]
}