{
    "prep_steps": [
        "Cream together butter, peanut butter and sugars. Beat in eggs.", 
        "In a separate bowl, sift together flour, baking powder, baking soda, and salt. Stir into batter. Put batter in refrigerator for 1 hour.", 
        "Roll into 1 inch balls and put on baking sheets. Flatten each ball with a fork, making a criss-cross pattern. Bake in a preheated 375 degrees F oven for about 10 minutes or until cookies begin to brown. Do not over-bake."
    ], 
    "recipe_name": "Classic Peanut Butter Cookies", 
    "ingredients": [
        {
            "std_weight": 236.59, 
            "std_metric": "milliliters", 
            "metric": "cup", 
            "uri": "www.semanticfoodnetwork.com/white_sugar", 
            "ingredient": "white sugar", 
            "quantity": "1"
        }, 
        {
            "std_weight": 236.59, 
            "std_metric": "milliliters", 
            "metric": "cup", 
            "uri": "www.semanticfoodnetwork.com/peanut_butter_creamy_or_smoothr", 
            "ingredient": "crunchy peanut butter", 
            "quantity": "1"
        }, 
        {
            "std_weight": 591.475, 
            "std_metric": "milliliters", 
            "metric": "cups", 
            "uri": "www.semanticfoodnetwork.com/all-purpose_flour_unsifted", 
            "ingredient": "all-purpose flour", 
            "quantity": "2.5"
        }, 
        {
            "std_weight": 236.59, 
            "std_metric": "milliliters", 
            "metric": "cup", 
            "uri": "www.semanticfoodnetwork.com/butter_regular_unsalted", 
            "ingredient": "unsalted butter", 
            "quantity": "1"
        }, 
        {
            "std_weight": 2.465, 
            "std_metric": "milliliters", 
            "metric": "teaspoon", 
            "uri": "www.semanticfoodnetwork.com/salt_iodized_or_non-iodized", 
            "ingredient": "salt", 
            "quantity": "0.5"
        }, 
        {
            "std_metric": "grams", 
            "quantity": "2", 
            "std_weight": 200.0, 
            "uri": "www.semanticfoodnetwork.com/eggs", 
            "ingredient": "eggs"
        }, 
        {
            "std_weight": 4.93, 
            "std_metric": "milliliters", 
            "metric": "teaspoon", 
            "uri": "www.semanticfoodnetwork.com/baking_powder_double-acting", 
            "ingredient": "baking powder", 
            "quantity": "1"
        }, 
        {
            "std_weight": 236.59, 
            "std_metric": "milliliters", 
            "metric": "cup", 
            "uri": "www.semanticfoodnetwork.com/sugar_confectioners_unsifted", 
            "ingredient": "packed brown sugar", 
            "quantity": "1"
        }, 
        {
            "std_weight": 7.395, 
            "std_metric": "milliliters", 
            "metric": "teaspoons", 
            "uri": "www.semanticfoodnetwork.com/baking_soda", 
            "ingredient": "baking soda", 
            "quantity": "1.5"
        }
    ]
}