{
    "prep_steps": [
        "Preheat oven to 350 degrees F (175 degrees C).", 
        "Cut bacon into thirds and wrap each strip around a little sausage. Place the wrapped sausages on wooden skewers, several to a skewer. Arrange the skewers on a baking sheet and sprinkle them liberally with brown sugar.", 
        "Bake until bacon is crisp and the brown sugar melted."
    ], 
    "recipe_name": "Brown Sugar Smokies", 
    "prep_time": "30 mins", 
    "ingredients": [
        {
            "std_weight": 236.59, 
            "std_metric": "milliliters", 
            "metric": "cup", 
            "uri": "www.semanticfoodnetwork.com/brown_sugar_or_to_taste", 
            "ingredient": "brown sugar, or to taste", 
            "quantity": "1"
        }, 
        {
            "std_weight": 454.0, 
            "std_metric": "grams", 
            "metric": "pound", 
            "uri": "www.semanticfoodnetwork.com/bacon_cooked", 
            "ingredient": "bacon", 
            "quantity": "1"
        }, 
        {
            "std_weight": 502.69, 
            "std_metric": "grams", 
            "metric": "ounce", 
            "uri": "www.semanticfoodnetwork.com/little_smokie_sausages", 
            "ingredient": "little smokie sausages", 
            "quantity": "17.0"
        }
    ]
}