{
    "prep_steps": [
        "Preheat oven to 175 degrees F (80 degrees C). Place a medium dish in the oven to warm.", 
        "Heat a large skillet over medium-high heat. Brush chops lightly with oil and place in hot pan. Cook for 5 to 6 minutes, turning occasionally, or until done. Transfer to the warm dish, and keep warm in the preheated oven.", 
        "In a small bowl, combine brown sugar, salt and pepper, cinnamon and nutmeg. Add butter to skillet, and stir in brown sugar mixture and apples. Cover and cook until apples are just tender. Remove apples with a slotted spoon and arrange on top of chops. Keep warm in the preheated oven.", 
        "Continue cooking sauce uncovered in skillet, until thickened slightly. Spoon sauce over apples and chops. Sprinkle with pecans."
    ], 
    "recipe_name": "Caramel Apple Pork Chops", 
    "prep_time": "45 mins", 
    "ingredients": [
        {
            "std_weight": 0.61625, 
            "std_metric": "milliliters", 
            "metric": "teaspoon", 
            "uri": "www.semanticfoodnetwork.com/cinnamon_ground", 
            "ingredient": "ground cinnamon", 
            "quantity": "0.125"
        }, 
        {
            "std_weight": 29.58, 
            "std_metric": "milliliters", 
            "metric": "tablespoons", 
            "uri": "www.semanticfoodnetwork.com/butter_regular_unsalted", 
            "ingredient": "unsalted butter", 
            "quantity": "2"
        }, 
        {
            "std_weight": 4.93, 
            "std_metric": "milliliters", 
            "metric": "teaspoon", 
            "uri": "www.semanticfoodnetwork.com/vegetable_oil", 
            "ingredient": "vegetable oil", 
            "quantity": "1"
        }, 
        {
            "std_weight": 44.37, 
            "std_metric": "milliliters", 
            "metric": "tablespoons", 
            "uri": "www.semanticfoodnetwork.com/pecans", 
            "ingredient": "pecans", 
            "quantity": "3"
        }, 
        {
            "std_metric": "grams", 
            "quantity": "2", 
            "std_weight": 200.0, 
            "uri": "www.semanticfoodnetwork.com/tart_apples_-_peeled_cored_and_sliced", 
            "ingredient": "tart apples - peeled, cored and sliced"
        }, 
        {
            "std_weight": 0.61625, 
            "std_metric": "milliliters", 
            "metric": "teaspoon", 
            "uri": "www.semanticfoodnetwork.com/nutmeg_ground", 
            "ingredient": "ground nutmeg", 
            "quantity": "0.125"
        }, 
        {
            "std_weight": 29.58, 
            "std_metric": "milliliters", 
            "metric": "tablespoons", 
            "uri": "www.semanticfoodnetwork.com/sugar_brown", 
            "ingredient": "brown sugar", 
            "quantity": "2"
        }, 
        {
            "std_metric": "grams", 
            "quantity": "4", 
            "std_weight": 400.0, 
            "uri": "www.semanticfoodnetwork.com/(3/4_inch)_thick_pork_chops", 
            "ingredient": "(3/4 inch) thick pork chops"
        }
    ]
}