{
    "prep_steps": [
        "Cook noodles according to package directions.", 
        "Preheat oven to 350 degrees F (175 degrees C).", 
        "In a medium skillet over medium-high heat, brown the ground beef with the onion, garlic and green bell pepper. Drain excess fat. Stir in the noodles, pepperoni, pizza sauce and milk, and mix well. Pour this mixture into a 2-quart casserole dish.", 
        "Bake at 350 degrees F (175 degrees C) for 20 minutes, top with the cheese, then bake for 5 to 10 more minutes."
    ], 
    "recipe_name": "Pizza Casserole", 
    "prep_time": "1 hr", 
    "ingredients": [
        {
            "std_metric": "grams", 
            "quantity": "1", 
            "std_weight": 100.0, 
            "uri": "www.semanticfoodnetwork.com/bell_pepper", 
            "ingredient": "green bell pepper, chopped"
        }, 
        {
            "std_weight": 236.59, 
            "std_metric": "milliliters", 
            "metric": "cup", 
            "uri": "www.semanticfoodnetwork.com/sliced_pepperoni_sausage", 
            "ingredient": "sliced pepperoni sausage", 
            "quantity": "1"
        }, 
        {
            "std_metric": "grams", 
            "quantity": "1", 
            "std_weight": 100.0, 
            "uri": "www.semanticfoodnetwork.com/onion_yellow_(raw)", 
            "ingredient": "onion, chopped"
        }, 
        {
            "std_weight": 236.59, 
            "std_metric": "milliliters", 
            "metric": "cup", 
            "uri": "www.semanticfoodnetwork.com/cheese_brie", 
            "ingredient": "shredded mozzarella cheese", 
            "quantity": "1"
        }, 
        {
            "std_weight": 200.0, 
            "std_metric": "grams", 
            "metric": "unknown", 
            "uri": "www.semanticfoodnetwork.com/garlic", 
            "ingredient": "garlic, minced", 
            "quantity": "2"
        }, 
        {
            "std_weight": 227.0, 
            "std_metric": "grams", 
            "metric": "pound", 
            "uri": "www.semanticfoodnetwork.com/ground_beef_extra_lean_raw", 
            "ingredient": "lean ground beef", 
            "quantity": "0.5"
        }, 
        {
            "std_weight": 59.16, 
            "std_metric": "milliliters", 
            "metric": "tablespoons", 
            "uri": "www.semanticfoodnetwork.com/milk_whole_goat", 
            "ingredient": "milk", 
            "quantity": "4"
        }, 
        {
            "std_weight": 473.18, 
            "std_metric": "milliliters", 
            "metric": "cups", 
            "uri": "www.semanticfoodnetwork.com/noodles_japanese_soba", 
            "ingredient": "uncooked egg noodles", 
            "quantity": "2"
        }, 
        {
            "std_weight": 473.12, 
            "std_metric": "grams", 
            "metric": "ounces", 
            "uri": "www.semanticfoodnetwork.com/soy_sauce", 
            "ingredient": "pizza sauce", 
            "quantity": "16.0"
        }
    ]
}