{
    "prep_steps": [
        "Preheat oven to 350 degrees F (175 degrees C).", 
        "To Make Lemon Filling: In a medium saucepan, whisk together 1 cup sugar, flour, cornstarch, and salt. Stir in water, lemon juice and lemon zest. Cook over medium-high heat, stirring frequently, until mixture comes to a boil. Stir in butter. Place egg yolks in a small bowl and gradually whisk in 1/2 cup of hot sugar mixture. Whisk egg yolk mixture back into remaining sugar mixture. Bring to a boil and continue to cook while stirring constantly until thick. Remove from heat. Pour filling into baked pastry shell.", 
        "To Make Meringue: In a large glass or metal bowl, whip egg whites until foamy. Add sugar gradually, and continue to whip until stiff peaks form. Spread meringue over pie, sealing the edges at the crust.", 
        "Bake in preheated oven for 10 minutes, or until meringue is golden brown."
    ], 
    "recipe_name": "Grandma's Lemon Meringue Pie", 
    "prep_time": "40 mins", 
    "ingredients": [
        {
            "std_weight": 236.59, 
            "std_metric": "milliliters", 
            "metric": "cup", 
            "uri": "www.semanticfoodnetwork.com/white_sugar", 
            "ingredient": "white sugar", 
            "quantity": "1"
        }, 
        {
            "std_weight": 1.2325, 
            "std_metric": "milliliters", 
            "metric": "teaspoon", 
            "uri": "www.semanticfoodnetwork.com/salt_iodized_or_non-iodized", 
            "ingredient": "salt", 
            "quantity": "0.25"
        }, 
        {
            "std_metric": "grams", 
            "quantity": "4", 
            "std_weight": 400.0, 
            "uri": "www.semanticfoodnetwork.com/egg_whites", 
            "ingredient": "egg whites"
        }, 
        {
            "std_metric": "grams", 
            "quantity": "2", 
            "std_weight": 200.0, 
            "uri": "www.semanticfoodnetwork.com/lemons_juiced_and_zested", 
            "ingredient": "lemons, juiced and zested"
        }, 
        {
            "std_metric": "grams", 
            "quantity": "4", 
            "std_weight": 400.0, 
            "uri": "www.semanticfoodnetwork.com/egg_yolk_large", 
            "ingredient": "egg yolks, beaten"
        }, 
        {
            "std_weight": 88.74, 
            "std_metric": "milliliters", 
            "metric": "tablespoons", 
            "uri": "www.semanticfoodnetwork.com/white_sugar", 
            "ingredient": "white sugar", 
            "quantity": "6"
        }, 
        {
            "std_weight": 44.37, 
            "std_metric": "milliliters", 
            "metric": "tablespoons", 
            "uri": "www.semanticfoodnetwork.com/cornstarch", 
            "ingredient": "cornstarch", 
            "quantity": "3"
        }, 
        {
            "std_weight": 29.58, 
            "std_metric": "milliliters", 
            "metric": "tablespoons", 
            "uri": "www.semanticfoodnetwork.com/all-purpose_flour_unsifted", 
            "ingredient": "all-purpose flour", 
            "quantity": "2"
        }, 
        {
            "std_weight": 29.58, 
            "std_metric": "milliliters", 
            "metric": "tablespoons", 
            "uri": "www.semanticfoodnetwork.com/butter_whipped", 
            "ingredient": "butter", 
            "quantity": "2"
        }, 
        {
            "std_weight": 354.885, 
            "std_metric": "milliliters", 
            "metric": "cups", 
            "uri": "www.semanticfoodnetwork.com/water", 
            "ingredient": "water", 
            "quantity": "1.5"
        }
    ]
}