{
    "prep_steps": [
        "Preheat the oven to 350 degrees F (175 degrees C). Grease and flour two 9x5 inch loaf pans.", 
        "Sift the flour, salt and baking soda into a large bowl. In a separate bowl, mix together the butter or margarine and sugar until smooth. Stir in the bananas, eggs, and walnuts until well blended. Pour the wet ingredients into the dry mixture, and stir just until blended. Divide the batter evenly between the two loaf pans.", 
        "Bake for 60 to 70 minutes in the preheated oven, until a knife inserted into the crown of the loaf comes out clean. Let the loaves cool in the pans for at least 5 minutes, then turn out onto a cooling rack, and cool completely. Wrap in aluminum foil to keep in the moisture. Ideally, refrigerate the loaves for 2 hours or more before serving."
    ], 
    "recipe_name": "Extreme Banana Nut Bread 'EBNB'", 
    "prep_time": "1\u00bd hrs", 
    "ingredients": [
        {
            "std_metric": "grams", 
            "quantity": "4", 
            "std_weight": 400.0, 
            "uri": "www.semanticfoodnetwork.com/eggs_beaten", 
            "ingredient": "eggs, beaten"
        }, 
        {
            "std_weight": 9.86, 
            "std_metric": "milliliters", 
            "metric": "teaspoons", 
            "uri": "www.semanticfoodnetwork.com/baking_soda", 
            "ingredient": "baking soda", 
            "quantity": "2"
        }, 
        {
            "std_weight": 473.18, 
            "std_metric": "milliliters", 
            "metric": "cups", 
            "uri": "www.semanticfoodnetwork.com/all-purpose_flour_unsifted", 
            "ingredient": "all-purpose flour", 
            "quantity": "2"
        }, 
        {
            "std_weight": 473.18, 
            "std_metric": "milliliters", 
            "metric": "cups", 
            "uri": "www.semanticfoodnetwork.com/mashed_overripe_bananas", 
            "ingredient": "mashed overripe bananas", 
            "quantity": "2"
        }, 
        {
            "std_weight": 236.59, 
            "std_metric": "milliliters", 
            "metric": "cup", 
            "uri": "www.semanticfoodnetwork.com/walnuts", 
            "ingredient": "chopped walnuts", 
            "quantity": "1"
        }, 
        {
            "std_weight": 236.59, 
            "std_metric": "milliliters", 
            "metric": "cup", 
            "uri": "www.semanticfoodnetwork.com/butter_or_margarine", 
            "ingredient": "butter or margarine", 
            "quantity": "1"
        }, 
        {
            "std_weight": 473.18, 
            "std_metric": "milliliters", 
            "metric": "cups", 
            "uri": "www.semanticfoodnetwork.com/white_sugar", 
            "ingredient": "white sugar", 
            "quantity": "2"
        }, 
        {
            "std_weight": 4.93, 
            "std_metric": "milliliters", 
            "metric": "teaspoon", 
            "uri": "www.semanticfoodnetwork.com/salt_iodized_or_non-iodized", 
            "ingredient": "salt", 
            "quantity": "1"
        }
    ]
}