{
    "prep_steps": [
        "In a large bowl, combine beans, bell peppers, frozen corn, and red onion.", 
        "In a small bowl, whisk together olive oil, red wine vinegar, lime juice, lemon juice, sugar, salt, garlic, cilantro, cumin, and black pepper. Season to taste with hot sauce and chili powder.", 
        "Pour olive oil dressing over vegetables; mix well. Chill thoroughly, and serve cold."
    ], 
    "recipe_name": "Mexican Bean Salad", 
    "prep_time": "1\u00bc hrs", 
    "ingredients": [
        {
            "std_weight": 118.295, 
            "std_metric": "milliliters", 
            "metric": "cup", 
            "uri": "www.semanticfoodnetwork.com/red_wine_vinegar", 
            "ingredient": "red wine vinegar", 
            "quantity": "0.5"
        }, 
        {
            "std_metric": "grams", 
            "quantity": "1", 
            "std_weight": 100.0, 
            "uri": "www.semanticfoodnetwork.com/bell_pepper", 
            "ingredient": "red bell pepper, chopped"
        }, 
        {
            "std_weight": 2.465, 
            "std_metric": "milliliters", 
            "metric": "teaspoon", 
            "uri": "www.semanticfoodnetwork.com/chili_powder", 
            "ingredient": "chili powder", 
            "quantity": "0.5"
        }, 
        {
            "std_metric": "grams", 
            "quantity": "1", 
            "std_weight": 100.0, 
            "uri": "www.semanticfoodnetwork.com/bell_pepper", 
            "ingredient": "green bell pepper, chopped"
        }, 
        {
            "std_weight": 473.12, 
            "std_metric": "grams", 
            "metric": "ounce", 
            "uri": "www.semanticfoodnetwork.com/cannellini_beans_drained_and_rinsed", 
            "ingredient": "cannellini beans, drained and rinsed", 
            "quantity": "16.0"
        }, 
        {
            "std_metric": "grams", 
            "quantity": "1", 
            "std_weight": 100.0, 
            "uri": "www.semanticfoodnetwork.com/red_onion_chopped", 
            "ingredient": "red onion, chopped"
        }, 
        {
            "std_weight": 7.395, 
            "std_metric": "milliliters", 
            "metric": "tablespoon", 
            "uri": "www.semanticfoodnetwork.com/ground_cumin", 
            "ingredient": "ground cumin", 
            "quantity": "0.5"
        }, 
        {
            "std_weight": 14.79, 
            "std_metric": "milliliters", 
            "metric": "tablespoon", 
            "uri": "www.semanticfoodnetwork.com/lemon_juice", 
            "ingredient": "lemon juice", 
            "quantity": "1"
        }, 
        {
            "std_weight": 473.12, 
            "std_metric": "grams", 
            "metric": "ounce", 
            "uri": "www.semanticfoodnetwork.com/black_beans_rinsed_and_drained", 
            "ingredient": "black beans, rinsed and drained", 
            "quantity": "16.0"
        }, 
        {
            "std_weight": 29.58, 
            "std_metric": "milliliters", 
            "metric": "tablespoons", 
            "uri": "www.semanticfoodnetwork.com/white_sugar", 
            "ingredient": "white sugar", 
            "quantity": "2"
        }, 
        {
            "std_weight": 20.0, 
            "std_metric": "milliliters", 
            "metric": "clove", 
            "uri": "www.semanticfoodnetwork.com/garlic", 
            "ingredient": "crushed garlic", 
            "quantity": "1"
        }, 
        {
            "std_weight": 100.0, 
            "std_metric": "grams", 
            "metric": "unknown", 
            "uri": "www.semanticfoodnetwork.com/hot_pepper_sauce", 
            "ingredient": "hot pepper sauce", 
            "quantity": "1"
        }, 
        {
            "std_weight": 473.12, 
            "std_metric": "grams", 
            "metric": "ounce", 
            "uri": "www.semanticfoodnetwork.com/kidney_beans_drained", 
            "ingredient": "kidney beans, drained", 
            "quantity": "16.0"
        }, 
        {
            "std_weight": 118.295, 
            "std_metric": "milliliters", 
            "metric": "cup", 
            "uri": "www.semanticfoodnetwork.com/olive_oil", 
            "ingredient": "olive oil", 
            "quantity": "0.5"
        }, 
        {
            "std_weight": 325.27, 
            "std_metric": "grams", 
            "metric": "ounce", 
            "uri": "www.semanticfoodnetwork.com/frozen_corn_kernels", 
            "ingredient": "frozen corn kernels", 
            "quantity": "11.0"
        }, 
        {
            "std_weight": 7.395, 
            "std_metric": "milliliters", 
            "metric": "tablespoon", 
            "uri": "www.semanticfoodnetwork.com/black_pepper_ground", 
            "ingredient": "ground black pepper", 
            "quantity": "0.5"
        }, 
        {
            "std_weight": 14.79, 
            "std_metric": "milliliters", 
            "metric": "tablespoon", 
            "uri": "www.semanticfoodnetwork.com/salt_iodized_or_non-iodized", 
            "ingredient": "salt", 
            "quantity": "1"
        }, 
        {
            "std_weight": 29.58, 
            "std_metric": "milliliters", 
            "metric": "tablespoons", 
            "uri": "www.semanticfoodnetwork.com/fresh_lime_juice", 
            "ingredient": "fresh lime juice", 
            "quantity": "2"
        }, 
        {
            "std_weight": 59.1475, 
            "std_metric": "milliliters", 
            "metric": "cup", 
            "uri": "www.semanticfoodnetwork.com/cilantro", 
            "ingredient": "chopped fresh cilantro", 
            "quantity": "0.25"
        }
    ]
}