{
    "prep_steps": [
        "Heat oil in a deep skillet over medium heat. Saute rice, onion, and bell pepper until rice is browned and onions are tender.", 
        "Stir in water and tomatoes. Season with chili powder and salt. Cover, and simmer for 30 minutes, or until rice is cooked and liquid is absorbed."
    ], 
    "recipe_name": "Spanish Rice II", 
    "prep_time": "40 mins", 
    "ingredients": [
        {
            "std_weight": 325.27, 
            "std_metric": "grams", 
            "metric": "ounce", 
            "uri": "www.semanticfoodnetwork.com/diced_tomatoes_and_green_chiles", 
            "ingredient": "diced tomatoes and green chiles", 
            "quantity": "11.0"
        }, 
        {
            "std_weight": 9.86, 
            "std_metric": "milliliters", 
            "metric": "teaspoons", 
            "uri": "www.semanticfoodnetwork.com/chili_powder_or_to_taste", 
            "ingredient": "chili powder, or to taste", 
            "quantity": "2"
        }, 
        {
            "std_metric": "grams", 
            "quantity": "1/2", 
            "std_weight": 50.0, 
            "uri": "www.semanticfoodnetwork.com/bell_pepper", 
            "ingredient": "green bell pepper, chopped"
        }, 
        {
            "std_metric": "grams", 
            "quantity": "1", 
            "std_weight": 100.0, 
            "uri": "www.semanticfoodnetwork.com/onion_yellow_(raw)", 
            "ingredient": "onion, chopped"
        }, 
        {
            "std_weight": 4.93, 
            "std_metric": "milliliters", 
            "metric": "teaspoon", 
            "uri": "www.semanticfoodnetwork.com/salt_iodized_or_non-iodized", 
            "ingredient": "salt", 
            "quantity": "1"
        }, 
        {
            "std_weight": 473.18, 
            "std_metric": "milliliters", 
            "metric": "cups", 
            "uri": "www.semanticfoodnetwork.com/water", 
            "ingredient": "water", 
            "quantity": "2"
        }, 
        {
            "std_weight": 236.59, 
            "std_metric": "milliliters", 
            "metric": "cup", 
            "uri": "www.semanticfoodnetwork.com/uncooked_white_rice", 
            "ingredient": "uncooked white rice", 
            "quantity": "1"
        }, 
        {
            "std_weight": 29.58, 
            "std_metric": "milliliters", 
            "metric": "tablespoons", 
            "uri": "www.semanticfoodnetwork.com/vegetable_oil", 
            "ingredient": "vegetable oil", 
            "quantity": "2"
        }
    ]
}