{
    "prep_steps": [
        "Preheat oven to 400 degrees F (200 degrees C).", 
        "Place squash and onion in a large skillet over medium heat. Pour in a small amount of water. Cover, and cook until squash is tender, about 5 minutes. Drain well, and place in a large bowl.", 
        "In a medium bowl, mix together cracker crumbs and cheese. Stir half of the cracker mixture into the cooked squash and onions. In a small bowl, mix together eggs and milk, then add to squash mixture. Stir in 1/4 cup melted butter, and season with salt and pepper. Spread into a 9x13 inch baking dish. Sprinkle with remaining cracker mixture, and dot with 2 tablespoons butter.", 
        "Bake in preheated oven for 25 minutes, or until lightly browned."
    ], 
    "recipe_name": "Yellow Squash Casserole", 
    "prep_time": "50 mins", 
    "ingredients": [
        {
            "std_weight": 118.295, 
            "std_metric": "milliliters", 
            "metric": "cup", 
            "uri": "www.semanticfoodnetwork.com/onion_yellow_(raw)", 
            "ingredient": "chopped onion", 
            "quantity": "0.5"
        }, 
        {
            "std_weight": 59.1475, 
            "std_metric": "milliliters", 
            "metric": "cup", 
            "uri": "www.semanticfoodnetwork.com/butter_whipped", 
            "ingredient": "butter, melted", 
            "quantity": "0.25"
        }, 
        {
            "std_metric": "grams", 
            "quantity": "35", 
            "std_weight": 3500.0, 
            "uri": "www.semanticfoodnetwork.com/graham_crackers", 
            "ingredient": "buttery round crackers, crushed"
        }, 
        {
            "std_weight": 177.4425, 
            "std_metric": "milliliters", 
            "metric": "cup", 
            "uri": "www.semanticfoodnetwork.com/milk_whole_goat", 
            "ingredient": "milk", 
            "quantity": "0.75"
        }, 
        {
            "std_metric": "grams", 
            "quantity": "2", 
            "std_weight": 200.0, 
            "uri": "www.semanticfoodnetwork.com/eggs_beaten", 
            "ingredient": "eggs, beaten"
        }, 
        {
            "std_weight": 4.93, 
            "std_metric": "milliliters", 
            "metric": "teaspoon", 
            "uri": "www.semanticfoodnetwork.com/salt_iodized_or_non-iodized", 
            "ingredient": "salt", 
            "quantity": "1"
        }, 
        {
            "std_weight": 236.59, 
            "std_metric": "milliliters", 
            "metric": "cup", 
            "uri": "www.semanticfoodnetwork.com/cheese_brie", 
            "ingredient": "shredded Cheddar cheese", 
            "quantity": "1"
        }, 
        {
            "std_weight": 29.58, 
            "std_metric": "milliliters", 
            "metric": "tablespoons", 
            "uri": "www.semanticfoodnetwork.com/butter_whipped", 
            "ingredient": "butter", 
            "quantity": "2"
        }, 
        {
            "std_weight": 946.36, 
            "std_metric": "milliliters", 
            "metric": "cups", 
            "uri": "www.semanticfoodnetwork.com/sliced_yellow_squash", 
            "ingredient": "sliced yellow squash", 
            "quantity": "4"
        }
    ]
}