{
    "prep_steps": [
        "Place ingredients in the pan of the bread machine in the order recommended by the manufacturer. Select white bread cycle; press Start."
    ], 
    "recipe_name": "Jo's Rosemary Bread", 
    "prep_time": "3 hr", 
    "ingredients": [
        {
            "std_weight": 7.395, 
            "std_metric": "milliliters", 
            "metric": "teaspoons", 
            "uri": "www.semanticfoodnetwork.com/active_dry_yeast", 
            "ingredient": "active dry yeast", 
            "quantity": "1.5"
        }, 
        {
            "std_weight": 236.59, 
            "std_metric": "milliliters", 
            "metric": "cup", 
            "uri": "www.semanticfoodnetwork.com/water", 
            "ingredient": "water", 
            "quantity": "1"
        }, 
        {
            "std_weight": 14.79, 
            "std_metric": "milliliters", 
            "metric": "tablespoon", 
            "uri": "www.semanticfoodnetwork.com/rosemary_fresh", 
            "ingredient": "dried rosemary", 
            "quantity": "1"
        }, 
        {
            "std_weight": 7.395, 
            "std_metric": "milliliters", 
            "metric": "teaspoons", 
            "uri": "www.semanticfoodnetwork.com/white_sugar", 
            "ingredient": "white sugar", 
            "quantity": "1.5"
        }, 
        {
            "std_weight": 1.2325, 
            "std_metric": "milliliters", 
            "metric": "teaspoon", 
            "uri": "www.semanticfoodnetwork.com/black_pepper_ground", 
            "ingredient": "ground black pepper", 
            "quantity": "0.25"
        }, 
        {
            "std_weight": 591.475, 
            "std_metric": "milliliters", 
            "metric": "cups", 
            "uri": "www.semanticfoodnetwork.com/bread_flour", 
            "ingredient": "bread flour", 
            "quantity": "2.5"
        }, 
        {
            "std_weight": 44.37, 
            "std_metric": "milliliters", 
            "metric": "tablespoons", 
            "uri": "www.semanticfoodnetwork.com/olive_oil", 
            "ingredient": "olive oil", 
            "quantity": "3"
        }, 
        {
            "std_weight": 7.395, 
            "std_metric": "milliliters", 
            "metric": "teaspoons", 
            "uri": "www.semanticfoodnetwork.com/salt_iodized_or_non-iodized", 
            "ingredient": "salt", 
            "quantity": "1.5"
        }, 
        {
            "std_weight": 1.2325, 
            "std_metric": "milliliters", 
            "metric": "teaspoon", 
            "uri": "www.semanticfoodnetwork.com/italian_seasoning", 
            "ingredient": "Italian seasoning", 
            "quantity": "0.25"
        }
    ]
}