{
    "prep_steps": [
        "Place the onion, chili beans, black beans, corn, tomato sauce, beer, and diced tomatoes in a slow cooker. Add taco seasoning, and stir to blend. Lay chicken breasts on top of the mixture, pressing down slightly until just covered by the other ingredients. Set slow cooker for low heat, cover, and cook for 5 hours.", 
        "Remove chicken breasts from the soup, and allow to cool long enough to be handled. Stir the shredded chicken back into the soup, and continue cooking for 2 hours. Serve topped with shredded Cheddar cheese, a dollop of sour cream, and crushed tortilla chips, if desired."
    ], 
    "recipe_name": "Slow Cooker Chicken Taco Soup", 
    "prep_time": "7 hrs", 
    "ingredients": [
        {
            "std_weight": 29.57, 
            "std_metric": "grams", 
            "metric": "ounce", 
            "uri": "www.semanticfoodnetwork.com/taco_seasoning", 
            "ingredient": "taco seasoning", 
            "quantity": "1.0"
        }, 
        {
            "std_weight": 473.12, 
            "std_metric": "grams", 
            "metric": "ounce", 
            "uri": "www.semanticfoodnetwork.com/whole_kernel_corn_drained", 
            "ingredient": "whole kernel corn, drained", 
            "quantity": "16.0"
        }, 
        {
            "std_weight": 473.12, 
            "std_metric": "grams", 
            "metric": "ounce", 
            "uri": "www.semanticfoodnetwork.com/black_beans", 
            "ingredient": "black beans", 
            "quantity": "16.0"
        }, 
        {
            "std_metric": "grams", 
            "quantity": "1", 
            "std_weight": 100.0, 
            "uri": "www.semanticfoodnetwork.com/onion_yellow_(raw)", 
            "ingredient": "onion, chopped"
        }, 
        {
            "std_metric": "grams", 
            "quantity": "3", 
            "std_weight": 300.0, 
            "uri": "www.semanticfoodnetwork.com/whole_skinless_boneless_chicken_breasts", 
            "ingredient": "whole skinless, boneless chicken breasts"
        }, 
        {
            "std_weight": 502.69, 
            "std_metric": "grams", 
            "metric": "ounce", 
            "uri": "www.semanticfoodnetwork.com/chili_beans", 
            "ingredient": "chili beans", 
            "quantity": "17.0"
        }, 
        {
            "std_weight": 266.13, 
            "std_metric": "grams", 
            "metric": "ounce", 
            "uri": "www.semanticfoodnetwork.com/tomato_sauce", 
            "ingredient": "tomato sauce", 
            "quantity": "9.0"
        }, 
        {
            "std_weight": 354.84000000000003, 
            "std_metric": "grams", 
            "metric": "ounce", 
            "uri": "www.semanticfoodnetwork.com/diced_tomatoes_with_green_chilies_undrained", 
            "ingredient": "diced tomatoes with green chilies, undrained", 
            "quantity": "12.0"
        }
    ]
}