{
    "prep_steps": [
        "In a large skillet over medium heat combine chicken, 2 tablespoons butter, 2 cloves garlic, and Italian seasoning. Cook until chicken is no longer pink inside. Remove from skillet and set aside.", 
        "Bring a large pot of lightly salted water to a boil. Add pasta and cook for 8 to 10 minutes or until al dente; drain.", 
        "Meanwhile, melt 4 tablespoons butter in the skillet. Saute onion, 2 cloves garlic, and mushrooms until onions are transparent. Stir in flour, salt and pepper; cook 2 minutes. Slowly add milk and half-and-half, stirring until smooth and creamy. Stir in Parmesan and Colby-Monterey Jack cheeses; stir until cheese is melted. Stir in chicken mixture, tomatoes and sour cream. Serve over cooked fettuccini."
    ], 
    "recipe_name": "Chicken Fettuccini Alfredo", 
    "prep_time": "1 hr", 
    "ingredients": [
        {
            "std_weight": 177.4425, 
            "std_metric": "milliliters", 
            "metric": "cup", 
            "uri": "www.semanticfoodnetwork.com/cheese_grated_parmesan", 
            "ingredient": "grated Parmesan cheese", 
            "quantity": "0.75"
        }, 
        {
            "std_weight": 88.74, 
            "std_metric": "milliliters", 
            "metric": "tablespoons", 
            "uri": "www.semanticfoodnetwork.com/butter_whipped", 
            "ingredient": "butter, divided", 
            "quantity": "6"
        }, 
        {
            "std_weight": 236.56, 
            "std_metric": "grams", 
            "metric": "ounces", 
            "uri": "www.semanticfoodnetwork.com/cheese_brie", 
            "ingredient": "shredded Colby-Monterey Jack cheese", 
            "quantity": "8"
        }, 
        {
            "std_weight": 266.13, 
            "std_metric": "grams", 
            "metric": "ounce", 
            "uri": "www.semanticfoodnetwork.com/mushrooms_portabella_raw", 
            "ingredient": "sliced mushrooms", 
            "quantity": "9.0"
        }, 
        {
            "std_weight": 78.86333333325447, 
            "std_metric": "milliliters", 
            "metric": "cup", 
            "uri": "www.semanticfoodnetwork.com/all-purpose_flour_unsifted", 
            "ingredient": "all-purpose flour", 
            "quantity": "0.333333333333"
        }, 
        {
            "std_metric": "grams", 
            "quantity": "3", 
            "std_weight": 300.0, 
            "uri": "www.semanticfoodnetwork.com/roma_(plum)_tomatoes_diced", 
            "ingredient": "roma (plum) tomatoes, diced"
        }, 
        {
            "std_weight": 3.6975, 
            "std_metric": "milliliters", 
            "metric": "teaspoon", 
            "uri": "www.semanticfoodnetwork.com/ground_white_pepper", 
            "ingredient": "ground white pepper", 
            "quantity": "0.75"
        }, 
        {
            "std_weight": 14.79, 
            "std_metric": "milliliters", 
            "metric": "tablespoon", 
            "uri": "www.semanticfoodnetwork.com/italian_seasoning", 
            "ingredient": "Italian seasoning", 
            "quantity": "1"
        }, 
        {
            "std_metric": "grams", 
            "quantity": "1", 
            "std_weight": 100.0, 
            "uri": "www.semanticfoodnetwork.com/onion_yellow_(raw)", 
            "ingredient": "onion, diced"
        }, 
        {
            "std_weight": 118.295, 
            "std_metric": "milliliters", 
            "metric": "cup", 
            "uri": "www.semanticfoodnetwork.com/sour_cream_regular", 
            "ingredient": "sour cream", 
            "quantity": "0.5"
        }, 
        {
            "std_weight": 236.59, 
            "std_metric": "milliliters", 
            "metric": "cup", 
            "uri": "www.semanticfoodnetwork.com/half-and-half", 
            "ingredient": "half-and-half", 
            "quantity": "1"
        }, 
        {
            "std_weight": 400.0, 
            "std_metric": "grams", 
            "metric": "unknown", 
            "uri": "www.semanticfoodnetwork.com/garlic_minced_divided", 
            "ingredient": "garlic, minced, divided", 
            "quantity": "4"
        }, 
        {
            "std_weight": 14.79, 
            "std_metric": "milliliters", 
            "metric": "tablespoon", 
            "uri": "www.semanticfoodnetwork.com/salt_iodized_or_non-iodized", 
            "ingredient": "salt", 
            "quantity": "1"
        }, 
        {
            "std_weight": 709.77, 
            "std_metric": "milliliters", 
            "metric": "cups", 
            "uri": "www.semanticfoodnetwork.com/milk_whole_goat", 
            "ingredient": "milk", 
            "quantity": "3"
        }, 
        {
            "std_weight": 454.0, 
            "std_metric": "grams", 
            "metric": "pound", 
            "uri": "www.semanticfoodnetwork.com/fettuccini_pasta", 
            "ingredient": "fettuccini pasta", 
            "quantity": "1"
        }, 
        {
            "std_metric": "grams", 
            "quantity": "6", 
            "std_weight": 600.0, 
            "uri": "www.semanticfoodnetwork.com/skinless_boneless_chicken_breast_halves_-_cut_into_cubes", 
            "ingredient": "skinless, boneless chicken breast halves - cut into cubes"
        }
    ]
}