{
    "prep_steps": [
        "In a small bowl beat whipping cream until stiff peaks form; set aside.", 
        "In a large bowl combine cream cheese, sugar, salt and vanilla. Beat until smooth, then fold in whipped cream."
    ], 
    "recipe_name": "Whipped Cream Cream Cheese Frosting", 
    "prep_time": "15 mins", 
    "ingredients": [
        {
            "std_weight": 236.59, 
            "std_metric": "milliliters", 
            "metric": "cup", 
            "uri": "www.semanticfoodnetwork.com/white_sugar", 
            "ingredient": "white sugar", 
            "quantity": "1"
        }, 
        {
            "std_weight": 266.13, 
            "std_metric": "grams", 
            "metric": "ounce", 
            "uri": "www.semanticfoodnetwork.com/cream_cheese_fat-free", 
            "ingredient": "cream cheese", 
            "quantity": "9.0"
        }, 
        {
            "std_weight": 0.61625, 
            "std_metric": "milliliters", 
            "metric": "teaspoon", 
            "uri": "www.semanticfoodnetwork.com/salt_iodized_or_non-iodized", 
            "ingredient": "salt", 
            "quantity": "0.125"
        }, 
        {
            "std_weight": 354.885, 
            "std_metric": "milliliters", 
            "metric": "cups", 
            "uri": "www.semanticfoodnetwork.com/cream_half_&_half", 
            "ingredient": "heavy whipping cream", 
            "quantity": "1.5"
        }, 
        {
            "std_weight": 4.93, 
            "std_metric": "milliliters", 
            "metric": "teaspoon", 
            "uri": "www.semanticfoodnetwork.com/vanilla_extract", 
            "ingredient": "vanilla extract", 
            "quantity": "1"
        }
    ]
}