{
    "prep_steps": [
        "Preheat the oven to 400 degrees F (200 degrees C). In a small bowl, mix together the mustard, butter, and honey. In another bowl, mix together the bread crumbs, pecans, and parsley.", 
        "Season each salmon fillet with salt and pepper. Place on a lightly greased baking sheet. Brush with mustard-honey mixture. Cover the top of each fillet with bread crumb mixture.", 
        "Bake for 10 minutes per inch of thickness, measured at thickest part, or until salmon just flakes when tested with a fork. Serve garnished with lemon wedges."
    ], 
    "recipe_name": "Alaska Salmon Bake with Pecan Crunch Coating", 
    "prep_time": "30 mins", 
    "ingredients": [
        {
            "std_weight": 44.37, 
            "std_metric": "milliliters", 
            "metric": "tablespoons", 
            "uri": "www.semanticfoodnetwork.com/butter_whipped", 
            "ingredient": "butter, melted", 
            "quantity": "3"
        }, 
        {
            "std_weight": 44.37, 
            "std_metric": "milliliters", 
            "metric": "tablespoons", 
            "uri": "www.semanticfoodnetwork.com/mustard_dijon", 
            "ingredient": "Dijon mustard", 
            "quantity": "3"
        }, 
        {
            "std_weight": 295.7, 
            "std_metric": "grams", 
            "metric": "ounce", 
            "uri": "www.semanticfoodnetwork.com/salmon", 
            "ingredient": "salmon", 
            "quantity": "10.0"
        }, 
        {
            "std_weight": 118.295, 
            "std_metric": "milliliters", 
            "metric": "cup", 
            "uri": "www.semanticfoodnetwork.com/bread_crumbs_plain_dry", 
            "ingredient": "fresh bread crumbs", 
            "quantity": "0.5"
        }, 
        {
            "std_metric": "grams", 
            "quantity": "6", 
            "std_weight": 600.0, 
            "uri": "www.semanticfoodnetwork.com/lemon_wedges", 
            "ingredient": "lemon wedges"
        }, 
        {
            "std_weight": 24.65, 
            "std_metric": "milliliters", 
            "metric": "teaspoons", 
            "uri": "www.semanticfoodnetwork.com/honey", 
            "ingredient": "honey", 
            "quantity": "5"
        }, 
        {
            "std_weight": 14.79, 
            "std_metric": "milliliters", 
            "metric": "teaspoons", 
            "uri": "www.semanticfoodnetwork.com/parsley_fresh", 
            "ingredient": "chopped fresh parsley", 
            "quantity": "3"
        }, 
        {
            "std_weight": 118.295, 
            "std_metric": "milliliters", 
            "metric": "cup", 
            "uri": "www.semanticfoodnetwork.com/finely_chopped_pecans", 
            "ingredient": "finely chopped pecans", 
            "quantity": "0.5"
        }
    ]
}