{
    "prep_steps": [
        "Melt the butter in a large pot, and cook the onion, celery, carrot, potatoes, and squash 5 minutes, or until lightly browned. Pour in enough of the chicken stock to cover vegetables. Bring to a boil. Reduce heat to low, cover pot, and simmer 40 minutes, or until all vegetables are tender.", 
        "Transfer the soup to a blender, and blend until smooth. Return to pot, and mix in any remaining stock to attain desired consistency. Season with salt and pepper."
    ], 
    "recipe_name": "Butternut Squash Soup II", 
    "prep_time": "1\u00bc hrs", 
    "ingredients": [
        {
            "std_weight": 100.0, 
            "std_metric": "grams", 
            "metric": "medium", 
            "uri": "www.semanticfoodnetwork.com/butternut_squash_-_peeled_seeded_and_cubed", 
            "ingredient": "butternut squash - peeled, seeded, and cubed", 
            "quantity": "1"
        }, 
        {
            "std_weight": 100.0, 
            "std_metric": "grams", 
            "metric": "small", 
            "uri": "www.semanticfoodnetwork.com/onion_yellow_(raw)", 
            "ingredient": "onion, chopped", 
            "quantity": "1"
        }, 
        {
            "std_weight": 200.0, 
            "std_metric": "grams", 
            "metric": "medium", 
            "uri": "www.semanticfoodnetwork.com/potatoes_cubed", 
            "ingredient": "potatoes, cubed", 
            "quantity": "2"
        }, 
        {
            "std_weight": 100.0, 
            "std_metric": "grams", 
            "metric": "medium", 
            "uri": "www.semanticfoodnetwork.com/carrot_chopped", 
            "ingredient": "carrot, chopped", 
            "quantity": "1"
        }, 
        {
            "std_weight": 29.58, 
            "std_metric": "milliliters", 
            "metric": "tablespoons", 
            "uri": "www.semanticfoodnetwork.com/butter_whipped", 
            "ingredient": "butter", 
            "quantity": "2"
        }, 
        {
            "std_weight": 100.0, 
            "std_metric": "grams", 
            "metric": "stalks", 
            "uri": "www.semanticfoodnetwork.com/celery", 
            "ingredient": "celery, chopped", 
            "quantity": "1"
        }
    ]
}