{
    "prep_steps": [
        "Preheat oven to 375 degrees F (190 degrees C). Grease a 12 cup muffin pan.", 
        "In a medium bowl, mix flour, baking powder, baking soda and salt.", 
        "In a large bowl, beat together butter, sugar and eggs until smooth. Mix in vanilla. Stir in apples, and gradually blend in the flour mixture. Spoon the mixture into the prepared muffin pan.", 
        "In a small bowl, mix brown sugar, flour and cinnamon. Cut in butter until mixture is like coarse crumbs. Sprinkle over tops of mixture in muffin pan.", 
        "Bake 20 minutes in the preheated oven, or until a toothpick inserted in the center of a muffin comes out clean. Allow to sit 5 minutes before removing muffins from pan. Cool on a wire rack."
    ], 
    "recipe_name": "Apple Strudel Muffins", 
    "prep_time": "1 hr", 
    "ingredients": [
        {
            "std_weight": 236.59, 
            "std_metric": "milliliters", 
            "metric": "cup", 
            "uri": "www.semanticfoodnetwork.com/white_sugar", 
            "ingredient": "white sugar", 
            "quantity": "1"
        }, 
        {
            "std_weight": 0.61625, 
            "std_metric": "milliliters", 
            "metric": "teaspoon", 
            "uri": "www.semanticfoodnetwork.com/cinnamon_ground", 
            "ingredient": "ground cinnamon", 
            "quantity": "0.125"
        }, 
        {
            "std_weight": 473.18, 
            "std_metric": "milliliters", 
            "metric": "cups", 
            "uri": "www.semanticfoodnetwork.com/all-purpose_flour_unsifted", 
            "ingredient": "all-purpose flour", 
            "quantity": "2"
        }, 
        {
            "std_weight": 354.885, 
            "std_metric": "milliliters", 
            "metric": "cups", 
            "uri": "www.semanticfoodnetwork.com/chopped_apples", 
            "ingredient": "chopped apples", 
            "quantity": "1.5"
        }, 
        {
            "std_weight": 2.465, 
            "std_metric": "milliliters", 
            "metric": "teaspoon", 
            "uri": "www.semanticfoodnetwork.com/baking_soda", 
            "ingredient": "baking soda", 
            "quantity": "0.5"
        }, 
        {
            "std_weight": 14.79, 
            "std_metric": "milliliters", 
            "metric": "tablespoon", 
            "uri": "www.semanticfoodnetwork.com/all-purpose_flour_unsifted", 
            "ingredient": "all-purpose flour", 
            "quantity": "1"
        }, 
        {
            "std_weight": 2.465, 
            "std_metric": "milliliters", 
            "metric": "teaspoon", 
            "uri": "www.semanticfoodnetwork.com/salt_iodized_or_non-iodized", 
            "ingredient": "salt", 
            "quantity": "0.5"
        }, 
        {
            "std_weight": 6.1625, 
            "std_metric": "milliliters", 
            "metric": "teaspoons", 
            "uri": "www.semanticfoodnetwork.com/vanilla", 
            "ingredient": "vanilla", 
            "quantity": "1.25"
        }, 
        {
            "std_metric": "grams", 
            "quantity": "2", 
            "std_weight": 200.0, 
            "uri": "www.semanticfoodnetwork.com/eggs", 
            "ingredient": "eggs"
        }, 
        {
            "std_weight": 4.93, 
            "std_metric": "milliliters", 
            "metric": "teaspoon", 
            "uri": "www.semanticfoodnetwork.com/baking_powder_double-acting", 
            "ingredient": "baking powder", 
            "quantity": "1"
        }, 
        {
            "std_weight": 78.86333333325447, 
            "std_metric": "milliliters", 
            "metric": "cup", 
            "uri": "www.semanticfoodnetwork.com/sugar_confectioners_unsifted", 
            "ingredient": "packed brown sugar", 
            "quantity": "0.333333333333"
        }, 
        {
            "std_weight": 14.79, 
            "std_metric": "milliliters", 
            "metric": "tablespoon", 
            "uri": "www.semanticfoodnetwork.com/butter_whipped", 
            "ingredient": "butter", 
            "quantity": "1"
        }, 
        {
            "std_weight": 118.295, 
            "std_metric": "milliliters", 
            "metric": "cup", 
            "uri": "www.semanticfoodnetwork.com/butter_whipped", 
            "ingredient": "butter", 
            "quantity": "0.5"
        }
    ]
}