{
    "prep_steps": [
        "In a medium skillet over medium heat, brown the ground beef, onion, and green pepper; drain off liquids.", 
        "Stir in the garlic powder, mustard, ketchup, and brown sugar; mix thoroughly. Reduce heat, and simmer for 30 minutes. Season with salt and pepper."
    ], 
    "recipe_name": "Sloppy Joes II", 
    "prep_time": "40 mins", 
    "ingredients": [
        {
            "std_weight": 14.79, 
            "std_metric": "milliliters", 
            "metric": "teaspoons", 
            "uri": "www.semanticfoodnetwork.com/sugar_brown", 
            "ingredient": "brown sugar", 
            "quantity": "3"
        }, 
        {
            "std_weight": 59.1475, 
            "std_metric": "milliliters", 
            "metric": "cup", 
            "uri": "www.semanticfoodnetwork.com/onion_yellow_(raw)", 
            "ingredient": "chopped onion", 
            "quantity": "0.25"
        }, 
        {
            "std_weight": 59.1475, 
            "std_metric": "milliliters", 
            "metric": "cup", 
            "uri": "www.semanticfoodnetwork.com/bell_pepper", 
            "ingredient": "chopped green bell pepper", 
            "quantity": "0.25"
        }, 
        {
            "std_weight": 4.93, 
            "std_metric": "milliliters", 
            "metric": "teaspoon", 
            "uri": "www.semanticfoodnetwork.com/mustard_dijon", 
            "ingredient": "prepared yellow mustard", 
            "quantity": "1"
        }, 
        {
            "std_weight": 2.465, 
            "std_metric": "milliliters", 
            "metric": "teaspoon", 
            "uri": "www.semanticfoodnetwork.com/garlic_powder_garlic_powder", 
            "ingredient": "garlic powder", 
            "quantity": "0.5"
        }, 
        {
            "std_weight": 454.0, 
            "std_metric": "grams", 
            "metric": "pound", 
            "uri": "www.semanticfoodnetwork.com/ground_beef_extra_lean_raw", 
            "ingredient": "lean ground beef", 
            "quantity": "1"
        }, 
        {
            "std_weight": 177.4425, 
            "std_metric": "milliliters", 
            "metric": "cup", 
            "uri": "www.semanticfoodnetwork.com/ketchup", 
            "ingredient": "ketchup", 
            "quantity": "0.75"
        }
    ]
}