{
    "prep_steps": [
        "Preheat oven to 350 degrees F (175 degrees C). Grease cookie sheets.", 
        "In a large bowl, cream together the butter flavored shortening, brown sugar and white sugar until light and fluffy. Add the eggs one at a time, beating well with each addition, then stir in the vanilla .Combine the flour, baking soda and salt; gradually stir into the creamed mixture. Finally, fold in the chocolate chips. Drop by rounded spoonfuls onto the prepared cookie sheets.", 
        "Bake for 8 to 10 minutes in the preheated oven, until light brown. Allow cookies to cool on baking sheet for 5 minutes before removing to a wire rack to cool completely."
    ], 
    "recipe_name": "Absolutely the Best Chocolate Chip Cookies", 
    "prep_time": "20 mins", 
    "ingredients": [
        {
            "std_weight": 236.59, 
            "std_metric": "milliliters", 
            "metric": "cup", 
            "uri": "www.semanticfoodnetwork.com/butter_flavored_shortening", 
            "ingredient": "butter flavored shortening", 
            "quantity": "1"
        }, 
        {
            "std_weight": 177.4425, 
            "std_metric": "milliliters", 
            "metric": "cup", 
            "uri": "www.semanticfoodnetwork.com/sugar_brown", 
            "ingredient": "brown sugar", 
            "quantity": "0.75"
        }, 
        {
            "std_weight": 532.3275, 
            "std_metric": "milliliters", 
            "metric": "cups", 
            "uri": "www.semanticfoodnetwork.com/all-purpose_flour_unsifted", 
            "ingredient": "all-purpose flour", 
            "quantity": "2.25"
        }, 
        {
            "std_weight": 177.4425, 
            "std_metric": "milliliters", 
            "metric": "cup", 
            "uri": "www.semanticfoodnetwork.com/white_sugar", 
            "ingredient": "white sugar", 
            "quantity": "0.75"
        }, 
        {
            "std_metric": "grams", 
            "quantity": "2", 
            "std_weight": 200.0, 
            "uri": "www.semanticfoodnetwork.com/eggs", 
            "ingredient": "eggs"
        }, 
        {
            "std_weight": 473.18, 
            "std_metric": "milliliters", 
            "metric": "cups", 
            "uri": "www.semanticfoodnetwork.com/milk_chocolate_chips", 
            "ingredient": "milk chocolate chips", 
            "quantity": "2"
        }, 
        {
            "std_weight": 4.93, 
            "std_metric": "milliliters", 
            "metric": "teaspoon", 
            "uri": "www.semanticfoodnetwork.com/baking_soda", 
            "ingredient": "baking soda", 
            "quantity": "1"
        }, 
        {
            "std_weight": 4.93, 
            "std_metric": "milliliters", 
            "metric": "teaspoon", 
            "uri": "www.semanticfoodnetwork.com/salt_iodized_or_non-iodized", 
            "ingredient": "salt", 
            "quantity": "1"
        }, 
        {
            "std_weight": 9.86, 
            "std_metric": "milliliters", 
            "metric": "teaspoons", 
            "uri": "www.semanticfoodnetwork.com/mexican_vanilla_extract", 
            "ingredient": "Mexican vanilla extract", 
            "quantity": "2"
        }
    ]
}