{
    "prep_steps": [
        "Mix together salt, garlic powder, cumin, oregano, coriander, and cinnamon in a bowl. Coat pork with the spice mixture. Place the bay leaves in the bottom of a slow cooker and place the pork on top. Pour the chicken broth around the sides of the pork, being careful not to rinse off the spice mixture.", 
        "Cover and cook on Low until the pork shreds easily with a fork, about 10 hours. Turn the meat after it has cooked for 5 hours. When the pork is tender, remove from slow cooker, and shred with two forks. Use cooking liquid as needed to moisten the meat."
    ], 
    "recipe_name": "Slow Cooker Carnitas", 
    "prep_time": "10 hrs", 
    "ingredients": [
        {
            "std_weight": 1.2325, 
            "std_metric": "milliliters", 
            "metric": "teaspoon", 
            "uri": "www.semanticfoodnetwork.com/cinnamon_ground", 
            "ingredient": "ground cinnamon", 
            "quantity": "0.25"
        }, 
        {
            "std_weight": 4.93, 
            "std_metric": "milliliters", 
            "metric": "teaspoon", 
            "uri": "www.semanticfoodnetwork.com/garlic_powder_garlic_powder", 
            "ingredient": "garlic powder", 
            "quantity": "1"
        }, 
        {
            "std_weight": 2.465, 
            "std_metric": "milliliters", 
            "metric": "teaspoon", 
            "uri": "www.semanticfoodnetwork.com/crumbled_dried_oregano", 
            "ingredient": "crumbled dried oregano", 
            "quantity": "0.5"
        }, 
        {
            "std_weight": 4.93, 
            "std_metric": "milliliters", 
            "metric": "teaspoon", 
            "uri": "www.semanticfoodnetwork.com/ground_cumin", 
            "ingredient": "ground cumin", 
            "quantity": "1"
        }, 
        {
            "std_weight": 473.18, 
            "std_metric": "milliliters", 
            "metric": "cups", 
            "uri": "www.semanticfoodnetwork.com/chicken_broth", 
            "ingredient": "chicken broth", 
            "quantity": "2"
        }, 
        {
            "std_weight": 2.465, 
            "std_metric": "milliliters", 
            "metric": "teaspoon", 
            "uri": "www.semanticfoodnetwork.com/ground_coriander", 
            "ingredient": "ground coriander", 
            "quantity": "0.5"
        }, 
        {
            "std_metric": "grams", 
            "quantity": "2", 
            "std_weight": 200.0, 
            "uri": "www.semanticfoodnetwork.com/bay_leaves", 
            "ingredient": "bay leaves"
        }, 
        {
            "std_weight": 2270.0, 
            "std_metric": "grams", 
            "metric": "pound", 
            "uri": "www.semanticfoodnetwork.com/boneless_pork_shoulder_roast", 
            "ingredient": "boneless pork shoulder roast", 
            "quantity": "5.0"
        }, 
        {
            "std_weight": 4.93, 
            "std_metric": "milliliters", 
            "metric": "teaspoon", 
            "uri": "www.semanticfoodnetwork.com/salt_iodized_or_non-iodized", 
            "ingredient": "salt", 
            "quantity": "1"
        }
    ]
}