{
    "prep_steps": [
        "Preheat oven to 375 degrees F (190 degrees C). Grease muffin cups or line with paper muffin liners.", 
        "Mix together wheat bran and buttermilk; let stand for 10 minutes.", 
        "Beat together oil, egg, sugar and vanilla and add to buttermilk/bran mixture. Sift together flour, baking soda, baking powder and salt. Stir flour mixture into buttermilk mixture, until just blended. Fold in raisins and spoon batter into prepared muffin tins.", 
        "Bake for 15 to 20 minutes, or until a toothpick inserted into the center of a muffin comes out clean. Cool and enjoy!"
    ], 
    "recipe_name": "Classic Bran Muffins", 
    "prep_time": "40 mins", 
    "ingredients": [
        {
            "std_weight": 236.59, 
            "std_metric": "milliliters", 
            "metric": "cup", 
            "uri": "www.semanticfoodnetwork.com/all-purpose_flour_unsifted", 
            "ingredient": "all-purpose flour", 
            "quantity": "1"
        }, 
        {
            "std_weight": 2.465, 
            "std_metric": "milliliters", 
            "metric": "teaspoon", 
            "uri": "www.semanticfoodnetwork.com/vanilla_extract", 
            "ingredient": "vanilla extract", 
            "quantity": "0.5"
        }, 
        {
            "std_metric": "grams", 
            "quantity": "1", 
            "std_weight": 100.0, 
            "uri": "www.semanticfoodnetwork.com/egg_large", 
            "ingredient": "egg"
        }, 
        {
            "std_weight": 78.86333333325447, 
            "std_metric": "milliliters", 
            "metric": "cup", 
            "uri": "www.semanticfoodnetwork.com/vegetable_oil", 
            "ingredient": "vegetable oil", 
            "quantity": "0.333333333333"
        }, 
        {
            "std_weight": 354.885, 
            "std_metric": "milliliters", 
            "metric": "cups", 
            "uri": "www.semanticfoodnetwork.com/wheat_bran", 
            "ingredient": "wheat bran", 
            "quantity": "1.5"
        }, 
        {
            "std_weight": 236.59, 
            "std_metric": "milliliters", 
            "metric": "cup", 
            "uri": "www.semanticfoodnetwork.com/buttermilk_dry", 
            "ingredient": "buttermilk", 
            "quantity": "1"
        }, 
        {
            "std_weight": 2.465, 
            "std_metric": "milliliters", 
            "metric": "teaspoon", 
            "uri": "www.semanticfoodnetwork.com/salt_iodized_or_non-iodized", 
            "ingredient": "salt", 
            "quantity": "0.5"
        }, 
        {
            "std_weight": 4.93, 
            "std_metric": "milliliters", 
            "metric": "teaspoon", 
            "uri": "www.semanticfoodnetwork.com/baking_powder_double-acting", 
            "ingredient": "baking powder", 
            "quantity": "1"
        }, 
        {
            "std_weight": 118.295, 
            "std_metric": "milliliters", 
            "metric": "cup", 
            "uri": "www.semanticfoodnetwork.com/raisins_seedless", 
            "ingredient": "raisins", 
            "quantity": "0.5"
        }, 
        {
            "std_weight": 4.93, 
            "std_metric": "milliliters", 
            "metric": "teaspoon", 
            "uri": "www.semanticfoodnetwork.com/baking_soda", 
            "ingredient": "baking soda", 
            "quantity": "1"
        }, 
        {
            "std_weight": 157.72666666674553, 
            "std_metric": "milliliters", 
            "metric": "cup", 
            "uri": "www.semanticfoodnetwork.com/sugar_brown", 
            "ingredient": "brown sugar", 
            "quantity": "0.666666666667"
        }
    ]
}