{
    "prep_steps": [
        "In a small bowl, beat the egg together with 1 tablespoon of the lemon juice. Set aside.", 
        "In a shallow bowl or dish mix together the flour, garlic powder and paprika. Dip the chicken in the egg/lemon mixture, then in the seasoned flour.", 
        "In a large skillet, melt butter/margarine and brown the coated chicken pieces.", 
        "Dissolve the bouillon in the boiling water, then add the remaining 2 tablespoons of lemon juice. Pour liquid into skillet. Cover and let simmer for 20 minutes, turning chicken pieces after 10 minutes, until chicken is tender. Garnish as desired and serve."
    ], 
    "recipe_name": "Chicken Piccata II", 
    "prep_time": "45 mins", 
    "ingredients": [
        {
            "std_weight": 59.1475, 
            "std_metric": "milliliters", 
            "metric": "cup", 
            "uri": "www.semanticfoodnetwork.com/butter_whipped", 
            "ingredient": "butter", 
            "quantity": "0.25"
        }, 
        {
            "std_metric": "grams", 
            "quantity": "4", 
            "std_weight": 400.0, 
            "uri": "www.semanticfoodnetwork.com/chicken_hotdog", 
            "ingredient": "skinless, boneless chicken breasts"
        }, 
        {
            "std_metric": "grams", 
            "quantity": "1", 
            "std_weight": 100.0, 
            "uri": "www.semanticfoodnetwork.com/egg_large", 
            "ingredient": "egg"
        }, 
        {
            "std_weight": 59.1475, 
            "std_metric": "milliliters", 
            "metric": "cup", 
            "uri": "www.semanticfoodnetwork.com/all-purpose_flour_unsifted", 
            "ingredient": "all-purpose flour", 
            "quantity": "0.25"
        }, 
        {
            "std_weight": 9.86, 
            "std_metric": "milliliters", 
            "metric": "teaspoons", 
            "uri": "www.semanticfoodnetwork.com/chicken_bouillon_powder", 
            "ingredient": "chicken bouillon powder", 
            "quantity": "2"
        }, 
        {
            "std_weight": 44.37, 
            "std_metric": "milliliters", 
            "metric": "tablespoons", 
            "uri": "www.semanticfoodnetwork.com/lemon_juice", 
            "ingredient": "lemon juice", 
            "quantity": "3"
        }, 
        {
            "std_weight": 0.61625, 
            "std_metric": "milliliters", 
            "metric": "teaspoon", 
            "uri": "www.semanticfoodnetwork.com/garlic_powder_garlic_powder", 
            "ingredient": "garlic powder", 
            "quantity": "0.125"
        }, 
        {
            "std_weight": 118.295, 
            "std_metric": "milliliters", 
            "metric": "cup", 
            "uri": "www.semanticfoodnetwork.com/boiling_water", 
            "ingredient": "boiling water", 
            "quantity": "0.5"
        }, 
        {
            "std_weight": 0.61625, 
            "std_metric": "milliliters", 
            "metric": "teaspoon", 
            "uri": "www.semanticfoodnetwork.com/paprika_paprika", 
            "ingredient": "paprika", 
            "quantity": "0.125"
        }
    ]
}