{
    "prep_steps": [
        "Preheat oven to 350 degrees F (175 degrees C).", 
        "In a small bowl mix the soup and sour cream; set aside.", 
        "Melt margarine in a medium saucepan over medium high heat. Add onion and chili powder, and saute until tender. Stir in the chicken, chile peppers, and 2 tablespoons of the soup mixture. Cook and stir until heated through.", 
        "Spread 1/2 cup of the soup mixture in a 9x13 inch baking dish. Spoon about 1/4 cup of the chicken mixture down the center of each tortilla. Roll up tortillas, and place, seam-side-down, in the baking dish. Spoon remaining soup mixture on top, and sprinkle with cheese.", 
        "Bake 25 minutes in the preheated oven, or until bubbly and lightly browned."
    ], 
    "recipe_name": "Chicken Enchiladas V", 
    "prep_time": "45 mins", 
    "ingredients": [
        {
            "std_metric": "grams", 
            "quantity": "1", 
            "std_weight": 100.0, 
            "uri": "www.semanticfoodnetwork.com/onion_yellow_(raw)", 
            "ingredient": "onion, chopped"
        }, 
        {
            "std_weight": 473.18, 
            "std_metric": "milliliters", 
            "metric": "cups", 
            "uri": "www.semanticfoodnetwork.com/chopped_cooked_chicken_breast", 
            "ingredient": "chopped cooked chicken breast", 
            "quantity": "2"
        }, 
        {
            "std_weight": 29.57, 
            "std_metric": "grams", 
            "metric": "ounce", 
            "uri": "www.semanticfoodnetwork.com/condensed_cream_of_chicken_soup", 
            "ingredient": "condensed cream of chicken soup", 
            "quantity": "1.0"
        }, 
        {
            "std_weight": 14.79, 
            "std_metric": "milliliters", 
            "metric": "tablespoon", 
            "uri": "www.semanticfoodnetwork.com/margarine", 
            "ingredient": "margarine", 
            "quantity": "1"
        }, 
        {
            "std_weight": 147.85, 
            "std_metric": "grams", 
            "metric": "ounce", 
            "uri": "www.semanticfoodnetwork.com/chopped_green_chile_peppers_drained", 
            "ingredient": "chopped green chile peppers, drained", 
            "quantity": "5.0"
        }, 
        {
            "std_weight": 4.93, 
            "std_metric": "milliliters", 
            "metric": "teaspoon", 
            "uri": "www.semanticfoodnetwork.com/chili_powder", 
            "ingredient": "chili powder", 
            "quantity": "1"
        }, 
        {
            "std_weight": 118.295, 
            "std_metric": "milliliters", 
            "metric": "cup", 
            "uri": "www.semanticfoodnetwork.com/sour_cream_regular", 
            "ingredient": "sour cream", 
            "quantity": "0.5"
        }, 
        {
            "std_weight": 236.59, 
            "std_metric": "milliliters", 
            "metric": "cup", 
            "uri": "www.semanticfoodnetwork.com/cheese_brie", 
            "ingredient": "shredded Cheddar cheese", 
            "quantity": "1"
        }, 
        {
            "std_metric": "grams", 
            "quantity": "8", 
            "std_weight": 800.0, 
            "uri": "www.semanticfoodnetwork.com/(8_inch)_flour_tortillas", 
            "ingredient": "(8 inch) flour tortillas"
        }
    ]
}