{
    "prep_steps": [
        "In a large bowl, cream together the butter, shortening, and vanilla. Blend in the sugar, one cup at a time, beating well after each addition. Beat in the milk, and continue mixing until light and fluffy. Keep icing covered until ready to decorate."
    ], 
    "recipe_name": "Buttercream Icing", 
    "prep_time": "15 mins", 
    "ingredients": [
        {
            "std_weight": 118.295, 
            "std_metric": "milliliters", 
            "metric": "cup", 
            "uri": "www.semanticfoodnetwork.com/butter_whipped", 
            "ingredient": "butter, softened", 
            "quantity": "0.5"
        }, 
        {
            "std_weight": 118.295, 
            "std_metric": "milliliters", 
            "metric": "cup", 
            "uri": "www.semanticfoodnetwork.com/vegetable_shortening_regular", 
            "ingredient": "shortening", 
            "quantity": "0.5"
        }, 
        {
            "std_weight": 29.58, 
            "std_metric": "milliliters", 
            "metric": "tablespoons", 
            "uri": "www.semanticfoodnetwork.com/milk_whole_goat", 
            "ingredient": "milk", 
            "quantity": "2"
        }, 
        {
            "std_weight": 946.36, 
            "std_metric": "milliliters", 
            "metric": "cups", 
            "uri": "www.semanticfoodnetwork.com/sugar_confectioners_unsifted", 
            "ingredient": "confectioners' sugar", 
            "quantity": "4"
        }, 
        {
            "std_weight": 4.93, 
            "std_metric": "milliliters", 
            "metric": "teaspoon", 
            "uri": "www.semanticfoodnetwork.com/vanilla_extract", 
            "ingredient": "vanilla extract", 
            "quantity": "1"
        }
    ]
}