{
    "prep_steps": [
        "Preheat oven to 350 degrees F (175 degrees C). Grease a 9x13 inch pan.", 
        "Press one can of the crescent rolls into the bottom of the prepared pan. In a medium bowl, mix together the cream cheese, 1 cup of sugar, and vanilla until smooth and creamy. Spread over the crescent layer. Unroll the second can of crescent rolls and lay them on top of the cream cheese layer. Do not press down. Pour the melted margarine over the entire pan. Combine the remaining 1/4 cup of sugar and cinnamon; sprinkle over the top.", 
        "Bake for 25 to 30 minutes in the preheated oven, or until the top is crisp and golden."
    ], 
    "recipe_name": "Cream Cheese Squares", 
    "prep_time": "45 mins", 
    "ingredients": [
        {
            "std_weight": 236.59, 
            "std_metric": "milliliters", 
            "metric": "cup", 
            "uri": "www.semanticfoodnetwork.com/white_sugar", 
            "ingredient": "white sugar", 
            "quantity": "1"
        }, 
        {
            "std_weight": 118.295, 
            "std_metric": "milliliters", 
            "metric": "cup", 
            "uri": "www.semanticfoodnetwork.com/margarine_melted", 
            "ingredient": "margarine, melted", 
            "quantity": "0.5"
        }, 
        {
            "std_weight": 295.7, 
            "std_metric": "grams", 
            "metric": "ounce", 
            "uri": "www.semanticfoodnetwork.com/refrigerated_crescent_roll_dough", 
            "ingredient": "refrigerated crescent roll dough", 
            "quantity": "10.0"
        }, 
        {
            "std_weight": 4.93, 
            "std_metric": "milliliters", 
            "metric": "teaspoon", 
            "uri": "www.semanticfoodnetwork.com/vanilla_extract", 
            "ingredient": "vanilla extract", 
            "quantity": "1"
        }, 
        {
            "std_weight": 295.7, 
            "std_metric": "grams", 
            "metric": "ounce", 
            "uri": "www.semanticfoodnetwork.com/cream_cheese_fat-free", 
            "ingredient": "cream cheese", 
            "quantity": "10.0"
        }, 
        {
            "std_weight": 59.1475, 
            "std_metric": "milliliters", 
            "metric": "cup", 
            "uri": "www.semanticfoodnetwork.com/white_sugar", 
            "ingredient": "white sugar", 
            "quantity": "0.25"
        }, 
        {
            "std_weight": 4.93, 
            "std_metric": "milliliters", 
            "metric": "teaspoon", 
            "uri": "www.semanticfoodnetwork.com/cinnamon_ground", 
            "ingredient": "ground cinnamon", 
            "quantity": "1"
        }
    ]
}