{
    "prep_steps": [
        "Preheat oven to 350 degrees F (175 degrees C). Grease and flour one 9x5 inch pan.", 
        "Cream margarine and sugar until smooth. Beat in eggs, then bananas. Add flour and soda, stirring just until combined.", 
        "Pour into prepared pan and bake at 350 degrees F (175 degrees C) for about 1 hour (or till toothpick comes out clean). Remove from pan and let cool, store in refrigerator or freeze."
    ], 
    "recipe_name": "The Best Banana Bread", 
    "prep_time": "1\u00bc hrs", 
    "ingredients": [
        {
            "std_weight": 236.59, 
            "std_metric": "milliliters", 
            "metric": "cup", 
            "uri": "www.semanticfoodnetwork.com/white_sugar", 
            "ingredient": "white sugar", 
            "quantity": "1"
        }, 
        {
            "std_weight": 354.885, 
            "std_metric": "milliliters", 
            "metric": "cups", 
            "uri": "www.semanticfoodnetwork.com/banana_fresh", 
            "ingredient": "mashed banana", 
            "quantity": "1.5"
        }, 
        {
            "std_weight": 473.18, 
            "std_metric": "milliliters", 
            "metric": "cups", 
            "uri": "www.semanticfoodnetwork.com/all-purpose_flour_unsifted", 
            "ingredient": "all-purpose flour", 
            "quantity": "2"
        }, 
        {
            "std_metric": "grams", 
            "quantity": "2", 
            "std_weight": 200.0, 
            "uri": "www.semanticfoodnetwork.com/eggs", 
            "ingredient": "eggs"
        }, 
        {
            "std_weight": 118.295, 
            "std_metric": "milliliters", 
            "metric": "cup", 
            "uri": "www.semanticfoodnetwork.com/margarine_softened", 
            "ingredient": "margarine, softened", 
            "quantity": "0.5"
        }, 
        {
            "std_weight": 4.93, 
            "std_metric": "milliliters", 
            "metric": "teaspoon", 
            "uri": "www.semanticfoodnetwork.com/baking_soda", 
            "ingredient": "baking soda", 
            "quantity": "1"
        }
    ]
}