{
    "prep_steps": [
        "In a large bowl, stir together warm water, yeast, and sugar. Let stand until creamy, about 10 minutes.", 
        "To the yeast mixture, add the oil, salt, and 2 cups flour. Stir in the remaining flour, 1/2 cup at a time, until the dough has pulled away from the sides of the bowl. Turn out onto a lightly floured surface, and knead until smooth and elastic, about 8 minutes. Lightly oil a large bowl, place the dough in the bowl, and turn to coat. Cover with a damp cloth, and let rise in a warm place until doubled in volume, about 1 hour.", 
        "Deflate the dough, and turn it out onto a lightly floured surface. Divide the dough into 16 equal pieces, and form into round balls. Place on lightly greased baking sheets at least 2 inches apart. Cover the rolls with a damp cloth, and let rise until doubled in volume, about 40 minutes. Meanwhile, preheat oven to 400 degrees F (200 degrees C).", 
        "Bake for 18 to 20 minutes in the preheated oven, or until golden brown."
    ], 
    "recipe_name": "French Bread Rolls to Die For", 
    "prep_time": "2\u00bd hrs", 
    "ingredients": [
        {
            "std_weight": 354.885, 
            "std_metric": "milliliters", 
            "metric": "cups", 
            "uri": "www.semanticfoodnetwork.com/warm_water_(110_degrees_f/45_degrees_c)", 
            "ingredient": "warm water (110 degrees F/45 degrees C)", 
            "quantity": "1.5"
        }, 
        {
            "std_weight": 29.58, 
            "std_metric": "milliliters", 
            "metric": "tablespoons", 
            "uri": "www.semanticfoodnetwork.com/white_sugar", 
            "ingredient": "white sugar", 
            "quantity": "2"
        }, 
        {
            "std_weight": 14.79, 
            "std_metric": "milliliters", 
            "metric": "tablespoon", 
            "uri": "www.semanticfoodnetwork.com/active_dry_yeast", 
            "ingredient": "active dry yeast", 
            "quantity": "1"
        }, 
        {
            "std_weight": 4.93, 
            "std_metric": "milliliters", 
            "metric": "teaspoon", 
            "uri": "www.semanticfoodnetwork.com/salt_iodized_or_non-iodized", 
            "ingredient": "salt", 
            "quantity": "1"
        }, 
        {
            "std_weight": 29.58, 
            "std_metric": "milliliters", 
            "metric": "tablespoons", 
            "uri": "www.semanticfoodnetwork.com/vegetable_oil", 
            "ingredient": "vegetable oil", 
            "quantity": "2"
        }, 
        {
            "std_weight": 946.36, 
            "std_metric": "milliliters", 
            "metric": "cups", 
            "uri": "www.semanticfoodnetwork.com/bread_flour", 
            "ingredient": "bread flour", 
            "quantity": "4"
        }
    ]
}