{
    "prep_steps": [
        "In a small bowl, dissolve yeast in warm water. Let stand until creamy, about 10 minutes.", 
        "In a large bowl, combine 2 cups bread flour, olive oil, salt, white sugar and the yeast mixture; stir well to combine. Beat well until a stiff dough has formed. Cover and rise until doubled in volume, about 30 minutes. Meanwhile, preheat oven to 350 degrees F (175 degrees C).", 
        "Turn dough out onto a well floured surface. Form dough into a round and roll out into a pizza crust shape. Cover with your favorite sauce and toppings and bake in preheated oven until golden brown, about 20 minutes."
    ], 
    "recipe_name": "Pizza Dough III", 
    "prep_time": "1\u00bc hrs", 
    "ingredients": [
        {
            "std_weight": 473.18, 
            "std_metric": "milliliters", 
            "metric": "cups", 
            "uri": "www.semanticfoodnetwork.com/bread_flour", 
            "ingredient": "bread flour", 
            "quantity": "2"
        }, 
        {
            "std_weight": 236.59, 
            "std_metric": "milliliters", 
            "metric": "cup", 
            "uri": "www.semanticfoodnetwork.com/warm_water_(110_degrees_f/45_degrees_c)", 
            "ingredient": "warm water (110 degrees F/45 degrees C)", 
            "quantity": "1"
        }, 
        {
            "std_weight": 29.57, 
            "std_metric": "grams", 
            "metric": "ounce", 
            "uri": "www.semanticfoodnetwork.com/active_dry_yeast", 
            "ingredient": "active dry yeast", 
            "quantity": "1.0"
        }, 
        {
            "std_weight": 9.86, 
            "std_metric": "milliliters", 
            "metric": "teaspoons", 
            "uri": "www.semanticfoodnetwork.com/white_sugar", 
            "ingredient": "white sugar", 
            "quantity": "2"
        }, 
        {
            "std_weight": 29.58, 
            "std_metric": "milliliters", 
            "metric": "tablespoons", 
            "uri": "www.semanticfoodnetwork.com/olive_oil", 
            "ingredient": "olive oil", 
            "quantity": "2"
        }, 
        {
            "std_weight": 4.93, 
            "std_metric": "milliliters", 
            "metric": "teaspoon", 
            "uri": "www.semanticfoodnetwork.com/salt_iodized_or_non-iodized", 
            "ingredient": "salt", 
            "quantity": "1"
        }
    ]
}