{
    "prep_steps": [
        "Place meat in a large plastic bag. Combine 1/4 cup flour with 1/2 teaspoon salt; pour into the bag with the meat, and shake to coat.", 
        "Heat olive oil in a large skillet over medium-high heat. Add stew meat, and cook until evenly browned on the outside. Transfer to a slow cooker along with the carrots, potatoes, parsley, and pepper. In a small bowl, stir together 2 cups of boiling water and dry soup mix; pour into the slow cooker.", 
        "In the same skillet, melt butter and saute onions until softened; remove to the slow cooker. Pour red wine into the skillet, and stir to loosen browned bits of food on the bottom. Remove from heat, and pour into the slow cooker.", 
        "Cover, and cook on High for 30 minutes. Reduce heat to Low, and cook for 6 hours, or until meat is fork tender. In a small bowl or cup, mix together 2 tablespoons flour with 1/4 cup warm water. Stir into stew, and cook uncovered for 15 minutes, or until thickened."
    ], 
    "recipe_name": "Slow Cooker Beef Stew IV", 
    "prep_time": "7 hrs", 
    "ingredients": [
        {
            "std_weight": 59.1475, 
            "std_metric": "milliliters", 
            "metric": "cup", 
            "uri": "www.semanticfoodnetwork.com/warm_water", 
            "ingredient": "warm water", 
            "quantity": "0.25"
        }, 
        {
            "std_weight": 400.0, 
            "std_metric": "grams", 
            "metric": "large", 
            "uri": "www.semanticfoodnetwork.com/potatoes_cubed", 
            "ingredient": "potatoes, cubed", 
            "quantity": "4"
        }, 
        {
            "std_weight": 59.1475, 
            "std_metric": "milliliters", 
            "metric": "cup", 
            "uri": "www.semanticfoodnetwork.com/all-purpose_flour_unsifted", 
            "ingredient": "all-purpose flour", 
            "quantity": "0.25"
        }, 
        {
            "std_weight": 4.93, 
            "std_metric": "milliliters", 
            "metric": "teaspoon", 
            "uri": "www.semanticfoodnetwork.com/black_pepper_ground", 
            "ingredient": "ground black pepper", 
            "quantity": "1"
        }, 
        {
            "std_weight": 236.59, 
            "std_metric": "milliliters", 
            "metric": "cup", 
            "uri": "www.semanticfoodnetwork.com/baby_carrots", 
            "ingredient": "baby carrots", 
            "quantity": "1"
        }, 
        {
            "std_weight": 59.14, 
            "std_metric": "grams", 
            "metric": "ounce", 
            "uri": "www.semanticfoodnetwork.com/dry_onion_soup_mix", 
            "ingredient": "dry onion soup mix", 
            "quantity": "2.0"
        }, 
        {
            "std_metric": "grams", 
            "quantity": "3", 
            "std_weight": 300.0, 
            "uri": "www.semanticfoodnetwork.com/onions_raw_pearl", 
            "ingredient": "onions, sliced"
        }, 
        {
            "std_weight": 1362.0, 
            "std_metric": "grams", 
            "metric": "pounds", 
            "uri": "www.semanticfoodnetwork.com/cubed_beef_stew_meat", 
            "ingredient": "cubed beef stew meat", 
            "quantity": "3"
        }, 
        {
            "std_weight": 2.465, 
            "std_metric": "milliliters", 
            "metric": "teaspoon", 
            "uri": "www.semanticfoodnetwork.com/salt_iodized_or_non-iodized", 
            "ingredient": "salt, or to taste", 
            "quantity": "0.5"
        }, 
        {
            "std_weight": 44.37, 
            "std_metric": "milliliters", 
            "metric": "tablespoons", 
            "uri": "www.semanticfoodnetwork.com/olive_oil", 
            "ingredient": "olive oil", 
            "quantity": "3"
        }, 
        {
            "std_weight": 44.37, 
            "std_metric": "milliliters", 
            "metric": "tablespoons", 
            "uri": "www.semanticfoodnetwork.com/butter_whipped", 
            "ingredient": "butter", 
            "quantity": "3"
        }, 
        {
            "std_weight": 29.58, 
            "std_metric": "milliliters", 
            "metric": "tablespoons", 
            "uri": "www.semanticfoodnetwork.com/all-purpose_flour_unsifted", 
            "ingredient": "all-purpose flour", 
            "quantity": "2"
        }, 
        {
            "std_weight": 14.79, 
            "std_metric": "milliliters", 
            "metric": "tablespoon", 
            "uri": "www.semanticfoodnetwork.com/parsley_fresh", 
            "ingredient": "dried parsley", 
            "quantity": "1"
        }, 
        {
            "std_weight": 59.1475, 
            "std_metric": "milliliters", 
            "metric": "cup", 
            "uri": "www.semanticfoodnetwork.com/wine_red", 
            "ingredient": "red wine", 
            "quantity": "0.25"
        }, 
        {
            "std_weight": 473.18, 
            "std_metric": "milliliters", 
            "metric": "cups", 
            "uri": "www.semanticfoodnetwork.com/boiling_water", 
            "ingredient": "boiling water", 
            "quantity": "2"
        }
    ]
}