{
    "prep_steps": [
        "Place chicken, tomatoes, enchilada sauce, onion, green chiles, and garlic into a slow cooker. Pour in water and chicken broth, and season with cumin, chili powder, salt, pepper, and bay leaf. Stir in corn and cilantro. Cover, and cook on Low setting for 6 to 8 hours or on High setting for 3 to 4 hours.", 
        "Preheat oven to 400 degrees F (200 degrees C).", 
        "Lightly brush both sides of tortillas with oil. Cut tortillas into strips, then spread on a baking sheet.", 
        "Bake in preheated oven until crisp, about 10 to 15 minutes. To serve, sprinkle tortilla strips over soup."
    ], 
    "recipe_name": "Slow-Cooker Chicken Tortilla Soup", 
    "prep_time": "8 hrs", 
    "ingredients": [
        {
            "std_weight": 1.2325, 
            "std_metric": "milliliters", 
            "metric": "teaspoon", 
            "uri": "www.semanticfoodnetwork.com/black_pepper_ground", 
            "ingredient": "black pepper", 
            "quantity": "0.25"
        }, 
        {
            "std_weight": 325.27, 
            "std_metric": "grams", 
            "metric": "ounce", 
            "uri": "www.semanticfoodnetwork.com/soy_sauce", 
            "ingredient": "enchilada sauce", 
            "quantity": "11.0"
        }, 
        {
            "std_weight": 100.0, 
            "std_metric": "grams", 
            "metric": "medium", 
            "uri": "www.semanticfoodnetwork.com/onion_yellow_(raw)", 
            "ingredient": "onion, chopped", 
            "quantity": "1"
        }, 
        {
            "std_weight": 29.57, 
            "std_metric": "grams", 
            "metric": "ounce", 
            "uri": "www.semanticfoodnetwork.com/chicken_broth", 
            "ingredient": "chicken broth", 
            "quantity": "1.0"
        }, 
        {
            "std_weight": 4.93, 
            "std_metric": "milliliters", 
            "metric": "teaspoon", 
            "uri": "www.semanticfoodnetwork.com/cumin", 
            "ingredient": "cumin", 
            "quantity": "1"
        }, 
        {
            "std_metric": "grams", 
            "quantity": "7", 
            "std_weight": 700.0, 
            "uri": "www.semanticfoodnetwork.com/corn_tortillas", 
            "ingredient": "corn tortillas"
        }, 
        {
            "std_weight": 147.85, 
            "std_metric": "grams", 
            "metric": "ounce", 
            "uri": "www.semanticfoodnetwork.com/chopped_green_chile_peppers", 
            "ingredient": "chopped green chile peppers", 
            "quantity": "5.0"
        }, 
        {
            "std_metric": "grams", 
            "quantity": "1", 
            "std_weight": 100.0, 
            "uri": "www.semanticfoodnetwork.com/bay_leaf_bay_leaf", 
            "ingredient": "bay leaf"
        }, 
        {
            "std_weight": 4.93, 
            "std_metric": "milliliters", 
            "metric": "teaspoon", 
            "uri": "www.semanticfoodnetwork.com/chili_powder", 
            "ingredient": "chili powder", 
            "quantity": "1"
        }, 
        {
            "std_weight": 454.0, 
            "std_metric": "grams", 
            "metric": "pound", 
            "uri": "www.semanticfoodnetwork.com/chicken_hotdog", 
            "ingredient": "shredded, cooked chicken", 
            "quantity": "1"
        }, 
        {
            "std_weight": 14.79, 
            "std_metric": "milliliters", 
            "metric": "tablespoon", 
            "uri": "www.semanticfoodnetwork.com/cilantro", 
            "ingredient": "chopped cilantro", 
            "quantity": "1"
        }, 
        {
            "std_weight": 473.18, 
            "std_metric": "milliliters", 
            "metric": "cups", 
            "uri": "www.semanticfoodnetwork.com/water", 
            "ingredient": "water", 
            "quantity": "2"
        }, 
        {
            "std_weight": 473.12, 
            "std_metric": "grams", 
            "metric": "ounce", 
            "uri": "www.semanticfoodnetwork.com/whole_peeled_tomatoes_mashed", 
            "ingredient": "whole peeled tomatoes, mashed", 
            "quantity": "16.0"
        }, 
        {
            "std_weight": 200.0, 
            "std_metric": "grams", 
            "metric": "unknown", 
            "uri": "www.semanticfoodnetwork.com/garlic", 
            "ingredient": "garlic, minced", 
            "quantity": "2"
        }, 
        {
            "std_weight": 4.93, 
            "std_metric": "milliliters", 
            "metric": "teaspoon", 
            "uri": "www.semanticfoodnetwork.com/salt_iodized_or_non-iodized", 
            "ingredient": "salt", 
            "quantity": "1"
        }, 
        {
            "std_weight": 325.27, 
            "std_metric": "grams", 
            "metric": "ounce", 
            "uri": "www.semanticfoodnetwork.com/fcorn_fresh_yellow_or_white_raw", 
            "ingredient": "frozen corn", 
            "quantity": "11.0"
        }
    ]
}