{
    "prep_steps": [
        "Place bacon in a large, deep skillet. Cook over medium high heat until evenly brown. Drain, crumble and set aside.", 
        "Preheat oven to 350 degrees F (175 degrees C). Lightly grease a 9 inch pie pan.", 
        "Line bottom of pie plate with cheese and crumbled bacon. Combine eggs, butter, onion, salt, flour and milk; whisk together until smooth; pour into pie pan.", 
        "Bake in preheated oven for 35 minutes, until set. Serve hot or cold."
    ], 
    "recipe_name": "Quick Quiche", 
    "prep_time": "50 mins", 
    "ingredients": [
        {
            "std_metric": "grams", 
            "quantity": "4", 
            "std_weight": 400.0, 
            "uri": "www.semanticfoodnetwork.com/eggs_beaten", 
            "ingredient": "eggs, beaten"
        }, 
        {
            "std_weight": 118.28, 
            "std_metric": "grams", 
            "metric": "ounces", 
            "uri": "www.semanticfoodnetwork.com/cheese_brie", 
            "ingredient": "shredded Swiss cheese", 
            "quantity": "4"
        }, 
        {
            "std_weight": 354.885, 
            "std_metric": "milliliters", 
            "metric": "cups", 
            "uri": "www.semanticfoodnetwork.com/milk_whole_goat", 
            "ingredient": "milk", 
            "quantity": "1.5"
        }, 
        {
            "std_weight": 800.0, 
            "std_metric": "grams", 
            "metric": "unknown", 
            "uri": "www.semanticfoodnetwork.com/bacon_cooked", 
            "ingredient": "bacon", 
            "quantity": "8"
        }, 
        {
            "std_weight": 4.93, 
            "std_metric": "milliliters", 
            "metric": "teaspoon", 
            "uri": "www.semanticfoodnetwork.com/salt_iodized_or_non-iodized", 
            "ingredient": "salt", 
            "quantity": "1"
        }, 
        {
            "std_weight": 118.295, 
            "std_metric": "milliliters", 
            "metric": "cup", 
            "uri": "www.semanticfoodnetwork.com/all-purpose_flour_unsifted", 
            "ingredient": "all-purpose flour", 
            "quantity": "0.5"
        }, 
        {
            "std_weight": 59.1475, 
            "std_metric": "milliliters", 
            "metric": "cup", 
            "uri": "www.semanticfoodnetwork.com/onion_yellow_(raw)", 
            "ingredient": "finely chopped onion", 
            "quantity": "0.25"
        }, 
        {
            "std_weight": 29.58, 
            "std_metric": "milliliters", 
            "metric": "tablespoons", 
            "uri": "www.semanticfoodnetwork.com/butter_whipped", 
            "ingredient": "butter, melted", 
            "quantity": "2"
        }
    ]
}