{
    "prep_steps": [
        "Preheat oven to 350 degrees F (175 degrees C).", 
        "In a large bowl, cream together the butter, butter flavored shortening, brown sugar, white sugar, eggs, and vanilla until smooth. Combine the flour, baking soda, cinnamon, cloves, and salt; stir into the sugar mixture. Stir in the oats and raisins. Drop by rounded teaspoonfuls onto ungreased cookie sheets.", 
        "Bake 10 to 12 minutes until light and golden. Do not overbake. Let them cool for 2 minutes before removing from cookie sheets to cool completely. Store in airtight container. Make sure you get some, because they don't last long!"
    ], 
    "recipe_name": "Beth's Spicy Oatmeal Raisin Cookies", 
    "prep_time": "50 mins", 
    "ingredients": [
        {
            "std_weight": 354.885, 
            "std_metric": "milliliters", 
            "metric": "cups", 
            "uri": "www.semanticfoodnetwork.com/all-purpose_flour_unsifted", 
            "ingredient": "all-purpose flour", 
            "quantity": "1.5"
        }, 
        {
            "std_weight": 118.295, 
            "std_metric": "milliliters", 
            "metric": "cup", 
            "uri": "www.semanticfoodnetwork.com/butter_whipped", 
            "ingredient": "butter, softened", 
            "quantity": "0.5"
        }, 
        {
            "std_weight": 709.77, 
            "std_metric": "milliliters", 
            "metric": "cups", 
            "uri": "www.semanticfoodnetwork.com/oats_quick_rolled", 
            "ingredient": "rolled oats", 
            "quantity": "3"
        }, 
        {
            "std_weight": 4.93, 
            "std_metric": "milliliters", 
            "metric": "teaspoon", 
            "uri": "www.semanticfoodnetwork.com/vanilla_extract", 
            "ingredient": "vanilla extract", 
            "quantity": "1"
        }, 
        {
            "std_weight": 2.465, 
            "std_metric": "milliliters", 
            "metric": "teaspoon", 
            "uri": "www.semanticfoodnetwork.com/salt_iodized_or_non-iodized", 
            "ingredient": "salt", 
            "quantity": "0.5"
        }, 
        {
            "std_weight": 236.59, 
            "std_metric": "milliliters", 
            "metric": "cup", 
            "uri": "www.semanticfoodnetwork.com/raisins_seedless", 
            "ingredient": "raisins", 
            "quantity": "1"
        }, 
        {
            "std_metric": "grams", 
            "quantity": "2", 
            "std_weight": 200.0, 
            "uri": "www.semanticfoodnetwork.com/eggs", 
            "ingredient": "eggs"
        }, 
        {
            "std_weight": 118.295, 
            "std_metric": "milliliters", 
            "metric": "cup", 
            "uri": "www.semanticfoodnetwork.com/white_sugar", 
            "ingredient": "white sugar", 
            "quantity": "0.5"
        }, 
        {
            "std_weight": 2.465, 
            "std_metric": "milliliters", 
            "metric": "teaspoon", 
            "uri": "www.semanticfoodnetwork.com/cloves_ground", 
            "ingredient": "ground cloves", 
            "quantity": "0.5"
        }, 
        {
            "std_weight": 4.93, 
            "std_metric": "milliliters", 
            "metric": "teaspoon", 
            "uri": "www.semanticfoodnetwork.com/baking_soda", 
            "ingredient": "baking soda", 
            "quantity": "1"
        }, 
        {
            "std_weight": 236.59, 
            "std_metric": "milliliters", 
            "metric": "cup", 
            "uri": "www.semanticfoodnetwork.com/sugar_confectioners_unsifted", 
            "ingredient": "packed light brown sugar", 
            "quantity": "1"
        }, 
        {
            "std_weight": 118.295, 
            "std_metric": "milliliters", 
            "metric": "cup", 
            "uri": "www.semanticfoodnetwork.com/butter_flavored_shortening", 
            "ingredient": "butter flavored shortening", 
            "quantity": "0.5"
        }, 
        {
            "std_weight": 4.93, 
            "std_metric": "milliliters", 
            "metric": "teaspoon", 
            "uri": "www.semanticfoodnetwork.com/cinnamon_ground", 
            "ingredient": "ground cinnamon", 
            "quantity": "1"
        }
    ]
}