{
    "prep_steps": [
        "Preheat oven to 350 degrees F (175 degrees C). Lightly grease a large baking dish.", 
        "In a medium saucepan over medium heat, melt the butter and saute the green onion until tender (about 3 to 4 minutes). Add the garlic powder, then stir in the green chiles, cream of mushroom soup and sour cream. Mix well. Reserve 3/4 of this sauce and set aside. To the remaining 1/4 of the sauce in the saucepan, add the chicken and 1/2 cup of shredded Cheddar cheese. Stir together.", 
        "Fill each flour tortilla with the chicken mixture and roll up. Place seam side down in the prepared baking dish.", 
        "In a small bowl combine the reserved 3/4 of the sauce with the milk. Spoon this mixture over the rolled tortillas and top with the remaining 1/2 cup of shredded Cheddar cheese. Bake in the preheated oven for 30 to 35 minutes, or until cheese is bubbly."
    ], 
    "recipe_name": "Chicken Enchiladas II", 
    "prep_time": "45 mins", 
    "ingredients": [
        {
            "std_weight": 354.885, 
            "std_metric": "milliliters", 
            "metric": "cups", 
            "uri": "www.semanticfoodnetwork.com/cubed_cooked_chicken_breast_meat", 
            "ingredient": "cubed cooked chicken breast meat", 
            "quantity": "1.5"
        }, 
        {
            "std_weight": 118.295, 
            "std_metric": "milliliters", 
            "metric": "cup", 
            "uri": "www.semanticfoodnetwork.com/onions_raw_pearl", 
            "ingredient": "chopped green onions", 
            "quantity": "0.5"
        }, 
        {
            "std_weight": 2.465, 
            "std_metric": "milliliters", 
            "metric": "teaspoon", 
            "uri": "www.semanticfoodnetwork.com/garlic_powder_garlic_powder", 
            "ingredient": "garlic powder", 
            "quantity": "0.5"
        }, 
        {
            "std_weight": 147.85, 
            "std_metric": "grams", 
            "metric": "ounce", 
            "uri": "www.semanticfoodnetwork.com/chiles_green_canned_(diced)", 
            "ingredient": "diced green chiles", 
            "quantity": "5.0"
        }, 
        {
            "std_weight": 118.295, 
            "std_metric": "milliliters", 
            "metric": "cup", 
            "uri": "www.semanticfoodnetwork.com/sour_cream_regular", 
            "ingredient": "sour cream", 
            "quantity": "0.5"
        }, 
        {
            "std_weight": 29.57, 
            "std_metric": "grams", 
            "metric": "ounce", 
            "uri": "www.semanticfoodnetwork.com/cream_of_mushroom_soup_98%_fat-free", 
            "ingredient": "condensed cream of mushroom soup", 
            "quantity": "1.0"
        }, 
        {
            "std_weight": 236.59, 
            "std_metric": "milliliters", 
            "metric": "cup", 
            "uri": "www.semanticfoodnetwork.com/cheese_brie", 
            "ingredient": "shredded Cheddar cheese, divided", 
            "quantity": "1"
        }, 
        {
            "std_weight": 14.79, 
            "std_metric": "milliliters", 
            "metric": "tablespoon", 
            "uri": "www.semanticfoodnetwork.com/butter_whipped", 
            "ingredient": "butter", 
            "quantity": "1"
        }, 
        {
            "std_weight": 59.1475, 
            "std_metric": "milliliters", 
            "metric": "cup", 
            "uri": "www.semanticfoodnetwork.com/milk_whole_goat", 
            "ingredient": "milk", 
            "quantity": "0.25"
        }
    ]
}