{
    "prep_steps": [
        "In a small bowl, mix the maple syrup, soy sauce, garlic, garlic salt, and pepper.", 
        "Place salmon in a shallow glass baking dish, and coat with the maple syrup mixture. Cover the dish, and marinate salmon in the refrigerator 30 minutes, turning once.", 
        "Preheat oven to 400 degrees F (200 degrees C).", 
        "Place the baking dish in the preheated oven, and bake salmon uncovered 20 minutes, or until easily flaked with a fork."
    ], 
    "recipe_name": "Maple Salmon", 
    "prep_time": "1 hr", 
    "ingredients": [
        {
            "std_weight": 59.1475, 
            "std_metric": "milliliters", 
            "metric": "cup", 
            "uri": "www.semanticfoodnetwork.com/maple_syrup", 
            "ingredient": "maple syrup", 
            "quantity": "0.25"
        }, 
        {
            "std_weight": 1.2325, 
            "std_metric": "milliliters", 
            "metric": "teaspoon", 
            "uri": "www.semanticfoodnetwork.com/garlic_salt", 
            "ingredient": "garlic salt", 
            "quantity": "0.25"
        }, 
        {
            "std_weight": 454.0, 
            "std_metric": "grams", 
            "metric": "pound", 
            "uri": "www.semanticfoodnetwork.com/salmon", 
            "ingredient": "salmon", 
            "quantity": "1"
        }, 
        {
            "std_weight": 29.58, 
            "std_metric": "milliliters", 
            "metric": "tablespoons", 
            "uri": "www.semanticfoodnetwork.com/soy_sauce", 
            "ingredient": "soy sauce", 
            "quantity": "2"
        }, 
        {
            "std_weight": 0.61625, 
            "std_metric": "milliliters", 
            "metric": "teaspoon", 
            "uri": "www.semanticfoodnetwork.com/black_pepper_ground", 
            "ingredient": "ground black pepper", 
            "quantity": "0.125"
        }, 
        {
            "std_weight": 20.0, 
            "std_metric": "milliliters", 
            "metric": "clove", 
            "uri": "www.semanticfoodnetwork.com/garlic", 
            "ingredient": "garlic, minced", 
            "quantity": "1"
        }
    ]
}