{
    "prep_steps": [
        "Preheat oven to 350 degrees F (175 degrees C). Lightly grease a 9x13 baking dish.", 
        "Combine the melted butter, sugar, and vanilla in a large bowl. Beat in the eggs, one at a time, mixing well after each, until thoroughly blended.", 
        "Sift the flour, cocoa powder, and salt in a bowl. Gradually stir flour mixture into the egg mixture until blended. Stir in the chocolate morsels. Spread the batter evenly into the prepared baking dish.", 
        "Bake in preheated oven until an inserted toothpick comes out clean, 35 to 40 minutes. Remove, and cool pan on wire rack before cutting."
    ], 
    "recipe_name": "Brooke's Best Bombshell Brownies", 
    "prep_time": "50 mins", 
    "ingredients": [
        {
            "std_weight": 236.59, 
            "std_metric": "milliliters", 
            "metric": "cup", 
            "uri": "www.semanticfoodnetwork.com/unsweetened_cocoa_powder", 
            "ingredient": "unsweetened cocoa powder", 
            "quantity": "1"
        }, 
        {
            "std_metric": "grams", 
            "quantity": "4", 
            "std_weight": 400.0, 
            "uri": "www.semanticfoodnetwork.com/eggs", 
            "ingredient": "eggs"
        }, 
        {
            "std_weight": 236.59, 
            "std_metric": "milliliters", 
            "metric": "cup", 
            "uri": "www.semanticfoodnetwork.com/semisweet_chocolate_chips", 
            "ingredient": "semisweet chocolate chips", 
            "quantity": "1"
        }, 
        {
            "std_weight": 354.885, 
            "std_metric": "milliliters", 
            "metric": "cups", 
            "uri": "www.semanticfoodnetwork.com/all-purpose_flour_unsifted", 
            "ingredient": "all-purpose flour", 
            "quantity": "1.5"
        }, 
        {
            "std_weight": 236.59, 
            "std_metric": "milliliters", 
            "metric": "cup", 
            "uri": "www.semanticfoodnetwork.com/butter_whipped", 
            "ingredient": "butter, melted", 
            "quantity": "1"
        }, 
        {
            "std_weight": 14.79, 
            "std_metric": "milliliters", 
            "metric": "tablespoon", 
            "uri": "www.semanticfoodnetwork.com/vanilla_extract", 
            "ingredient": "vanilla extract", 
            "quantity": "1"
        }, 
        {
            "std_weight": 4.93, 
            "std_metric": "milliliters", 
            "metric": "teaspoon", 
            "uri": "www.semanticfoodnetwork.com/salt_iodized_or_non-iodized", 
            "ingredient": "salt", 
            "quantity": "1"
        }, 
        {
            "std_weight": 709.77, 
            "std_metric": "milliliters", 
            "metric": "cups", 
            "uri": "www.semanticfoodnetwork.com/white_sugar", 
            "ingredient": "white sugar", 
            "quantity": "3"
        }
    ]
}