{
    "prep_steps": [
        "Preheat oven to 350 degrees F (175 degrees C), and lightly grease a 9x9 inch baking dish.", 
        "In a medium bowl, combine butter, eggs, corn bread mix, whole and creamed corn and sour cream. Spoon mixture into prepared dish.", 
        "Bake for 45 minutes in the preheated oven, or until the top is golden brown."
    ], 
    "recipe_name": "Awesome and Easy Creamy Corn Casserole", 
    "prep_time": "50 mins", 
    "ingredients": [
        {
            "std_weight": 473.12, 
            "std_metric": "grams", 
            "metric": "ounce", 
            "uri": "www.semanticfoodnetwork.com/whole_kernel_corn_drained", 
            "ingredient": "whole kernel corn, drained", 
            "quantity": "16.0"
        }, 
        {
            "std_weight": 29.57, 
            "std_metric": "grams", 
            "metric": "ounce", 
            "uri": "www.semanticfoodnetwork.com/dry_corn_bread_mix", 
            "ingredient": "dry corn bread mix", 
            "quantity": "1.0"
        }, 
        {
            "std_metric": "grams", 
            "quantity": "2", 
            "std_weight": 200.0, 
            "uri": "www.semanticfoodnetwork.com/eggs_beaten", 
            "ingredient": "eggs, beaten"
        }, 
        {
            "std_weight": 118.295, 
            "std_metric": "milliliters", 
            "metric": "cup", 
            "uri": "www.semanticfoodnetwork.com/butter_whipped", 
            "ingredient": "butter, melted", 
            "quantity": "0.5"
        }, 
        {
            "std_weight": 236.59, 
            "std_metric": "milliliters", 
            "metric": "cup", 
            "uri": "www.semanticfoodnetwork.com/sour_cream_regular", 
            "ingredient": "sour cream", 
            "quantity": "1"
        }, 
        {
            "std_weight": 29.57, 
            "std_metric": "grams", 
            "metric": "ounce", 
            "uri": "www.semanticfoodnetwork.com/creamed_corn", 
            "ingredient": "creamed corn", 
            "quantity": "1.0"
        }
    ]
}